  USAF  WBAN YR--MODAHRMN DIR SPD GUS CLG SKC L M H  VSB MW MW MW MW AW AW AW AW W TEMP DEWP    SLP   ALT    STP MAX MIN PCP01 PCP06 PCP24 PCPXX SD
343910 ***** 201501011500 270   9 ***  23 BKN * * *  6.2 01 ** ** ** ** ** ** ** 7   12    8 1015.3 ***** 1012.4  13 *** ***** ***** *****  0.02 **
343910 ***** 201501011800 270   9 ***  23 OVC * * *  6.2 03 ** ** ** ** ** ** ** 7   14    9 1015.1 ***** 1012.2 *** *** ***** ***** ***** ***** **
343910 ***** 201501012100 270   9 ***  23 OVC * * *  6.2 ** ** ** ** ** ** ** ** *   15   11 1015.0 ***** 1012.1 *** *** ***** ***** ***** ***** **
343910 ***** 201501020000 270   7 *** *** OVC * * *  6.2 ** ** ** ** ** ** ** ** *   15   12 1015.3 ***** 1012.5 *** *** ***** ***** ***** ***** **
343910 ***** 201501040600 250  11 ***  20 OVC * * *  6.2 ** ** ** ** ** ** ** ** *   33   31 1001.9 *****  999.2 *** *** ***** ***** ***** ***** **
343910 ***** 201501051500 160  18 ***  19 OVC * * *  6.2 02 ** ** ** ** ** ** ** 7   31   29 1001.9 *****  999.2  32 *** ***** ***** *****  0.04 **
343910 ***** 201501052100 250  16 *** *** BKN * * *  6.2 ** ** ** ** ** ** ** ** *   29   26 1003.6 ***** 1000.8 *** *** ***** ***** ***** ***** **
343910 ***** 201501091800 220  18 *** *** *** * * *  6.2 ** ** ** ** ** ** ** ** *    6   -2 1019.8 ***** 1016.9 *** *** ***** ***** ***** ***** **
343910 ***** 201501092100 210  16 *** *** OVC * * *  6.2 ** ** ** ** ** ** ** ** *    5   -5 1018.9 ***** 1016.0 *** *** ***** ***** ***** ***** **
343910 ***** 201501121200 200   9 ***  16 OVC * * *  2.5 71 ** ** ** ** ** ** ** 7   32   31 1005.5 ***** 1002.8 *** *** ***** ***** ***** ***** **
343910 ***** 201501140900 260   9 *** *** BKN * * *  6.2 ** ** ** ** ** ** ** ** *   34   31 1018.9 ***** 1016.2 *** *** ***** ***** ***** ***** **
343910 ***** 201501150000 250  11 *** *** OVC * * *  6.2 ** ** ** ** ** ** ** ** *   26   24 1019.6 ***** 1016.8 *** *** ***** ***** ***** ***** **
343910 ***** 201501150300 230   9 *** *** *** * * *  6.2 ** ** ** ** ** ** ** ** *   19   17 1020.0 ***** 1017.2 ***  19 ***** ***** *****  0.00  6
343910 ***** 201501160000 220   2 ***  19 OVC * * *  1.2 10 ** ** ** ** ** ** ** 1   22   21 1020.8 ***** 1018.0 *** *** ***** ***** ***** ***** **
343910 ***** 201501160600 120   2 *** *** SCT * * *  6.2 ** ** ** ** ** ** ** ** *   24   23 1018.0 ***** 1015.2 *** *** ***** ***** ***** ***** **
343910 ***** 201501171200 360   9 *** *** *** * * *  6.2 ** ** ** ** ** ** ** ** *   20   16 1025.8 ***** 1023.0 *** *** ***** ***** ***** ***** **
343910 ***** 201501171800 330   7 *** *** *** * * *  6.2 ** ** ** ** ** ** ** ** *    7    5 1028.1 ***** 1025.1 *** *** ***** ***** ***** ***** **
343910 ***** 201501180000 320   4 *** *** *** * * *  6.2 ** ** ** ** ** ** ** ** *    2   -1 1028.1 ***** 1025.1 *** *** ***** ***** ***** ***** **
343910 ***** 201501190000 230  11 *** *** OVC * * *  6.2 ** ** ** ** ** ** ** ** *   25   24 1023.6 ***** 1020.8 *** *** ***** ***** ***** ***** **
343910 ***** 201501191800 250  11 *** *** OVC * * *  6.2 ** ** ** ** ** ** ** ** *   31   29 1019.1 ***** 1016.3 *** *** ***** ***** ***** ***** **
343910 ***** 201501200300 270   4 ***  16 OVC * * *  2.5 71 ** ** ** ** ** ** ** 7   31   30 1018.9 ***** 1016.1 ***  31 ***** ***** *****  0.01  6
343910 ***** 201501201200 010   4 *** *** BKN * * *  6.2 ** ** ** ** ** ** ** ** *   29   26 1022.5 ***** 1019.7 *** *** ***** ***** ***** ***** **
343910 ***** 201501202100 040   7 *** *** OVC * * *  6.2 ** ** ** ** ** ** ** ** *   21   20 1027.9 ***** 1025.1 *** *** ***** ***** ***** ***** **
343910 ***** 201501210300 040   7 *** *** *** * * *  6.2 ** ** ** ** ** ** ** ** *    9    6 1030.8 ***** 1027.8 ***   9 ***** ***** *****  0.00  6
343910 ***** 201501210600 060   7 *** *** OVC * * *  6.2 ** ** ** ** ** ** ** ** *    8    4 1032.3 ***** 1029.3 ***   8 ***** ***** ***** ***** **
343910 ***** 201501211500 040   4 *** *** SCT * * *  6.2 ** ** ** ** ** ** ** ** *    3   -1 1032.4 ***** 1029.4  11 *** ***** ***** *****  0.00 **
343910 ***** 201501211800 030   4 *** *** *** * * *  6.2 ** ** ** ** ** ** ** ** *   -3   -7 1032.7 ***** 1029.7 *** *** ***** ***** ***** ***** **
343910 ***** 201501212100 360   2 *** *** *** * * *  6.2 ** ** ** ** ** ** ** ** *   -7  -11 1032.9 ***** 1029.8 *** *** ***** ***** ***** ***** **
343910 ***** 201501220000 340   4 *** *** *** * * *  6.2 ** ** ** ** ** ** ** ** *   -9  -13 1032.1 ***** 1029.0 *** *** ***** ***** ***** ***** **
343910 ***** 201501220300 320   2 *** *** SCT * * *  6.2 ** ** ** ** ** ** ** ** *   -9  -13 1031.8 ***** 1028.7 *** -11 ***** ***** *****  0.00  6
343910 ***** 201501221500 310   4 *** *** *** * * *  6.2 ** ** ** ** ** ** ** ** *    2   -2 1032.3 ***** 1029.4  13 *** ***** ***** *****  0.00 **
343910 ***** 201501230300 040   9 *** *** *** * * *  6.2 ** ** ** ** ** ** ** ** *   -7  -12 1038.2 ***** 1035.1 ***  -9 ***** ***** *****  0.00  6
343910 ***** 201501230600 060   4 *** *** SCT * * *  6.2 ** ** ** ** ** ** ** ** *   -5   -9 1040.3 ***** 1037.2 ***  -9 ***** ***** ***** ***** **
343910 ***** 201501241500 100   9 *** *** SCT * * *  6.2 ** ** ** ** ** ** ** ** *   -8  -12 1044.9 ***** 1041.8  -1 *** ***** ***** *****  0.00 **
343910 ***** 201501250600 090   7 *** *** SCT * * *  6.2 ** ** ** ** ** ** ** ** *  -11  -16 1046.1 ***** 1043.0 *** -14 ***** ***** ***** ***** **
343910 ***** 201501250900 100   7 *** *** SCT * * *  6.2 ** ** ** ** ** ** ** ** *   -1   -9 1046.1 ***** 1043.1 *** *** ***** ***** ***** ***** **
343910 ***** 201501260000 090   7 *** *** *** * * *  6.2 ** ** ** ** ** ** ** ** *  -11  -15 1042.9 ***** 1039.8 *** *** ***** ***** ***** ***** **
343910 ***** 201501260900 110   7 *** *** BKN * * *  6.2 ** ** ** ** ** ** ** ** *    0   -7 1040.6 ***** 1037.6 *** *** ***** ***** ***** ***** **
343910 ***** 201501261200 100   9 *** *** BKN * * *  6.2 ** ** ** ** ** ** ** ** *    4   -2 1038.2 ***** 1035.2 *** *** ***** ***** ***** ***** **
343910 ***** 201501281500 110   7 *** *** SCT * * *  6.2 ** ** ** ** ** ** ** ** *    2   -1 1025.5 ***** 1022.5   8 *** ***** ***** *****  0.00 **
343910 ***** 201501290000 110   4 *** *** *** * * *  6.2 ** ** ** ** ** ** ** ** *   -6  -10 1022.5 ***** 1019.5 *** *** ***** ***** ***** ***** **
343910 ***** 201501300300 110   4 *** *** OVC * * *  6.2 ** ** ** ** ** ** ** ** *    9    5 1020.1 ***** 1017.2 ***   4 ***** ***** *****  0.00  6
343910 ***** 201501300900 120   4 *** *** OVC * * *  6.2 ** ** ** ** ** ** ** ** *   12    8 1022.0 ***** 1019.1 *** *** ***** ***** ***** ***** **
343910 ***** 201502010300 140   7 *** *** SCT * * *  6.2 ** ** ** ** ** ** ** ** *    9    1 1025.7 ***** 1022.4 ***   8 ***** ***** *****  0.00  6
343910 ***** 201502020300 150  16 ***  19 OVC * * *  6.2 ** ** ** ** ** ** ** ** *   17   11 1017.0 ***** 1014.2 ***  13 ***** ***** *****  0.00  6
343910 ***** 201502040600 160   9 ***  24 OVC * * *  1.2 10 ** ** ** ** ** ** ** 5   26   25 1013.3 ***** 1010.5 *** *** ***** ***** ***** ***** **
343910 ***** 201502040900 160  11 ***  24 OVC * * *  2.5 10 ** ** ** ** ** ** ** 2   30   28 1013.7 ***** 1011.0 *** *** ***** ***** ***** ***** **
343910 ***** 201502060000 200   4 *** *** SCT * * *  6.2 ** ** ** ** ** ** ** ** *   17   15 1023.7 ***** 1020.8 *** *** ***** ***** ***** ***** **
343910 ***** 201502060300 140   2 *** *** SCT * * *  6.2 ** ** ** ** ** ** ** ** *   13   11 1022.9 ***** 1020.0 ***  13 ***** ***** *****  0.00  5
343910 ***** 201502060600 170   2 *** *** OVC * * *  1.2 10 ** ** ** ** ** ** ** 2   19   17 1022.1 ***** 1019.3 ***  12 ***** ***** ***** ***** **
343910 ***** 201502070000 240   9 ***  17 OVC * * *  2.5 71 ** ** ** ** ** ** ** 7   30   30 1005.7 ***** 1003.0 *** *** ***** ***** ***** ***** **
343910 ***** 201502090900 190  16 ***  19 OVC * * *  2.5 71 ** ** ** ** ** ** ** 7   24   21 1007.5 ***** 1004.7 *** *** ***** ***** ***** ***** **
343910 ***** 201502091800 180  11 ***  17 OVC * * *  2.5 71 ** ** ** ** ** ** ** 7   26   25 1009.6 ***** 1006.8 *** *** ***** ***** ***** ***** **
343910 ***** 201502100000 160   9 ***  19 OVC * * *  6.2 02 ** ** ** ** ** ** ** 7   24   22 1012.0 ***** 1009.2 *** *** ***** ***** ***** ***** **
343910 ***** 201502100300 110   4 *** *** BKN * * *  6.2 01 ** ** ** ** ** ** ** 2   23   21 1012.7 ***** 1009.9 ***  23 ***** ***** *****  0.02  7
343910 ***** 201502100600 130   7 *** *** OVC * * *  6.2 ** ** ** ** ** ** ** ** *   22   20 1014.8 ***** 1012.0 ***  22 ***** ***** ***** ***** **
343910 ***** 201502101200 040   7 *** *** SCT * * *  6.2 ** ** ** ** ** ** ** ** *   25   19 1016.1 ***** 1013.3 *** *** ***** ***** ***** ***** **
343910 ***** 201502101500 050   7 ***  30 BKN * * *  6.2 ** ** ** ** ** ** ** ** *   21   18 1017.6 ***** 1014.8  27 *** ***** ***** *****  0.00 **
343910 ***** 201502101800 080   7 ***  28 BKN * * *  6.2 ** ** ** ** ** ** ** ** *   19   16 1019.0 ***** 1016.1 *** *** ***** ***** ***** ***** **
343910 ***** 201502102100 050   4 *** *** *** * * *  6.2 ** ** ** ** ** ** ** ** *   14   12 1019.2 ***** 1016.3 *** *** ***** ***** ***** ***** **
343910 ***** 201502110000 020   4 *** *** *** * * *  6.2 ** ** ** ** ** ** ** ** *    9    7 1020.9 ***** 1018.0 *** *** ***** ***** ***** ***** **
343910 ***** 201502110300 020   2 *** *** *** * * *  6.2 ** ** ** ** ** ** ** ** *    6    3 1021.7 ***** 1018.8 ***   5 ***** ***** *****  0.00  7
343910 ***** 201502110900 360   4 *** *** BKN * * *  6.2 ** ** ** ** ** ** ** ** *   25   20 1023.8 ***** 1021.0 *** *** ***** ***** ***** ***** **
343910 ***** 201502130000 270   4 *** *** OVC * * *  6.2 ** ** ** ** ** ** ** ** *   22   20 1025.6 ***** 1022.8 *** *** ***** ***** ***** ***** **
343910 ***** 201502131500 350   4 *** *** SCT * * *  6.2 ** ** ** ** ** ** ** ** *   17   14 1024.3 ***** 1021.4  29 *** ***** ***** *****  0.00 **
343910 ***** 201502140000 340   2 ***  23 OVC * * *  6.2 ** ** ** ** ** ** ** ** *   24   23 1025.1 ***** 1022.3 *** *** ***** ***** ***** ***** **
343910 ***** 201502140300 350   2 ***  23 OVC * * *  6.2 ** ** ** ** ** ** ** ** *   24   22 1025.3 ***** 1022.5 ***  17 ***** ***** *****  0.00  6
343910 ***** 201502140600 030   4 ***  20 OVC * * *  6.2 71 ** ** ** ** ** ** ** 7   26   23 1026.7 ***** 1023.9 *** *** ***** ***** ***** ***** **
343910 ***** 201502140900 020   2 ***  22 OVC * * *  6.2 02 ** ** ** ** ** ** ** 2   28   24 1027.1 ***** 1024.3 *** *** ***** ***** ***** ***** **
343910 ***** 201502141200 010   4 ***  23 OVC * * *  6.2 ** ** ** ** ** ** ** ** *   29   24 1026.5 ***** 1023.7 *** *** ***** ***** ***** ***** **
343910 ***** 201502141500 330   2 ***  27 BKN * * *  6.2 ** ** ** ** ** ** ** ** *   25   22 1026.9 ***** 1024.1  29 *** ***** ***** *****  0.00 **
343910 ***** 201502141800 340   2 *** *** *** * * *  6.2 ** ** ** ** ** ** ** ** *   17   16 1027.0 ***** 1024.1 *** *** ***** ***** ***** ***** **
343910 ***** 201502142100 040   2 *** *** OVC * * *  1.2 10 ** ** ** ** ** ** ** 1   10    7 1026.3 ***** 1023.4 *** *** ***** ***** ***** ***** **
343910 ***** 201502150000 *** *** *** *** *** * * *  0.3 44 ** ** ** ** ** ** ** 4    9    7 1025.4 ***** 1022.5 *** *** ***** ***** ***** ***** **
343910 ***** 201502160300 230   7 ***  17 OVC * * *  2.5 71 ** ** ** ** ** ** ** 7   18   16 1013.4 ***** 1010.6 ***  18 ***** ***** *****  0.01  7
343910 ***** 201502161200 340   7 *** *** OVC * * *  6.2 03 ** ** ** ** ** ** ** 7   24   20 1016.6 ***** 1013.8 *** *** ***** ***** ***** ***** **
343910 ***** 201502170000 350   4 *** *** *** * * *  6.2 ** ** ** ** ** ** ** ** *    5    1 1025.4 ***** 1022.5 *** *** ***** ***** ***** ***** **
343910 ***** 201502171200 010   9 *** *** *** * * *  6.2 ** ** ** ** ** ** ** ** *   10    4 1030.8 ***** 1027.9 *** *** ***** ***** ***** ***** **
343910 ***** 201502171800 360   7 *** *** *** * * *  6.2 ** ** ** ** ** ** ** ** *   -1   -5 1033.3 ***** 1030.3 *** *** ***** ***** ***** ***** **
343910 ***** 201502180300 020   7 *** *** *** * * *  6.2 ** ** ** ** ** ** ** ** *   -5  -10 1034.2 ***** 1031.2 ***  -8 ***** ***** *****  0.00  7
343910 ***** 201502180600 010   7 *** *** *** * * *  6.2 ** ** ** ** ** ** ** ** *   -4   -9 1034.8 ***** 1031.8 ***  -9 ***** ***** ***** ***** **
343910 ***** 201502180900 030   9 *** *** *** * * *  6.2 ** ** ** ** ** ** ** ** *    7    1 1034.2 ***** 1031.2 *** *** ***** ***** ***** ***** **
343910 ***** 201502181200 340   2 *** *** *** * * *  6.2 ** ** ** ** ** ** ** ** *   11    5 1032.0 ***** 1029.1 *** *** ***** ***** ***** ***** **
343910 ***** 201502190600 290   2 *** *** BKN * * *  6.2 ** ** ** ** ** ** ** ** *   -6  -11 1018.9 ***** 1015.9 *** -18 ***** ***** ***** ***** **
343910 ***** 201502190900 280   4 *** *** SCT * * *  6.2 ** ** ** ** ** ** ** ** *    6   -1 1016.9 ***** 1014.0 *** *** ***** ***** ***** ***** **
343910 ***** 201502191800 *** *** *** *** *** * * *  6.2 ** ** ** ** ** ** ** ** *   -6  -10 1017.3 ***** 1014.3 *** *** ***** ***** ***** ***** **
343910 ***** 201502192100 360   2 *** *** *** * * *  6.2 ** ** ** ** ** ** ** ** *   -4   -8 1017.5 ***** 1014.5 *** *** ***** ***** ***** ***** **
343910 ***** 201502200000 360   2 *** *** *** * * *  6.2 ** ** ** ** ** ** ** ** *   -5   -9 1018.7 ***** 1015.8 *** *** ***** ***** ***** ***** **
343910 ***** 201502200300 010   2 *** *** *** * * *  6.2 ** ** ** ** ** ** ** ** *   -5  -10 1020.3 ***** 1017.3 ***  -7 ***** ***** *****  0.00  7
343910 ***** 201502200600 *** *** *** *** *** * * *  6.2 ** ** ** ** ** ** ** ** *    2   -2 1022.3 ***** 1019.4 *** *** ***** ***** ***** ***** **
343910 ***** 201502220000 250  11 ***  23 OVC * * *  6.2 ** ** ** ** ** ** ** ** *   25   19 1026.4 ***** 1023.5 *** *** ***** ***** ***** ***** **
343910 ***** 201502220300 260  11 ***  23 OVC * * *  6.2 ** ** ** ** ** ** ** ** *   24   19 1026.6 ***** 1023.8 ***  16 ***** ***** *****  0.00  6
343910 ***** 201502230000 260   4 *** *** *** * * *  6.2 ** ** ** ** ** ** ** ** *   16   13 1032.0 ***** 1029.1 *** *** ***** ***** ***** ***** **
343910 ***** 201502231500 140   2 *** *** SCT * * *  6.2 ** ** ** ** ** ** ** ** *   25   23 1032.5 ***** 1029.7  34 *** ***** ***** *****  0.00 **
343910 ***** 201502240600 060   2 *** *** *** * * *  6.2 ** ** ** ** ** ** ** ** *   15   13 1034.1 ***** 1031.2 ***   8 ***** ***** ***** ***** **
343910 ***** 201502240900 100   4 *** *** SCT * * *  6.2 ** ** ** ** ** ** ** ** *   28   19 1033.6 ***** 1030.8 *** *** ***** ***** ***** ***** **
343910 ***** 201502250000 060   7 *** *** *** * * *  6.2 ** ** ** ** ** ** ** ** *   10    8 1032.8 ***** 1029.9 *** *** ***** ***** ***** ***** **
343910 ***** 201502250600 080   9 *** *** *** * * *  6.2 ** ** ** ** ** ** ** ** *   17   10 1033.7 ***** 1030.9 ***   8 ***** ***** ***** ***** **
343910 ***** 201502250900 070  11 *** *** *** * * *  6.2 ** ** ** ** ** ** ** ** *   25   17 1033.5 ***** 1030.7 *** *** ***** ***** ***** ***** **
343910 ***** 201502261500 090   7 *** *** *** * * *  6.2 ** ** ** ** ** ** ** ** *   20   17 1037.8 ***** 1034.9  26 *** ***** ***** *****  0.00 **
343910 ***** 201502270000 120   4 *** *** BKN * * *  6.2 ** ** ** ** ** ** ** ** *   13   11 1037.5 ***** 1034.6 *** *** ***** ***** ***** ***** **
343910 ***** 201502270600 120   4 *** *** OVC * * *  2.5 10 ** ** ** ** ** ** ** 2   15   13 1037.1 ***** 1034.2 *** *** ***** ***** ***** ***** **
343910 ***** 201502270900 130   4 *** *** SCT * * *  6.2 ** ** ** ** ** ** ** ** *   23   19 1036.5 ***** 1033.6 *** *** ***** ***** ***** ***** **
343910 ***** 201502272100 120   7 *** *** SCT * * *  6.2 ** ** ** ** ** ** ** ** *   12   10 1032.7 ***** 1029.8 *** *** ***** ***** ***** ***** **
343910 ***** 201502280000 120   4 *** *** OVC * * *  6.2 ** ** ** ** ** ** ** ** *   16   14 1031.4 ***** 1028.5 *** *** ***** ***** ***** ***** **
343910 ***** 201502280600 080   7 *** *** *** * * *  1.2 10 ** ** ** ** ** ** ** 1   13   11 1030.3 ***** 1027.4 *** *** ***** ***** ***** ***** **
343910 ***** 201502280900 080   9 *** *** OVC * * *  6.2 ** ** ** ** ** ** ** ** *   19   17 1029.1 ***** 1026.3 *** *** ***** ***** ***** ***** **
343910 ***** 201502281200 080   9 *** *** OVC * * *  6.2 ** ** ** ** ** ** ** ** *   22   19 1027.8 ***** 1025.0 *** *** ***** ***** ***** ***** **
343910 ***** 201503011800 110   7 *** *** SCT * * *  6.2 ** ** ** ** ** ** ** ** *   21   18 1022.8 ***** 1019.9 *** *** ***** ***** ***** ***** **
343910 ***** 201503020000 110   7 *** *** *** * * *  6.2 ** ** ** ** ** ** ** ** *   14   11 1022.1 ***** 1019.2 *** *** ***** ***** ***** ***** **
343910 ***** 201503030600 070   7 *** *** *** * * *  6.2 ** ** ** ** ** ** ** ** *    7    2 1022.3 ***** 1019.4 ***  -1 ***** ***** ***** ***** **
343910 ***** 201503030900 050   7 *** *** *** * * *  6.2 ** ** ** ** ** ** ** ** *   14    8 1021.3 ***** 1018.5 *** *** ***** ***** ***** ***** **
343910 ***** 201503040000 050   4 *** *** *** * * *  6.2 ** ** ** ** ** ** ** ** *    0   -3 1019.0 ***** 1016.1 *** *** ***** ***** ***** ***** **
343910 ***** 201503040300 040   4 *** *** OVC * * *  6.2 ** ** ** ** ** ** ** ** *    0   -4 1019.1 ***** 1016.1 ***  -1 ***** ***** *****  0.00  6
343910 ***** 201503040600 050   2 *** *** SCT * * *  2.5 10 ** ** ** ** ** ** ** 1    4    1 1019.0 ***** 1016.1 *** *** ***** ***** ***** ***** **
343910 ***** 201503041200 050   7 *** *** *** * * *  6.2 ** ** ** ** ** ** ** ** *   14    7 1018.5 ***** 1015.7 *** *** ***** ***** ***** ***** **
343910 ***** 201503041500 050   4 *** *** *** * * *  6.2 ** ** ** ** ** ** ** ** *    8    4 1019.5 ***** 1016.6  15 *** ***** ***** *****  0.00 **
343910 ***** 201503041800 070   4 *** *** *** * * *  6.2 ** ** ** ** ** ** ** ** *    4    1 1019.8 ***** 1016.9 *** *** ***** ***** ***** ***** **
343910 ***** 201503042100 020   2 *** *** *** * * *  6.2 ** ** ** ** ** ** ** ** *   -5   -9 1020.3 ***** 1017.3 *** *** ***** ***** ***** ***** **
343910 ***** 201503050000 020   4 *** *** *** * * *  6.2 ** ** ** ** ** ** ** ** *   -9  -13 1020.7 ***** 1017.6 *** *** ***** ***** ***** ***** **
343910 ***** 201503050300 050   4 *** *** *** * * *  6.2 ** ** ** ** ** ** ** ** *   -9  -14 1021.7 ***** 1018.7 ***  -9 ***** ***** *****  0.00  6
343910 ***** 201503050600 050   2 *** *** SCT * * *  6.2 ** ** ** ** ** ** ** ** *    0   -4 1023.0 ***** 1020.1 *** -10 ***** ***** ***** ***** **
343910 ***** 201503050900 350   2 *** *** *** * * *  6.2 ** ** ** ** ** ** ** ** *   11    5 1023.3 ***** 1020.4 *** *** ***** ***** ***** ***** **
343910 ***** 201503052100 050   2 *** *** OVC * * *  6.2 ** ** ** ** ** ** ** ** *    3    0 1026.6 ***** 1023.7 *** *** ***** ***** ***** ***** **
343910 ***** 201503060000 *** *** *** *** OVC * * *  6.2 ** ** ** ** ** ** ** ** *    6    2 1027.0 ***** 1024.0 *** *** ***** ***** ***** ***** **
343910 ***** 201503060900 170   2 *** *** BKN * * *  6.2 ** ** ** ** ** ** ** ** *   19   10 1029.0 ***** 1026.2 *** *** ***** ***** ***** ***** **
343910 ***** 201503061800 130   4 *** *** OVC * * *  6.2 ** ** ** ** ** ** ** ** *   16   12 1030.1 ***** 1027.2 *** *** ***** ***** ***** ***** **
343910 ***** 201503062100 110   2 *** *** OVC * * *  6.2 ** ** ** ** ** ** ** ** *   17   13 1029.8 ***** 1026.9 *** *** ***** ***** ***** ***** **
343910 ***** 201503070900 130   4 *** *** OVC * * *  6.2 ** ** ** ** ** ** ** ** *   25   20 1027.6 ***** 1024.7 *** *** ***** ***** ***** ***** **
343910 ***** 201503071200 130   4 *** *** BKN * * *  6.2 ** ** ** ** ** ** ** ** *   27   21 1026.9 ***** 1024.1 *** *** ***** ***** ***** ***** **
343910 ***** 201503071500 070   4 *** *** BKN * * *  6.2 ** ** ** ** ** ** ** ** *   24   20 1026.8 ***** 1023.9  27 *** ***** ***** *****  0.00 **
343910 ***** 201503080600 010   4 *** *** OVC * * *  6.2 ** ** ** ** ** ** ** ** *   20   17 1029.5 ***** 1026.7 *** *** ***** ***** ***** ***** **
343910 ***** 201503080900 320   4 *** *** OVC * * *  6.2 ** ** ** ** ** ** ** ** *   27   21 1030.2 ***** 1027.3 *** *** ***** ***** ***** ***** **
343910 ***** 201503081800 280   4 *** *** *** * * *  6.2 ** ** ** ** ** ** ** ** *   18   16 1029.9 ***** 1027.0 *** *** ***** ***** ***** ***** **
343910 ***** 201503090000 280   4 *** *** *** * * *  6.2 ** ** ** ** ** ** ** ** *   10    7 1029.7 ***** 1026.8 *** *** ***** ***** ***** ***** **
343910 ***** 201503100300 250  11 *** *** BKN * * *  6.2 ** ** ** ** ** ** ** ** *   34   31 1023.5 ***** 1020.8 ***  34 ***** ***** *****  0.00  4
343910 ***** 201503100600 260  11 *** *** OVC * * *  6.2 03 ** ** ** ** ** ** ** 6   35   32 1023.2 ***** 1020.5 *** *** ***** ***** ***** ***** **
343910 ***** 201503101200 290   7 *** *** BKN * * *  6.2 ** ** ** ** ** ** ** ** *   40   33 1024.0 ***** 1021.3 *** *** ***** ***** ***** ***** **
343910 ***** 201503101800 320   4 *** *** *** * * *  6.2 ** ** ** ** ** ** ** ** *   31   29 1027.6 ***** 1024.8 *** *** ***** ***** ***** ***** **
343910 ***** 201503102100 310   4 *** *** *** * * *  6.2 ** ** ** ** ** ** ** ** *   26   25 1028.7 ***** 1025.9 *** *** ***** ***** ***** ***** **
343910 ***** 201503110000 360   2 *** *** *** * * *  6.2 ** ** ** ** ** ** ** ** *   22   20 1029.6 ***** 1026.8 *** *** ***** ***** ***** ***** **
343910 ***** 201503110300 *** *** *** *** *** * * *  6.2 ** ** ** ** ** ** ** ** *   19   18 1030.7 ***** 1027.8 ***  19 ***** ***** *****  0.00  4
343910 ***** 201503110900 140   4 *** *** SCT * * *  6.2 ** ** ** ** ** ** ** ** *   40   32 1030.9 ***** 1028.2 *** *** ***** ***** ***** ***** **
343910 ***** 201503111200 110   2 *** *** BKN * * *  6.2 ** ** ** ** ** ** ** ** *   39   33 1030.3 ***** 1027.5 *** *** ***** ***** ***** ***** **
343910 ***** 201503112100 130   7 *** *** *** * * *  6.2 ** ** ** ** ** ** ** ** *   28   27 1029.9 ***** 1027.1 *** *** ***** ***** ***** ***** **
343910 ***** 201503120000 140   7 *** *** *** * * *  6.2 ** ** ** ** ** ** ** ** *   27   25 1029.1 ***** 1026.3 *** *** ***** ***** ***** ***** **
343910 ***** 201503120300 120   4 *** *** SCT * * *  2.5 ** ** ** ** ** ** ** ** *   24   23 1029.4 ***** 1026.6 ***  24 ***** ***** *****  0.00  3
343910 ***** 201503120600 130   9 ***   4 OBS * * *  0.3 43 ** ** ** ** ** ** ** 4   30   29 1028.9 ***** 1026.1 ***  24 ***** ***** ***** ***** **
343910 ***** 201503120900 110   7 ***   4 OBS * * *  0.3 43 ** ** ** ** ** ** ** 4   33   32 1029.3 ***** 1026.5 *** *** ***** ***** ***** ***** **
343910 ***** 201503121500 100   9 ***   4 OBS * * *  0.3 43 ** ** ** ** ** ** ** 4   31   31 1027.4 ***** 1024.6  33 *** ***** ***** *****  0.00 **
343910 ***** 201503121800 110   7 ***   4 OBS * * *  0.3 43 ** ** ** ** ** ** ** 4   30   29 1028.1 ***** 1025.3 *** *** ***** ***** ***** ***** **
343910 ***** 201503122100 090   7 ***   4 OBS * * *  0.3 43 ** ** ** ** ** ** ** 4   29   29 1027.5 ***** 1024.7 *** *** ***** ***** ***** ***** **
343910 ***** 201503130000 080   9 ***   4 OBS * * *  0.3 43 ** ** ** ** ** ** ** 4   29   28 1027.2 ***** 1024.4 *** *** ***** ***** ***** ***** **
343910 ***** 201503130300 070   9 ***   4 OBS * * *  0.3 45 ** ** ** ** ** ** ** 4   28   28 1028.0 ***** 1025.2 ***  28 ***** ***** *****  0.00  2
343910 ***** 201503130600 070  11 ***  17 OVC * * *  0.6 10 ** ** ** ** ** ** ** 4   29   28 1029.2 ***** 1026.4 ***  28 ***** ***** ***** ***** **
343910 ***** 201503130900 070  11 *** *** OVC * * *  6.2 ** ** ** ** ** ** ** ** *   31   30 1029.5 ***** 1026.7 *** *** ***** ***** ***** ***** **
343910 ***** 201503131200 060  13 *** *** OVC * * *  6.2 ** ** ** ** ** ** ** ** *   31   31 1030.7 ***** 1027.9 *** *** ***** ***** ***** ***** **
343910 ***** 201503131500 070  13 *** *** OVC * * *  6.2 ** ** ** ** ** ** ** ** *   32   31 1031.7 ***** 1028.9  32 *** ***** ***** *****  0.00 **
343910 ***** 201503131800 060  11 ***  23 OVC * * *  6.2 ** ** ** ** ** ** ** ** *   33   31 1033.5 ***** 1030.7 *** *** ***** ***** ***** ***** **
343910 ***** 201503132100 060  13 ***  23 OVC * * *  6.2 ** ** ** ** ** ** ** ** *   31   27 1034.9 ***** 1032.1 *** *** ***** ***** ***** ***** **
343910 ***** 201503140000 060  11 *** *** SCT * * *  6.2 ** ** ** ** ** ** ** ** *   30   26 1035.8 ***** 1033.0 *** *** ***** ***** ***** ***** **
343910 ***** 201503140300 060   9 *** *** BKN * * *  6.2 ** ** ** ** ** ** ** ** *   28   24 1037.2 ***** 1034.4 ***  28 ***** ***** *****  0.00  2
343910 ***** 201503140600 080   7 *** *** BKN * * *  6.2 ** ** ** ** ** ** ** ** *   31   24 1039.4 ***** 1036.6 ***  27 ***** ***** ***** ***** **
343910 ***** 201503140900 050  11 *** *** BKN * * *  6.2 ** ** ** ** ** ** ** ** *   38   28 1040.1 ***** 1037.3 *** *** ***** ***** ***** ***** **
343910 ***** 201503141200 050  11 *** *** SCT * * *  6.2 ** ** ** ** ** ** ** ** *   38   28 1040.3 ***** 1037.6 *** *** ***** ***** ***** ***** **
343910 ***** 201503141500 050   7 *** *** BKN * * *  6.2 ** ** ** ** ** ** ** ** *   32   26 1040.4 ***** 1037.6  39 *** ***** ***** *****  0.00 **
343910 ***** 201503141800 010   4 *** *** *** * * *  6.2 ** ** ** ** ** ** ** ** *   28   26 1040.6 ***** 1037.8 *** *** ***** ***** ***** ***** **
343910 ***** 201503142100 020   7 *** *** *** * * *  6.2 ** ** ** ** ** ** ** ** *   26   23 1040.4 ***** 1037.5 *** *** ***** ***** ***** ***** **
343910 ***** 201503150000 350   4 *** *** *** * * *  6.2 ** ** ** ** ** ** ** ** *   25   22 1039.3 ***** 1036.5 *** *** ***** ***** ***** ***** **
343910 ***** 201503150300 360   7 *** *** SCT * * *  6.2 ** ** ** ** ** ** ** ** *   26   20 1039.1 ***** 1036.3 ***  23 ***** ***** *****  0.00  1
343910 ***** 201503150600 020   9 *** *** SCT * * *  6.2 ** ** ** ** ** ** ** ** *   35   24 1039.0 ***** 1036.2 *** *** ***** ***** ***** ***** **
343910 ***** 201503150900 040   9 *** *** BKN * * *  6.2 ** ** ** ** ** ** ** ** *   44   25 1037.9 ***** 1035.1 *** *** ***** ***** ***** ***** **
343910 ***** 201503151200 010   7 *** *** BKN * * *  6.2 ** ** ** ** ** ** ** ** *   44   28 1036.5 ***** 1033.8 *** *** ***** ***** ***** ***** **
343910 ***** 201503151500 360   4 *** *** SCT * * *  6.2 ** ** ** ** ** ** ** ** *   38   28 1035.4 ***** 1032.7  46 *** ***** ***** *****  0.00 **
343910 ***** 201503151800 350   4 *** *** *** * * *  6.2 ** ** ** ** ** ** ** ** *   30   26 1034.8 ***** 1032.0 *** *** ***** ***** ***** ***** **
343910 ***** 201503152100 340   4 *** *** *** * * *  6.2 ** ** ** ** ** ** ** ** *   30   25 1033.8 ***** 1031.0 *** *** ***** ***** ***** ***** **
343910 ***** 201503160000 020   9 *** *** *** * * *  6.2 ** ** ** ** ** ** ** ** *   29   24 1033.1 ***** 1030.3 *** *** ***** ***** ***** ***** **
343910 ***** 201503160300 020  11 ***  30 BKN * * *  6.2 ** ** ** ** ** ** ** ** *   29   24 1032.8 ***** 1030.0 ***  28 ***** ***** *****  0.00 **
343910 ***** 201503160600 030  13 ***  30 BKN * * *  6.2 ** ** ** ** ** ** ** ** *   34   27 1033.1 ***** 1030.4 *** *** ***** ***** ***** ***** **
343910 ***** 201503160900 040  18 *** *** BKN * * *  6.2 ** ** ** ** ** ** ** ** *   36   26 1034.1 ***** 1031.3 *** *** ***** ***** ***** ***** **
343910 ***** 201503161200 040  18 *** *** BKN * * *  6.2 ** ** ** ** ** ** ** ** *   35   26 1035.1 ***** 1032.3 *** *** ***** ***** ***** ***** **
343910 ***** 201503161500 040  16 ***  24 OVC * * *  6.2 22 ** ** ** ** ** ** ** 7   32   28 1035.9 ***** 1033.1  38 *** ***** ***** *****  0.00T**
343910 ***** 201503161800 040  16 ***  24 BKN * * *  6.2 01 ** ** ** ** ** ** ** 7   31   27 1037.0 ***** 1034.2 *** *** ***** ***** ***** ***** **
343910 ***** 201503162100 050  11 *** *** BKN * * *  6.2 ** ** ** ** ** ** ** ** *   31   27 1037.8 ***** 1034.9 *** *** ***** ***** ***** ***** **
343910 ***** 201503170000 060  11 ***  23 OVC * * *  6.2 ** ** ** ** ** ** ** ** *   30   26 1039.1 ***** 1036.3 *** *** ***** ***** ***** ***** **
343910 ***** 201503170300 060   9 *** *** SCT * * *  6.2 ** ** ** ** ** ** ** ** *   26   23 1039.9 ***** 1037.0 ***  26 ***** ***** *****  0.00 **
343910 ***** 201503170600 080  13 *** *** OVC * * *  6.2 ** ** ** ** ** ** ** ** *   29   26 1041.1 ***** 1038.3 *** *** ***** ***** ***** ***** **
343910 ***** 201503170900 070  13 *** *** BKN * * *  6.2 ** ** ** ** ** ** ** ** *   37   29 1041.3 ***** 1038.5 *** *** ***** ***** ***** ***** **
343910 ***** 201503171200 070  13 ***  25 BKN * * *  6.2 ** ** ** ** ** ** ** ** *   34   29 1041.9 ***** 1039.1 *** *** ***** ***** ***** ***** **
343910 ***** 201503171500 070  11 ***  25 BKN * * *  6.2 ** ** ** ** ** ** ** ** *   32   28 1041.7 ***** 1038.9  38 *** ***** ***** *****  0.00 **
343910 ***** 201503171800 070   7 *** *** *** * * *  6.2 ** ** ** ** ** ** ** ** *   29   27 1041.9 ***** 1039.0 *** *** ***** ***** ***** ***** **
343910 ***** 201503172100 060   4 *** *** *** * * *  6.2 ** ** ** ** ** ** ** ** *   26   25 1041.9 ***** 1039.0 *** *** ***** ***** ***** ***** **
343910 ***** 201503180000 040   4 *** *** *** * * *  6.2 ** ** ** ** ** ** ** ** *   22   21 1041.5 ***** 1038.6 *** *** ***** ***** ***** ***** **
343910 ***** 201503180300 040   2 ***   4 OBS * * *  0.3 45 ** ** ** ** ** ** ** 4   22   21 1041.0 ***** 1038.1 ***  21 ***** ***** *****  0.00 **
343910 ***** 201503180600 060   2 ***   4 OBS * * *  0.3 43 ** ** ** ** ** ** ** 4   29   28 1040.6 ***** 1037.8 *** *** ***** ***** ***** ***** **
343910 ***** 201503180900 050   7 *** *** SCT * * *  6.2 01 ** ** ** ** ** ** ** 4   38   31 1039.4 ***** 1036.6 *** *** ***** ***** ***** ***** **
343910 ***** 201503181200 060   7 *** *** SCT * * *  6.2 ** ** ** ** ** ** ** ** *   43   23 1037.4 ***** 1034.6 *** *** ***** ***** ***** ***** **
343910 ***** 201503181500 130   2 *** *** *** * * *  6.2 ** ** ** ** ** ** ** ** *   36   26 1036.3 ***** 1033.5  44 *** ***** ***** *****  0.00 **
343910 ***** 201503181800 070   2 *** *** *** * * *  6.2 ** ** ** ** ** ** ** ** *   27   23 1035.9 ***** 1033.1 *** *** ***** ***** ***** ***** **
343910 ***** 201503182100 *** *** *** *** *** * * *  6.2 ** ** ** ** ** ** ** ** *   24   22 1035.1 ***** 1032.2 *** *** ***** ***** ***** ***** **
343910 ***** 201503190000 240   2 *** *** *** * * *  6.2 ** ** ** ** ** ** ** ** *   23   21 1034.0 ***** 1031.2 *** *** ***** ***** ***** ***** **
343910 ***** 201503190300 330   4 *** *** *** * * *  6.2 ** ** ** ** ** ** ** ** *   23   21 1033.6 ***** 1030.7 ***  22 ***** ***** *****  0.00 **
343910 ***** 201503190600 300   4 *** *** SCT * * *  6.2 ** ** ** ** ** ** ** ** *   37   25 1033.2 ***** 1030.4 *** *** ***** ***** ***** ***** **
343910 ***** 201503190900 350   4 *** *** SCT * * *  6.2 ** ** ** ** ** ** ** ** *   44   19 1032.4 ***** 1029.7 *** *** ***** ***** ***** ***** **
343910 ***** 201503191200 020   7 *** *** SCT * * *  6.2 ** ** ** ** ** ** ** ** *   46   24 1030.4 ***** 1027.7 *** *** ***** ***** ***** ***** **
343910 ***** 201503191500 350   2 *** *** SCT * * *  6.2 ** ** ** ** ** ** ** ** *   41   26 1029.4 ***** 1026.7  46 *** ***** ***** *****  0.00 **
343910 ***** 201503191800 090   2 *** *** *** * * *  6.2 ** ** ** ** ** ** ** ** *   31   25 1029.7 ***** 1026.9 *** *** ***** ***** ***** ***** **
343910 ***** 201503192100 120   2 *** *** *** * * *  6.2 ** ** ** ** ** ** ** ** *   29   23 1028.5 ***** 1025.7 *** *** ***** ***** ***** ***** **
343910 ***** 201503200000 040   2 *** *** *** * * *  6.2 ** ** ** ** ** ** ** ** *   25   23 1027.1 ***** 1024.3 *** *** ***** ***** ***** ***** **
343910 ***** 201503200300 130   2 *** *** *** * * *  2.5 10 ** ** ** ** ** ** ** 0   24   22 1026.6 ***** 1023.8 ***  23 ***** ***** *****  0.00 **
343910 ***** 201503200600 130   4 *** *** SCT * * *  6.2 ** ** ** ** ** ** ** ** *   39   30 1026.0 ***** 1023.3 *** *** ***** ***** ***** ***** **
343910 ***** 201503200900 140   4 *** *** *** * * *  6.2 ** ** ** ** ** ** ** ** *   46   28 1024.3 ***** 1021.6 *** *** ***** ***** ***** ***** **
343910 ***** 201503201200 100   4 *** *** BKN * * *  6.2 ** ** ** ** ** ** ** ** *   47   30 1021.5 ***** 1018.9 *** *** ***** ***** ***** ***** **
343910 ***** 201503201500 100   4 *** *** BKN * * *  6.2 ** ** ** ** ** ** ** ** *   41   29 1020.3 ***** 1017.6  48 *** ***** ***** *****  0.00 **
343910 ***** 201503201800 110   4 *** *** BKN * * *  6.2 ** ** ** ** ** ** ** ** *   35   30 1019.2 ***** 1016.5 *** *** ***** ***** ***** ***** **
343910 ***** 201503202100 130   4 *** *** BKN * * *  6.2 ** ** ** ** ** ** ** ** *   31   29 1018.5 ***** 1015.7 *** *** ***** ***** ***** ***** **
343910 ***** 201503210000 100   4 ***   4 OBS * * *  0.3 43 ** ** ** ** ** ** ** 4   28   27 1017.1 ***** 1014.3 *** *** ***** ***** ***** ***** **
343910 ***** 201503210300 100   4 *** *** OVC * * *  1.2 10 ** ** ** ** ** ** ** 2   28   27 1015.4 ***** 1012.7 ***  27 ***** ***** *****  0.00 **
343910 ***** 201503210600 110   4 *** *** OVC * * *  1.2 10 ** ** ** ** ** ** ** 2   29   28 1014.5 ***** 1011.8 *** *** ***** ***** ***** ***** **
343910 ***** 201503210900 110   4 ***  25 OVC * * *  6.2 ** ** ** ** ** ** ** ** *   35   30 1013.1 ***** 1010.4 *** *** ***** ***** ***** ***** **
343910 ***** 201503211200 040   4 *** *** BKN * * *  6.2 ** ** ** ** ** ** ** ** *   39   31 1010.8 ***** 1008.1 *** *** ***** ***** ***** ***** **
343910 ***** 201503211500 070   2 *** *** BKN * * *  6.2 ** ** ** ** ** ** ** ** *   36   28 1009.7 ***** 1007.0  40 *** ***** ***** *****  0.00 **
343910 ***** 201503211800 *** *** *** *** *** * * *  6.2 ** ** ** ** ** ** ** ** *   28   25 1010.1 ***** 1007.4 *** *** ***** ***** ***** ***** **
343910 ***** 201503212100 250   4 *** *** *** * * *  6.2 ** ** ** ** ** ** ** ** *   29   27 1009.5 ***** 1006.7 *** *** ***** ***** ***** ***** **
343910 ***** 201503220000 240   7 *** *** *** * * *  6.2 ** ** ** ** ** ** ** ** *   28   26 1008.9 ***** 1006.1 *** *** ***** ***** ***** ***** **
343910 ***** 201503220300 230   2 *** *** *** * * *  6.2 ** ** ** ** ** ** ** ** *   28   25 1009.5 ***** 1006.4 ***  28 ***** ***** *****  0.00 **
343910 ***** 201503220600 160   4 *** *** SCT * * *  6.2 ** ** ** ** ** ** ** ** *   40   29 1010.0 ***** 1006.9 *** *** ***** ***** ***** ***** **
343910 ***** 201503220900 270   9 *** *** BKN * * *  6.2 ** ** ** ** ** ** ** ** *   52   29 1009.0 ***** 1006.4 *** *** ***** ***** ***** ***** **
343910 ***** 201503221200 270  13 *** *** SCT * * *  6.2 ** ** ** ** ** ** ** ** *   55   26 1008.0 ***** 1005.4 *** *** ***** ***** ***** ***** **
343910 ***** 201503221500 250   7 *** *** BKN * * *  6.2 ** ** ** ** ** ** ** ** *   50   28 1007.6 ***** 1005.0  56 *** ***** ***** *****  0.00 **
343910 ***** 201503221800 230   9 *** *** *** * * *  6.2 ** ** ** ** ** ** ** ** *   40   30 1007.3 ***** 1004.6 *** *** ***** ***** ***** ***** **
343910 ***** 201503222100 210   9 *** *** *** * * *  6.2 ** ** ** ** ** ** ** ** *   36   29 1005.9 ***** 1003.2 *** *** ***** ***** ***** ***** **
343910 ***** 201503230000 240  11 *** *** BKN * * *  6.2 ** ** ** ** ** ** ** ** *   38   28 1004.0 ***** 1001.3 *** *** ***** ***** ***** ***** **
343910 ***** 201503230300 310   9 *** *** OVC * * *  2.5 10 ** ** ** ** ** ** ** 2   36   32 1005.4 ***** 1002.7 ***  36 ***** ***** *****  0.00 **
343910 ***** 201503230600 350  13 ***  20 OVC * * *  6.2 02 ** ** ** ** ** ** ** 7   29   24 1009.4 ***** 1006.7 ***  29 ***** ***** ***** ***** **
343910 ***** 201503230900 350  11 *** *** BKN * * *  6.2 ** ** ** ** ** ** ** ** *   33   19 1012.4 ***** 1009.6 *** *** ***** ***** ***** ***** **
343910 ***** 201503231200 350  13 *** *** SCT * * *  6.2 ** ** ** ** ** ** ** ** *   35   14 1013.7 ***** 1010.9 *** *** ***** ***** ***** ***** **
343910 ***** 201503231500 350   9 *** *** SCT * * *  6.2 ** ** ** ** ** ** ** ** *   30   15 1016.1 ***** 1013.4  36 *** ***** ***** *****  0.00 **
343910 ***** 201503231800 360   4 *** *** *** * * *  6.2 ** ** ** ** ** ** ** ** *   24   16 1018.4 ***** 1015.6 *** *** ***** ***** ***** ***** **
343910 ***** 201503232100 340   4 *** *** *** * * *  6.2 ** ** ** ** ** ** ** ** *   20   15 1019.8 ***** 1017.0 *** *** ***** ***** ***** ***** **
343910 ***** 201503240000 330   4 *** *** *** * * *  6.2 ** ** ** ** ** ** ** ** *   18   15 1021.5 ***** 1018.6 *** *** ***** ***** ***** ***** **
343910 ***** 201503240300 310   2 *** *** *** * * *  6.2 ** ** ** ** ** ** ** ** *   15   12 1023.2 ***** 1020.3 ***  15 ***** ***** *****  0.00 **
343910 ***** 201503240600 250   9 *** *** *** * * *  6.2 ** ** ** ** ** ** ** ** *   32   10 1024.3 ***** 1021.5 *** *** ***** ***** ***** ***** **
343910 ***** 201503240900 250  13 *** *** BKN * * *  6.2 ** ** ** ** ** ** ** ** *   36   11 1024.2 ***** 1021.5 *** *** ***** ***** ***** ***** **
343910 ***** 201503241200 240  16 *** *** BKN * * *  6.2 ** ** ** ** ** ** ** ** *   36   11 1023.4 ***** 1020.6 *** *** ***** ***** ***** ***** **
343910 ***** 201503241500 250   9 *** *** BKN * * *  6.2 ** ** ** ** ** ** ** ** *   33   13 1023.0 ***** 1020.3  38 *** ***** ***** *****  0.00 **
343910 ***** 201503241800 220  11 *** *** SCT * * *  6.2 ** ** ** ** ** ** ** ** *   29   16 1023.0 ***** 1020.2 *** *** ***** ***** ***** ***** **
343910 ***** 201503242100 220  11 *** *** SCT * * *  6.2 ** ** ** ** ** ** ** ** *   29   16 1023.2 ***** 1020.4 *** *** ***** ***** ***** ***** **
343910 ***** 201503250000 240  13 *** *** SCT * * *  6.2 ** ** ** ** ** ** ** ** *   31   14 1023.0 ***** 1020.2 *** *** ***** ***** ***** ***** **
343910 ***** 201503250300 240  16 *** *** BKN * * *  6.2 ** ** ** ** ** ** ** ** *   31   16 1022.9 ***** 1020.1 ***  29 ***** ***** *****  0.00 **
343910 ***** 201503250600 260  16 *** *** SCT * * *  6.2 ** ** ** ** ** ** ** ** *   41   17 1023.9 ***** 1021.2 *** *** ***** ***** ***** ***** **
343910 ***** 201503250900 250  18 *** *** *** * * *  6.2 ** ** ** ** ** ** ** ** *   51   18 1023.4 ***** 1020.8 *** *** ***** ***** ***** ***** **
343910 ***** 201503251200 260  18 *** *** *** * * *  6.2 ** ** ** ** ** ** ** ** *   55   18 1023.0 ***** 1020.4 *** *** ***** ***** ***** ***** **
343910 ***** 201503251500 250   9 *** *** BKN * * *  6.2 ** ** ** ** ** ** ** ** *   50   19 1023.8 ***** 1021.1  55 *** ***** ***** *****  0.00 **
343910 ***** 201503251800 230   7 *** *** *** * * *  6.2 ** ** ** ** ** ** ** ** *   36   24 1024.7 ***** 1022.0 *** *** ***** ***** ***** ***** **
343910 ***** 201503252100 240   7 *** *** *** * * *  6.2 ** ** ** ** ** ** ** ** *   33   23 1025.1 ***** 1022.3 *** *** ***** ***** ***** ***** **
343910 ***** 201503260000 220   7 *** *** SCT * * *  6.2 ** ** ** ** ** ** ** ** *   33   24 1025.0 ***** 1022.3 *** *** ***** ***** ***** ***** **
343910 ***** 201503260300 220   7 *** *** BKN * * *  6.2 ** ** ** ** ** ** ** ** *   35   24 1025.1 ***** 1022.3 ***  32 ***** ***** *****  0.00 **
343910 ***** 201503260600 220   9 *** *** BKN * * *  6.2 ** ** ** ** ** ** ** ** *   41   29 1025.5 ***** 1022.7 *** *** ***** ***** ***** ***** **
343910 ***** 201503260900 240  11 *** *** BKN * * *  6.2 ** ** ** ** ** ** ** ** *   56   28 1024.7 ***** 1022.1 *** *** ***** ***** ***** ***** **
343910 ***** 201503261200 240   7 ***  29 BKN * * *  6.2 ** ** ** ** ** ** ** ** *   57   26 1023.8 ***** 1021.2 *** *** ***** ***** ***** ***** **
343910 ***** 201503261500 240   2 ***  30 BKN * * *  6.2 ** ** ** ** ** ** ** ** *   53   29 1023.2 ***** 1020.5  57 *** ***** ***** *****  0.00 **
343910 ***** 201503261800 350   4 *** *** *** * * *  6.2 ** ** ** ** ** ** ** ** *   40   29 1024.5 ***** 1021.8 *** *** ***** ***** ***** ***** **
343910 ***** 201503262100 020   9 *** *** *** * * *  6.2 ** ** ** ** ** ** ** ** *   31   30 1024.6 ***** 1021.9 *** *** ***** ***** ***** ***** **
343910 ***** 201503270000 040  11 *** *** OVC * * *  6.2 ** ** ** ** ** ** ** ** *   32   31 1025.4 ***** 1022.6 *** *** ***** ***** ***** ***** **
343910 ***** 201503270300 050  11 *** *** OVC * * *  6.2 ** ** ** ** ** ** ** ** *   31   30 1026.9 ***** 1024.1 ***  30 ***** ***** *****  0.00 **
343910 ***** 201503270600 050  13 *** *** OVC * * *  6.2 ** ** ** ** ** ** ** ** *   32   27 1028.5 ***** 1025.7 *** *** ***** ***** ***** ***** **
343910 ***** 201503270900 060  13 *** *** SCT * * *  6.2 ** ** ** ** ** ** ** ** *   40   25 1029.2 ***** 1026.4 *** *** ***** ***** ***** ***** **
343910 ***** 201503271200 050  16 *** *** BKN * * *  6.2 ** ** ** ** ** ** ** ** *   38   11 1030.6 ***** 1027.8 *** *** ***** ***** ***** ***** **
343910 ***** 201503271500 060  16 *** *** SCT * * *  6.2 ** ** ** ** ** ** ** ** *   32   11 1032.3 ***** 1029.5  41 *** ***** ***** *****  0.00 **
343910 ***** 201503271800 060  13 *** *** SCT * * *  6.2 ** ** ** ** ** ** ** ** *   28   11 1034.6 ***** 1031.8 *** *** ***** ***** ***** ***** **
343910 ***** 201503272100 060  11 *** *** *** * * *  6.2 ** ** ** ** ** ** ** ** *   24    9 1036.2 ***** 1033.4 *** *** ***** ***** ***** ***** **
343910 ***** 201503280000 060   9 *** *** *** * * *  6.2 ** ** ** ** ** ** ** ** *   21   12 1037.0 ***** 1034.1 *** *** ***** ***** ***** ***** **
343910 ***** 201503280300 060   9 *** *** *** * * *  6.2 ** ** ** ** ** ** ** ** *   19   13 1039.3 ***** 1036.4 ***  19 ***** ***** *****  0.00 **
343910 ***** 201503280600 100   9 *** *** *** * * *  6.2 ** ** ** ** ** ** ** ** *   32   10 1040.6 ***** 1037.8 ***  19 ***** ***** ***** ***** **
343910 ***** 201503280900 100  13 *** *** *** * * *  6.2 ** ** ** ** ** ** ** ** *   37    5 1040.4 ***** 1037.6 *** *** ***** ***** ***** ***** **
343910 ***** 201503281200 090  13 *** *** SCT * * *  6.2 ** ** ** ** ** ** ** ** *   38    6 1039.6 ***** 1036.8 *** *** ***** ***** ***** ***** **
343910 ***** 201503281500 090  11 *** *** SCT * * *  6.2 ** ** ** ** ** ** ** ** *   32    4 1040.3 ***** 1037.5  38 *** ***** ***** *****  0.00 **
343910 ***** 201503281800 090   9 *** *** *** * * *  6.2 ** ** ** ** ** ** ** ** *   26    8 1041.5 ***** 1038.6 *** *** ***** ***** ***** ***** **
343910 ***** 201503282100 100   7 *** *** *** * * *  6.2 ** ** ** ** ** ** ** ** *   22   12 1042.3 ***** 1039.4 *** *** ***** ***** ***** ***** **
343910 ***** 201503290000 100   9 *** *** *** * * *  6.2 ** ** ** ** ** ** ** ** *   20   15 1041.8 ***** 1038.9 *** *** ***** ***** ***** ***** **
343910 ***** 201503290300 110  11 *** *** SCT * * *  6.2 ** ** ** ** ** ** ** ** *   18   11 1041.9 ***** 1039.0 ***  18 ***** ***** *****  0.00 **
343910 ***** 201503290600 120  16 *** *** BKN * * *  6.2 ** ** ** ** ** ** ** ** *   27    4 1042.8 ***** 1039.9 *** *** ***** ***** ***** ***** **
343910 ***** 201503290900 120  18 *** *** BKN * * *  6.2 ** ** ** ** ** ** ** ** *   34   -1 1042.5 ***** 1039.7 *** *** ***** ***** ***** ***** **
343910 ***** 201503291200 130  18 *** *** BKN * * *  6.2 ** ** ** ** ** ** ** ** *   35    0 1041.1 ***** 1038.3 *** *** ***** ***** ***** ***** **
343910 ***** 201503291500 120  13 *** *** BKN * * *  6.2 ** ** ** ** ** ** ** ** *   29    4 1040.9 ***** 1038.1  36 *** ***** ***** *****  0.00 **
343910 ***** 201503291800 120  11 *** *** SCT * * *  6.2 ** ** ** ** ** ** ** ** *   23   11 1041.3 ***** 1038.4 *** *** ***** ***** ***** ***** **
343910 ***** 201503292100 120   9 *** *** *** * * *  6.2 ** ** ** ** ** ** ** ** *   19   11 1040.9 ***** 1038.0 *** *** ***** ***** ***** ***** **
343910 ***** 201503300000 110   9 *** *** *** * * *  6.2 ** ** ** ** ** ** ** ** *   16   11 1038.4 ***** 1035.4 *** *** ***** ***** ***** ***** **
343910 ***** 201503300300 120  11 *** *** SCT * * *  6.2 ** ** ** ** ** ** ** ** *   15   11 1037.7 ***** 1034.8 ***  15 ***** ***** *****  0.00 **
343910 ***** 201503300600 130  16 *** *** SCT * * *  6.2 ** ** ** ** ** ** ** ** *   26    6 1036.7 ***** 1033.8 *** *** ***** ***** ***** ***** **
343910 ***** 201503300900 140  18 *** *** SCT * * *  6.2 ** ** ** ** ** ** ** ** *   36   -1 1034.2 ***** 1031.4 *** *** ***** ***** ***** ***** **
343910 ***** 201503301200 130  16 *** *** BKN * * *  6.2 ** ** ** ** ** ** ** ** *   36   -3 1032.2 ***** 1029.4 *** *** ***** ***** ***** ***** **
343910 ***** 201503301500 130  13 *** *** SCT * * *  6.2 ** ** ** ** ** ** ** ** *   33    3 1031.6 ***** 1028.9  38 *** ***** ***** *****  0.00 **
343910 ***** 201503301800 110   9 *** *** SCT * * *  6.2 ** ** ** ** ** ** ** ** *   28    7 1031.5 ***** 1028.4 *** *** ***** ***** ***** ***** **
343910 ***** 201503302100 110  11 *** *** *** * * *  6.2 ** ** ** ** ** ** ** ** *   24   16 1030.5 ***** 1027.6 *** *** ***** ***** ***** ***** **
343910 ***** 201503310000 110   7 *** *** SCT * * *  6.2 ** ** ** ** ** ** ** ** *   21   15 1030.2 ***** 1027.4 *** *** ***** ***** ***** ***** **
343910 ***** 201503310300 110   9 *** *** SCT * * *  6.2 ** ** ** ** ** ** ** ** *   19   14 1030.4 ***** 1027.6 ***  19 ***** ***** *****  0.00 **
343910 ***** 201503310600 140  13 *** *** BKN * * *  6.2 ** ** ** ** ** ** ** ** *   32    9 1030.1 ***** 1027.4 *** *** ***** ***** ***** ***** **
343910 ***** 201503310900 140  16 *** *** BKN * * *  6.2 ** ** ** ** ** ** ** ** *   40    2 1028.5 ***** 1025.8 *** *** ***** ***** ***** ***** **
343910 ***** 201503311200 140  13 *** *** BKN * * *  6.2 ** ** ** ** ** ** ** ** *   45    4 1026.8 ***** 1024.1 *** *** ***** ***** ***** ***** **
343910 ***** 201503311500 120   9 *** *** SCT * * *  6.2 ** ** ** ** ** ** ** ** *   39    7 1026.1 ***** 1023.2  46 *** ***** ***** *****  0.00 **
343910 ***** 201503311800 110   9 *** *** SCT * * *  6.2 ** ** ** ** ** ** ** ** *   31   15 1025.5 ***** 1022.7 *** *** ***** ***** ***** ***** **
343910 ***** 201503312100 110   7 *** *** SCT * * *  6.2 ** ** ** ** ** ** ** ** *   25   18 1024.9 ***** 1022.1 *** *** ***** ***** ***** ***** **
343910 ***** 201504010000 110   7 *** *** SCT * * *  6.2 ** ** ** ** ** ** ** ** *   21   17 1023.9 ***** 1021.1 *** *** ***** ***** ***** ***** **
343910 ***** 201504010300 100   7 *** *** BKN * * *  6.2 ** ** ** ** ** ** ** ** *   18   15 1023.0 ***** 1020.2 ***  17 ***** ***** *****  0.00 **
343910 ***** 201504010600 120   7 *** *** BKN * * *  6.2 ** ** ** ** ** ** ** ** *   34   18 1022.0 ***** 1019.3 *** *** ***** ***** ***** ***** **
343910 ***** 201504010900 120   9 *** *** BKN * * *  6.2 ** ** ** ** ** ** ** ** *   47    8 1020.5 ***** 1017.8 *** *** ***** ***** ***** ***** **
343910 ***** 201504011200 130   9 *** *** BKN * * *  6.2 ** ** ** ** ** ** ** ** *   49    8 1019.0 ***** 1016.4 *** *** ***** ***** ***** ***** **
343910 ***** 201504011500 120   4 *** *** BKN * * *  6.2 ** ** ** ** ** ** ** ** *   43   11 1019.1 ***** 1016.4  49 *** ***** ***** *****  0.00 **
343910 ***** 201504011800 120   7 *** *** BKN * * *  6.2 ** ** ** ** ** ** ** ** *   31   12 1019.6 ***** 1016.8 *** *** ***** ***** ***** ***** **
343910 ***** 201504012100 120   7 *** *** BKN * * *  6.2 ** ** ** ** ** ** ** ** *   28   22 1019.3 ***** 1016.5 *** *** ***** ***** ***** ***** **
343910 ***** 201504020000 110   4 *** *** BKN * * *  6.2 10 ** ** ** ** ** ** ** 2   25   22 1019.2 ***** 1016.4 *** *** ***** ***** ***** ***** **
343910 ***** 201504020300 120   7 *** *** SCT * * *  6.2 ** ** ** ** ** ** ** ** *   24   22 1019.0 ***** 1016.2 ***  23 ***** ***** *****  0.00 **
343910 ***** 201504020600 140   7 *** *** SCT * * *  6.2 ** ** ** ** ** ** ** ** *   42   25 1019.0 ***** 1016.3 *** *** ***** ***** ***** ***** **
343910 ***** 201504020900 130  11  22 *** SCT * * *  6.2 ** ** ** ** ** ** ** ** *   51   19 1017.5 ***** 1014.9 *** *** ***** ***** ***** ***** **
343910 ***** 201504021200 130  13 *** *** SCT * * *  6.2 ** ** ** ** ** ** ** ** *   53   15 1015.3 ***** 1012.7 *** *** ***** ***** ***** ***** **
343910 ***** 201504021500 120   7 *** *** SCT * * *  6.2 ** ** ** ** ** ** ** ** *   46   17 1014.2 ***** 1011.5  54 *** ***** ***** *****  0.00 **
343910 ***** 201504021800 110  11 *** *** *** * * *  6.2 ** ** ** ** ** ** ** ** *   37   24 1014.3 ***** 1011.6 *** *** ***** ***** ***** ***** **
343910 ***** 201504022100 110   9 *** *** *** * * *  6.2 ** ** ** ** ** ** ** ** *   31   24 1014.0 ***** 1011.2 *** *** ***** ***** ***** ***** **
343910 ***** 201504030000 110   9 *** *** *** * * *  6.2 ** ** ** ** ** ** ** ** *   26   24 1013.7 ***** 1010.9 *** *** ***** ***** ***** ***** **
343910 ***** 201504030300 100   9 *** *** SCT * * *  6.2 ** ** ** ** ** ** ** ** *   25   23 1013.0 ***** 1010.2 ***  24 ***** ***** *****  0.00 **
343910 ***** 201504030600 120  11 *** *** BKN * * *  6.2 ** ** ** ** ** ** ** ** *   35   26 1012.1 ***** 1009.4 *** *** ***** ***** ***** ***** **
343910 ***** 201504030900 120  16 *** *** SCT * * *  6.2 ** ** ** ** ** ** ** ** *   48   22 1010.1 ***** 1007.4 *** *** ***** ***** ***** ***** **
343910 ***** 201504031200 150  16 *** *** OVC * * *  6.2 ** ** ** ** ** ** ** ** *   51   21 1010.0 ***** 1007.4 *** *** ***** ***** ***** ***** **
343910 ***** 201504031500 210   9 *** *** OVC * * *  6.2 ** ** ** ** ** ** ** ** *   42   35 1011.0 ***** 1008.3  51 *** ***** ***** *****  0.00 **
343910 ***** 201504031800 190   7 ***  17 OVC * * *  2.5 61 ** ** ** ** ** ** ** 6   38   36 1011.8 ***** 1009.1 *** *** ***** ***** ***** ***** **
343910 ***** 201504032100 050   2 ***  17 OVC * * *  2.5 61 ** ** ** ** ** ** ** 6   37   36 1011.7 ***** 1009.0 *** *** ***** ***** ***** ***** **
343910 ***** 201504040000 360   2 ***  19 OVC * * *  6.2 02 ** ** ** ** ** ** ** 6   37   36 1011.8 ***** 1009.1 *** *** ***** ***** ***** ***** **
343910 ***** 201504040300 060   2 ***  20 OVC * * *  6.2 ** ** ** ** ** ** ** ** *   35   34 1012.5 ***** 1009.8 ***  35 ***** ***** *****  0.08 **
343910 ***** 201504040600 060   7 ***  21 OVC * * *  6.2 ** ** ** ** ** ** ** ** *   36   35 1013.2 ***** 1010.5 ***  35 ***** ***** ***** ***** **
343910 ***** 201504040900 040   7 ***  22 OVC * * *  6.2 ** ** ** ** ** ** ** ** *   40   36 1013.8 ***** 1011.1 *** *** ***** ***** ***** ***** **
343910 ***** 201504041200 060   7 *** *** OVC * * *  6.2 ** ** ** ** ** ** ** ** *   41   35 1014.6 ***** 1011.9 *** *** ***** ***** ***** ***** **
343910 ***** 201504041500 060   7 *** *** OVC * * *  6.2 ** ** ** ** ** ** ** ** *   39   34 1014.6 ***** 1011.9  42 *** ***** ***** *****  0.00 **
343910 ***** 201504041800 090   4 *** *** OVC * * *  6.2 ** ** ** ** ** ** ** ** *   38   33 1015.6 ***** 1012.9 *** *** ***** ***** ***** ***** **
343910 ***** 201504042100 090   4 *** *** OVC * * *  6.2 ** ** ** ** ** ** ** ** *   37   34 1015.7 ***** 1013.0 *** *** ***** ***** ***** ***** **
343910 ***** 201504050000 080   4 *** *** OVC * * *  2.5 10 ** ** ** ** ** ** ** 2   37   36 1014.6 ***** 1011.9 *** *** ***** ***** ***** ***** **
343910 ***** 201504050300 100   4 ***   4 OBS * * *  0.3 45 ** ** ** ** ** ** ** 5   37   36 1013.8 ***** 1011.1 ***  37 ***** ***** *****  0.01 **
343910 ***** 201504050600 140   9 ***  18 OVC * * *  2.5 61 ** ** ** ** ** ** ** 6   38   37 1013.6 ***** 1010.9 *** *** ***** ***** ***** ***** **
343910 ***** 201504050900 150  11 ***  18 OVC * * *  2.5 51 ** ** ** ** ** ** ** 6   40   37 1013.7 ***** 1011.0 *** *** ***** ***** ***** ***** **
343910 ***** 201504051200 220   4 ***  18 OVC * * *  2.5 61 ** ** ** ** ** ** ** 6   42   39 1013.9 ***** 1011.2 *** *** ***** ***** ***** ***** **
343910 ***** 201504051500 260   4 *** *** BKN * * *  6.2 01 ** ** ** ** ** ** ** 6   42   38 1014.5 ***** 1011.9  44 *** ***** ***** *****  0.24 **
343910 ***** 201504051800 240   4 *** *** BKN * * *  6.2 03 ** ** ** ** ** ** ** 6   36   34 1016.0 ***** 1013.2 *** *** ***** ***** ***** ***** **
343910 ***** 201504052100 240   9 *** *** SCT * * *  6.2 ** ** ** ** ** ** ** ** *   36   33 1017.1 ***** 1014.3 *** *** ***** ***** ***** ***** **
343910 ***** 201504060000 240   7 *** *** SCT * * *  6.2 ** ** ** ** ** ** ** ** *   32   30 1018.3 ***** 1015.5 *** *** ***** ***** ***** ***** **
343910 ***** 201504060300 240   7 *** *** *** * * *  6.2 ** ** ** ** ** ** ** ** *   31   29 1020.2 ***** 1017.4 ***  30 ***** ***** *****  0.00 **
343910 ***** 201504060600 240   9 *** *** *** * * *  6.2 ** ** ** ** ** ** ** ** *   44   37 1021.9 ***** 1019.2 *** *** ***** ***** ***** ***** **
343910 ***** 201504060900 260  13 *** *** BKN * * *  6.2 ** ** ** ** ** ** ** ** *   51   29 1022.7 ***** 1020.0 *** *** ***** ***** ***** ***** **
343910 ***** 201504061200 240  11 *** *** BKN * * *  6.2 ** ** ** ** ** ** ** ** *   53   25 1022.9 ***** 1020.2 *** *** ***** ***** ***** ***** **
343910 ***** 201504061500 240   9 *** *** BKN * * *  6.2 ** ** ** ** ** ** ** ** *   49   30 1023.5 ***** 1020.8  55 *** ***** ***** *****  0.00 **
343910 ***** 201504061800 200   2 *** *** SCT * * *  6.2 ** ** ** ** ** ** ** ** *   37   30 1024.7 ***** 1022.0 *** *** ***** ***** ***** ***** **
343910 ***** 201504062100 190   2 *** *** SCT * * *  6.2 ** ** ** ** ** ** ** ** *   33   28 1024.7 ***** 1021.9 *** *** ***** ***** ***** ***** **
343910 ***** 201504070000 200   2 *** *** BKN * * *  6.2 ** ** ** ** ** ** ** ** *   35   30 1024.2 ***** 1021.5 *** *** ***** ***** ***** ***** **
343910 ***** 201504070300 200   7 ***  18 OVC * * *  2.5 61 ** ** ** ** ** ** ** 6   41   36 1024.9 ***** 1022.2 ***  33 ***** ***** *****  0.00T**
343910 ***** 201504070600 050   4 ***  21 BKN * * *  6.2 01 ** ** ** ** ** ** ** 6   47   39 1024.6 ***** 1021.9 *** *** ***** ***** ***** ***** **
343910 ***** 201504070900 120   7 *** *** BKN * * *  6.2 ** ** ** ** ** ** ** ** *   55   37 1022.8 ***** 1020.2 *** *** ***** ***** ***** ***** **
343910 ***** 201504071200 150  11 *** *** BKN * * *  6.2 ** ** ** ** ** ** ** ** *   58   28 1020.5 ***** 1017.9 *** *** ***** ***** ***** ***** **
343910 ***** 201504071500 120   4 ***  30 BKN * * *  6.2 ** ** ** ** ** ** ** ** *   53   31 1018.3 ***** 1015.7  58 *** ***** ***** *****  0.00T**
343910 ***** 201504071800 140   7 *** *** SCT * * *  6.2 ** ** ** ** ** ** ** ** *   47   33 1018.0 ***** 1015.3 *** *** ***** ***** ***** ***** **
343910 ***** 201504072100 100   7 *** *** BKN * * *  6.2 ** ** ** ** ** ** ** ** *   45   34 1016.6 ***** 1013.9 *** *** ***** ***** ***** ***** **
343910 ***** 201504080000 130  11 ***  25 OVC * * *  6.2 ** ** ** ** ** ** ** ** *   43   33 1015.1 ***** 1012.4 *** *** ***** ***** ***** ***** **
343910 ***** 201504080300 120  11 ***  25 OVC * * *  6.2 ** ** ** ** ** ** ** ** *   42   32 1013.3 ***** 1010.6 ***  42 ***** ***** *****  0.00 **
343910 ***** 201504080600 140   9 ***  18 OVC * * *  2.5 51 ** ** ** ** ** ** ** 5   44   31 1013.7 ***** 1011.0 *** *** ***** ***** ***** ***** **
343910 ***** 201504080900 140  13 ***  25 OVC * * *  6.2 ** ** ** ** ** ** ** ** *   50   32 1011.4 ***** 1008.7 *** *** ***** ***** ***** ***** **
343910 ***** 201504081200 140  11 ***  25 OVC * * *  6.2 ** ** ** ** ** ** ** ** *   53   33 1008.9 ***** 1006.3 *** *** ***** ***** ***** ***** **
343910 ***** 201504081500 110   2 *** *** BKN * * *  6.2 ** ** ** ** ** ** ** ** *   53   34 1008.4 ***** 1005.8  55 *** ***** ***** *****  0.00T**
343910 ***** 201504081800 020   2 *** *** OVC * * *  6.2 ** ** ** ** ** ** ** ** *   47   37 1007.6 ***** 1005.0 *** *** ***** ***** ***** ***** **
343910 ***** 201504082100 190   2 *** *** OVC * * *  6.2 ** ** ** ** ** ** ** ** *   44   37 1004.7 ***** 1002.0 *** *** ***** ***** ***** ***** **
343910 ***** 201504090000 260   9 ***  18 OVC * * *  2.5 61 ** ** ** ** ** ** ** 6   44   40 1004.3 ***** 1001.6 *** *** ***** ***** ***** ***** **
343910 ***** 201504090300 190   7 *** *** SCT * * *  6.2 01 ** ** ** ** ** ** ** 6   41   40 1002.5 *****  999.8 ***  41 ***** ***** *****  0.03 **
343910 ***** 201504090600 220  18 *** *** BKN * * *  6.2 03 ** ** ** ** ** ** ** 6   45   39 1002.1 *****  999.5 *** *** ***** ***** ***** ***** **
343910 ***** 201504090900 240  16 *** *** BKN * * *  6.2 02 ** ** ** ** ** ** ** 6   47   39 1002.7 ***** 1000.1 *** *** ***** ***** ***** ***** **
343910 ***** 201504091200 250  13 *** *** BKN * * *  6.2 01 ** ** ** ** ** ** ** 6   51   37 1003.8 ***** 1001.2 *** *** ***** ***** ***** ***** **
343910 ***** 201504091500 230   9 *** *** BKN * * *  6.2 ** ** ** ** ** ** ** ** *   50   38 1004.7 ***** 1002.1  52 *** ***** ***** *****  0.00 **
343910 ***** 201504091800 210   7 *** *** OVC * * *  6.2 ** ** ** ** ** ** ** ** *   46   39 1006.1 ***** 1003.4 *** *** ***** ***** ***** ***** **
343910 ***** 201504092100 240   7 *** *** BKN * * *  6.2 ** ** ** ** ** ** ** ** *   40   36 1007.0 ***** 1004.3 *** *** ***** ***** ***** ***** **
343910 ***** 201504100000 260   4 *** *** BKN * * *  6.2 ** ** ** ** ** ** ** ** *   40   37 1008.0 ***** 1005.3 *** *** ***** ***** ***** ***** **
343910 ***** 201504100300 330   4 *** *** OVC * * *  6.2 ** ** ** ** ** ** ** ** *   37   33 1010.8 ***** 1008.1 ***  37 ***** ***** *****  0.00 **
343910 ***** 201504100600 350   7 *** *** BKN * * *  6.2 ** ** ** ** ** ** ** ** *   42   33 1012.8 ***** 1010.1 *** *** ***** ***** ***** ***** **
343910 ***** 201504100900 340   9 *** *** BKN * * *  6.2 ** ** ** ** ** ** ** ** *   50   29 1013.3 ***** 1010.6 *** *** ***** ***** ***** ***** **
343910 ***** 201504101200 330   7 *** *** SCT * * *  6.2 ** ** ** ** ** ** ** ** *   55   22 1013.2 ***** 1010.6 *** *** ***** ***** ***** ***** **
343910 ***** 201504101500 330   4 *** *** SCT * * *  6.2 ** ** ** ** ** ** ** ** *   51   23 1014.1 ***** 1011.5  55 *** ***** ***** *****  0.00 **
343910 ***** 201504101800 280   2 *** *** *** * * *  6.2 ** ** ** ** ** ** ** ** *   38   24 1015.6 ***** 1012.8 *** *** ***** ***** ***** ***** **
343910 ***** 201504102100 230   7 *** *** *** * * *  6.2 ** ** ** ** ** ** ** ** *   33   24 1015.8 ***** 1013.1 *** *** ***** ***** ***** ***** **
343910 ***** 201504110000 220   9 *** *** BKN * * *  6.2 ** ** ** ** ** ** ** ** *   35   26 1014.8 ***** 1012.1 *** *** ***** ***** ***** ***** **
343910 ***** 201504110300 270   4 *** *** SCT * * *  6.2 ** ** ** ** ** ** ** ** *   36   28 1015.5 ***** 1012.8 ***  32 ***** ***** *****  0.00 **
343910 ***** 201504110600 320   9 *** *** SCT * * *  6.2 ** ** ** ** ** ** ** ** *   52   31 1016.5 ***** 1013.9 *** *** ***** ***** ***** ***** **
343910 ***** 201504110900 280   9 *** *** SCT * * *  6.2 ** ** ** ** ** ** ** ** *   59   28 1016.9 ***** 1014.3 *** *** ***** ***** ***** ***** **
343910 ***** 201504111800 230   7 *** *** *** * * *  6.2 ** ** ** ** ** ** ** ** *   45   31 1016.9 ***** 1014.2 *** *** ***** ***** ***** ***** **
343910 ***** 201504112100 260   9 *** *** *** * * *  6.2 ** ** ** ** ** ** ** ** *   46   30 1017.5 ***** 1014.8 *** *** ***** ***** ***** ***** **
343910 ***** 201504120000 240   4 *** *** *** * * *  6.2 ** ** ** ** ** ** ** ** *   38   30 1017.4 ***** 1014.7 *** *** ***** ***** ***** ***** **
343910 ***** 201504120300 310   4 *** *** *** * * *  6.2 ** ** ** ** ** ** ** ** *   37   30 1018.9 ***** 1016.1 ***  35 ***** ***** *****  0.00 **
343910 ***** 201504120600 050   9 *** *** *** * * *  6.2 ** ** ** ** ** ** ** ** *   57   31 1020.8 ***** 1018.2 *** *** ***** ***** ***** ***** **
343910 ***** 201504120900 040   9 *** *** *** * * *  6.2 ** ** ** ** ** ** ** ** *   63   26 1021.1 ***** 1018.5 *** *** ***** ***** ***** ***** **
343910 ***** 201504121200 350   7 *** *** *** * * *  6.2 ** ** ** ** ** ** ** ** *   64   22 1020.7 ***** 1018.1 *** *** ***** ***** ***** ***** **
343910 ***** 201504121500 040   7 *** *** *** * * *  6.2 ** ** ** ** ** ** ** ** *   58   11 1021.3 ***** 1018.7  65 *** ***** ***** *****  0.00 **
343910 ***** 201504121800 050   7 *** *** *** * * *  6.2 ** ** ** ** ** ** ** ** *   44   20 1022.8 ***** 1020.1 *** *** ***** ***** ***** ***** **
343910 ***** 201504122100 080   7 *** *** *** * * *  6.2 ** ** ** ** ** ** ** ** *   39   21 1023.4 ***** 1020.7 *** *** ***** ***** ***** ***** **
343910 ***** 201504130000 080   7 *** *** *** * * *  6.2 ** ** ** ** ** ** ** ** *   35   22 1023.6 ***** 1020.8 *** *** ***** ***** ***** ***** **
343910 ***** 201504130300 100   4 *** *** *** * * *  6.2 ** ** ** ** ** ** ** ** *   32   23 1023.7 ***** 1021.0 ***  31 ***** ***** *****  0.00 **
343910 ***** 201504130600 130   7 *** *** *** * * *  6.2 ** ** ** ** ** ** ** ** *   55   24 1023.5 ***** 1020.9 *** *** ***** ***** ***** ***** **
343910 ***** 201504130900 130   9 *** *** *** * * *  6.2 ** ** ** ** ** ** ** ** *   59   19 1021.8 ***** 1019.2 *** *** ***** ***** ***** ***** **
343910 ***** 201504131200 090   7 *** *** SCT * * *  6.2 ** ** ** ** ** ** ** ** *   62   22 1020.2 ***** 1017.6 *** *** ***** ***** ***** ***** **
343910 ***** 201504131500 110   4 *** *** *** * * *  6.2 ** ** ** ** ** ** ** ** *   57   24 1019.1 ***** 1016.5  62 *** ***** ***** *****  0.00 **
343910 ***** 201504131800 090   4 *** *** *** * * *  6.2 ** ** ** ** ** ** ** ** *   42   22 1019.9 ***** 1017.2 *** *** ***** ***** ***** ***** **
343910 ***** 201504132100 100   4 *** *** *** * * *  6.2 ** ** ** ** ** ** ** ** *   38   24 1018.7 ***** 1015.9 *** *** ***** ***** ***** ***** **
343910 ***** 201504140000 110   4 *** *** *** * * *  6.2 ** ** ** ** ** ** ** ** *   33   26 1017.2 ***** 1014.4 *** *** ***** ***** ***** ***** **
343910 ***** 201504140300 090   4 *** *** SCT * * *  6.2 ** ** ** ** ** ** ** ** *   34   27 1016.4 ***** 1013.7 ***  32 ***** ***** *****  0.00 **
343910 ***** 201504140600 140   4 *** *** SCT * * *  6.2 ** ** ** ** ** ** ** ** *   53   31 1015.1 ***** 1012.5 *** *** ***** ***** ***** ***** **
343910 ***** 201504140900 140   7 *** *** SCT * * *  6.2 ** ** ** ** ** ** ** ** *   60   26 1012.9 ***** 1010.3 *** *** ***** ***** ***** ***** **
343910 ***** 201504141200 120   4 *** *** BKN * * *  6.2 ** ** ** ** ** ** ** ** *   62   24 1011.1 ***** 1008.5 *** *** ***** ***** ***** ***** **
343910 ***** 201504141500 120   4 *** *** BKN * * *  6.2 ** ** ** ** ** ** ** ** *   58   28 1010.2 ***** 1007.6  63 *** ***** ***** *****  0.00 **
343910 ***** 201504141800 150   4 *** *** *** * * *  6.2 ** ** ** ** ** ** ** ** *   41   27 1010.7 ***** 1008.0 *** *** ***** ***** ***** ***** **
343910 ***** 201504142100 180   7 *** *** *** * * *  6.2 ** ** ** ** ** ** ** ** *   34   25 1010.2 ***** 1007.5 *** *** ***** ***** ***** ***** **
343910 ***** 201504150000 190   7 *** *** *** * * *  6.2 ** ** ** ** ** ** ** ** *   31   24 1009.9 ***** 1007.1 *** *** ***** ***** ***** ***** **
343910 ***** 201504150300 170   7 *** *** *** * * *  6.2 ** ** ** ** ** ** ** ** *   35   26 1009.7 ***** 1007.0 ***  29 ***** ***** *****  0.00 **
343910 ***** 201504150600 180  16 *** *** *** * * *  6.2 ** ** ** ** ** ** ** ** *   55   26 1009.7 ***** 1007.1 *** *** ***** ***** ***** ***** **
343910 ***** 201504150900 240  11 *** *** SCT * * *  6.2 ** ** ** ** ** ** ** ** *   61   36 1009.3 ***** 1006.8 *** *** ***** ***** ***** ***** **
343910 ***** 201504151200 300  13 *** *** BKN * * *  6.2 ** ** ** ** ** ** ** ** *   53   37 1010.7 ***** 1008.1 *** *** ***** ***** ***** ***** **
343910 ***** 201504151500 280   2 *** *** BKN * * *  6.2 ** ** ** ** ** ** ** ** *   47   35 1011.6 ***** 1008.9  63 *** ***** ***** *****  0.00 **
343910 ***** 201504151800 200   7 *** *** BKN * * *  6.2 ** ** ** ** ** ** ** ** *   44   34 1012.6 ***** 1009.9 *** *** ***** ***** ***** ***** **
343910 ***** 201504152100 200   7 *** *** SCT * * *  6.2 ** ** ** ** ** ** ** ** *   42   35 1012.2 ***** 1009.5 *** *** ***** ***** ***** ***** **
343910 ***** 201504160000 210   7 *** *** SCT * * *  6.2 ** ** ** ** ** ** ** ** *   39   31 1012.1 ***** 1009.4 *** *** ***** ***** ***** ***** **
343910 ***** 201504160300 220   9 *** *** SCT * * *  6.2 ** ** ** ** ** ** ** ** *   35   28 1012.5 ***** 1009.8 ***  34 ***** ***** *****  0.00 **
343910 ***** 201504160600 210   9 *** *** SCT * * *  6.2 ** ** ** ** ** ** ** ** *   53   30 1012.2 ***** 1009.6 *** *** ***** ***** ***** ***** **
343910 ***** 201504160900 210  16 *** *** BKN * * *  6.2 ** ** ** ** ** ** ** ** *   52   30 1012.2 ***** 1009.6 *** *** ***** ***** ***** ***** **
343910 ***** 201504161200 220  16 *** *** BKN * * *  6.2 ** ** ** ** ** ** ** ** *   49   35 1012.5 ***** 1009.9 *** *** ***** ***** ***** ***** **
343910 ***** 201504161500 220  11 *** *** BKN * * *  6.2 ** ** ** ** ** ** ** ** *   50   34 1011.6 ***** 1008.9  56 *** ***** ***** *****  0.00 **
343910 ***** 201504161800 200   9 *** *** BKN * * *  6.2 ** ** ** ** ** ** ** ** *   43   34 1011.4 ***** 1008.8 *** *** ***** ***** ***** ***** **
343910 ***** 201504162100 190  11 *** *** SCT * * *  6.2 ** ** ** ** ** ** ** ** *   42   33 1009.8 ***** 1007.1 *** *** ***** ***** ***** ***** **
343910 ***** 201504170000 210  16 ***  32 BKN * * *  6.2 25 ** ** ** ** ** ** ** 8   46   42 1006.8 ***** 1004.1 *** *** ***** ***** ***** ***** **
343910 ***** 201504170300 210  16 *** *** OVC * * *  6.2 ** ** ** ** ** ** ** ** *   46   43 1005.7 ***** 1003.1 ***  42 ***** ***** *****  0.02 **
343910 ***** 201504170600 250  13 ***  19 OVC * * *  2.5 63 ** ** ** ** ** ** ** 6   48   45 1005.8 ***** 1003.2 *** *** ***** ***** ***** ***** **
343910 ***** 201504170900 260  11 *** *** OVC * * *  6.2 02 ** ** ** ** ** ** ** 6   52   49 1007.0 ***** 1004.4 *** *** ***** ***** ***** ***** **
343910 ***** 201504171200 240  13 *** *** OVC * * *  6.2 02 ** ** ** ** ** ** ** 6   53   48 1007.5 ***** 1004.8 *** *** ***** ***** ***** ***** **
343910 ***** 201504171500 240  13 *** *** OVC * * *  6.2 ** ** ** ** ** ** ** ** *   51   47 1007.1 ***** 1004.4  54 *** ***** ***** *****  0.08 **
343910 ***** 201504171800 240  16 *** *** OVC * * *  6.2 ** ** ** ** ** ** ** ** *   50   47 1007.3 ***** 1004.7 *** *** ***** ***** ***** ***** **
343910 ***** 201504172100 250   7 *** *** OVC * * *  6.2 ** ** ** ** ** ** ** ** *   48   44 1007.2 ***** 1004.6 *** *** ***** ***** ***** ***** **
343910 ***** 201504180000 240   7 *** *** BKN * * *  6.2 ** ** ** ** ** ** ** ** *   42   40 1007.6 ***** 1004.9 *** *** ***** ***** ***** ***** **
343910 ***** 201504180300 260   7 *** *** OVC * * *  6.2 ** ** ** ** ** ** ** ** *   43   42 1007.9 ***** 1005.2 ***  40 ***** ***** *****  0.00 **
343910 ***** 201504180600 290   2 *** *** OVC * * *  6.2 ** ** ** ** ** ** ** ** *   50   45 1007.6 ***** 1005.0 *** *** ***** ***** ***** ***** **
343910 ***** 201504180900 290   2 ***  18 OVC * * *  2.5 51 ** ** ** ** ** ** ** 5   50   37 1006.8 ***** 1004.2 *** *** ***** ***** ***** ***** **
343910 ***** 201504181200 040   4 ***  22 OVC * * *  6.2 21 ** ** ** ** ** ** ** 6   48   40 1006.0 ***** 1003.3 *** *** ***** ***** ***** ***** **
343910 ***** 201504181500 070   9 ***  18 OVC * * *  2.5 63 ** ** ** ** ** ** ** 6   44   42 1004.7 ***** 1002.0  51 *** ***** ***** *****  0.08 **
343910 ***** 201504181800 070   9 ***  17 OVC * * *  2.5 61 ** ** ** ** ** ** ** 6   43   42 1003.4 ***** 1000.8 *** *** ***** ***** ***** ***** **
343910 ***** 201504182100 110   9 ***  16 OVC * * *  2.5 63 ** ** ** ** ** ** ** 6   44   43  999.8 *****  997.2 *** *** ***** ***** ***** ***** **
343910 ***** 201504190000 160   9 ***  17 OVC * * *  6.2 02 ** ** ** ** ** ** ** 6   45   43  997.5 *****  994.9 *** *** ***** ***** ***** ***** **
343910 ***** 201504190300 260   9 ***  18 OVC * * *  6.2 21 ** ** ** ** ** ** ** 6   50   48  997.0 *****  994.4 ***  43 ***** ***** *****  0.47 **
343910 ***** 201504190600 280   9 ***  19 OVC * * *  6.2 02 ** ** ** ** ** ** ** 6   49   46  998.8 *****  996.2 *** *** ***** ***** ***** ***** **
343910 ***** 201504190900 310  11 ***  23 OVC * * *  6.2 ** ** ** ** ** ** ** ** *   50   43 1000.5 *****  997.9 *** *** ***** ***** ***** ***** **
343910 ***** 201504191200 260   7 ***  23 OVC * * *  6.2 ** ** ** ** ** ** ** ** *   49   42 1001.2 *****  998.6 *** *** ***** ***** ***** ***** **
343910 ***** 201504191500 270   4 ***  23 OVC * * *  6.2 ** ** ** ** ** ** ** ** *   48   40 1000.3 *****  997.7  50 *** ***** ***** *****  0.00 **
343910 ***** 201504191800 150   4 ***  23 OVC * * *  6.2 ** ** ** ** ** ** ** ** *   45   42  999.0 *****  996.3 *** *** ***** ***** ***** ***** **
343910 ***** 201504192100 110   4 ***  17 OVC * * *  2.5 61 ** ** ** ** ** ** ** 6   46   44  994.9 *****  992.2 *** *** ***** ***** ***** ***** **
343910 ***** 201504200000 210  22 *** *** OVC * * *  6.2 02 ** ** ** ** ** ** ** 6   51   47  991.5 *****  988.9 *** *** ***** ***** ***** ***** **
343910 ***** 201504200300 230  25 ***  23 OVC * * *  6.2 ** ** ** ** ** ** ** ** *   42   37  992.9 *****  990.3 ***  42 ***** ***** *****  0.16 **
343910 ***** 201504200600 240  25 ***  21 OVC * * *  6.2 21 ** ** ** ** ** ** ** 6   41   35  994.4 *****  991.7 ***  40 ***** ***** ***** ***** **
343910 ***** 201504200900 270  20 *** *** BKN * * *  6.2 ** ** ** ** ** ** ** ** *   44   31 1000.0 *****  997.4 *** *** ***** ***** ***** ***** **
343910 ***** 201504201200 280  13 *** *** BKN * * *  6.2 ** ** ** ** ** ** ** ** *   50   26 1001.7 *****  999.1 *** *** ***** ***** ***** ***** **
343910 ***** 201504201500 250   9 *** *** BKN * * *  6.2 ** ** ** ** ** ** ** ** *   48   29 1003.4 ***** 1000.8  51 *** ***** ***** *****  0.00T**
343910 ***** 201504201800 240   7 *** *** SCT * * *  6.2 ** ** ** ** ** ** ** ** *   43   34 1004.7 ***** 1002.1 *** *** ***** ***** ***** ***** **
343910 ***** 201504202100 220   9 *** *** SCT * * *  6.2 02 ** ** ** ** ** ** ** 8   40   36 1004.5 ***** 1001.8 *** *** ***** ***** ***** ***** **
343910 ***** 201504210000 200   4 *** *** *** * * *  6.2 01 ** ** ** ** ** ** ** 8   34   32 1004.3 ***** 1001.6 *** *** ***** ***** ***** ***** **
343910 ***** 201504210300 200   9 *** *** BKN * * *  6.2 ** ** ** ** ** ** ** ** *   37   35 1004.7 ***** 1002.0 ***  34 ***** ***** *****  0.02 **
343910 ***** 201504210600 210  18 *** *** OVC * * *  6.2 ** ** ** ** ** ** ** ** *   46   38 1005.4 ***** 1002.8 *** *** ***** ***** ***** ***** **
343910 ***** 201504210900 230  18 ***  32 BKN * * *  2.5 61 ** ** ** ** ** ** ** 6   48   40 1005.9 ***** 1003.2 *** *** ***** ***** ***** ***** **
343910 ***** 201504211200 230  20 *** *** BKN * * *  6.2 02 ** ** ** ** ** ** ** 6   53   35 1005.9 ***** 1003.3 *** *** ***** ***** ***** ***** **
343910 ***** 201504211500 250  13 *** *** BKN * * *  6.2 21 ** ** ** ** ** ** ** 6   48   39 1006.2 ***** 1003.6  54 *** ***** ***** *****  0.03 **
343910 ***** 201504211800 210   9 *** *** BKN * * *  6.2 01 ** ** ** ** ** ** ** 6   44   39 1008.2 ***** 1005.5 *** *** ***** ***** ***** ***** **
343910 ***** 201504212100 200   9 ***  17 OVC * * *  2.5 61 ** ** ** ** ** ** ** 6   42   41 1007.5 ***** 1004.8 *** *** ***** ***** ***** ***** **
343910 ***** 201504220000 150   7 ***  18 OVC * * *  6.2 02 ** ** ** ** ** ** ** 6   42   41 1006.9 ***** 1004.3 *** *** ***** ***** ***** ***** **
343910 ***** 201504220300 180   4 *** *** BKN * * *  6.2 ** ** ** ** ** ** ** ** *   41   40 1006.5 ***** 1003.8 ***  41 ***** ***** *****  0.31 **
343910 ***** 201504220600 210  11 ***  25 OVC * * *  6.2 ** ** ** ** ** ** ** ** *   45   41 1006.7 ***** 1004.0 *** *** ***** ***** ***** ***** **
343910 ***** 201504220900 240  16 *** *** BKN * * *  6.2 ** ** ** ** ** ** ** ** *   46   37 1006.6 ***** 1004.0 *** *** ***** ***** ***** ***** **
343910 ***** 201504221200 240  18 *** *** BKN * * *  6.2 ** ** ** ** ** ** ** ** *   50   28 1005.5 ***** 1002.9 *** *** ***** ***** ***** ***** **
343910 ***** 201504221500 260  16 *** *** BKN * * *  6.2 ** ** ** ** ** ** ** ** *   44   35 1005.5 ***** 1002.9  51 *** ***** ***** *****  0.00 **
343910 ***** 201504221800 250  11 *** *** SCT * * *  6.2 01 ** ** ** ** ** ** ** 6   40   33 1006.8 ***** 1004.2 *** *** ***** ***** ***** ***** **
343910 ***** 201504222100 260  11 *** *** SCT * * *  6.2 ** ** ** ** ** ** ** ** *   37   32 1007.8 ***** 1005.1 *** *** ***** ***** ***** ***** **
343910 ***** 201504230000 260  11 *** *** SCT * * *  6.2 ** ** ** ** ** ** ** ** *   35   32 1008.7 ***** 1006.0 *** *** ***** ***** ***** ***** **
343910 ***** 201504230300 250   9 *** *** *** * * *  6.2 ** ** ** ** ** ** ** ** *   34   31 1009.7 ***** 1007.0 ***  32 ***** ***** *****  0.00 **
343910 ***** 201504230600 250  13 *** *** SCT * * *  6.2 ** ** ** ** ** ** ** ** *   46   33 1010.6 ***** 1007.9 *** *** ***** ***** ***** ***** **
343910 ***** 201504230900 250  18 *** *** BKN * * *  6.2 03 ** ** ** ** ** ** ** 8   48   30 1010.1 ***** 1007.4 *** *** ***** ***** ***** ***** **
343910 ***** 201504231200 250  18 *** *** BKN * * *  6.2 01 ** ** ** ** ** ** ** 8   53   25 1009.6 ***** 1007.0 *** *** ***** ***** ***** ***** **
343910 ***** 201504231500 240  16 *** *** BKN * * *  6.2 ** ** ** ** ** ** ** ** *   50   25 1009.6 ***** 1007.0  53 *** ***** ***** *****  0.04 **
343910 ***** 201504231800 220  11 *** *** SCT * * *  6.2 ** ** ** ** ** ** ** ** *   42   31 1010.4 ***** 1007.7 *** *** ***** ***** ***** ***** **
343910 ***** 201504232100 230  13 *** *** SCT * * *  6.2 ** ** ** ** ** ** ** ** *   43   32 1009.7 ***** 1007.0 *** *** ***** ***** ***** ***** **
343910 ***** 201504240000 230  16 *** *** *** * * *  6.2 ** ** ** ** ** ** ** ** *   40   32 1008.4 ***** 1005.7 *** *** ***** ***** ***** ***** **
343910 ***** 201504240300 230  16 *** *** SCT * * *  6.2 ** ** ** ** ** ** ** ** *   41   32 1007.7 ***** 1005.0 ***  39 ***** ***** *****  0.00 **
343910 ***** 201504240600 230  22 *** *** SCT * * *  6.2 ** ** ** ** ** ** ** ** *   54   34 1007.4 ***** 1004.5 *** *** ***** ***** ***** ***** **
343910 ***** 201504241200 260  20 *** *** BKN * * *  6.2 ** ** ** ** ** ** ** ** *   64   35 1003.9 ***** 1001.4 *** *** ***** ***** ***** ***** **
343910 ***** 201504241500 270  11 *** *** BKN * * *  6.2 ** ** ** ** ** ** ** ** *   61   39 1004.5 ***** 1001.9  67 *** ***** ***** *****  0.00 **
343910 ***** 201504241800 290   7 *** *** *** * * *  6.2 ** ** ** ** ** ** ** ** *   51   30 1007.3 ***** 1004.7 *** *** ***** ***** ***** ***** **
343910 ***** 201504242100 280   4 *** *** *** * * *  6.2 ** ** ** ** ** ** ** ** *   42   29 1009.9 ***** 1007.2 *** *** ***** ***** ***** ***** **
343910 ***** 201504250000 270   4 *** *** *** * * *  6.2 ** ** ** ** ** ** ** ** *   37   27 1010.8 ***** 1008.1 *** *** ***** ***** ***** ***** **
343910 ***** 201504250300 *** *** *** *** BKN * * *  6.2 ** ** ** ** ** ** ** ** *   39   30 1011.8 ***** 1009.1 ***  35 ***** ***** *****  0.00 **
343910 ***** 201504250600 210  11 *** *** *** * * *  6.2 ** ** ** ** ** ** ** ** *   58   27 1011.0 ***** 1008.4 *** *** ***** ***** ***** ***** **
343910 ***** 201504250900 220  18 *** *** BKN * * *  6.2 ** ** ** ** ** ** ** ** *   68   35 1008.5 ***** 1005.9 *** *** ***** ***** ***** ***** **
343910 ***** 201504251200 280  11 *** *** BKN * * *  6.2 ** ** ** ** ** ** ** ** *   70   34 1005.9 ***** 1003.3 *** *** ***** ***** ***** ***** **
343910 ***** 201504251500 260   9 *** *** BKN * * *  6.2 ** ** ** ** ** ** ** ** *   68   37 1004.2 ***** 1001.7  72 *** ***** ***** *****  0.00 **
343910 ***** 201504251800 270   7 *** *** SCT * * *  6.2 ** ** ** ** ** ** ** ** *   56   38 1005.0 ***** 1002.4 *** *** ***** ***** ***** ***** **
343910 ***** 201504252100 320  11 *** *** SCT * * *  6.2 ** ** ** ** ** ** ** ** *   49   36 1008.6 ***** 1006.0 *** *** ***** ***** ***** ***** **
343910 ***** 201504260000 320   9 *** *** *** * * *  6.2 ** ** ** ** ** ** ** ** *   40   28 1011.6 ***** 1008.9 *** *** ***** ***** ***** ***** **
343910 ***** 201504260300 320   9 *** *** *** * * *  6.2 ** ** ** ** ** ** ** ** *   39   30 1014.7 ***** 1012.0 ***  36 ***** ***** *****  0.00 **
343910 ***** 201504260600 340  11 *** *** SCT * * *  6.2 ** ** ** ** ** ** ** ** *   51   26 1016.4 ***** 1013.7 *** *** ***** ***** ***** ***** **
343910 ***** 201504260900 310  11 *** *** SCT * * *  6.2 ** ** ** ** ** ** ** ** *   57   23 1017.0 ***** 1014.4 *** *** ***** ***** ***** ***** **
343910 ***** 201504261200 320  13 *** *** SCT * * *  6.2 ** ** ** ** ** ** ** ** *   60   21 1016.9 ***** 1014.3 *** *** ***** ***** ***** ***** **
343910 ***** 201504261500 290   7 *** *** SCT * * *  6.2 ** ** ** ** ** ** ** ** *   58   23 1017.2 ***** 1014.6  60 *** ***** ***** *****  0.00 **
343910 ***** 201504261800 230   9 *** *** SCT * * *  6.2 ** ** ** ** ** ** ** ** *   45   31 1018.2 ***** 1015.5 *** *** ***** ***** ***** ***** **
343910 ***** 201504262100 230   9 *** *** BKN * * *  6.2 ** ** ** ** ** ** ** ** *   45   29 1018.7 ***** 1016.0 *** *** ***** ***** ***** ***** **
343910 ***** 201504270000 220   9 *** *** BKN * * *  6.2 ** ** ** ** ** ** ** ** *   44   27 1018.4 ***** 1015.8 *** *** ***** ***** ***** ***** **
343910 ***** 201504270300 220  16 *** *** SCT * * *  6.2 ** ** ** ** ** ** ** ** *   48   25 1019.0 ***** 1016.3 ***  44 ***** ***** *****  0.00 **
343910 ***** 201504270600 230  20 *** *** BKN * * *  6.2 ** ** ** ** ** ** ** ** *   61   26 1019.5 ***** 1016.9 *** *** ***** ***** ***** ***** **
343910 ***** 201504270900 230  16 *** *** BKN * * *  6.2 02 ** ** ** ** ** ** ** 8   67   38 1018.2 ***** 1015.7 *** *** ***** ***** ***** ***** **
343910 ***** 201504271200 240  18 *** *** SCT * * *  6.2 01 ** ** ** ** ** ** ** 8   74   40 1017.1 ***** 1014.5 *** *** ***** ***** ***** ***** **
343910 ***** 201504271500 230  13 *** *** SCT * * *  6.2 ** ** ** ** ** ** ** ** *   70   41 1016.7 ***** 1014.1  74 *** ***** ***** *****  0.00 **
343910 ***** 201504271800 220   9 *** *** SCT * * *  6.2 ** ** ** ** ** ** ** ** *   57   42 1017.4 ***** 1014.8 *** *** ***** ***** ***** ***** **
343910 ***** 201504272100 210   9 *** *** SCT * * *  6.2 ** ** ** ** ** ** ** ** *   50   38 1017.9 ***** 1015.3 *** *** ***** ***** ***** ***** **
343910 ***** 201504280000 220   7 *** *** *** * * *  6.2 ** ** ** ** ** ** ** ** *   47   37 1018.2 ***** 1015.5 *** *** ***** ***** ***** ***** **
343910 ***** 201504280300 230   7 *** *** SCT * * *  6.2 ** ** ** ** ** ** ** ** *   50   38 1019.3 ***** 1016.7 ***  45 ***** ***** *****  0.00 **
343910 ***** 201504280600 230   9 *** *** SCT * * *  6.2 ** ** ** ** ** ** ** ** *   66   44 1019.7 ***** 1017.1 *** *** ***** ***** ***** ***** **
343910 ***** 201504280900 230  11 *** *** SCT * * *  6.2 ** ** ** ** ** ** ** ** *   77   41 1019.7 ***** 1017.1 *** *** ***** ***** ***** ***** **
343910 ***** 201504281200 220   9 *** *** SCT * * *  6.2 ** ** ** ** ** ** ** ** *   77   38 1019.4 ***** 1016.9 *** *** ***** ***** ***** ***** **
343910 ***** 201504281500 210   4 *** *** SCT * * *  6.2 ** ** ** ** ** ** ** ** *   72   40 1019.3 ***** 1016.7  78 *** ***** ***** *****  0.00 **
343910 ***** 201504281800 190   4 *** *** *** * * *  6.2 ** ** ** ** ** ** ** ** *   58   41 1020.3 ***** 1017.7 *** *** ***** ***** ***** ***** **
343910 ***** 201504282100 120   4 *** *** SCT * * *  6.2 ** ** ** ** ** ** ** ** *   53   45 1020.8 ***** 1018.1 *** *** ***** ***** ***** ***** **
343910 ***** 201504290000 180   4 *** *** *** * * *  6.2 ** ** ** ** ** ** ** ** *   46   43 1020.6 ***** 1017.9 *** *** ***** ***** ***** ***** **
343910 ***** 201504290300 180   2 *** *** *** * * *  6.2 ** ** ** ** ** ** ** ** *   52   40 1021.1 ***** 1018.5 ***  46 ***** ***** *****  0.00 **
343910 ***** 201504290600 130   2 *** *** *** * * *  6.2 ** ** ** ** ** ** ** ** *   74   38 1021.4 ***** 1018.9 *** *** ***** ***** ***** ***** **
343910 ***** 201504290900 130   4 *** *** SCT * * *  6.2 ** ** ** ** ** ** ** ** *   78   35 1020.4 ***** 1017.9 *** *** ***** ***** ***** ***** **
343910 ***** 201504291200 130   7 *** *** *** * * *  6.2 ** ** ** ** ** ** ** ** *   79   34 1019.2 ***** 1016.7 *** *** ***** ***** ***** ***** **
343910 ***** 201504291500 130   4 *** *** SCT * * *  6.2 ** ** ** ** ** ** ** ** *   74   40 1018.5 ***** 1016.0  79 *** ***** ***** *****  0.00 **
343910 ***** 201504291800 120   4 *** *** SCT * * *  6.2 ** ** ** ** ** ** ** ** *   58   42 1019.4 ***** 1016.8 *** *** ***** ***** ***** ***** **
343910 ***** 201504292100 140   4 *** *** SCT * * *  6.2 ** ** ** ** ** ** ** ** *   52   39 1019.7 ***** 1017.0 *** *** ***** ***** ***** ***** **
343910 ***** 201504300000 120   4 *** *** SCT * * *  6.2 10 ** ** ** ** ** ** ** 0   47   36 1019.6 ***** 1016.9 *** *** ***** ***** ***** ***** **
343910 ***** 201504300300 120   4 *** *** SCT * * *  6.2 ** ** ** ** ** ** ** ** *   50   37 1020.1 ***** 1017.5 ***  46 ***** ***** *****  0.00 **
343910 ***** 201504300600 140   9 *** *** SCT * * *  6.2 ** ** ** ** ** ** ** ** *   73   36 1019.8 ***** 1017.3 *** *** ***** ***** ***** ***** **
343910 ***** 201504300900 150  16 *** *** BKN * * *  6.2 ** ** ** ** ** ** ** ** *   79   30 1018.5 ***** 1016.0 *** *** ***** ***** ***** ***** **
343910 ***** 201504301200 150  11 *** *** BKN * * *  6.2 ** ** ** ** ** ** ** ** *   76   33 1017.3 ***** 1014.8 *** *** ***** ***** ***** ***** **
343910 ***** 201504301500 130   7 *** *** BKN * * *  6.2 ** ** ** ** ** ** ** ** *   71   36 1016.2 ***** 1013.7  80 *** ***** ***** *****  0.00 **
343910 ***** 201504301800 120   9 *** *** SCT * * *  6.2 ** ** ** ** ** ** ** ** *   61   42 1017.2 ***** 1014.6 *** *** ***** ***** ***** ***** **
343910 ***** 201504302100 120   7 *** *** *** * * *  6.2 ** ** ** ** ** ** ** ** *   53   42 1017.4 ***** 1014.7 *** *** ***** ***** ***** ***** **
343910 ***** 201505010000 100   7 *** *** *** * * *  6.2 ** ** ** ** ** ** ** ** *   53   42 1016.9 ***** 1014.2 *** *** ***** ***** ***** ***** **
343910 ***** 201505010300 090   4 *** *** BKN * * *  6.2 ** ** ** ** ** ** ** ** *   52   43 1016.5 ***** 1013.8 ***  50 ***** ***** *****  0.00 **
343910 ***** 201505010600 090   9 *** *** BKN * * *  6.2 ** ** ** ** ** ** ** ** *   67   47 1016.2 ***** 1013.6 *** *** ***** ***** ***** ***** **
343910 ***** 201505010900 120   9 *** *** SCT * * *  6.2 ** ** ** ** ** ** ** ** *   78   42 1015.5 ***** 1013.0 *** *** ***** ***** ***** ***** **
343910 ***** 201505011200 070  11 *** *** BKN * * *  6.2 ** ** ** ** ** ** ** ** *   77   37 1014.3 ***** 1011.8 *** *** ***** ***** ***** ***** **
343910 ***** 201505011500 100   7 *** *** BKN * * *  6.2 ** ** ** ** ** ** ** ** *   73   39 1013.9 ***** 1011.4  80 *** ***** ***** *****  0.00 **
343910 ***** 201505020000 290   4 ***  18 OVC * * *  2.5 61 ** ** ** ** ** ** ** 6   57   48 1014.3 ***** 1011.7 *** *** ***** ***** ***** ***** **
343910 ***** 201505020300 020   2 ***  17 OVC * * *  2.5 60 ** ** ** ** ** ** ** 6   56   50 1014.1 ***** 1011.5 ***  55 ***** ***** *****  0.00T**
343910 ***** 201505020600 350   2 ***  18 OVC * * *  2.5 61 ** ** ** ** ** ** ** 6   58   53 1014.4 ***** 1011.8 *** *** ***** ***** ***** ***** **
343910 ***** 201505020900 010   9 *** *** BKN * * *  6.2 21 ** ** ** ** ** ** ** 6   63   54 1012.7 ***** 1010.1 *** *** ***** ***** ***** ***** **
343910 ***** 201505021200 080  16 *** *** BKN * * *  6.2 ** ** ** ** ** ** ** ** *   76   41 1009.7 ***** 1007.2 *** *** ***** ***** ***** ***** **
343910 ***** 201505021500 090   9 *** *** BKN * * *  6.2 ** ** ** ** ** ** ** ** *   74   35 1008.0 ***** 1005.5  78 *** ***** ***** *****  0.04 **
343910 ***** 201505040000 320   2 *** *** SCT * * *  6.2 ** ** ** ** ** ** ** ** *   48   45 1003.5 ***** 1000.9 *** *** ***** ***** ***** ***** **
343910 ***** 201505040300 320   4 *** *** *** * * *  6.2 ** ** ** ** ** ** ** ** *   52   48 1004.2 ***** 1001.6 ***  47 ***** ***** *****  0.00 **
343910 ***** 201505040600 300   9 *** *** *** * * *  6.2 ** ** ** ** ** ** ** ** *   68   51 1005.1 ***** 1002.6 *** *** ***** ***** ***** ***** **
343910 ***** 201505040900 270   7 *** *** SCT * * *  6.2 ** ** ** ** ** ** ** ** *   76   51 1005.5 ***** 1003.0 *** *** ***** ***** ***** ***** **
343910 ***** 201505041200 280   7 *** *** BKN * * *  6.2 ** ** ** ** ** ** ** ** *   78   48 1005.2 ***** 1002.7 *** *** ***** ***** ***** ***** **
343910 ***** 201505041500 260   7 *** *** BKN * * *  6.2 ** ** ** ** ** ** ** ** *   73   52 1005.6 ***** 1003.1  79 *** ***** ***** *****  0.00 **
343910 ***** 201505041800 240   4 *** *** BKN * * *  6.2 ** ** ** ** ** ** ** ** *   64   51 1007.2 ***** 1004.6 *** *** ***** ***** ***** ***** **
343910 ***** 201505042100 250   4 *** *** OVC * * *  6.2 ** ** ** ** ** ** ** ** *   60   52 1007.5 ***** 1004.9 *** *** ***** ***** ***** ***** **
343910 ***** 201505050000 310   4 *** *** OVC * * *  6.2 ** ** ** ** ** ** ** ** *   58   51 1007.5 ***** 1004.9 *** *** ***** ***** ***** ***** **
343910 ***** 201505050300 240   4 *** *** BKN * * *  6.2 ** ** ** ** ** ** ** ** *   56   52 1008.5 ***** 1005.9 ***  56 ***** ***** *****  0.00 **
343910 ***** 201505050600 270   7 *** *** BKN * * *  6.2 ** ** ** ** ** ** ** ** *   69   54 1009.2 ***** 1006.7 *** *** ***** ***** ***** ***** **
343910 ***** 201505070000 200   4 *** *** *** * * *  6.2 ** ** ** ** ** ** ** ** *   46   43 1007.3 ***** 1004.6 *** *** ***** ***** ***** ***** **
343910 ***** 201505230000 290   4 *** *** *** * * *  6.2 ** ** ** ** ** ** ** ** *   55   40 1020.2 ***** 1017.6 *** *** ***** ***** ***** ***** **
343910 ***** 201505230300 290   4 *** *** *** * * *  6.2 ** ** ** ** ** ** ** ** *   61   43 1020.2 ***** 1017.6 ***  51 ***** ***** *****  0.00 **
343910 ***** 201505230600 300   9 *** *** SCT * * *  6.2 ** ** ** ** ** ** ** ** *   79   37 1019.8 ***** 1017.3 *** *** ***** ***** ***** ***** **
343910 ***** 201506080000 290   2 *** *** *** * * *  6.2 ** ** ** ** ** ** ** ** *   49   38 1022.3 ***** 1019.6 *** *** ***** ***** ***** ***** **
343910 ***** 201506081200 290  13 *** *** *** * * *  6.2 ** ** ** ** ** ** ** ** *   87   41 1018.6 ***** 1015.8 *** *** ***** ***** ***** ***** **
343910 ***** 201506130000 310   4 *** *** SCT * * *  6.2 ** ** ** ** ** ** ** ** *   54   40 1014.0 ***** 1011.4 *** *** ***** ***** ***** ***** **
343910 ***** 201506180300 140   4 ***  98 BKN * * *  6.2 ** ** ** ** ** ** ** ** *   76   35 1006.2 ***** 1003.7 ***  70 ***** ***** ***** ***** **
343910 ***** 201506201200 030  13 ***  32 BKN * * *  2.5 95 ** ** ** ** ** ** ** 9   79   59 1005.3 ***** 1002.8 *** *** ***** ***** ***** ***** **
343910 ***** 201506201500 050  16 ***  30 BKN * * *  6.2 17 ** ** ** ** ** ** ** 9   89   50 1005.9 ***** 1003.5 107 *** ***** ***** *****  0.12 **
343910 ***** 201506210900 140   4 *** *** BKN * * *  6.2 ** ** ** ** ** ** ** ** *   95   45 1005.7 ***** 1003.3 *** *** ***** ***** ***** ***** **
343910 ***** 201506220300 040   4 *** *** BKN * * *  6.2 02 ** ** ** ** ** ** ** 9   76   55 1008.9 ***** 1006.5 ***  70 ***** ***** ***** ***** **
343910 ***** 201506221800 180  13 ***  27 BKN * * *  6.2 95 ** ** ** ** ** ** ** 9   82   58 1009.8 ***** 1007.0 *** *** ***** ***** ***** ***** **
343910 ***** 201506230900 020   4 *** *** SCT * * *  6.2 ** ** ** ** ** ** ** ** *   92   59 1011.9 ***** 1009.1 *** *** ***** ***** ***** ***** **
343910 ***** 201506241500 060   7 *** *** SCT * * *  6.2 ** ** ** ** ** ** ** ** *   94   53 1009.3 ***** 1006.9 100 *** ***** ***** *****  0.00 **
343910 ***** 201506271800 250  18  31 *** *** * * * **** ** ** ** ** ** ** ** ** *   79   60 1001.1 *****  998.6 *** *** ***** ***** ***** ***** **
343910 ***** 201506300900 260  13 *** *** SCT * * *  6.2 ** ** ** ** ** ** ** ** *   86   52 1011.1 ***** 1008.6 *** *** ***** ***** ***** ***** **
343910 ***** 201507110600 200   4 ***  29 BKN * * *  6.2 ** ** ** ** ** ** ** ** *   81   61 1001.3 *****  998.5 *** *** ***** ***** ***** ***** **
343910 ***** 201507110900 340   7 ***  30 BKN * * *  6.2 ** ** ** ** ** ** ** ** *   81   61 1000.7 *****  997.9 *** *** ***** ***** ***** ***** **
343910 ***** 201507111200 230   2 *** *** BKN * * *  6.2 ** ** ** ** ** ** ** ** *   88   59  998.4 *****  995.7 *** *** ***** ***** ***** ***** **
343910 ***** 201507111500 230  16 *** *** BKN * * *  6.2 ** ** ** ** ** ** ** ** *   89   56  997.1 *****  994.4  89 *** ***** ***** *****  0.00 **
343910 ***** 201507152100 340   4 ***  19 OVC * * *  2.5 95 ** ** ** ** ** ** ** 9   63   58 1009.2 ***** 1006.3 *** *** ***** ***** ***** ***** **
343910 ***** 201507200000 330   4 *** *** SCT * * *  6.2 ** ** ** ** ** ** ** ** *   54   52 1012.1 ***** 1009.5 *** *** ***** ***** ***** ***** **
343910 ***** 201507301200 300   7  22 *** SCT * * *  6.2 ** ** ** ** ** ** ** ** *   93   53 1008.8 ***** 1006.4 *** *** ***** ***** ***** ***** **
343910 ***** 201508031200 080   2 *** 722 CLR * * *  6.2 ** ** ** ** ** ** ** ** *   87   36 1021.2 ***** 1018.7 *** *** ***** ***** ***** ***** **
343910 ***** 201508170000 020  11 *** *** *** * * * **** ** ** ** ** ** ** ** ** *   63   58 ****** ***** ****** *** *** ***** ***** ***** ***** **
343910 ***** 201508170900 360  13  25 *** *** * * * **** ** ** ** ** ** ** ** ** *   70   56 1004.6 ***** 1002.1 *** *** ***** ***** ***** ***** **
343910 ***** 201508171200 360  11 *** *** BKN * * *  6.2 ** ** ** ** ** ** ** ** *   73   53 1006.2 ***** 1003.4 *** *** ***** ***** ***** ***** **
