  USAF  WBAN YR--MODAHRMN DIR SPD GUS CLG SKC L M H  VSB MW MW MW MW AW AW AW AW W TEMP DEWP    SLP   ALT    STP MAX MIN PCP01 PCP06 PCP24 PCPXX SD
370850 ***** 201501011200 310   4 *** *** BKN * * * 12.5 ** ** ** ** ** ** ** ** *   23   18 1024.5 ***** 1027.4 *** *** ***** ***** ***** ***** **
370850 ***** 201501020000 250   4 *** *** OVC * * *  2.5 ** ** ** ** ** ** ** ** *   20   19 1024.0 ***** 1026.9 *** *** ***** ***** ***** ***** **
370850 ***** 201501021800 220   4 *** *** SCT * * *  2.5 ** ** ** ** ** ** ** ** *   25   23 1020.8 ***** 1023.7 *** *** ***** ***** ***** ***** **
370850 ***** 201501032100 260   2 *** *** BKN * * *  2.5 ** ** ** ** ** ** ** ** *   31   28 1011.5 ***** 1014.2 *** *** ***** ***** ***** ***** **
370850 ***** 201501051200 150  11 *** *** BKN * * * 12.5 ** ** ** ** ** ** ** ** *   45   38 1003.7 ***** 1006.4 *** *** ***** ***** ***** ***** **
370850 ***** 201501070300 050  11 *** *** OVC * * *  2.5 61 ** ** ** ** ** ** ** 6   36   35 1002.9 ***** 1005.6 ***  35 ***** ***** *****  0.01 **
370850 ***** 201501071500 320  18 *** *** OVC * * *  2.5 71 ** ** ** ** ** ** ** 7   30   29 1012.0 ***** 1014.8  36 *** ***** ***** *****  0.04 **
370850 ***** 201501071800 320  18 *** *** OVC * * *  2.5 71 ** ** ** ** ** ** ** 7   21   20 1016.0 ***** 1018.9 *** *** ***** ***** ***** ***** **
370850 ***** 201501090300 270   4 *** *** *** * * *  2.5 ** ** ** ** ** ** ** ** *   -1   -5 1035.8 ***** 1038.9 ***  -1 ***** ***** *****  0.00  0
370850 ***** 201501100000 *** *** *** *** BKN * * *  2.5 ** ** ** ** ** ** ** ** *   11    5 1022.7 ***** 1025.6 *** *** ***** ***** ***** ***** **
370850 ***** 201501101800 060  11 *** *** OVC * * *  2.5 ** ** ** ** ** ** ** ** *   32   30 1012.5 ***** 1015.3 *** *** ***** ***** ***** ***** **
370850 ***** 201501110000 230   4 ***   4 OBS * * *  0.3 45 ** ** ** ** ** ** ** 4   30   29 1012.8 ***** 1015.6 *** *** ***** ***** ***** ***** **
370850 ***** 201501120000 090   2 *** *** BKN * * *  2.5 ** ** ** ** ** ** ** ** *   28   27 1014.1 ***** 1017.0 *** *** ***** ***** ***** ***** **
370850 ***** 201501130900 270  13 *** *** BKN * * * 12.5 ** ** ** ** ** ** ** ** *   40   32 1027.5 ***** 1030.3 *** *** ***** ***** ***** ***** **
370850 ***** 201501131800 260   7 *** *** *** * * *  2.5 ** ** ** ** ** ** ** ** *   33   28 1030.2 ***** 1033.0 *** *** ***** ***** ***** ***** **
370850 ***** 201501161200 290  13 *** *** OVC * * * 12.5 02 ** ** ** ** ** ** ** 6   38   36 1019.4 ***** 1022.2 *** *** ***** ***** ***** ***** **
370850 ***** 201501170000 300  16 *** *** OVC * * *  2.5 ** ** ** ** ** ** ** ** *   34   31 1024.8 ***** 1027.6 *** *** ***** ***** ***** ***** **
370850 ***** 201501180300 300  13 *** *** *** * * *  2.5 ** ** ** ** ** ** ** ** *   27   25 1031.0 ***** 1033.9 ***  27 ***** ***** *****  0.00 **
370850 ***** 201501181200 300   7 *** *** BKN * * * 12.5 ** ** ** ** ** ** ** ** *   33   25 1030.1 ***** 1032.9 *** *** ***** ***** ***** ***** **
370850 ***** 201501190600 100   4 ***   2 OBS * * *  0.1 49 ** ** ** ** ** ** ** 4   23   22 1028.2 ***** 1031.1 *** *** ***** ***** ***** ***** **
370850 ***** 201501191500 180   2 *** *** OVC * * *  2.5 ** ** ** ** ** ** ** ** *   26   25 1025.5 ***** 1028.3  27 *** ***** ***** *****  0.01 **
370850 ***** 201501200000 310   2 ***   2 OBS * * *  0.1 49 ** ** ** ** ** ** ** 4   26   25 1024.1 ***** 1026.9 *** *** ***** ***** ***** ***** **
370850 ***** 201501200600 *** *** ***   2 OBS * * *  0.1 49 ** ** ** ** ** ** ** 4   27   26 1025.0 ***** 1027.8 *** *** ***** ***** ***** ***** **
370850 ***** 201501200900 130   2 *** *** OVC * * *  2.5 28 ** ** ** ** ** ** ** 4   29   28 1024.0 ***** 1026.8 *** *** ***** ***** ***** ***** **
370850 ***** 201501202100 120   4 *** *** OVC * * *  2.5 ** ** ** ** ** ** ** ** *   29   29 1025.9 ***** 1028.7 *** *** ***** ***** ***** ***** **
370850 ***** 201501210000 140   4 *** *** BKN * * *  2.5 ** ** ** ** ** ** ** ** *   30   30 1025.8 ***** 1028.6 *** *** ***** ***** ***** ***** **
370850 ***** 201501211800 090  11 *** *** OVC * * *  2.5 02 ** ** ** ** ** ** ** 4   34   34 1026.6 ***** 1029.4 *** *** ***** ***** ***** ***** **
370850 ***** 201501212100 080   9 *** *** OVC * * *  2.5 ** ** ** ** ** ** ** ** *   33   32 1026.4 ***** 1029.2 *** *** ***** ***** ***** ***** **
370850 ***** 201501220000 070  11 *** *** OVC * * *  2.5 ** ** ** ** ** ** ** ** *   33   32 1026.4 ***** 1029.3 *** *** ***** ***** ***** ***** **
370850 ***** 201501230000 080  11 *** *** OVC * * *  2.5 ** ** ** ** ** ** ** ** *   31   29 1032.5 ***** 1035.3 *** *** ***** ***** ***** ***** **
370850 ***** 201501230300 080  11 *** *** OVC * * *  2.5 ** ** ** ** ** ** ** ** *   30   29 1033.1 ***** 1036.0 ***  30 ***** ***** *****  0.00 **
370850 ***** 201501231200 080  16 *** *** BKN * * * 12.5 02 ** ** ** ** ** ** ** 7   30   26 1034.6 ***** 1037.5 *** *** ***** ***** ***** ***** **
370850 ***** 201501231800 080  11 *** *** *** * * *  2.5 ** ** ** ** ** ** ** ** *   27   23 1036.5 ***** 1039.4 *** *** ***** ***** ***** ***** **
370850 ***** 201501232100 090  13 *** *** *** * * *  2.5 ** ** ** ** ** ** ** ** *   26   22 1036.1 ***** 1039.0 *** *** ***** ***** ***** ***** **
370850 ***** 201501250600 090  22 *** *** OVC * * * 12.5 ** ** ** ** ** ** ** ** *   34   30 1030.8 ***** 1033.6 *** *** ***** ***** ***** ***** **
370850 ***** 201501260300 110  25 *** *** OVC * * *  2.5 ** ** ** ** ** ** ** ** *   37   31 1024.6 ***** 1027.4 ***  36 ***** ***** *****  0.00 **
370850 ***** 201501260900 120  22  34  26 OVC * * * 12.5 ** ** ** ** ** ** ** ** *   38   33 1024.1 ***** 1026.9 *** *** ***** ***** ***** ***** **
370850 ***** 201501261200 120  20  31  26 OVC * * * 12.5 ** ** ** ** ** ** ** ** *   39   33 1022.9 ***** 1025.6 *** *** ***** ***** ***** ***** **
370850 ***** 201501261800 100  16 *** *** OVC * * *  2.5 ** ** ** ** ** ** ** ** *   37   34 1023.4 ***** 1026.2 *** *** ***** ***** ***** ***** **
370850 ***** 201501271200 110  13 *** *** OVC * * * 12.5 02 ** ** ** ** ** ** ** 6   38   35 1024.1 ***** 1026.9 *** *** ***** ***** ***** ***** **
370850 ***** 201501271800 100  13 *** *** OVC * * *  2.5 ** ** ** ** ** ** ** ** *   36   33 1025.1 ***** 1027.9 *** *** ***** ***** ***** ***** **
370850 ***** 201501290000 070  16 *** *** OVC * * *  2.5 61 ** ** ** ** ** ** ** 7   33   33 1011.8 ***** 1014.6 *** *** ***** ***** ***** ***** **
370850 ***** 201501290300 070  16 *** *** OVC * * *  2.5 61 ** ** ** ** ** ** ** 6   33   33 1012.0 ***** 1014.8 ***  31 ***** ***** *****  0.12 **
370850 ***** 201501290600 070  13 *** *** OVC * * *  2.5 61 ** ** ** ** ** ** ** 6   33   33 1013.6 ***** 1016.4 *** *** ***** ***** ***** ***** **
370850 ***** 201501300000 070   7 *** *** OVC * * *  0.6 10 ** ** ** ** ** ** ** 4   30   29 1017.3 ***** 1020.1 *** *** ***** ***** ***** ***** **
370850 ***** 201501300300 100   4 *** *** OVC * * *  0.6 ** ** ** ** ** ** ** ** *   30   30 1017.8 ***** 1020.6 ***  30 ***** ***** *****  0.00 **
370850 ***** 201501301200 090   9 *** *** OVC * * * 12.5 ** ** ** ** ** ** ** ** *   32   30 1017.9 ***** 1020.7 *** *** ***** ***** ***** ***** **
370850 ***** 201502010000 100  16 *** *** OVC * * *  2.5 ** ** ** ** ** ** ** ** *   38   36 1017.1 ***** 1019.9 *** *** ***** ***** ***** ***** **
370850 ***** 201502010300 110  16 *** *** OVC * * *  2.5 ** ** ** ** ** ** ** ** *   39   38 1016.5 ***** 1019.2 ***  38 ***** ***** *****  0.00 **
370850 ***** 201502010900 120  20 *** *** OVC * * * 12.5 ** ** ** ** ** ** ** ** *   43   40 1015.2 ***** 1017.9 *** *** ***** ***** ***** ***** **
370850 ***** 201502020900 110  13 *** *** OVC * * * 12.5 ** ** ** ** ** ** ** ** *   46   42 1011.3 ***** 1014.0 *** *** ***** ***** ***** ***** **
370850 ***** 201502021500 090  13 *** *** OVC * * *  2.5 61 ** ** ** ** ** ** ** 6   41   40 1009.6 ***** 1012.3  47 *** ***** ***** *****  0.00T**
370850 ***** 201502021800 090  11 *** *** OVC * * *  2.5 61 ** ** ** ** ** ** ** 6   41   40 1008.7 ***** 1011.5 *** *** ***** ***** ***** ***** **
370850 ***** 201502030000 080   7 *** *** OVC * * *  2.5 02 ** ** ** ** ** ** ** 6   41   40 1004.9 ***** 1007.6 *** *** ***** ***** ***** ***** **
370850 ***** 201502031800 010   7 *** *** OVC * * *  2.5 ** ** ** ** ** ** ** ** *   40   38 1009.5 ***** 1012.3 *** *** ***** ***** ***** ***** **
370850 ***** 201502041500 280   4 *** *** OVC * * *  2.5 61 ** ** ** ** ** ** ** 6   44   42 1021.0 ***** 1023.7  48 *** ***** ***** *****  0.04 **
370850 ***** 201502050300 310   7 *** *** BKN * * *  2.5 ** ** ** ** ** ** ** ** *   36   33 1026.0 ***** 1028.8 ***  36 ***** ***** *****  0.04 **
370850 ***** 201502052100 100   7 *** *** SCT * * *  2.5 ** ** ** ** ** ** ** ** *   35   33 1025.3 ***** 1028.1 *** *** ***** ***** ***** ***** **
370850 ***** 201502060900 170   7 *** *** BKN * * * 12.5 ** ** ** ** ** ** ** ** *   47   40 1021.6 ***** 1024.3 *** *** ***** ***** ***** ***** **
370850 ***** 201502061800 120   9 *** *** BKN * * *  2.5 ** ** ** ** ** ** ** ** *   38   37 1015.4 ***** 1018.1 *** *** ***** ***** ***** ***** **
370850 ***** 201502070000 010   7 *** *** *** * * *  2.5 ** ** ** ** ** ** ** ** *   37   36 1011.3 ***** 1014.0 *** *** ***** ***** ***** ***** **
370850 ***** 201502070600 350   9 *** *** OVC * * * 12.5 ** ** ** ** ** ** ** ** *   35   33 1012.9 ***** 1015.7 *** *** ***** ***** ***** ***** **
370850 ***** 201502070900 340   9 *** *** OVC * * * 12.5 ** ** ** ** ** ** ** ** *   36   32 1011.2 ***** 1014.0 *** *** ***** ***** ***** ***** **
370850 ***** 201502071500 040   9 *** *** OVC * * *  2.5 ** ** ** ** ** ** ** ** *   34   30 1007.6 ***** 1010.4  37 *** ***** ***** *****  0.00 **
370850 ***** 201502071800 030   7 *** *** OVC * * *  2.5 ** ** ** ** ** ** ** ** *   32   28 1007.9 ***** 1010.7 *** *** ***** ***** ***** ***** **
370850 ***** 201502072100 340   4 *** *** OVC * * *  2.5 02 ** ** ** ** ** ** ** 7   30   29 1008.0 ***** 1010.8 *** *** ***** ***** ***** ***** **
370850 ***** 201502080600 250   4 *** *** BKN * * * 12.5 ** ** ** ** ** ** ** ** *   32   29 1010.1 ***** 1012.9 *** *** ***** ***** ***** ***** **
370850 ***** 201502081500 110   4 *** *** OVC * * *  2.5 ** ** ** ** ** ** ** ** *   31   27 1011.4 ***** 1014.2  34 *** ***** ***** *****  0.00 **
370850 ***** 201502081800 120   7 *** *** *** * * *  2.5 ** ** ** ** ** ** ** ** *   29   26 1011.0 ***** 1013.8 *** *** ***** ***** ***** ***** **
370850 ***** 201502090000 070   7 *** *** BKN * * *  2.5 ** ** ** ** ** ** ** ** *   28   27 1009.0 ***** 1011.8 *** *** ***** ***** ***** ***** **
370850 ***** 201502090600 080  16 *** *** OVC * * *  6.2 61 ** ** ** ** ** ** ** 6   36   34 1005.7 ***** 1008.4 *** *** ***** ***** ***** ***** **
370850 ***** 201502100000 030   9 *** *** OVC * * *  2.5 02 ** ** ** ** ** ** ** 6   35   33 1006.5 ***** 1009.2 *** *** ***** ***** ***** ***** **
370850 ***** 201502100300 340   4 *** *** OVC * * *  2.5 61 ** ** ** ** ** ** ** 6   34   33 1008.8 ***** 1011.6 ***  34 ***** ***** *****  0.01 **
370850 ***** 201502100900 320   7 *** *** OVC * * * 12.5 02 ** ** ** ** ** ** ** 6   36   34 1012.2 ***** 1015.0 *** *** ***** ***** ***** ***** **
370850 ***** 201502101200 330   4 *** *** OVC * * * 12.5 02 ** ** ** ** ** ** ** 6   39   35 1012.5 ***** 1015.2 *** *** ***** ***** ***** ***** **
370850 ***** 201502102100 040   7 *** *** OVC * * *  2.5 ** ** ** ** ** ** ** ** *   35   33 1015.6 ***** 1018.3 *** *** ***** ***** ***** ***** **
370850 ***** 201502110300 070   7 *** *** OVC * * *  2.5 ** ** ** ** ** ** ** ** *   33   31 1016.7 ***** 1019.5 ***  33 ***** ***** *****  0.00 **
370850 ***** 201502110600 070  11 *** *** OVC * * * 12.5 ** ** ** ** ** ** ** ** *   33   31 1018.1 ***** 1020.9 *** *** ***** ***** ***** ***** **
370850 ***** 201502111200 070  11 *** *** OVC * * * 12.5 ** ** ** ** ** ** ** ** *   31   30 1018.0 ***** 1020.8 *** *** ***** ***** ***** ***** **
370850 ***** 201502111800 050  11 *** *** OVC * * *  2.5 66 ** ** ** ** ** ** ** 6   31   30 1020.3 ***** 1023.1 *** *** ***** ***** ***** ***** **
370850 ***** 201502120300 050   9 *** *** OVC * * *  2.5 71 ** ** ** ** ** ** ** 7   31   30 1022.9 ***** 1025.7 ***  30 ***** ***** *****  0.02  0
370850 ***** 201502120600 050   9 *** *** OVC * * *  6.2 66 ** ** ** ** ** ** ** 7   31   30 1024.1 ***** 1027.0 ***  30 ***** ***** ***** ***** **
370850 ***** 201502121800 060  13 *** *** OVC * * *  2.5 61 ** ** ** ** ** ** ** 7   32   31 1025.0 ***** 1027.9 *** *** ***** ***** ***** ***** **
370850 ***** 201502130000 050   9 *** *** OVC * * *  2.5 71 ** ** ** ** ** ** ** 7   32   30 1024.6 ***** 1027.4 *** *** ***** ***** ***** ***** **
370850 ***** 201502130300 050   7 *** *** OVC * * *  2.5 71 ** ** ** ** ** ** ** 7   31   29 1024.7 ***** 1027.6 ***  31 ***** ***** *****  0.02  0
370850 ***** 201502130900 340   4 *** *** OVC * * * 12.5 02 ** ** ** ** ** ** ** 7   33   31 1025.7 ***** 1028.5 *** *** ***** ***** ***** ***** **
370850 ***** 201502141500 310   2 *** *** SCT * * *  2.5 ** ** ** ** ** ** ** ** *   35   22 1025.8 ***** 1028.6  40 *** ***** ***** *****  0.00 **
370850 ***** 201502150000 020   7 *** *** OVC * * *  2.5 10 ** ** ** ** ** ** ** 1   26   25 1025.4 ***** 1028.3 *** *** ***** ***** ***** ***** **
370850 ***** 201502160300 170   2 *** *** OVC * * *  2.5 10 ** ** ** ** ** ** ** 2   26   26 1018.4 ***** 1021.2 ***  24 ***** ***** *****  0.00 **
370850 ***** 201502170000 030   9 *** *** OVC * * *  2.5 ** ** ** ** ** ** ** ** *   28   26 1020.9 ***** ****** *** *** ***** ***** ***** ***** **
370850 ***** 201502170300 050  11 *** *** OVC * * *  2.5 71 ** ** ** ** ** ** ** 7   28   27 1021.7 ***** 1024.6 ***  27 ***** ***** *****  0.01  0
370850 ***** 201502180600 330  11 *** *** SCT * * * 12.5 ** ** ** ** ** ** ** ** *   14   10 1034.6 ***** 1037.5 ***  14 ***** ***** ***** ***** **
370850 ***** 201502190000 320   4 *** *** *** * * *  2.5 ** ** ** ** ** ** ** ** *   15   13 1027.9 ***** 1030.8 *** *** ***** ***** ***** ***** **
370850 ***** 201502191800 040   9 *** *** OVC * * *  2.5 71 ** ** ** ** ** ** ** 7   26   22 1017.3 ***** 1020.2 *** *** ***** ***** ***** ***** **
370850 ***** 201502201200 040   9 *** *** OVC * * * 12.5 02 ** ** ** ** ** ** ** 7   30   24 1021.5 ***** 1024.4 *** *** ***** ***** ***** ***** **
370850 ***** 201502212100 050   2 *** *** *** * * *  2.5 ** ** ** ** ** ** ** ** *   22   20 1029.2 ***** 1032.1 *** *** ***** ***** ***** ***** **
370850 ***** 201502220600 080   2 *** *** *** * * * 12.5 ** ** ** ** ** ** ** ** *   29   24 1032.3 ***** 1035.2 *** *** ***** ***** ***** ***** **
370850 ***** 201502221800 080   7 *** *** *** * * *  2.5 ** ** ** ** ** ** ** ** *   26   24 1030.7 ***** 1033.5 *** *** ***** ***** ***** ***** **
370850 ***** 201502230900 110  13 *** *** *** * * * 12.5 ** ** ** ** ** ** ** ** *   43   28 1030.6 ***** 1033.4 *** *** ***** ***** ***** ***** **
370850 ***** 201502231800 080   9 *** *** *** * * *  2.5 ** ** ** ** ** ** ** ** *   31   27 1028.6 ***** 1031.4 *** *** ***** ***** ***** ***** **
370850 ***** 201502240000 090   9 *** *** *** * * *  2.5 ** ** ** ** ** ** ** ** *   29   27 1027.3 ***** 1030.1 *** *** ***** ***** ***** ***** **
370850 ***** 201502240600 110  13 *** *** OVC * * *  2.5 28 ** ** ** ** ** ** ** 4   29   28 1027.5 ***** 1030.3 *** *** ***** ***** ***** ***** **
370850 ***** 201502250000 080  18 *** *** OVC * * *  2.5 ** ** ** ** ** ** ** ** *   33   30 1020.7 ***** 1023.5 *** *** ***** ***** ***** ***** **
370850 ***** 201502270300 120  16 *** *** OVC * * *  2.5 ** ** ** ** ** ** ** ** *   40   35 1031.5 ***** 1034.3 ***  38 ***** ***** *****  0.00 **
370850 ***** 201502270900 120  22 *** *** OVC * * * 12.5 ** ** ** ** ** ** ** ** *   43   37 1029.3 ***** 1032.1 *** *** ***** ***** ***** ***** **
370850 ***** 201502271200 110  18 *** *** OVC * * * 12.5 ** ** ** ** ** ** ** ** *   43   37 1027.8 ***** 1030.5 *** *** ***** ***** ***** ***** **
370850 ***** 201502271800 100  18 *** *** OVC * * *  2.5 ** ** ** ** ** ** ** ** *   40   35 1025.2 ***** 1028.0 *** *** ***** ***** ***** ***** **
370850 ***** 201502272100 100  16 *** *** OVC * * *  2.5 ** ** ** ** ** ** ** ** *   40   36 1022.2 ***** 1025.0 *** *** ***** ***** ***** ***** **
370850 ***** 201502280000 100  18 *** *** OVC * * *  2.5 ** ** ** ** ** ** ** ** *   40   36 1019.2 ***** 1021.9 *** *** ***** ***** ***** ***** **
370850 ***** 201502280300 100  18 *** *** OVC * * *  2.5 ** ** ** ** ** ** ** ** *   41   37 1016.5 ***** 1019.2 ***  39 ***** ***** *****  0.00 **
370850 ***** 201502281200 090  16 *** *** OVC * * * 12.5 ** ** ** ** ** ** ** ** *   43   38 1011.7 ***** 1014.4 *** *** ***** ***** ***** ***** **
370850 ***** 201502281800 130   2 *** *** OVC * * *  2.5 61 ** ** ** ** ** ** ** 6   41   40 1013.4 ***** 1016.1 *** *** ***** ***** ***** ***** **
370850 ***** 201503010000 120   4 *** *** OVC * * *  2.5 02 ** ** ** ** ** ** ** 6   40   38 1013.2 ***** 1015.9 *** *** ***** ***** ***** ***** **
370850 ***** 201503010900 070   4 *** *** OVC * * * 12.5 ** ** ** ** ** ** ** ** *   45   40 1015.0 ***** 1017.7 *** *** ***** ***** ***** ***** **
370850 ***** 201503011200 070   9 *** *** OVC * * * 12.5 ** ** ** ** ** ** ** ** *   42   39 1015.5 ***** 1018.2 *** *** ***** ***** ***** ***** **
370850 ***** 201503020000 320   4 *** *** OVC * * *  2.5 ** ** ** ** ** ** ** ** *   38   35 1015.0 ***** 1017.8 *** *** ***** ***** ***** ***** **
370850 ***** 201503021800 290   7 *** *** BKN * * *  2.5 ** ** ** ** ** ** ** ** *   39   35 1017.8 ***** 1020.5 *** *** ***** ***** ***** ***** **
370850 ***** 201503022100 320   7 *** *** SCT * * *  2.5 ** ** ** ** ** ** ** ** *   38   35 1017.7 ***** 1020.5 *** *** ***** ***** ***** ***** **
370850 ***** 201503030900 300   9 ***  26 OVC * * *  6.2 61 ** ** ** ** ** ** ** 6   43   40 1018.3 ***** 1021.0 *** *** ***** ***** ***** ***** **
370850 ***** 201503031200 300  11 ***  26 OVC * * *  6.2 80 ** ** ** ** ** ** ** 8   44   39 1017.7 ***** 1020.4 *** *** ***** ***** ***** ***** **
370850 ***** 201503031500 280   2 ***  26 OVC * * *  2.5 02 ** ** ** ** ** ** ** 8   44   39 1017.8 ***** 1020.6 *** *** ***** ***** *****  0.02 **
370850 ***** 201503031800 250   4 ***  26 OVC * * *  2.5 02 ** ** ** ** ** ** ** 8   41   38 1017.9 ***** 1020.7 *** *** ***** ***** ***** ***** **
370850 ***** 201503032100 280   4 ***  26 BKN * * *  2.5 ** ** ** ** ** ** ** ** *   40   37 1016.8 ***** 1019.6 *** *** ***** ***** ***** ***** **
370850 ***** 201503041800 080   7 *** *** OVC * * *  2.5 ** ** ** ** ** ** ** ** *   37   33 1018.4 ***** 1021.2 *** *** ***** ***** ***** ***** **
370850 ***** 201503061200 310  13 *** *** BKN * * * 12.5 ** ** ** ** ** ** ** ** *   47   29 1029.3 ***** 1032.1 *** *** ***** ***** ***** ***** **
370850 ***** 201503070000 090   2 *** *** *** * * *  2.5 ** ** ** ** ** ** ** ** *   28   26 1028.2 ***** 1031.0 *** *** ***** ***** ***** ***** **
370850 ***** 201503070300 070   2 *** *** *** * * *  2.5 ** ** ** ** ** ** ** ** *   32   31 1027.0 ***** 1029.9 ***  27 ***** ***** *****  0.00 **
370850 ***** 201503071200 040  11 *** *** OVC * * * 12.5 ** ** ** ** ** ** ** ** *   43   38 1024.8 ***** 1027.6 *** *** ***** ***** ***** ***** **
370850 ***** 201503080000 310  13 *** *** OVC * * *  2.5 02 ** ** ** ** ** ** ** 8   33   32 1029.6 ***** 1032.5 *** *** ***** ***** ***** ***** **
370850 ***** 201503091200 220   2 *** *** SCT * * * 12.5 ** ** ** ** ** ** ** ** *   42   22 1033.7 ***** 1036.5 *** *** ***** ***** ***** ***** **
370850 ***** 201503100600 130  13 *** *** *** * * * 12.5 ** ** ** ** ** ** ** ** *   40   32 1033.7 ***** 1036.5 ***  23 ***** ***** ***** ***** **
370850 ***** 201503101500 100   9 *** *** SCT * * *  2.5 ** ** ** ** ** ** ** ** *   45   35 1030.1 ***** 1032.8  53 *** ***** ***** *****  0.00 **
370850 ***** 201503110000 070   9 *** *** *** * * *  2.5 ** ** ** ** ** ** ** ** *   35   34 1027.5 ***** 1030.3 *** *** ***** ***** ***** ***** **
370850 ***** 201503112100 100  16 *** *** OVC * * *  2.5 ** ** ** ** ** ** ** ** *   43   39 1019.8 ***** 1022.5 *** *** ***** ***** ***** ***** **
370850 ***** 201503120000 090  13 *** *** OVC * * *  2.5 ** ** ** ** ** ** ** ** *   42   38 1018.4 ***** 1021.1 *** *** ***** ***** ***** ***** **
370850 ***** 201503120300 090  11 *** *** BKN * * *  2.5 ** ** ** ** ** ** ** ** *   41   35 1017.1 ***** 1019.8 ***  41 ***** ***** *****  0.00 **
370850 ***** 201503120600 120  16 *** *** BKN * * * 12.5 ** ** ** ** ** ** ** ** *   46   39 1015.9 ***** 1018.6 ***  41 ***** ***** ***** ***** **
370850 ***** 201503120900 110  18 *** *** BKN * * * 12.5 ** ** ** ** ** ** ** ** *   54   38 1015.6 ***** 1018.3 *** *** ***** ***** ***** ***** **
370850 ***** 201503121200 110  22 *** *** OVC * * * 12.5 ** ** ** ** ** ** ** ** *   52   40 1013.6 ***** 1016.3 *** *** ***** ***** ***** ***** **
370850 ***** 201503121500 100  16 *** *** BKN * * *  2.5 ** ** ** ** ** ** ** ** *   46   38 1013.2 ***** 1015.9  55 *** ***** ***** *****  0.00 **
370850 ***** 201503121800 100  13 *** *** BKN * * *  2.5 ** ** ** ** ** ** ** ** *   43   38 1011.9 ***** 1014.6 *** *** ***** ***** ***** ***** **
370850 ***** 201503122100 090  13 *** *** BKN * * *  2.5 ** ** ** ** ** ** ** ** *   43   35 1009.7 ***** 1012.4 *** *** ***** ***** ***** ***** **
370850 ***** 201503130000 110   4 *** *** BKN * * *  2.5 ** ** ** ** ** ** ** ** *   41   35 1009.8 ***** 1012.6 *** *** ***** ***** ***** ***** **
370850 ***** 201503130300 130   4 *** *** BKN * * *  2.5 ** ** ** ** ** ** ** ** *   39   35 1010.3 ***** 1013.0 ***  39 ***** ***** *****  0.00 **
370850 ***** 201503130600 160   2 *** *** OVC * * * 12.5 ** ** ** ** ** ** ** ** *   44   39 1012.1 ***** 1014.8 ***  38 ***** ***** ***** ***** **
370850 ***** 201503130900 280   7 *** *** OVC * * * 12.5 ** ** ** ** ** ** ** ** *   47   40 1014.0 ***** 1016.7 *** *** ***** ***** ***** ***** **
370850 ***** 201503131200 290  11 *** *** OVC * * * 12.5 ** ** ** ** ** ** ** ** *   48   39 1015.9 ***** 1018.6 *** *** ***** ***** ***** ***** **
370850 ***** 201503131500 270   9 *** *** OVC * * *  2.5 ** ** ** ** ** ** ** ** *   48   40 1018.3 ***** 1021.0  49 *** ***** ***** *****  0.00 **
370850 ***** 201503131800 310   7 *** *** OVC * * *  2.5 ** ** ** ** ** ** ** ** *   44   38 1021.6 ***** 1024.3 *** *** ***** ***** ***** ***** **
370850 ***** 201503132100 290   7 *** *** *** * * *  2.5 ** ** ** ** ** ** ** ** *   40   36 1022.8 ***** 1025.6 *** *** ***** ***** ***** ***** **
370850 ***** 201503140000 300   7 *** *** BKN * * *  2.5 ** ** ** ** ** ** ** ** *   35   33 1024.0 ***** 1026.8 *** *** ***** ***** ***** ***** **
370850 ***** 201503140300 320   4 *** *** SCT * * *  2.5 ** ** ** ** ** ** ** ** *   32   30 1025.6 ***** 1028.4 ***  32 ***** ***** *****  0.00 **
370850 ***** 201503140600 070  11 *** *** OVC * * * 12.5 ** ** ** ** ** ** ** ** *   40   38 1027.4 ***** 1030.2 ***  31 ***** ***** ***** ***** **
370850 ***** 201503140900 060  16 *** *** OVC * * * 12.5 ** ** ** ** ** ** ** ** *   40   36 1028.4 ***** 1031.1 *** *** ***** ***** ***** ***** **
370850 ***** 201503141200 060  16 *** *** OVC * * * 12.5 ** ** ** ** ** ** ** ** *   39   35 1028.9 ***** 1031.6 *** *** ***** ***** ***** ***** **
370850 ***** 201503141500 070  16 *** *** OVC * * *  2.5 ** ** ** ** ** ** ** ** *   38   35 1030.1 ***** 1032.9  40 *** ***** ***** *****  0.00 **
370850 ***** 201503141800 070  13 *** *** *** * * *  2.5 ** ** ** ** ** ** ** ** *   38   35 1030.8 ***** 1033.6 *** *** ***** ***** ***** ***** **
370850 ***** 201503142100 070  16 *** *** SCT * * *  2.5 ** ** ** ** ** ** ** ** *   38   36 1030.0 ***** 1032.8 *** *** ***** ***** ***** ***** **
370850 ***** 201503150000 070  20 *** *** BKN * * *  2.5 ** ** ** ** ** ** ** ** *   39   36 1029.8 ***** 1032.6 *** *** ***** ***** ***** ***** **
370850 ***** 201503150300 080  16 *** *** OVC * * *  2.5 ** ** ** ** ** ** ** ** *   39   35 1030.1 ***** 1032.9 ***  37 ***** ***** *****  0.00 **
370850 ***** 201503150600 090  18 *** *** BKN * * * 12.5 ** ** ** ** ** ** ** ** *   41   35 1031.0 ***** 1033.8 *** *** ***** ***** ***** ***** **
370850 ***** 201503150900 090  18 *** *** BKN * * * 12.5 ** ** ** ** ** ** ** ** *   45   35 1030.2 ***** 1033.0 *** *** ***** ***** ***** ***** **
370850 ***** 201503151200 080  20 *** *** BKN * * * 12.5 ** ** ** ** ** ** ** ** *   44   33 1029.7 ***** 1032.5 *** *** ***** ***** ***** ***** **
370850 ***** 201503151500 080  13 *** *** BKN * * *  2.5 ** ** ** ** ** ** ** ** *   40   33 1030.4 ***** 1033.2  46 *** ***** ***** *****  0.00 **
370850 ***** 201503151800 060   7 *** *** *** * * *  2.5 ** ** ** ** ** ** ** ** *   37   33 1030.4 ***** 1033.2 *** *** ***** ***** ***** ***** **
370850 ***** 201503152100 350   2 *** *** *** * * *  2.5 ** ** ** ** ** ** ** ** *   32   30 1029.7 ***** 1032.5 *** *** ***** ***** ***** ***** **
370850 ***** 201503160000 360   4 *** *** *** * * *  2.5 ** ** ** ** ** ** ** ** *   27   26 1028.8 ***** 1031.6 *** *** ***** ***** ***** ***** **
370850 ***** 201503160300 340   4 *** *** SCT * * *  2.5 ** ** ** ** ** ** ** ** *   27   25 1028.8 ***** 1031.6 ***  26 ***** ***** *****  0.00 **
370850 ***** 201503160600 340   4 *** *** BKN * * * 12.5 ** ** ** ** ** ** ** ** *   37   33 1029.3 ***** 1032.1 *** *** ***** ***** ***** ***** **
370850 ***** 201503160900 340   7 *** *** BKN * * * 12.5 ** ** ** ** ** ** ** ** *   49   25 1028.2 ***** 1030.9 *** *** ***** ***** ***** ***** **
370850 ***** 201503161200 330   9 *** *** BKN * * * 12.5 ** ** ** ** ** ** ** ** *   52   16 1026.6 ***** 1029.3 *** *** ***** ***** ***** ***** **
370850 ***** 201503161800 130   7 *** *** BKN * * *  2.5 ** ** ** ** ** ** ** ** *   40   26 1027.0 ***** 1029.8 *** *** ***** ***** ***** ***** **
370850 ***** 201503162100 080   9 *** *** *** * * * **** ** ** ** ** ** ** ** ** *   37   29 1027.8 ***** 1030.6 *** *** ***** ***** ***** ***** **
370850 ***** 201503170000 080  11 *** *** BKN * * *  2.5 ** ** ** ** ** ** ** ** *   37   29 1028.6 ***** 1031.4 *** *** ***** ***** ***** ***** **
370850 ***** 201503170600 070  16 *** *** BKN * * * 12.5 ** ** ** ** ** ** ** ** *   40   31 1030.0 ***** 1032.8 ***  34 ***** ***** ***** ***** **
370850 ***** 201503170900 070  18 *** *** BKN * * * 12.5 ** ** ** ** ** ** ** ** *   42   33 1030.2 ***** 1033.0 *** *** ***** ***** ***** ***** **
370850 ***** 201503171200 070  18 *** *** BKN * * * 12.5 ** ** ** ** ** ** ** ** *   44   35 1030.1 ***** 1032.9 *** *** ***** ***** ***** ***** **
370850 ***** 201503171500 060  13 *** *** BKN * * *  2.5 ** ** ** ** ** ** ** ** *   42   37 1031.1 ***** 1033.9  46 *** ***** ***** *****  0.00 **
370850 ***** 201503171800 070   7 *** *** OVC * * *  2.5 ** ** ** ** ** ** ** ** *   41   35 1031.9 ***** 1034.7 *** *** ***** ***** ***** ***** **
370850 ***** 201503172100 070   4 *** *** OVC * * *  2.5 ** ** ** ** ** ** ** ** *   40   35 1031.3 ***** 1034.1 *** *** ***** ***** ***** ***** **
370850 ***** 201503180000 060   4 *** *** OVC * * *  2.5 ** ** ** ** ** ** ** ** *   40   36 1031.1 ***** 1033.9 *** *** ***** ***** ***** ***** **
370850 ***** 201503180300 050   9 *** *** OVC * * *  2.5 ** ** ** ** ** ** ** ** *   40   37 1031.8 ***** 1034.6 ***  38 ***** ***** *****  0.00 **
370850 ***** 201503180600 060  13 *** *** OVC * * * 12.5 ** ** ** ** ** ** ** ** *   43   38 1032.5 ***** 1035.3 *** *** ***** ***** ***** ***** **
370850 ***** 201503180900 070  16 *** *** OVC * * * 12.5 ** ** ** ** ** ** ** ** *   44   37 1031.7 ***** 1034.5 *** *** ***** ***** ***** ***** **
370850 ***** 201503181200 070  16 *** *** OVC * * * 12.5 ** ** ** ** ** ** ** ** *   43   38 1031.0 ***** 1033.8 *** *** ***** ***** ***** ***** **
370850 ***** 201503181500 070  13 *** *** OVC * * *  2.5 80 ** ** ** ** ** ** ** 8   41   36 1031.0 ***** 1033.8  45 *** ***** ***** *****  0.00T**
370850 ***** 201503181800 080   9 *** *** OVC * * *  2.5 02 ** ** ** ** ** ** ** 8   40   37 1030.8 ***** 1033.6 *** *** ***** ***** ***** ***** **
370850 ***** 201503182100 070   9 *** *** OVC * * *  2.5 ** ** ** ** ** ** ** ** *   40   38 1029.6 ***** 1032.4 *** *** ***** ***** ***** ***** **
370850 ***** 201503190000 070   4 *** *** OVC * * *  2.5 ** ** ** ** ** ** ** ** *   36   35 1028.7 ***** 1031.5 *** *** ***** ***** ***** ***** **
370850 ***** 201503190300 070   7 *** *** OVC * * *  2.5 10 ** ** ** ** ** ** ** 1   33   32 1028.6 ***** 1031.4 ***  33 ***** ***** *****  0.00T**
370850 ***** 201503190600 100  11 *** *** BKN * * * 12.5 02 ** ** ** ** ** ** ** 4   45   38 1029.0 ***** 1031.7 ***  32 ***** ***** ***** ***** **
370850 ***** 201503190900 100  16 *** *** BKN * * * 12.5 ** ** ** ** ** ** ** ** *   49   36 1027.6 ***** 1030.3 *** *** ***** ***** ***** ***** **
370850 ***** 201503191200 100  16 *** *** BKN * * * 12.5 ** ** ** ** ** ** ** ** *   49   36 1026.2 ***** 1028.9 *** *** ***** ***** ***** ***** **
370850 ***** 201503191500 090  11 *** *** OVC * * *  2.5 ** ** ** ** ** ** ** ** *   44   35 1026.5 ***** 1029.3  51 *** ***** ***** *****  0.00 **
370850 ***** 201503191800 090   9 *** *** OVC * * *  2.5 ** ** ** ** ** ** ** ** *   40   35 1026.1 ***** 1028.9 *** *** ***** ***** ***** ***** **
370850 ***** 201503192100 080   9 *** *** *** * * *  2.5 ** ** ** ** ** ** ** ** *   37   35 1023.9 ***** 1026.7 *** *** ***** ***** ***** ***** **
370850 ***** 201503200000 070   7 *** *** *** * * *  2.5 ** ** ** ** ** ** ** ** *   34   33 1021.5 ***** 1024.3 *** *** ***** ***** ***** ***** **
370850 ***** 201503200300 080   7 *** *** BKN * * *  2.5 ** ** ** ** ** ** ** ** *   39   37 1020.3 ***** 1023.0 ***  34 ***** ***** *****  0.00 **
370850 ***** 201503200600 090  13 *** *** OVC * * * 12.5 ** ** ** ** ** ** ** ** *   43   39 1019.3 ***** 1022.0 *** *** ***** ***** ***** ***** **
370850 ***** 201503200900 100  20 *** *** OVC * * * 12.5 ** ** ** ** ** ** ** ** *   47   38 1017.3 ***** 1020.0 *** *** ***** ***** ***** ***** **
370850 ***** 201503201200 090  16 *** *** OVC * * * 12.5 ** ** ** ** ** ** ** ** *   45   38 1014.8 ***** 1017.5 *** *** ***** ***** ***** ***** **
370850 ***** 201503201500 090   9 *** *** OVC * * *  2.5 80 ** ** ** ** ** ** ** 8   41   40 1013.9 ***** 1016.6  47 *** ***** ***** *****  0.16 **
370850 ***** 201503201800 060  11 *** *** OVC * * *  2.5 80 ** ** ** ** ** ** ** 8   42   41 1013.0 ***** 1015.7 *** *** ***** ***** ***** ***** **
370850 ***** 201503202100 060  13 *** *** OVC * * *  2.5 80 ** ** ** ** ** ** ** 8   42   41 1011.0 ***** 1013.7 *** *** ***** ***** ***** ***** **
370850 ***** 201503210000 360   4 *** *** OVC * * *  2.5 80 ** ** ** ** ** ** ** 8   42   41 1009.8 ***** 1012.5 *** *** ***** ***** ***** ***** **
370850 ***** 201503210300 310   7 *** *** OVC * * *  2.5 02 ** ** ** ** ** ** ** 8   41   40 1010.4 ***** 1013.1 ***  41 ***** ***** *****  0.28 **
370850 ***** 201503210600 300  11 *** *** OVC * * * 12.5 02 ** ** ** ** ** ** ** 8   41   40 1011.7 ***** 1014.5 ***  41 ***** ***** ***** ***** **
370850 ***** 201503210900 270  11 *** *** OVC * * * 12.5 ** ** ** ** ** ** ** ** *   44   38 1011.7 ***** 1014.4 *** *** ***** ***** ***** ***** **
370850 ***** 201503211200 290  13 *** *** OVC * * * 12.5 ** ** ** ** ** ** ** ** *   45   37 1011.8 ***** 1014.5 *** *** ***** ***** ***** ***** **
370850 ***** 201503211500 300  11 *** *** OVC * * *  2.5 ** ** ** ** ** ** ** ** *   43   38 1013.3 ***** 1016.1  45 *** ***** ***** *****  0.00 **
370850 ***** 201503211800 270   4 *** *** *** * * *  2.5 ** ** ** ** ** ** ** ** *   40   35 1015.0 ***** 1017.7 *** *** ***** ***** ***** ***** **
370850 ***** 201503212100 250   4 *** *** *** * * *  2.5 ** ** ** ** ** ** ** ** *   36   33 1015.3 ***** 1018.1 *** *** ***** ***** ***** ***** **
370850 ***** 201503220000 230   7 *** *** *** * * *  2.5 ** ** ** ** ** ** ** ** *   33   31 1015.6 ***** 1018.4 *** *** ***** ***** ***** ***** **
370850 ***** 201503220300 220   4 *** *** *** * * *  2.5 ** ** ** ** ** ** ** ** *   34   33 1017.1 ***** 1019.9 ***  32 ***** ***** *****  0.00 **
370850 ***** 201503220600 260   2 *** *** *** * * * 12.5 ** ** ** ** ** ** ** ** *   44   37 1018.1 ***** 1020.8 *** *** ***** ***** ***** ***** **
370850 ***** 201503220900 110   2 *** *** *** * * * 12.5 ** ** ** ** ** ** ** ** *   53   36 1017.4 ***** 1020.1 *** *** ***** ***** ***** ***** **
370850 ***** 201503221200 290   7 *** *** SCT * * * 12.5 ** ** ** ** ** ** ** ** *   56   37 1015.8 ***** 1018.5 *** *** ***** ***** ***** ***** **
370850 ***** 201503221500 110   7 *** *** SCT * * * 12.5 ** ** ** ** ** ** ** ** *   51   42 1015.6 ***** 1018.3  57 *** ***** ***** *****  0.00 **
370850 ***** 201503221800 140   7 *** *** *** * * *  2.5 ** ** ** ** ** ** ** ** *   45   40 1016.1 ***** 1018.8 *** *** ***** ***** ***** ***** **
370850 ***** 201503222100 160   7 *** *** *** * * *  2.5 ** ** ** ** ** ** ** ** *   40   38 1014.7 ***** 1017.4 *** *** ***** ***** ***** ***** **
370850 ***** 201503230000 190   7 *** *** *** * * *  2.5 ** ** ** ** ** ** ** ** *   38   37 1013.5 ***** 1016.2 *** *** ***** ***** ***** ***** **
370850 ***** 201503230300 270   2 *** *** OVC * * *  2.5 ** ** ** ** ** ** ** ** *   39   37 1013.3 ***** 1016.1 ***  36 ***** ***** *****  0.00 **
370850 ***** 201503230600 270   2 *** *** OVC * * * 12.5 ** ** ** ** ** ** ** ** *   45   37 1015.2 ***** 1017.9 *** *** ***** ***** ***** ***** **
370850 ***** 201503230900 250   7 *** *** OVC * * *  6.2 80 ** ** ** ** ** ** ** 8   47   38 1014.6 ***** 1017.3 *** *** ***** ***** ***** ***** **
370850 ***** 201503231200 220   9 *** *** OVC * * * 12.5 02 ** ** ** ** ** ** ** 8   53   38 1014.0 ***** 1016.7 *** *** ***** ***** ***** ***** **
370850 ***** 201503231500 320   9 *** *** OVC * * * 12.5 02 ** ** ** ** ** ** ** 8   49   40 1015.1 ***** 1017.8  53 *** ***** ***** *****  0.00T**
370850 ***** 201503231800 360   4 *** *** OVC * * *  2.5 02 ** ** ** ** ** ** ** 8   42   37 1016.7 ***** 1019.5 *** *** ***** ***** ***** ***** **
370850 ***** 201503232100 340   4 *** *** OVC * * *  2.5 ** ** ** ** ** ** ** ** *   39   34 1018.0 ***** 1020.7 *** *** ***** ***** ***** ***** **
370850 ***** 201503240000 340   7 *** *** OVC * * *  2.5 80 ** ** ** ** ** ** ** 8   38   33 1019.9 ***** 1022.6 *** *** ***** ***** ***** ***** **
370850 ***** 201503240300 020  11 *** *** OVC * * *  2.5 80 ** ** ** ** ** ** ** 8   35   32 1022.6 ***** 1025.4 ***  35 ***** ***** *****  0.00T**
370850 ***** 201503240600 060   9 *** *** OVC * * * 12.5 02 ** ** ** ** ** ** ** 8   38   34 1025.5 ***** 1028.3 ***  34 ***** ***** ***** ***** **
370850 ***** 201503240900 080  11 *** *** BKN * * * 12.5 ** ** ** ** ** ** ** ** *   43   31 1025.9 ***** 1028.7 *** *** ***** ***** ***** ***** **
370850 ***** 201503241200 090  11 *** *** BKN * * * 12.5 ** ** ** ** ** ** ** ** *   41   32 1026.6 ***** 1029.3 *** *** ***** ***** ***** ***** **
370850 ***** 201503241500 110  13 *** *** BKN * * * 12.5 ** ** ** ** ** ** ** ** *   39   33 1027.8 ***** 1030.6  43 *** ***** ***** *****  0.00T**
370850 ***** 201503241800 130   9 *** *** BKN * * *  2.5 ** ** ** ** ** ** ** ** *   39   33 1029.0 ***** 1031.8 *** *** ***** ***** ***** ***** **
370850 ***** 201503242100 130   9 *** *** OVC * * *  2.5 ** ** ** ** ** ** ** ** *   39   33 1029.5 ***** 1032.3 *** *** ***** ***** ***** ***** **
370850 ***** 201503250000 120   7 *** *** OVC * * *  2.5 ** ** ** ** ** ** ** ** *   40   34 1030.1 ***** 1032.9 *** *** ***** ***** ***** ***** **
370850 ***** 201503250300 110   4 *** *** OVC * * *  2.5 ** ** ** ** ** ** ** ** *   40   35 1031.4 ***** 1034.1 ***  39 ***** ***** *****  0.00 **
370850 ***** 201503250600 130  11 *** *** BKN * * * 12.5 ** ** ** ** ** ** ** ** *   44   35 1032.8 ***** 1035.6 *** *** ***** ***** ***** ***** **
370850 ***** 201503250900 150  13 *** *** BKN * * * 12.5 ** ** ** ** ** ** ** ** *   49   37 1031.6 ***** 1034.4 *** *** ***** ***** ***** ***** **
370850 ***** 201503251200 130  11 *** *** BKN * * * 12.5 ** ** ** ** ** ** ** ** *   51   38 1030.1 ***** 1032.9 *** *** ***** ***** ***** ***** **
370850 ***** 201503260000 090   7 *** *** *** * * *  2.5 ** ** ** ** ** ** ** ** *   35   32 1028.0 ***** 1030.8 *** *** ***** ***** ***** ***** **
370850 ***** 201503260300 070   2 *** *** SCT * * *  2.5 10 ** ** ** ** ** ** ** 0   32   30 1028.3 ***** 1031.1 ***  31 ***** ***** *****  0.00 **
370850 ***** 201503260600 120  11 *** *** *** * * * 12.5 ** ** ** ** ** ** ** ** *   48   35 1028.6 ***** 1031.3 *** *** ***** ***** ***** ***** **
370850 ***** 201503260900 100   9 *** *** BKN * * * 12.5 ** ** ** ** ** ** ** ** *   54   38 1027.2 ***** 1029.9 *** *** ***** ***** ***** ***** **
370850 ***** 201503261200 100  11 *** *** SCT * * * 12.5 ** ** ** ** ** ** ** ** *   56   38 1025.1 ***** 1027.8 *** *** ***** ***** ***** ***** **
370850 ***** 201503261500 060  11 *** *** SCT * * * 12.5 ** ** ** ** ** ** ** ** *   49   37 1025.6 ***** 1028.4  56 *** ***** ***** *****  0.00 **
370850 ***** 201503261800 110   9 *** *** *** * * *  2.5 ** ** ** ** ** ** ** ** *   43   41 1025.1 ***** 1027.8 *** *** ***** ***** ***** ***** **
370850 ***** 201503262100 060   2 ***   2 OBS * * *  0.1 45 ** ** ** ** ** ** ** 4   44   43 1025.2 ***** 1027.9 *** *** ***** ***** ***** ***** **
370850 ***** 201503270000 100   4 ***   2 OBS * * *  0.1 45 ** ** ** ** ** ** ** 4   43   42 1023.6 ***** 1026.3 *** *** ***** ***** ***** ***** **
370850 ***** 201503270300 100   7 ***   2 OBS * * *  0.1 45 ** ** ** ** ** ** ** 4   43   42 1023.0 ***** 1025.8 ***  43 ***** ***** *****  0.00 **
370850 ***** 201503270600 100   4 *** *** OVC * * * 12.5 02 ** ** ** ** ** ** ** 4   43   41 1023.2 ***** 1025.9 ***  42 ***** ***** ***** ***** **
370850 ***** 201503270900 060   7 *** *** SCT * * * 12.5 ** ** ** ** ** ** ** ** *   53   44 1021.6 ***** 1024.3 *** *** ***** ***** ***** ***** **
370850 ***** 201503271200 080  16 *** *** SCT * * * 12.5 ** ** ** ** ** ** ** ** *   54   45 1019.6 ***** 1022.3 *** *** ***** ***** ***** ***** **
370850 ***** 201503271800 080  11 *** *** OVC * * *  2.5 61 ** ** ** ** ** ** ** 6   46   44 1021.2 ***** 1023.9 *** *** ***** ***** ***** ***** **
370850 ***** 201503272100 100   9 *** *** OVC * * *  2.5 61 ** ** ** ** ** ** ** 6   45   44 1021.0 ***** 1023.7 *** *** ***** ***** ***** ***** **
370850 ***** 201503280000 090   9 *** *** OVC * * *  2.5 02 ** ** ** ** ** ** ** 6   46   44 1021.2 ***** 1023.9 *** *** ***** ***** ***** ***** **
370850 ***** 201503280300 070  16 *** *** OVC * * *  2.5 ** ** ** ** ** ** ** ** *   47   44 1023.0 ***** 1025.7 ***  44 ***** ***** *****  0.00T**
370850 ***** 201503280600 070  20 *** *** OVC * * * 12.5 ** ** ** ** ** ** ** ** *   46   42 1025.1 ***** 1027.8 *** *** ***** ***** ***** ***** **
370850 ***** 201503280900 070  25 *** *** OVC * * * 12.5 ** ** ** ** ** ** ** ** *   45   40 1024.8 ***** 1027.5 *** *** ***** ***** ***** ***** **
370850 ***** 201503281200 070  29 *** *** OVC * * * 12.5 ** ** ** ** ** ** ** ** *   44   39 1023.9 ***** 1026.6 *** *** ***** ***** ***** ***** **
370850 ***** 201503281500 070  29 *** *** OVC * * * 12.5 ** ** ** ** ** ** ** ** *   43   38 1023.0 ***** 1025.7  47 *** ***** ***** *****  0.00 **
370850 ***** 201503281800 080  31 *** *** OVC * * *  2.5 ** ** ** ** ** ** ** ** *   45   37 1022.5 ***** 1025.3 *** *** ***** ***** ***** ***** **
370850 ***** 201503282100 080  31 *** *** OVC * * *  2.5 ** ** ** ** ** ** ** ** *   43   36 1022.8 ***** 1025.5 *** *** ***** ***** ***** ***** **
370850 ***** 201503290000 090  27 *** *** OVC * * *  2.5 ** ** ** ** ** ** ** ** *   41   33 1022.2 ***** 1025.0 *** *** ***** ***** ***** ***** **
370850 ***** 201503290300 090  29 *** *** OVC * * *  2.5 ** ** ** ** ** ** ** ** *   39   31 1022.2 ***** 1025.0 ***  39 ***** ***** *****  0.00 **
370850 ***** 201503290600 090  29 *** *** OVC * * * 12.5 ** ** ** ** ** ** ** ** *   39   31 1024.4 ***** 1027.1 ***  39 ***** ***** ***** ***** **
370850 ***** 201503290900 090  31 *** *** OVC * * *  6.2 68 ** ** ** ** ** ** ** 7   36   33 1025.4 ***** 1028.1 *** *** ***** ***** ***** ***** **
370850 ***** 201503291200 090  25 *** *** OVC * * *  2.5 68 ** ** ** ** ** ** ** 7   33   32 1025.9 ***** 1028.7 *** *** ***** ***** ***** ***** **
370850 ***** 201503291500 100  27 *** *** OVC * * *  6.2 61 ** ** ** ** ** ** ** 7   36   32 1025.8 ***** 1028.6  39 *** ***** ***** *****  0.28 **
370850 ***** 201503291800 100  27 *** *** OVC * * *  2.5 02 ** ** ** ** ** ** ** 7   37   31 1025.8 ***** 1028.6 *** *** ***** ***** ***** ***** **
370850 ***** 201503292100 100  31 *** *** OVC * * *  2.5 ** ** ** ** ** ** ** ** *   38   29 1023.6 ***** 1026.4 *** *** ***** ***** ***** ***** **
370850 ***** 201503300000 100  29 *** *** OVC * * *  2.5 ** ** ** ** ** ** ** ** *   37   28 1020.9 ***** 1023.6 *** *** ***** ***** ***** ***** **
370850 ***** 201503300300 100  31 *** *** OVC * * *  2.5 ** ** ** ** ** ** ** ** *   37   29 1019.1 ***** 1021.9 ***  36 ***** ***** *****  0.00T**
370850 ***** 201503300600 110  34 *** *** OVC * * * 12.5 ** ** ** ** ** ** ** ** *   39   31 1018.0 ***** 1020.8 *** *** ***** ***** ***** ***** **
370850 ***** 201503300900 110  31 *** *** OVC * * * 12.5 ** ** ** ** ** ** ** ** *   39   31 1016.3 ***** 1019.0 *** *** ***** ***** ***** ***** **
370850 ***** 201503301200 100  31 *** *** OVC * * *  2.5 71 ** ** ** ** ** ** ** 7   34   32 1015.1 ***** 1017.9 *** *** ***** ***** ***** ***** **
370850 ***** 201503301500 100  25 *** *** OVC * * *  2.5 71 ** ** ** ** ** ** ** 7   35   32 1014.9 ***** 1017.6  39 *** ***** ***** *****  0.08 **
370850 ***** 201503301800 100  25 *** *** OVC * * *  2.5 71 ** ** ** ** ** ** ** 7   36   33 1015.4 ***** 1018.2 *** *** ***** ***** ***** ***** **
370850 ***** 201503302100 100  25 *** *** OVC * * *  2.5 61 ** ** ** ** ** ** ** 7   36   34 1014.5 ***** 1017.3 *** *** ***** ***** ***** ***** **
370850 ***** 201503310000 100  20 *** *** OVC * * *  2.5 61 ** ** ** ** ** ** ** 7   38   32 1014.3 ***** 1017.0 *** *** ***** ***** ***** ***** **
370850 ***** 201503310300 090  20 *** *** OVC * * *  2.5 61 ** ** ** ** ** ** ** 6   37   33 1015.8 ***** 1018.6 ***  35 ***** ***** *****  0.02 **
370850 ***** 201503310600 090  16 *** *** OVC * * *  6.2 61 ** ** ** ** ** ** ** 6   36   34 1017.7 ***** 1020.4 *** *** ***** ***** ***** ***** **
370850 ***** 201503310900 090  18 *** *** OVC * * *  6.2 61 ** ** ** ** ** ** ** 7   36   34 1017.9 ***** 1020.6 *** *** ***** ***** ***** ***** **
370850 ***** 201503311200 090  18 *** *** OVC * * *  6.2 61 ** ** ** ** ** ** ** 7   36   33 1018.6 ***** 1021.3 *** *** ***** ***** ***** ***** **
370850 ***** 201503311500 100  16 *** *** OVC * * *  6.2 61 ** ** ** ** ** ** ** 7   35   32 1019.1 ***** 1021.9  37 *** ***** ***** *****  0.08 **
370850 ***** 201503311800 100  13 *** *** BKN * * *  2.5 02 ** ** ** ** ** ** ** 7   34   30 1019.2 ***** 1022.0 *** *** ***** ***** ***** ***** **
370850 ***** 201503312100 090   9 *** *** *** * * *  2.5 ** ** ** ** ** ** ** ** *   32   29 1017.9 ***** 1020.7 *** *** ***** ***** ***** ***** **
370850 ***** 201504020900 110  16  25  26 OVC * * * 12.5 ** ** ** ** ** ** ** ** *   43   34 1012.1 ***** 1014.9 *** *** ***** ***** ***** ***** **
370850 ***** 201504052100 150   9 *** *** *** * * * **** ** ** ** ** ** ** ** ** *   42   32 1023.5 ***** 1026.3 *** *** ***** ***** ***** ***** **
370850 ***** 201504060000 120   4 *** *** BKN * * *  2.5 ** ** ** ** ** ** ** ** *   39   31 1023.3 ***** 1026.1 *** *** ***** ***** ***** ***** **
370850 ***** 201504060300 110   7 *** *** BKN * * * 12.5 ** ** ** ** ** ** ** ** *   39   32 1023.3 ***** 1026.1 ***  37 ***** ***** *****  0.00 **
370850 ***** 201504060600 110  18 *** *** BKN * * * 12.5 ** ** ** ** ** ** ** ** *   52   30 1023.7 ***** 1026.4 *** *** ***** ***** ***** ***** **
370850 ***** 201504060900 090  20 *** *** BKN * * * 12.5 ** ** ** ** ** ** ** ** *   55   35 1023.5 ***** 1026.2 *** *** ***** ***** ***** ***** **
370850 ***** 201504080000 270   9 *** 722 CLR * * *  2.5 ** ** ** ** ** ** ** ** *   39   37 1006.2 ***** 1009.0 *** *** ***** ***** ***** ***** **
370850 ***** 201504080300 260   7 *** *** SCT * * * 12.5 ** ** ** ** ** ** ** ** *   37   36 1007.6 ***** 1010.3 ***  36 ***** ***** ***** ***** **
370850 ***** 201504160000 240   4 *** *** *** * * * **** ** ** ** ** ** ** ** ** *   42   40 1021.0 ***** 1023.7 *** *** ***** ***** ***** ***** **
370850 ***** 201504211200 070  11 ***  26 OVC * * * 12.5 ** ** ** ** ** ** ** ** *   55   36 1007.7 ***** 1010.3 *** *** ***** ***** ***** ***** **
370850 ***** 201504282100 320   2 *** *** *** * * * **** ** ** ** ** ** ** ** ** *   53   47 1016.9 ***** 1019.6 *** *** ***** ***** ***** ***** **
370850 ***** 201505150000 200   4 *** 722 CLR * * *  2.5 ** ** ** ** ** ** ** ** *   55   51 1013.0 ***** 1015.6 *** *** ***** ***** ***** ***** **
370850 ***** 201505150300 290   4 *** *** SCT * * * 12.5 ** ** ** ** ** ** ** ** *   56   52 1013.6 ***** 1016.2 ***  53 ***** ***** ***** ***** **
370850 ***** 201505260300 270   2 *** *** SCT * * * 12.5 ** ** ** ** ** ** ** ** *   59   54 1009.9 ***** 1012.5 ***  56 ***** ***** ***** ***** **
370850 ***** 201506211200 080   9 *** *** BKN * * * 12.5 ** ** ** ** ** ** ** ** *   91   57 1006.9 ***** 1009.3 *** *** ***** ***** ***** ***** **
370850 ***** 201506220000 210   4 ***  98 BKN * * *  2.5 ** ** ** ** ** ** ** ** *   76   69 1008.0 ***** 1010.5 *** *** ***** ***** ***** ***** **
370850 ***** 201506221500 110   7 *** *** SCT * * * 12.5 ** ** ** ** ** ** ** ** *   93   52 1007.8 ***** 1010.3 *** *** ***** ***** ***** ***** **
370850 ***** 201506261500 250  18  27  98 BKN * * * 12.5 ** ** ** ** ** ** ** ** *   86   60 1001.6 ***** 1004.0 *** *** ***** ***** ***** ***** **
370850 ***** 201507061800 060   2 *** *** SCT * * *  2.5 ** ** ** ** ** ** ** ** *   80   64 1010.4 ***** 1012.9 *** *** ***** ***** ***** ***** **
370850 ***** 201507111800 280   7  51  26 BKN * * *  2.5 02 ** ** ** ** ** ** ** 9   76   63 1005.9 ***** 1008.4 *** *** ***** ***** ***** ***** **
370850 ***** 201507250900 080  16  25 722 CLR * * * 12.5 ** ** ** ** ** ** ** ** *   89   53 1013.0 ***** 1015.5 *** *** ***** ***** ***** ***** **
370850 ***** 201508130000 060   4 *** 722 CLR * * *  2.5 ** ** ** ** ** ** ** ** *   67   63 1013.9 ***** 1016.5 *** *** ***** ***** ***** ***** **
370850 ***** 201508142100 320   2 *** *** BKN * * *  2.5 ** ** ** ** ** ** ** ** *   73   70 1009.5 ***** 1012.0 *** *** ***** ***** ***** ***** **
370850 ***** 201508151200 100   9 *** *** BKN * * * 12.5 ** ** ** ** ** ** ** ** *   97   53 1006.7 ***** 1009.1 *** *** ***** ***** ***** ***** **
