  USAF  WBAN YR--MODAHRMN DIR SPD GUS CLG SKC L M H  VSB MW MW MW MW AW AW AW AW W TEMP DEWP    SLP   ALT    STP MAX MIN PCP01 PCP06 PCP24 PCPXX SD
605180 ***** 201501221800 300  34 ***  20 BKN * * *  9.4 ** ** ** ** ** ** ** ** *   54   44 1016.1 ***** ****** *** *** ***** ***** *****  0.00 **
605180 ***** 201501230600 270  16 ***  46 BKN * * *  9.4 00 ** ** ** ** ** ** ** *   54   44 1018.5 ***** ****** ***  46 ***** *****  0.00 ***** **
605180 ***** 201501271800 ***   0 *** 226 BKN * * *  9.4 ** ** ** ** ** ** ** ** *   56   50 1022.9 ***** ****** *** *** ***** ***** *****  0.00 **
605180 ***** 201504220900 ***   0 *** *** BKN * * *  6.2 ** ** ** ** ** ** ** ** *   66   60 1015.9 ***** ****** *** *** ***** ***** ***** ***** **
605180 ***** 201506070900 ***   0 ***   6 BKN * * *  2.5 10 ** ** ** ** ** ** ** 0   73   68 1017.8 ***** ****** *** *** ***** ***** ***** ***** **
605180 ***** 201506151200 ***   0 *** *** BKN * * *  9.4 ** ** ** ** ** ** ** ** *   80   65 1017.1 ***** ****** *** *** *****  0.00 ***** ***** **
605180 ***** 201508311200 ***   0 *** 226 BKN * * *  6.2 ** ** ** ** ** ** ** ** *   83   73 1013.7 ***** ****** *** *** *****  0.00 ***** ***** **
605180 ***** 201509101200 ***   0 *** *** SCT * * *  9.4 ** ** ** ** ** ** ** ** *   83   68 1012.8 ***** ****** *** *** *****  0.00 ***** ***** **
