  USAF  WBAN YR--MODAHRMN DIR SPD GUS CLG SKC L M H  VSB MW MW MW MW AW AW AW AW W TEMP DEWP    SLP   ALT    STP MAX MIN PCP01 PCP06 PCP24 PCPXX SD
620080 ***** 201501040900 240   7 *** *** *** * * *  6.2 ** ** ** ** ** ** ** ** *   45   36 ****** *****  950.0 *** *** ***** ***** ***** ***** **
620080 ***** 201501050900 330   9 ***  28 OVC * * *  6.2 ** ** ** ** ** ** ** ** *   41   34 ****** *****  944.7 *** *** ***** ***** ***** ***** **
620080 ***** 201501070900 270   9 *** *** *** * * *  6.2 ** ** ** ** ** ** ** ** *   46   40 ****** *****  950.1 *** *** ***** ***** ***** ***** **
620080 ***** 201501071200 300   9 *** *** SCT * * *  6.2 ** ** ** ** ** ** ** ** *   49   39 ****** *****  949.6 *** *** ***** ***** ***** ***** **
620080 ***** 201501071800 300   6 *** *** SCT * * *  6.2 ** ** ** ** ** ** ** ** *   47   39 ****** *****  949.9  53 *** ***** ***** ***** ***** **
620080 ***** 201501072100 330   7 *** *** SCT * * *  6.2 ** ** ** ** ** ** ** ** *   46   40 ****** *****  949.9 *** *** ***** ***** ***** ***** **
620080 ***** 201501120900 360   6 ***  20 BKN * * *  6.2 ** ** ** ** ** ** ** ** *   46   35 ****** *****  948.0 *** *** ***** ***** ***** ***** **
620080 ***** 201501131200 ***   0 ***   0 OBS * * *  0.0 45 ** ** ** ** ** ** ** 4   49   49 ****** *****  951.2 *** *** ***** ***** ***** ***** **
620080 ***** 201501150900 060   6 *** *** SCT * * *  6.2 ** ** ** ** ** ** ** ** *   56   38 ****** *****  946.7 *** *** ***** ***** ***** ***** **
620080 ***** 201501151200 060   9 *** *** SCT * * *  6.2 ** ** ** ** ** ** ** ** *   61   44 ****** *****  945.5 *** *** ***** ***** ***** ***** **
620080 ***** 201501190900 210   9 *** *** SCT * * *  6.2 ** ** ** ** ** ** ** ** *   49   39 ****** *****  936.0 *** *** ***** ***** ***** ***** **
620080 ***** 201501191200 210  11 *** 197 BKN * * *  6.2 ** ** ** ** ** ** ** ** *   59   42 ****** *****  934.2 *** *** ***** ***** ***** ***** **
620080 ***** 201501191500 210  15 *** 197 BKN * * *  6.2 ** ** ** ** ** ** ** ** *   62   43 ****** *****  933.7 *** *** ***** ***** ***** ***** **
620080 ***** 201501200900 300   7 ***  79 BKN * * *  6.2 ** ** ** ** ** ** ** ** *   46   42 ****** *****  928.7 *** *** ***** ***** ***** ***** **
620080 ***** 201501201200 300   6 ***  20 BKN * * *  6.2 ** ** ** ** ** ** ** ** *   51   43 ****** *****  928.9 *** *** ***** ***** ***** ***** **
620080 ***** 201501210900 180  11 *** *** *** * * *  6.2 ** ** ** ** ** ** ** ** *   55   49 ****** *****  934.7 *** *** ***** ***** ***** ***** **
620080 ***** 201501220900 240  14 *** *** *** * * *  6.2 ** ** ** ** ** ** ** ** *   52   40 ****** *****  932.3 *** *** ***** ***** ***** ***** **
620080 ***** 201501221200 240  11 *** *** SCT * * *  6.2 ** ** ** ** ** ** ** ** *   55   42 ****** *****  930.7 *** *** ***** ***** ***** ***** **
620080 ***** 201501221500 240  11 ***  20 BKN * * *  6.2 ** ** ** ** ** ** ** ** *   58   45 ****** *****  930.6 *** *** ***** ***** ***** ***** **
620080 ***** 201501230900 270  17 *** *** SCT * * *  6.2 ** ** ** ** ** ** ** ** *   46   35 ****** *****  931.9 *** *** ***** ***** ***** ***** **
620080 ***** 201501231200 270  17 *** *** SCT * * *  6.2 ** ** ** ** ** ** ** ** *   49   34 ****** *****  932.2 *** *** ***** ***** ***** ***** **
620080 ***** 201501231500 270  17 *** *** *** * * *  6.2 ** ** ** ** ** ** ** ** *   51   39 ****** *****  931.4 *** *** ***** ***** ***** ***** **
620080 ***** 201501231800 240  14 *** *** *** * * *  6.2 ** ** ** ** ** ** ** ** *   46   34 ****** *****  931.9  51 *** ***** ***** ***** ***** **
620080 ***** 201501232100 240  17 *** *** *** * * *  6.2 ** ** ** ** ** ** ** ** *   44   35 ****** *****  932.5 *** *** ***** ***** ***** ***** **
620080 ***** 201501240900 240  11 *** *** SCT * * *  6.2 ** ** ** ** ** ** ** ** *   43   36 ****** *****  932.5 *** *** ***** ***** ***** ***** **
620080 ***** 201501280900 360  11 *** 197 BKN * * *  6.2 ** ** ** ** ** ** ** ** *   46   35 ****** *****  936.1 *** *** ***** ***** ***** ***** **
620080 ***** 201501310900 240  17 ***  79 BKN * * *  6.2 ** ** ** ** ** ** ** ** *   59   46 ****** *****  924.8 *** *** ***** ***** ***** ***** **
620080 ***** 201501311200 240  17 ***  79 BKN * * *  6.2 ** ** ** ** ** ** ** ** *   63   49 ****** *****  925.0 *** *** ***** ***** ***** ***** **
620080 ***** 201501311500 270  17 ***  79 OVC * * *  5.0 07 ** ** ** ** ** ** ** 1   68   55 ****** *****  922.0 *** *** ***** ***** ***** ***** **
620080 ***** 201501311800 270  17 ***  79 OVC * * *  5.0 07 ** ** ** ** ** ** ** 1   66   62 ****** *****  923.5  68 *** ***** ***** ***** ***** **
620080 ***** 201501312100 270  17 ***  79 OVC * * *  5.0 07 ** ** ** ** ** ** ** 1   64   59 ****** *****  924.0 *** *** ***** ***** ***** ***** **
620080 ***** 201502081200 270   6 *** *** *** * * *  6.2 ** ** ** ** ** ** ** ** *   53   19 ****** *****  934.5 *** *** ***** ***** ***** ***** **
620080 ***** 201502100900 330   7 ***  79 OVC * * *  6.2 ** ** ** ** ** ** ** ** *   37   32 ****** *****  938.6 *** *** ***** ***** ***** ***** **
620080 ***** 201502101200 330   7 ***  79 OVC * * *  6.2 ** ** ** ** ** ** ** ** *   40   35 ****** *****  939.2 *** *** ***** ***** ***** ***** **
620080 ***** 201502101500 330  11 ***  79 OVC * * *  6.2 ** ** ** ** ** ** ** ** *   46   38 ****** *****  940.6 *** *** ***** ***** ***** ***** **
620080 ***** 201502160900 180   9 ***  20 BKN * * *  6.2 ** ** ** ** ** ** ** ** *   53   33 ****** *****  934.4 *** *** ***** ***** ***** ***** **
620080 ***** 201502181200 270   6 ***  20 BKN * * *  6.2 ** ** ** ** ** ** ** ** *   55   38 ****** *****  938.2 *** *** ***** ***** ***** ***** **
620080 ***** 201502181500 300   6 *** *** SCT * * *  6.2 ** ** ** ** ** ** ** ** *   56   36 ****** *****  937.5 *** *** ***** ***** ***** ***** **
620080 ***** 201502181800 330   9 *** *** SCT * * *  6.2 ** ** ** ** ** ** ** ** *   54   35 ****** *****  937.7  57 *** ***** ***** ***** ***** **
620080 ***** 201502200900 180  17 ***  79 OVC * * *  6.2 ** ** ** ** ** ** ** ** *   49   39 ****** *****  941.5 *** *** ***** ***** ***** ***** **
620080 ***** 201502201200 150  17 ***  79 BKN * * *  6.2 ** ** ** ** ** ** ** ** *   51   39 ****** *****  941.8 *** *** ***** ***** ***** ***** **
620080 ***** 201502201500 150  17 ***  79 OVC * * *  6.2 ** ** ** ** ** ** ** ** *   52   37 ****** *****  941.6 *** *** ***** ***** ***** ***** **
620080 ***** 201502201800 180  17 ***  79 OVC * * *  6.2 ** ** ** ** ** ** ** ** *   49   36 ****** *****  940.3  53 *** ***** ***** ***** ***** **
620080 ***** 201502202100 150  23 ***  79 OVC * * *  6.2 ** ** ** ** ** ** ** ** *   50   35 ****** *****  939.7 *** *** ***** ***** ***** ***** **
620080 ***** 201502210900 180  14 ***  79 OVC * * *  6.2 ** ** ** ** ** ** ** ** *   56   30 ****** *****  935.4 *** *** ***** ***** ***** ***** **
620080 ***** 201502211200 210  17 ***  79 OVC * * *  6.2 ** ** ** ** ** ** ** ** *   58   26 ****** *****  933.5 *** *** ***** ***** ***** ***** **
620080 ***** 201502281200 210   9 ***  79 OVC * * *  6.2 ** ** ** ** ** ** ** ** *   46   39 ****** *****  934.7 *** *** ***** ***** *****  0.08 **
620080 ***** 201502281500 240  11 *** *** OVC * * *  6.2 ** ** ** ** ** ** ** ** *   48   42 ****** *****  934.3 *** *** ***** ***** ***** ***** **
620080 ***** 201502281800 240  11 ***  79 OVC * * *  6.2 ** ** ** ** ** ** ** ** *   47   41 ****** *****  934.0  48 *** ***** ***** *****  0.28 **
620080 ***** 201502282100 240  11 ***  79 OVC * * *  6.2 ** ** ** ** ** ** ** ** *   44   37 ****** *****  933.8 *** *** ***** ***** ***** ***** **
620080 ***** 201503020900 300  11 ***  20 BKN * * *  6.2 ** ** ** ** ** ** ** ** *   44   37 ****** *****  944.6 *** *** ***** ***** ***** ***** **
620080 ***** 201503021500 300   6 ***  20 BKN * * *  6.2 ** ** ** ** ** ** ** ** *   52   40 ****** *****  945.2 *** *** ***** ***** ***** ***** **
620080 ***** 201503021800 330   6 ***  20 BKN * * *  6.2 ** ** ** ** ** ** ** ** *   50   35 ****** *****  944.8  53 *** ***** ***** ***** ***** **
620080 ***** 201503022100 300   6 ***  20 BKN * * *  6.2 ** ** ** ** ** ** ** ** *   46   34 ****** *****  944.4 *** *** ***** ***** ***** ***** **
620080 ***** 201503121200 270  11 *** *** *** * * *  6.2 ** ** ** ** ** ** ** ** *   58   29 ****** *****  939.5 *** *** ***** ***** ***** ***** **
620080 ***** 201503121500 270  11 *** *** *** * * *  6.2 ** ** ** ** ** ** ** ** *   61   31 ****** *****  939.0 *** *** ***** ***** ***** ***** **
620080 ***** 201503121800 330   7 *** *** *** * * *  6.2 ** ** ** ** ** ** ** ** *   57   31 ****** *****  938.5  61 *** ***** ***** ***** ***** **
620080 ***** 201503122100 330   7 *** *** *** * * *  6.2 ** ** ** ** ** ** ** ** *   55   30 ****** *****  938.0 *** *** ***** ***** ***** ***** **
620080 ***** 201503130000 270   7 *** *** *** * * *  6.2 ** ** ** ** ** ** ** ** *   51   31 ****** *****  938.0 *** *** ***** ***** ***** ***** **
620080 ***** 201503190900 150   9 *** *** SCT * * *  6.2 ** ** ** ** ** ** ** ** *   56   38 ****** *****  937.7 *** *** ***** ***** ***** ***** **
620080 ***** 201503191500 030   9 *** *** SCT * * *  6.2 ** ** ** ** ** ** ** ** *   71   36 ****** *****  935.3 *** *** ***** ***** ***** ***** **
620080 ***** 201503191800 040   9 *** *** SCT * * *  6.2 ** ** ** ** ** ** ** ** *   67   37 ****** *****  935.2  71 *** ***** ***** ***** ***** **
620080 ***** 201503192100 150  11 *** *** SCT * * *  6.2 ** ** ** ** ** ** ** ** *   62   36 ****** *****  935.5 *** *** ***** ***** ***** ***** **
620080 ***** 201503251500 220  11 *** *** SCT * * *  6.2 ** ** ** ** ** ** ** ** *   71   39 ****** *****  925.4 *** *** ***** ***** ***** ***** **
620080 ***** 201503270900 330  11 ***  79 OVC * * *  6.2 ** ** ** ** ** ** ** ** *   45   43 ****** *****  931.7 *** *** ***** ***** ***** ***** **
620080 ***** 201503271200 360  11 ***  79 OVC * * *  5.0 ** ** ** ** ** ** ** ** *   45   43 ****** *****  932.2 *** *** ***** ***** ***** ***** **
620080 ***** 201503271500 330  11 ***  79 OVC * * *  5.0 ** ** ** ** ** ** ** ** *   50   42 ****** *****  933.8 *** *** ***** ***** ***** ***** **
620080 ***** 201503271800 330  11 ***  79 OVC * * *  5.0 ** ** ** ** ** ** ** ** *   52   44 ****** *****  933.4  53 *** ***** ***** ***** ***** **
620080 ***** 201503272100 270   9 ***  20 BKN * * *  6.2 ** ** ** ** ** ** ** ** *   50   42 ****** *****  934.8 *** *** ***** ***** ***** ***** **
620080 ***** 201503280000 270   6 ***  20 BKN * * *  6.2 ** ** ** ** ** ** ** ** *   49   41 ****** *****  935.6 *** *** ***** ***** ***** ***** **
620080 ***** 201503291200 330  11 ***  20 BKN * * *  6.2 ** ** ** ** ** ** ** ** *   53   41 ****** *****  937.7 *** *** ***** ***** ***** ***** **
620080 ***** 201503291500 360  15 ***  20 BKN * * *  6.2 ** ** ** ** ** ** ** ** *   58   41 ****** *****  938.1 *** *** ***** ***** ***** ***** **
620080 ***** 201504010900 150   9 *** *** *** * * *  6.2 ** ** ** ** ** ** ** ** *   64   44 ****** *****  932.4 *** *** ***** ***** ***** ***** **
620080 ***** 201504011200 360  11 *** *** *** * * *  6.2 ** ** ** ** ** ** ** ** *   72   46 ****** *****  942.4 *** *** ***** ***** ***** ***** **
620080 ***** 201504011500 060   9 *** *** *** * * *  6.2 ** ** ** ** ** ** ** ** *   72   48 ****** *****  942.1 *** *** ***** ***** ***** ***** **
620080 ***** 201504020900 060  11 *** *** *** * * *  6.2 ** ** ** ** ** ** ** ** *   55   45 ****** *****  942.2 *** *** ***** ***** ***** ***** **
620080 ***** 201504051200 240  11 *** *** SCT * * *  6.2 ** ** ** ** ** ** ** ** *   74   47 ****** *****  932.3 *** *** ***** ***** ***** ***** **
620080 ***** 201504100900 090   7 *** *** SCT * * *  6.2 ** ** ** ** ** ** ** ** *   51   36 ****** *****  947.1 *** *** ***** ***** ***** ***** **
620080 ***** 201504101800 060   6 *** *** *** * * *  6.2 ** ** ** ** ** ** ** ** *   60   38 ****** *****  946.7  67 *** ***** ***** ***** ***** **
620080 ***** 201504102100 ***   0 *** *** *** * * *  6.2 ** ** ** ** ** ** ** ** *   56   36 ****** *****  946.3 *** *** ***** ***** ***** ***** **
620080 ***** 201504110900 210  11 *** *** *** * * *  6.2 ** ** ** ** ** ** ** ** *   53   41 ****** *****  947.2 *** *** ***** ***** ***** ***** **
620080 ***** 201504111200 210  11 *** *** *** * * *  6.2 ** ** ** ** ** ** ** ** *   58   47 ****** *****  947.7 *** *** ***** ***** ***** ***** **
620080 ***** 201504111500 210  11 *** *** *** * * *  6.2 ** ** ** ** ** ** ** ** *   64   36 ****** *****  947.0 *** *** ***** ***** ***** ***** **
620080 ***** 201504111800 210  11 *** *** *** * * *  6.2 ** ** ** ** ** ** ** ** *   68   40 ****** *****  946.7  68 *** ***** ***** ***** ***** **
620080 ***** 201504112100 150   9 *** *** *** * * *  6.2 ** ** ** ** ** ** ** ** *   64   38 ****** *****  946.2 *** *** ***** ***** ***** ***** **
620080 ***** 201504132100 060   9 *** *** *** * * *  6.2 ** ** ** ** ** ** ** ** *   55   45 ****** *****  945.8 *** *** ***** ***** ***** ***** **
620080 ***** 201504280900 ***   0 *** *** *** * * *  6.2 ** ** ** ** ** ** ** ** *   71   42 ****** *****  935.8 *** *** ***** ***** ***** ***** **
620080 ***** 201504291200 090  11 *** *** *** * * *  6.2 ** ** ** ** ** ** ** ** *   76   40 ****** *****  940.5 *** *** ***** ***** ***** ***** **
620080 ***** 201505060900 060   6 *** *** *** * * *  6.2 ** ** ** ** ** ** ** ** *   88   59 ****** *****  937.7 *** *** ***** ***** ***** ***** **
620080 ***** 201506100900 ***   0 ***  79 BKN * * *  6.2 ** ** ** ** ** ** ** ** *   83   50 ****** *****  938.4 *** *** ***** ***** ***** ***** **
620080 ***** 201506101200 330   6 ***  20 BKN * * *  6.2 ** ** ** ** ** ** ** ** *   89   49 ****** *****  937.5 *** *** ***** ***** ***** ***** **
620080 ***** 201506101800 060   6 *** *** SCT * * *  6.2 ** ** ** ** ** ** ** ** *   84   49 ****** *****  936.7  91 *** ***** ***** ***** ***** **
620080 ***** 201506111500 360   6 *** *** SCT * * *  6.2 ** ** ** ** ** ** ** ** *   95   51 ****** *****  936.9 *** *** ***** ***** ***** ***** **
620080 ***** 201506111800 360  11 ***  30 BKN * * *  6.2 ** ** ** ** ** ** ** ** *   89   52 ****** *****  935.5 *** *** ***** ***** ***** ***** **
620080 ***** 201506112100 090  11 *** *** SCT * * *  6.2 ** ** ** ** ** ** ** ** *   83   52 ****** *****  936.3 *** *** ***** ***** ***** ***** **
620080 ***** 201506150900 150  11 *** *** SCT * * *  6.2 ** ** ** ** ** ** ** ** *   89   41 ****** *****  936.9 *** *** ***** ***** ***** ***** **
620080 ***** 201506151200 210  11 *** *** SCT * * *  6.2 ** ** ** ** ** ** ** ** *   98   42 ****** *****  937.5 *** *** ***** ***** ***** ***** **
620080 ***** 201506160900 210  11 *** *** SCT * * *  6.2 ** ** ** ** ** ** ** ** *   92   40 ****** *****  937.5 *** *** ***** ***** ***** ***** **
620080 ***** 201506161200 210  11 *** *** SCT * * *  6.2 ** ** ** ** ** ** ** ** *   98   53 ****** *****  937.2 *** *** ***** ***** ***** ***** **
620080 ***** 201506170900 330   9 ***  20 BKN * * *  6.2 ** ** ** ** ** ** ** ** *   68   60 ****** *****  937.4 *** *** ***** ***** ***** ***** **
620080 ***** 201506180900 060   6 *** *** *** * * *  6.2 ** ** ** ** ** ** ** ** *   73   49 ****** *****  938.1 *** *** ***** ***** ***** ***** **
620080 ***** 201506190900 060   6 *** *** *** * * *  6.2 ** ** ** ** ** ** ** ** *   76   48 ****** *****  937.6 *** *** ***** ***** ***** ***** **
620080 ***** 201506200900 ***   0 *** *** SCT * * *  6.2 ** ** ** ** ** ** ** ** *   77   56 ****** *****  937.7 *** *** ***** ***** ***** ***** **
620080 ***** 201506201200 ***   0 *** *** SCT * * *  6.2 ** ** ** ** ** ** ** ** *   86   47 ****** *****  936.7 *** *** ***** ***** ***** ***** **
620080 ***** 201506201500 050   9 *** *** SCT * * *  6.2 ** ** ** ** ** ** ** ** *   86   47 ****** *****  936.3 *** *** ***** ***** ***** ***** **
620080 ***** 201506201800 360   9 *** *** SCT * * *  6.2 ** ** ** ** ** ** ** ** *   78   53 ****** *****  936.1  87 *** ***** ***** ***** ***** **
620080 ***** 201506210900 330   6 *** *** *** * * *  6.2 ** ** ** ** ** ** ** ** *   76   50 ****** *****  937.2 *** *** ***** ***** ***** ***** **
620080 ***** 201506211200 330   8 *** *** *** * * *  6.2 ** ** ** ** ** ** ** ** *   82   51 ****** *****  938.1 *** *** ***** ***** ***** ***** **
620080 ***** 201506211500 020  11 *** *** *** * * *  6.2 ** ** ** ** ** ** ** ** *   82   55 ****** *****  937.8 *** *** ***** ***** ***** ***** **
620080 ***** 201506211800 030  16 *** *** *** * * *  6.2 ** ** ** ** ** ** ** ** *   76   52 ****** *****  938.3  82 *** ***** ***** ***** ***** **
620080 ***** 201506220900 120   6 *** *** *** * * *  6.2 ** ** ** ** ** ** ** ** *   78   46 ****** *****  940.5 *** *** ***** ***** ***** ***** **
620080 ***** 201506221200 360   6 *** *** *** * * *  6.2 ** ** ** ** ** ** ** ** *   81   50 ****** *****  940.7 *** *** ***** ***** ***** ***** **
620080 ***** 201506230900 200   6 *** *** *** * * *  6.2 ** ** ** ** ** ** ** ** *   74   48 ****** *****  938.4 *** *** ***** ***** ***** ***** **
620080 ***** 201506231200 200 *** *** *** *** * * *  6.2 ** ** ** ** ** ** ** ** *   85   45 ****** *****  939.3 *** *** ***** ***** ***** ***** **
620080 ***** 201506231500 090   8 *** *** *** * * *  6.2 ** ** ** ** ** ** ** ** *   90   48 ****** *****  937.4 *** *** ***** ***** ***** ***** **
620080 ***** 201506240900 180  11 *** *** *** * * *  6.2 ** ** ** ** ** ** ** ** *   85   48 ****** *****  941.1 *** *** ***** ***** ***** ***** **
620080 ***** 201506241200 210  11 *** *** *** * * *  6.2 ** ** ** ** ** ** ** ** *   94   43 ****** *****  937.8 *** *** ***** ***** ***** ***** **
620080 ***** 201506241500 180  11 *** *** *** * * *  6.2 ** ** ** ** ** ** ** ** *   98   42 ****** *****  936.4 *** *** ***** ***** ***** ***** **
620080 ***** 201506241800 200  11 *** *** *** * * *  6.2 ** ** ** ** ** ** ** ** *   99   37 ****** *****  934.5  99 *** ***** ***** ***** ***** **
620080 ***** 201506250900 210  21 *** *** *** * * *  6.2 ** ** ** ** ** ** ** ** *   91   41 ****** *****  935.7 *** *** ***** ***** ***** ***** **
620080 ***** 201506251200 320   9 *** *** *** * * *  6.2 ** ** ** ** ** ** ** ** *   96   59 ****** *****  935.8 *** *** ***** ***** ***** ***** **
620080 ***** 201506260900 360  11 *** *** *** * * *  6.2 ** ** ** ** ** ** ** ** *   72   63 ****** *****  937.7 *** *** ***** ***** ***** ***** **
620080 ***** 201506261200 060  11 *** *** SCT * * *  6.2 ** ** ** ** ** ** ** ** *   78   57 ****** *****  938.5 *** *** ***** ***** ***** ***** **
620080 ***** 201506261500 060  11 *** *** SCT * * *  6.2 ** ** ** ** ** ** ** ** *   79   61 ****** *****  938.2 *** *** ***** ***** ***** ***** **
620080 ***** 201506261800 060  11 *** *** SCT * * *  6.2 ** ** ** ** ** ** ** ** *   73   62 ****** *****  938.2  80 *** ***** ***** ***** ***** **
620080 ***** 201506262100 060   6 *** *** *** * * *  6.2 ** ** ** ** ** ** ** ** *   67   61 ****** *****  938.8 *** *** ***** ***** ***** ***** **
620080 ***** 201506270000 060   6 *** *** *** * * *  6.2 ** ** ** ** ** ** ** ** *   67   54 ****** *****  939.2 *** *** ***** ***** ***** ***** **
620080 ***** 201506270300 ***   0 *** *** *** * * *  6.2 ** ** ** ** ** ** ** ** *   65   52 ****** *****  939.4 *** *** ***** ***** ***** ***** **
620080 ***** 201506270600 360   6 ***  20 BKN * * *  6.2 ** ** ** ** ** ** ** ** *   62   60 ****** *****  939.7 ***  62 ***** ***** ***** ***** **
620080 ***** 201506270900 330   8 *** *** SCT * * *  6.2 ** ** ** ** ** ** ** ** *   68   58 ****** *****  941.2 *** *** ***** ***** ***** ***** **
620080 ***** 201506271200 030   8 *** *** SCT * * *  6.2 ** ** ** ** ** ** ** ** *   76   54 ****** *****  941.0 *** *** ***** ***** ***** ***** **
620080 ***** 201506271500 350  14 *** *** *** * * *  6.2 ** ** ** ** ** ** ** ** *   79   46 ****** *****  939.7 *** *** ***** ***** ***** ***** **
620080 ***** 201506271800 020  10 *** *** *** * * *  6.2 ** ** ** ** ** ** ** ** *   75   49 ****** *****  939.9  80 *** ***** ***** ***** ***** **
620080 ***** 201506272100 ***   0 *** *** *** * * *  6.2 ** ** ** ** ** ** ** ** *   68   52 ****** *****  941.1 *** *** ***** ***** ***** ***** **
620080 ***** 201506280000 160   8 *** *** *** * * *  6.2 ** ** ** ** ** ** ** ** *   68   47 ****** *****  939.8 *** *** ***** ***** ***** ***** **
620080 ***** 201506280300 ***   0 *** *** *** * * *  6.2 ** ** ** ** ** ** ** ** *   66   44 ****** *****  940.3 *** *** ***** ***** ***** ***** **
620080 ***** 201506280600 ***   0 *** *** *** * * *  6.2 ** ** ** ** ** ** ** ** *   69   47 ****** *****  941.0 ***  67 ***** ***** ***** ***** **
620080 ***** 201506280900 ***   0 *** *** *** * * *  6.2 ** ** ** ** ** ** ** ** *   74   45 ****** *****  940.4 *** *** ***** ***** ***** ***** **
620080 ***** 201506281200 ***   0 *** *** *** * * *  6.2 ** ** ** ** ** ** ** ** *   82   52 ****** *****  939.9 *** *** ***** ***** ***** ***** **
620080 ***** 201506281500 330  11 *** *** *** * * *  6.2 ** ** ** ** ** ** ** ** *   83   54 ****** *****  939.4 *** *** ***** ***** ***** ***** **
620080 ***** 201506281800 ***   0 *** *** *** * * *  6.2 ** ** ** ** ** ** ** ** *   82   53 ****** *****  939.4  83 *** ***** ***** ***** ***** **
620080 ***** 201506282100 ***   0 *** *** *** * * *  6.2 ** ** ** ** ** ** ** ** *   74   56 ****** *****  940.4 *** *** ***** ***** ***** ***** **
620080 ***** 201506290000 ***   0 *** *** *** * * *  6.2 ** ** ** ** ** ** ** ** *   73   51 ****** *****  939.4 *** *** ***** ***** ***** ***** **
620080 ***** 201506290300 ***   0 *** *** *** * * *  6.2 ** ** ** ** ** ** ** ** *   73   51 ****** *****  939.2 *** *** ***** ***** ***** ***** **
620080 ***** 201506290600 ***   0 *** *** *** * * *  6.2 ** ** ** ** ** ** ** ** *   73   51 ****** *****  939.4 ***  72 ***** ***** ***** ***** **
620080 ***** 201506290900 060   6 *** *** *** * * *  6.2 ** ** ** ** ** ** ** ** *   81   56 ****** *****  940.1 *** *** ***** ***** ***** ***** **
620080 ***** 201506291200 020  11 *** *** *** * * *  6.2 ** ** ** ** ** ** ** ** *   83   53 ****** *****  940.6 *** *** ***** ***** ***** ***** **
620080 ***** 201506291500 020  10 *** *** *** * * *  6.2 ** ** ** ** ** ** ** ** *   85   52 ****** *****  939.7 *** *** ***** ***** ***** ***** **
620080 ***** 201506291800 030   9 *** *** *** * * *  6.2 ** ** ** ** ** ** ** ** *   82   54 ****** *****  939.6  85 *** ***** ***** ***** ***** **
620080 ***** 201506300000 110   8 *** *** *** * * *  6.2 ** ** ** ** ** ** ** ** *   71   56 ****** *****  940.1 *** *** ***** ***** ***** ***** **
620080 ***** 201506300300 160   7 *** *** *** * * *  6.2 ** ** ** ** ** ** ** ** *   69   55 ****** *****  939.4 *** *** ***** ***** ***** ***** **
620080 ***** 201506300600 210   8 *** *** *** * * *  6.2 ** ** ** ** ** ** ** ** *   71 **** ****** *****  940.0 ***  69 ***** ***** ***** ***** **
620080 ***** 201506300900 320   8 *** *** *** * * *  6.2 ** ** ** ** ** ** ** ** *   77   63 ****** *****  940.8 *** *** ***** ***** ***** ***** **
620080 ***** 201506301200 330   7 *** *** *** * * *  6.2 ** ** ** ** ** ** ** ** *   84   52 ****** *****  940.3 *** *** ***** ***** ***** ***** **
620080 ***** 201506301500 020   7 *** *** *** * * *  6.2 ** ** ** ** ** ** ** ** *   87   54 ****** *****  940.1 *** *** ***** ***** ***** ***** **
620080 ***** 201506301800 030  17 *** *** *** * * *  6.2 ** ** ** ** ** ** ** ** *   82   59 ****** *****  940.0  87 *** ***** ***** ***** ***** **
620080 ***** 201506302100 100  15 *** *** *** * * *  6.2 ** ** ** ** ** ** ** ** *   74   56 ****** *****  940.1 *** *** ***** ***** ***** ***** **
620080 ***** 201507010000 150   9 *** *** *** * * *  6.2 ** ** ** ** ** ** ** ** *   72   56 ****** *****  940.2 *** *** ***** ***** ***** ***** **
620080 ***** 201507010300 120  11 *** *** *** * * *  6.2 ** ** ** ** ** ** ** ** *   69   51 ****** *****  939.2 *** *** ***** ***** ***** ***** **
620080 ***** 201507010600 100  11 *** *** *** * * *  6.2 ** ** ** ** ** ** ** ** *   68   51 ****** *****  939.8 ***  68 ***** ***** ***** ***** **
620080 ***** 201507010900 120   7 *** *** SCT * * *  6.2 ** ** ** ** ** ** ** ** *   79   54 ****** *****  940.5 *** *** ***** ***** ***** ***** **
620080 ***** 201507011200 ***   0 *** *** *** * * *  6.2 ** ** ** ** ** ** ** ** *   85   59 ****** *****  940.7 *** *** ***** ***** ***** ***** **
620080 ***** 201507011500 060   9 *** *** SCT * * *  6.2 ** ** ** ** ** ** ** ** *   89   58 ****** *****  939.3 *** *** ***** ***** ***** ***** **
620080 ***** 201507011800 060   6 *** *** *** * * *  6.2 ** ** ** ** ** ** ** ** *   87   55 ****** *****  938.7  89 *** ***** ***** ***** ***** **
620080 ***** 201507012100 150  11 *** *** *** * * *  6.2 ** ** ** ** ** ** ** ** *   79   52 ****** *****  939.3 *** *** ***** ***** ***** ***** **
620080 ***** 201507020300 150  14 *** *** *** * * *  6.2 ** ** ** ** ** ** ** ** *   69   49 ****** *****  939.5 *** *** ***** ***** ***** ***** **
620080 ***** 201507020600 150  21 *** *** *** * * *  6.2 ** ** ** ** ** ** ** ** *   69   47 ****** *****  940.1 ***  68 ***** ***** ***** ***** **
620080 ***** 201507020900 200  11 *** *** *** * * *  6.2 ** ** ** ** ** ** ** ** *   78   48 ****** *****  940.9 *** *** ***** ***** ***** ***** **
620080 ***** 201507021200 200   7 *** *** *** * * *  6.2 ** ** ** ** ** ** ** ** *   87   53 ****** *****  941.1 *** *** ***** ***** ***** ***** **
620080 ***** 201507022100 150  13 *** *** *** * * *  6.2 ** ** ** ** ** ** ** ** *   76   56 ****** *****  941.1 *** *** ***** ***** ***** ***** **
620080 ***** 201507030000 120  11 *** *** *** * * *  6.2 ** ** ** ** ** ** ** ** *   73   53 ****** *****  941.7 *** *** ***** ***** ***** ***** **
620080 ***** 201507030300 150  10 *** *** *** * * *  6.2 ** ** ** ** ** ** ** ** *   69   55 ****** *****  940.9 *** *** ***** ***** ***** ***** **
620080 ***** 201507030600 120   9 *** *** *** * * *  6.2 ** ** ** ** ** ** ** ** *   68   52 ****** *****  940.7 ***  68 ***** ***** ***** ***** **
620080 ***** 201507031200 030   7 *** *** *** * * *  6.2 ** ** ** ** ** ** ** ** *   83   54 ****** *****  942.2 *** *** ***** ***** ***** ***** **
620080 ***** 201507031500 030  11 *** *** SCT * * *  6.2 ** ** ** ** ** ** ** ** *   85   57 ****** *****  941.1 *** *** ***** ***** ***** ***** **
620080 ***** 201507031800 010  11 *** *** *** * * *  6.2 ** ** ** ** ** ** ** ** *   78   58 ****** *****  940.1  85 *** ***** ***** ***** ***** **
620080 ***** 201507040900 330   7 *** *** *** * * *  6.2 ** ** ** ** ** ** ** ** *   73   60 ****** *****  942.1 *** *** ***** ***** ***** ***** **
620080 ***** 201507041200 030   9 *** *** *** * * *  6.2 ** ** ** ** ** ** ** ** *   81   60 ****** *****  941.5 *** *** ***** ***** ***** ***** **
620080 ***** 201507041800 060  15 *** *** *** * * *  6.2 ** ** ** ** ** ** ** ** *   77   61 ****** *****  939.7  86 *** ***** ***** ***** ***** **
620080 ***** 201507042100 120   9 *** *** *** * * *  6.2 ** ** ** ** ** ** ** ** *   71   60 ****** *****  940.5 *** *** ***** ***** ***** ***** **
620080 ***** 201507050000 180  11 *** *** *** * * *  6.2 ** ** ** ** ** ** ** ** *   71   57 ****** *****  939.9 *** *** ***** ***** ***** ***** **
620080 ***** 201507050600 150  11 *** *** *** * * *  6.2 ** ** ** ** ** ** ** ** *   70   49 ****** *****  940.9 ***  70 ***** ***** ***** ***** **
620080 ***** 201507050900 090   9 *** *** *** * * *  6.2 ** ** ** ** ** ** ** ** *   78   55 ****** *****  940.7 *** *** ***** ***** ***** ***** **
620080 ***** 201507051200 100   7 *** *** SCT * * *  6.2 ** ** ** ** ** ** ** ** *   82   55 ****** *****  940.7 *** *** ***** ***** ***** ***** **
620080 ***** 201507060900 120   7 *** *** *** * * *  6.2 ** ** ** ** ** ** ** ** *   79   54 ****** *****  941.4 *** *** ***** ***** ***** ***** **
620080 ***** 201507061200 270   7 *** *** SCT * * *  6.2 ** ** ** ** ** ** ** ** *   86   58 ****** *****  941.0 *** *** ***** ***** ***** ***** **
620080 ***** 201507061500 360   9 *** *** SCT * * *  6.2 ** ** ** ** ** ** ** ** *   88   59 ****** *****  939.6 *** *** ***** ***** ***** ***** **
620080 ***** 201507061800 360   9 *** *** *** * * *  6.2 ** ** ** ** ** ** ** ** *   82   59 ****** *****  938.7  88 *** ***** ***** ***** ***** **
620080 ***** 201507062100 120  14 *** *** *** * * *  6.2 ** ** ** ** ** ** ** ** *   75   55 ****** *****  939.4 *** *** ***** ***** ***** ***** **
620080 ***** 201507070000 150  14 *** *** *** * * *  6.2 ** ** ** ** ** ** ** ** *   73   58 ****** *****  939.9 *** *** ***** ***** ***** ***** **
620080 ***** 201507070300 130  11 *** *** *** * * *  6.2 ** ** ** ** ** ** ** ** *   72   58 ****** *****  939.9 *** *** ***** ***** ***** ***** **
620080 ***** 201507070600 150  14 *** *** *** * * *  6.2 ** ** ** ** ** ** ** ** *   69   57 ****** *****  939.2 ***  69 ***** ***** ***** ***** **
620080 ***** 201507070900 280   6 *** *** *** * * *  6.2 ** ** ** ** ** ** ** ** *   79   58 ****** *****  939.6 *** *** ***** ***** ***** ***** **
620080 ***** 201507071200 250   6 *** *** *** * * *  6.2 ** ** ** ** ** ** ** ** *   87   60 ****** *****  938.6 *** *** ***** ***** ***** ***** **
620080 ***** 201507071500 330   9 *** *** SCT * * *  6.2 ** ** ** ** ** ** ** ** *   89   60 ****** *****  937.3 *** *** ***** ***** ***** ***** **
620080 ***** 201507072100 330   9 *** *** SCT * * *  6.2 ** ** ** ** ** ** ** ** *   89   60 ****** *****  937.3 *** *** ***** ***** ***** ***** **
620080 ***** 201507080000 130   7 *** *** *** * * *  6.2 ** ** ** ** ** ** ** ** *   73 **** ****** *****  936.5 *** *** ***** ***** ***** ***** **
620080 ***** 201507080300 160   9 *** *** *** * * *  6.2 ** ** ** ** ** ** ** ** *   71   58 ****** *****  935.3 *** *** ***** ***** ***** ***** **
620080 ***** 201507080900 ***   0 *** *** *** * * *  6.2 ** ** ** ** ** ** ** ** *   80   61 ****** *****  936.5 *** *** ***** ***** ***** ***** **
620080 ***** 201507081200 ***   0 *** *** *** * * *  6.2 ** ** ** ** ** ** ** ** *   86   62 ****** *****  936.6 *** *** ***** ***** ***** ***** **
620080 ***** 201507081500 360   6 *** *** SCT * * *  6.2 ** ** ** ** ** ** ** ** *   90   61 ****** *****  935.6 *** *** ***** ***** ***** ***** **
620080 ***** 201507081800 360  11 *** *** SCT * * *  6.2 ** ** ** ** ** ** ** ** *   86   62 ****** *****  934.8  90 *** ***** ***** ***** ***** **
620080 ***** 201507082100 ***   0 *** *** *** * * *  6.2 ** ** ** ** ** ** ** ** *   76   60 ****** *****  935.6 *** *** ***** ***** ***** ***** **
620080 ***** 201507090000 120   6 *** *** *** * * *  6.2 ** ** ** ** ** ** ** ** *   76   62 ****** *****  935.1 *** *** ***** ***** ***** ***** **
620080 ***** 201507090300 090   6 *** *** *** * * *  6.2 ** ** ** ** ** ** ** ** *   72   60 ****** *****  934.2 *** *** ***** ***** ***** ***** **
620080 ***** 201507090600 ***   0 *** *** *** * * *  6.2 ** ** ** ** ** ** ** ** *   72   58 ****** *****  934.3 ***  72 ***** ***** ***** ***** **
620080 ***** 201507090900 ***   0 *** *** *** * * *  6.2 ** ** ** ** ** ** ** ** *   76   63 ****** *****  934.5 *** *** ***** ***** ***** ***** **
620080 ***** 201507091200 ***   0 *** *** *** * * *  6.2 ** ** ** ** ** ** ** ** *   85   62 ****** *****  934.5 *** *** ***** ***** ***** ***** **
620080 ***** 201507091500 030   9 *** *** *** * * *  6.2 ** ** ** ** ** ** ** ** *   90   53 ****** *****  934.3 *** *** ***** ***** ***** ***** **
620080 ***** 201507091800 060   9 *** *** *** * * *  6.2 ** ** ** ** ** ** ** ** *   85   57 ****** *****  934.3  90 *** ***** ***** ***** ***** **
620080 ***** 201507092100 120  10 *** *** *** * * *  6.2 ** ** ** ** ** ** ** ** *   74   59 ****** *****  935.6 *** *** ***** ***** ***** ***** **
620080 ***** 201507100000 ***   0 *** *** *** * * *  6.2 ** ** ** ** ** ** ** ** *   77   55 ****** *****  935.6 *** *** ***** ***** ***** ***** **
620080 ***** 201507100300 150  10 *** *** *** * * *  6.2 ** ** ** ** ** ** ** ** *   75   55 ****** ***** ****** *** *** ***** ***** ***** ***** **
620080 ***** 201507100600 160  10 *** *** *** * * *  6.2 ** ** ** ** ** ** ** ** *   76   52 ****** *****  936.3 ***  75 ***** ***** ***** ***** **
620080 ***** 201507100900 320   8 *** *** *** * * *  6.2 ** ** ** ** ** ** ** ** *   84   60 ****** *****  938.5 *** *** ***** ***** ***** ***** **
620080 ***** 201507101200 330   9 *** *** *** * * *  6.2 ** ** ** ** ** ** ** ** *   91   61 ****** *****  938.0 *** *** ***** ***** ***** ***** **
620080 ***** 201507101500 330   7 *** *** *** * * *  6.2 ** ** ** ** ** ** ** ** *   92   61 ****** *****  937.6 *** *** ***** ***** ***** ***** **
620080 ***** 201507101800 030  17 *** *** *** * * *  6.2 ** ** ** ** ** ** ** ** *   89   64 ****** *****  936.9  92 *** ***** ***** ***** ***** **
620080 ***** 201507102100 100   8 *** *** *** * * *  6.2 ** ** ** ** ** ** ** ** *   82   63 ****** *****  938.9 *** *** ***** ***** ***** ***** **
620080 ***** 201507110000 120   8 *** *** *** * * *  6.2 ** ** ** ** ** ** ** ** *   80   62 ****** *****  937.9 *** *** ***** ***** ***** ***** **
620080 ***** 201507110300 060   8 *** *** *** * * *  6.2 ** ** ** ** ** ** ** ** *   77   60 ****** *****  937.6 *** *** ***** ***** ***** ***** **
620080 ***** 201507110600 030   6 *** *** *** * * *  6.2 ** ** ** ** ** ** ** ** *   76   62 ****** *****  938.2 ***  75 ***** ***** ***** ***** **
620080 ***** 201507110900 ***   0 *** *** *** * * *  6.2 ** ** ** ** ** ** ** ** *   84   63 ****** *****  939.2 *** *** ***** ***** ***** ***** **
620080 ***** 201507111200 060   7 *** *** *** * * *  6.2 ** ** ** ** ** ** ** ** *   90   63 ****** *****  938.8 *** *** ***** ***** ***** ***** **
620080 ***** 201507111500 360  11 *** *** SCT * * *  6.2 ** ** ** ** ** ** ** ** *   92   65 ****** *****  932.1 *** *** ***** ***** ***** ***** **
620080 ***** 201507111800 060  11 *** *** *** * * *  6.2 ** ** ** ** ** ** ** ** *   85   66 ****** *****  937.4  92 *** ***** ***** ***** ***** **
620080 ***** 201507112100 090  11 *** *** *** * * *  6.2 ** ** ** ** ** ** ** ** *   80   64 ****** *****  937.6 *** *** ***** ***** ***** ***** **
620080 ***** 201507120000 330   9 *** *** *** * * *  6.2 ** ** ** ** ** ** ** ** *   75   64 ****** *****  937.7 *** *** ***** ***** ***** ***** **
620080 ***** 201507120300 ***   0 *** *** *** * * *  6.2 ** ** ** ** ** ** ** ** *   71   64 ****** *****  937.6 *** *** ***** ***** ***** ***** **
620080 ***** 201507120600 ***   0 *** *** *** * * *  6.2 ** ** ** ** ** ** ** ** *   72   64 ****** *****  937.5 ***  70 ***** ***** ***** ***** **
620080 ***** 201507120900 040   7 *** *** *** * * *  6.2 ** ** ** ** ** ** ** ** *   75   67 ****** *****  938.0 *** *** ***** ***** ***** ***** **
620080 ***** 201507121200 030   8 *** *** *** * * *  6.2 ** ** ** ** ** ** ** ** *   87   69 ****** *****  937.5 *** *** ***** ***** ***** ***** **
620080 ***** 201507121500 050   9 *** *** *** * * *  6.2 ** ** ** ** ** ** ** ** *   91   69 ****** *****  936.4 *** *** ***** ***** ***** ***** **
620080 ***** 201507121800 120  15 *** *** *** * * *  6.2 ** ** ** ** ** ** ** ** *   84   68 ****** *****  935.8  91 *** ***** ***** ***** ***** **
620080 ***** 201507122100 030   8 *** *** *** * * *  6.2 ** ** ** ** ** ** ** ** *   75   68 ****** *****  937.6 *** *** ***** ***** ***** ***** **
620080 ***** 201507130000 330   9 *** *** *** * * *  6.2 ** ** ** ** ** ** ** ** *   71   68 ****** *****  934.3 *** *** ***** ***** ***** ***** **
620080 ***** 201507130300 300   7 *** *** *** * * *  6.2 ** ** ** ** ** ** ** ** *   68   67 ****** *****  935.9 *** *** ***** ***** ***** ***** **
620080 ***** 201507130900 360   7 *** *** *** * * *  6.2 ** ** ** ** ** ** ** ** *   76   68 ****** *****  939.1 *** *** ***** ***** ***** ***** **
620080 ***** 201507131200 030   9 *** *** *** * * *  6.2 ** ** ** ** ** ** ** ** *   87   68 ****** *****  938.1 *** *** ***** ***** ***** ***** **
620080 ***** 201507131500 030   7 *** *** *** * * *  6.2 ** ** ** ** ** ** ** ** *   92   67 ****** *****  936.5 *** *** ***** ***** ***** ***** **
620080 ***** 201507131800 060  18 *** *** *** * * *  6.2 ** ** ** ** ** ** ** ** *   84   67 ****** *****  936.5  92 *** ***** ***** ***** ***** **
620080 ***** 201507140000 100  11 *** *** *** * * *  6.2 ** ** ** ** ** ** ** ** *   77   65 ****** *****  937.2 *** *** ***** ***** ***** ***** **
620080 ***** 201507140300 160   8 *** *** *** * * *  6.2 ** ** ** ** ** ** ** ** *   76   63 ****** *****  936.7 *** *** ***** ***** ***** ***** **
620080 ***** 201507140600 060   6 *** *** *** * * *  6.2 ** ** ** ** ** ** ** ** *   73   64 ****** *****  937.5 ***  73 ***** ***** ***** ***** **
620080 ***** 201507140900 060   8 *** *** *** * * *  6.2 ** ** ** ** ** ** ** ** *   76   68 ****** *****  938.0 *** *** ***** ***** ***** ***** **
620080 ***** 201507150900 330   8 *** *** *** * * *  6.2 ** ** ** ** ** ** ** ** *   75   68 ****** *****  938.1 *** *** ***** ***** ***** ***** **
620080 ***** 201507151200 030   9 *** *** *** * * *  6.2 ** ** ** ** ** ** ** ** *   85   73 ****** *****  937.9 *** *** ***** ***** ***** ***** **
620080 ***** 201507151500 030   7 *** *** *** * * *  6.2 ** ** ** ** ** ** ** ** *   91   80 ****** *****  936.6 *** *** ***** ***** ***** ***** **
620080 ***** 201507151800 050   8 *** *** *** * * *  6.2 ** ** ** ** ** ** ** ** *   83   67 ****** *****  935.4  91 *** ***** ***** ***** ***** **
620080 ***** 201507152100 090  15 *** *** *** * * *  6.2 ** ** ** ** ** ** ** ** *   79   67 ****** *****  935.6 *** *** ***** ***** ***** ***** **
620080 ***** 201507160000 160   9 *** *** *** * * *  6.2 ** ** ** ** ** ** ** ** *   75   64 ****** *****  936.6 *** *** ***** ***** ***** ***** **
620080 ***** 201507160300 160   8 *** *** *** * * *  6.2 ** ** ** ** ** ** ** ** *   73   62 ****** *****  936.6 *** *** ***** ***** ***** ***** **
620080 ***** 201507160600 160   9 *** *** *** * * *  6.2 ** ** ** ** ** ** ** ** *   72   58 ****** *****  937.7 ***  72 ***** ***** ***** ***** **
620080 ***** 201507160900 180   7 *** *** *** * * *  6.2 ** ** ** ** ** ** ** ** *   82   62 ****** *****  939.0 *** *** ***** ***** ***** ***** **
620080 ***** 201507161200 020   7 *** *** *** * * *  6.2 ** ** ** ** ** ** ** ** *   89   65 ****** *****  938.5 *** *** ***** ***** ***** ***** **
620080 ***** 201507161500 ***   0 *** *** *** * * *  6.2 ** ** ** ** ** ** ** ** *   91   62 ****** *****  937.7 *** *** ***** ***** ***** ***** **
620080 ***** 201507161800 270   7 *** *** *** * * *  6.2 ** ** ** ** ** ** ** ** *   84   65 ****** *****  937.0  91 *** ***** ***** ***** ***** **
620080 ***** 201507162100 170   9 *** *** *** * * *  6.2 ** ** ** ** ** ** ** ** *   81   62 ****** *****  937.7 *** *** ***** ***** ***** ***** **
620080 ***** 201507170000 150  15 *** *** *** * * *  6.2 ** ** ** ** ** ** ** ** *   69   65 ****** *****  937.0 *** *** ***** ***** ***** ***** **
620080 ***** 201507170300 180  11 *** *** *** * * *  6.2 ** ** ** ** ** ** ** ** *   73   62 ****** *****  938.0 *** *** ***** ***** ***** ***** **
620080 ***** 201507170600 160  11 *** *** *** * * *  6.2 ** ** ** ** ** ** ** ** *   72   60 ****** *****  938.4 ***  72 ***** ***** ***** ***** **
620080 ***** 201507170900 130   7 *** *** *** * * *  6.2 ** ** ** ** ** ** ** ** *   82   64 ****** *****  939.3 *** *** ***** ***** ***** ***** **
620080 ***** 201507171200 030  10 *** *** SCT * * *  6.2 ** ** ** ** ** ** ** ** *   89   66 ****** *****  938.6 *** *** ***** ***** ***** ***** **
620080 ***** 201507171500 360  10 *** *** SCT * * *  6.2 ** ** ** ** ** ** ** ** *   91   65 ****** *****  936.1 *** *** ***** ***** ***** ***** **
620080 ***** 201507171800 070   9 *** *** *** * * *  6.2 ** ** ** ** ** ** ** ** *   85   68 ****** *****  937.2  91 *** ***** ***** ***** ***** **
620080 ***** 201507172100 080   7 *** *** *** * * *  6.2 ** ** ** ** ** ** ** ** *   79   54 ****** *****  938.3 *** *** ***** ***** ***** ***** **
620080 ***** 201507180900 360   9 *** *** *** * * *  6.2 ** ** ** ** ** ** ** ** *   83   64 ****** *****  938.7 *** *** ***** ***** ***** ***** **
620080 ***** 201507181200 060   7 *** *** SCT * * *  6.2 ** ** ** ** ** ** ** ** *   89   63 ****** *****  937.6 *** *** ***** ***** ***** ***** **
620080 ***** 201507181500 060  11 *** *** *** * * *  6.2 ** ** ** ** ** ** ** ** *   90   61 ****** *****  937.2 *** *** ***** ***** ***** ***** **
620080 ***** 201507181800 060  11 *** *** *** * * *  6.2 ** ** ** ** ** ** ** ** *   83   62 ****** *****  936.4  91 *** ***** ***** ***** ***** **
620080 ***** 201507182100 080   9 *** *** *** * * *  6.2 ** ** ** ** ** ** ** ** *   76   60 ****** *****  936.8 *** *** ***** ***** ***** ***** **
620080 ***** 201507190000 090   7 *** *** *** * * *  6.2 ** ** ** ** ** ** ** ** *   74   59 ****** *****  937.2 *** *** ***** ***** ***** ***** **
620080 ***** 201507190300 120   7 *** *** *** * * *  6.2 ** ** ** ** ** ** ** ** *   73   57 ****** *****  935.9 *** *** ***** ***** ***** ***** **
620080 ***** 201507190600 120   7 *** *** *** * * *  6.2 ** ** ** ** ** ** ** ** *   74   58 ****** *****  936.5 ***  73 ***** ***** ***** ***** **
620080 ***** 201507190900 340   8 *** *** *** * * *  6.2 ** ** ** ** ** ** ** ** *   79   61 ****** *****  936.9 *** *** ***** ***** ***** ***** **
620080 ***** 201507191200 020  10 *** *** *** * * *  6.2 ** ** ** ** ** ** ** ** *   87   61 ****** *****  936.9 *** *** ***** ***** ***** ***** **
620080 ***** 201507191500 040   8 *** *** *** * * *  6.2 ** ** ** ** ** ** ** ** *   91   67 ****** *****  935.4 *** *** ***** ***** ***** ***** **
620080 ***** 201507191800 040  10 *** *** *** * * *  6.2 ** ** ** ** ** ** ** ** *   84   63 ****** *****  934.6  91 *** ***** ***** ***** ***** **
620080 ***** 201507192100 160   7 *** *** *** * * *  6.2 ** ** ** ** ** ** ** ** *   77   67 ****** *****  935.4 *** *** ***** ***** ***** ***** **
620080 ***** 201507200000 ***   0 *** *** *** * * *  6.2 ** ** ** ** ** ** ** ** *   77   61 ****** *****  935.0 *** *** ***** ***** ***** ***** **
620080 ***** 201507200600 ***   0 *** *** *** * * *  6.2 ** ** ** ** ** ** ** ** *   74   59 ****** *****  934.9 ***  74 ***** ***** ***** ***** **
620080 ***** 201507200900 320   7 *** *** *** * * *  6.2 ** ** ** ** ** ** ** ** *   79   63 ****** *****  936.7 *** *** ***** ***** ***** ***** **
620080 ***** 201507201200 360   8 *** *** *** * * *  6.2 ** ** ** ** ** ** ** ** *   87   65 ****** *****  936.3 *** *** ***** ***** ***** ***** **
620080 ***** 201507201500 360  14 *** *** *** * * *  6.2 ** ** ** ** ** ** ** ** *   89   65 ****** *****  935.2 *** *** ***** ***** ***** ***** **
620080 ***** 201507201800 030  14 *** *** *** * * *  6.2 ** ** ** ** ** ** ** ** *   87   62 ****** *****  935.8  90 *** ***** ***** ***** ***** **
620080 ***** 201507202100 040   6 *** *** *** * * *  6.2 ** ** ** ** ** ** ** ** *   80   60 ****** *****  937.0 *** *** ***** ***** ***** ***** **
620080 ***** 201507210000 040   6 *** *** *** * * *  6.2 ** ** ** ** ** ** ** ** *   74   56 ****** *****  936.3 *** *** ***** ***** ***** ***** **
620080 ***** 201507210300 030   6 *** *** *** * * *  6.2 ** ** ** ** ** ** ** ** *   73   57 ****** *****  935.2 *** *** ***** ***** ***** ***** **
620080 ***** 201507210600 330   9 *** *** *** * * *  6.2 ** ** ** ** ** ** ** ** *   68   60 ****** *****  935.9 ***  66 ***** ***** ***** ***** **
620080 ***** 201507211200 ***   0 *** *** *** * * *  6.2 ** ** ** ** ** ** ** ** *   86   65 ****** *****  936.5 *** *** ***** ***** ***** ***** **
620080 ***** 201507211500 060  11 *** *** *** * * *  6.2 ** ** ** ** ** ** ** ** *   91   64 ****** *****  936.2 *** *** ***** ***** ***** ***** **
620080 ***** 201507211800 060  11 *** *** SCT * * *  6.2 ** ** ** ** ** ** ** ** *   89   67 ****** *****  935.7  91 *** ***** ***** ***** ***** **
620080 ***** 201507220000 ***   0 *** *** *** * * *  6.2 ** ** ** ** ** ** ** ** *   77   63 ****** *****  936.6 *** *** ***** ***** ***** ***** **
620080 ***** 201507220300 ***   0 *** *** *** * * *  6.2 ** ** ** ** ** ** ** ** *   75   62 ****** *****  936.2 *** *** ***** ***** ***** ***** **
620080 ***** 201507220600 ***   0 *** *** *** * * *  6.2 ** ** ** ** ** ** ** ** *   74   59 ****** *****  936.8 ***  74 ***** ***** ***** ***** **
620080 ***** 201507221200 050   7 *** *** *** * * *  6.2 ** ** ** ** ** ** ** ** *   91   67 ****** *****  936.8 *** *** ***** ***** ***** ***** **
620080 ***** 201507222100 090  10 *** *** *** * * *  6.2 ** ** ** ** ** ** ** ** *   81   63 ****** *****  936.3 *** *** ***** ***** ***** ***** **
620080 ***** 201507230000 080   7 *** *** *** * * *  6.2 ** ** ** ** ** ** ** ** *   80   64 ****** *****  935.7 *** *** ***** ***** ***** ***** **
620080 ***** 201507230300 090   8 *** *** *** * * *  6.2 ** ** ** ** ** ** ** ** *   81   62 ****** *****  934.9 *** *** ***** ***** ***** ***** **
620080 ***** 201507230600 160   8 *** *** *** * * *  6.2 ** ** ** ** ** ** ** ** *   78   62 ****** *****  935.1 ***  78 ***** ***** ***** ***** **
620080 ***** 201507231800 030  11 *** *** *** * * *  6.2 ** ** ** ** ** ** ** ** *   89   68 ****** *****  934.3  97 *** ***** ***** ***** ***** **
620080 ***** 201507232100 120   8 *** *** *** * * *  6.2 ** ** ** ** ** ** ** ** *   82   65 ****** *****  935.5 *** *** ***** ***** ***** ***** **
620080 ***** 201507240000 060   6 *** *** *** * * *  6.2 ** ** ** ** ** ** ** ** *   82   63 ****** *****  935.3 *** *** ***** ***** ***** ***** **
620080 ***** 201507241200 150  10 *** *** SCT * * *  6.2 ** ** ** ** ** ** ** ** *   91   65 ****** *****  932.8 *** *** ***** ***** ***** ***** **
620080 ***** 201507241500 180   9 *** *** SCT * * *  6.2 ** ** ** ** ** ** ** ** *   90   66 ****** *****  931.9 *** *** ***** ***** ***** ***** **
620080 ***** 201507241800 150   9 *** *** SCT * * *  6.2 ** ** ** ** ** ** ** ** *   91   66 ****** *****  932.0  97 *** ***** ***** ***** ***** **
620080 ***** 201507261200 360   9 *** *** *** * * *  6.2 ** ** ** ** ** ** ** ** *   82   68 ****** *****  937.6 *** *** ***** ***** ***** ***** **
620080 ***** 201507261500 040  11 *** *** *** * * *  6.2 ** ** ** ** ** ** ** ** *   92   68 ****** *****  936.2 *** *** ***** ***** ***** ***** **
620080 ***** 201507261800 360  11 *** *** *** * * *  6.2 ** ** ** ** ** ** ** ** *   87   66 ****** *****  936.0  92 *** ***** ***** ***** ***** **
620080 ***** 201507262100 090   9 *** *** *** * * *  6.2 ** ** ** ** ** ** ** ** *   80   67 ****** *****  936.1 *** *** ***** ***** ***** ***** **
620080 ***** 201507270000 150   7 *** *** *** * * *  6.2 ** ** ** ** ** ** ** ** *   79   63 ****** *****  936.0 *** *** ***** ***** ***** ***** **
620080 ***** 201507270600 150   7 *** *** *** * * *  6.2 ** ** ** ** ** ** ** ** *   76   65 ****** *****  935.6 ***  75 ***** ***** ***** ***** **
620080 ***** 201507270900 210   6 *** *** *** * * *  6.2 ** ** ** ** ** ** ** ** *   90   66 ****** *****  936.6 *** *** ***** ***** ***** ***** **
620080 ***** 201507271200 030   7 *** *** *** * * *  6.2 ** ** ** ** ** ** ** ** *   96   68 ****** *****  936.0 *** *** ***** ***** ***** ***** **
620080 ***** 201507271500 010  11 *** *** *** * * *  6.2 ** ** ** ** ** ** ** ** *   98   71 ****** *****  934.9 *** *** ***** ***** ***** ***** **
620080 ***** 201507281800 050   8 *** *** *** * * *  6.2 ** ** ** ** ** ** ** ** *   87   69 ****** *****  933.8  94 *** ***** ***** ***** ***** **
620080 ***** 201507282100 110   8 *** *** *** * * *  6.2 ** ** ** ** ** ** ** ** *   83   67 ****** *****  940.0 *** *** ***** ***** ***** ***** **
620080 ***** 201507290000 130   9 *** *** *** * * *  6.2 ** ** ** ** ** ** ** ** *   83   67 ****** *****  935.1 *** *** ***** ***** ***** ***** **
620080 ***** 201507290300 120   7 *** *** *** * * *  6.2 ** ** ** ** ** ** ** ** *   82   66 ****** *****  935.6 *** *** ***** ***** ***** ***** **
620080 ***** 201507290600 ***   0 *** *** *** * * *  6.2 ** ** ** ** ** ** ** ** *   82   67 ****** *****  935.8 ***  81 ***** ***** ***** ***** **
620080 ***** 201507291500 ***   0 *** *** *** * * *  6.2 ** ** ** ** ** ** ** ** *   85   67 ****** *****  935.8 *** *** ***** ***** ***** ***** **
620080 ***** 201507291800 020  11 *** *** *** * * *  6.2 ** ** ** ** ** ** ** ** *   87   69 ****** *****  934.1  93 *** ***** ***** ***** ***** **
620080 ***** 201507292100 ***   0 *** *** *** * * *  6.2 ** ** ** ** ** ** ** ** *   81   67 ****** *****  941.0 *** *** ***** ***** ***** ***** **
620080 ***** 201507300000 060   8 *** *** *** * * *  6.2 ** ** ** ** ** ** ** ** *   81   64 ****** *****  934.7 *** *** ***** ***** ***** ***** **
620080 ***** 201507300900 330   9 *** *** *** * * *  6.2 ** ** ** ** ** ** ** ** *   84   70 ****** *****  935.5 *** *** ***** ***** ***** ***** **
620080 ***** 201507301200 030   8 *** *** *** * * *  6.2 ** ** ** ** ** ** ** ** *   91   71 ****** *****  935.2 *** *** ***** ***** ***** ***** **
620080 ***** 201507301500 010  11 *** *** *** * * *  6.2 ** ** ** ** ** ** ** ** *   94   73 ****** *****  934.3 *** *** ***** ***** ***** ***** **
620080 ***** 201507301800 030  14 *** *** *** * * *  6.2 ** ** ** ** ** ** ** ** *   92   70 ****** *****  933.8  95 *** ***** ***** ***** ***** **
620080 ***** 201507312100 090  11 *** *** *** * * *  6.2 ** ** ** ** ** ** ** ** *   90   68 ****** *****  934.8 *** *** ***** ***** ***** ***** **
620080 ***** 201508010000 120  11 *** *** *** * * *  6.2 ** ** ** ** ** ** ** ** *   84   68 ****** *****  935.2 *** *** ***** ***** ***** ***** **
620080 ***** 201508010300 150  11 *** *** *** * * *  6.2 ** ** ** ** ** ** ** ** *   81   65 ****** *****  935.0 *** *** ***** ***** ***** ***** **
620080 ***** 201508010600 150  11 *** *** *** * * *  6.2 ** ** ** ** ** ** ** ** *   82   65 ****** *****  935.6 ***  81 ***** ***** ***** ***** **
620080 ***** 201508010900 320   7 *** *** *** * * *  6.2 ** ** ** ** ** ** ** ** *   92   69 ****** *****  936.0 *** *** ***** ***** ***** ***** **
620080 ***** 201508011200 030  11 *** *** *** * * *  6.2 ** ** ** ** ** ** ** ** *  100   72 ****** *****  937.1 *** *** ***** ***** ***** ***** **
620080 ***** 201508011500 040  13 *** *** *** * * *  6.2 ** ** ** ** ** ** ** ** *  101   75 ****** *****  935.5 *** *** ***** ***** ***** ***** **
620080 ***** 201508011800 050  13 *** *** *** * * *  6.2 ** ** ** ** ** ** ** ** *   99   70 ****** *****  934.8 101 *** ***** ***** ***** ***** **
620080 ***** 201508012100 100  10 *** *** *** * * *  6.2 ** ** ** ** ** ** ** ** *   91   69 ****** *****  935.7 *** *** ***** ***** ***** ***** **
620080 ***** 201508020000 150  11 *** *** *** * * *  6.2 ** ** ** ** ** ** ** ** *   87   66 ****** *****  938.3 *** *** ***** ***** ***** ***** **
620080 ***** 201508021200 340   7 *** *** *** * * *  6.2 ** ** ** ** ** ** ** ** *   98   71 ****** *****  939.0 *** *** ***** ***** ***** ***** **
620080 ***** 201508021500 030  14 *** *** *** * * *  6.2 ** ** ** ** ** ** ** ** *  100   75 ****** *****  938.4 *** *** ***** ***** ***** ***** **
620080 ***** 201508021800 060  16 *** *** *** * * *  6.2 ** ** ** ** ** ** ** ** *   96   69 ****** *****  937.5 101 *** ***** ***** ***** ***** **
620080 ***** 201508022100 120   9 *** *** *** * * *  6.2 ** ** ** ** ** ** ** ** *   90   71 ****** *****  938.5 *** *** ***** ***** ***** ***** **
620080 ***** 201508030000 120  11 *** *** *** * * *  6.2 ** ** ** ** ** ** ** ** *   89   69 ****** *****  939.0 *** *** ***** ***** ***** ***** **
620080 ***** 201508030300 150  11 *** *** *** * * *  6.2 ** ** ** ** ** ** ** ** *   84   63 ****** *****  938.4 *** *** ***** ***** ***** ***** **
620080 ***** 201508030600 280  11 *** *** *** * * *  6.2 ** ** ** ** ** ** ** ** *   83   64 ****** *****  938.0 ***  82 ***** ***** ***** ***** **
620080 ***** 201508030900 210   7 *** *** *** * * *  6.2 ** ** ** ** ** ** ** ** *   95   68 ****** *****  938.6 *** *** ***** ***** ***** ***** **
620080 ***** 201508031200 360  11 *** *** *** * * *  6.2 ** ** ** ** ** ** ** ** *  101   73 ****** *****  937.1 *** *** ***** ***** ***** ***** **
620080 ***** 201508031500 010  13 *** *** SCT * * *  6.2 ** ** ** ** ** ** ** ** *  101   78 ****** *****  937.1 *** *** ***** ***** ***** ***** **
620080 ***** 201508031800 030  10 *** *** SCT * * *  6.2 ** ** ** ** ** ** ** ** *   96   73 ****** *****  936.5 101 *** ***** ***** ***** ***** **
620080 ***** 201508032100 150   7 *** *** *** * * *  6.2 ** ** ** ** ** ** ** ** *   91   68 ****** *****  936.6 *** *** ***** ***** ***** ***** **
620080 ***** 201508040000 150  10 *** *** *** * * *  6.2 ** ** ** ** ** ** ** ** *   91   69 ****** *****  935.9 *** *** ***** ***** ***** ***** **
620080 ***** 201508041500 280  13 *** *** SCT * * *  6.2 ** ** ** ** ** ** ** ** *   95   79 ****** *****  935.1 *** *** ***** ***** ***** ***** **
620080 ***** 201508041800 060   8 *** *** SCT * * *  6.2 ** ** ** ** ** ** ** ** *   85   77 ****** *****  934.9  95 *** ***** ***** ***** ***** **
620080 ***** 201508042100 060  13 *** *** SCT * * *  6.2 ** ** ** ** ** ** ** ** *   77   71 ****** *****  934.7 *** *** ***** ***** ***** ***** **
620080 ***** 201508050000 030   8 *** *** *** * * *  6.2 ** ** ** ** ** ** ** ** *   74   71 ****** *****  936.1 *** *** ***** ***** ***** ***** **
620080 ***** 201508050300 260   7 *** *** SCT * * *  6.2 ** ** ** ** ** ** ** ** *   71   70 ****** *****  936.0 *** *** ***** ***** ***** ***** **
620080 ***** 201508050600 090  10 *** *** SCT * * *  6.2 ** ** ** ** ** ** ** ** *   71   67 ****** *****  935.5 ***  71 ***** ***** ***** ***** **
620080 ***** 201508050900 060   6 *** *** SCT * * *  6.2 ** ** ** ** ** ** ** ** *   79   72 ****** *****  936.2 *** *** ***** ***** ***** ***** **
620080 ***** 201508051200 060  10 *** *** SCT * * *  6.2 ** ** ** ** ** ** ** ** *   85   73 ****** ***** ****** *** *** ***** ***** ***** ***** **
620080 ***** 201508051800 040   9 *** *** *** * * *  6.2 ** ** ** ** ** ** ** ** *   86   71 ****** *****  936.1  91 *** ***** ***** ***** ***** **
620080 ***** 201508052100 120   9 *** *** *** * * *  6.2 ** ** ** ** ** ** ** ** *   80   70 ****** *****  941.0 *** *** ***** ***** ***** ***** **
620080 ***** 201508060000 ***   0 *** *** *** * * *  6.2 ** ** ** ** ** ** ** ** *   77   70 ****** *****  936.1 *** *** ***** ***** ***** ***** **
620080 ***** 201508060300 060   6 *** *** *** * * *  6.2 ** ** ** ** ** ** ** ** *   75   64 ****** *****  936.2 *** *** ***** ***** ***** ***** **
620080 ***** 201508060600 120   6 *** *** SCT * * *  6.2 ** ** ** ** ** ** ** ** *   74   63 ****** *****  935.4 ***  74 ***** ***** ***** ***** **
620080 ***** 201508060900 300   6 *** *** SCT * * *  6.2 ** ** ** ** ** ** ** ** *   83   60 ****** *****  936.5 *** *** ***** ***** ***** ***** **
620080 ***** 201508061200 330  10 *** *** SCT * * *  6.2 ** ** ** ** ** ** ** ** *   89   52 ****** *****  935.6 *** *** ***** ***** ***** ***** **
620080 ***** 201508061500 020   9 *** *** SCT * * *  6.2 ** ** ** ** ** ** ** ** *   91   60 ****** *****  934.0 *** *** ***** ***** ***** ***** **
620080 ***** 201508071500 030   9 *** *** SCT * * *  6.2 ** ** ** ** ** ** ** ** *   90   55 ****** *****  934.4 *** *** ***** ***** ***** ***** **
620080 ***** 201508071800 060  11 *** *** *** * * *  6.2 ** ** ** ** ** ** ** ** *   82   59 ****** *****  934.3  90 *** ***** ***** ***** ***** **
620080 ***** 201508072100 090   7 *** *** *** * * *  6.2 ** ** ** ** ** ** ** ** *   78   60 ****** *****  934.3 *** *** ***** ***** ***** ***** **
620080 ***** 201508080000 090   9 *** *** *** * * *  6.2 ** ** ** ** ** ** ** ** *   75   64 ****** *****  934.3 *** *** ***** ***** ***** ***** **
620080 ***** 201508080600 150   7 *** *** *** * * *  6.2 ** ** ** ** ** ** ** ** *   71   62 ****** *****  935.7 ***  71 ***** ***** ***** ***** **
620080 ***** 201508080900 ***   0 *** *** *** * * *  6.2 ** ** ** ** ** ** ** ** *   79   61 ****** *****  935.7 *** *** ***** ***** ***** ***** **
620080 ***** 201508081200 030   7 *** *** SCT * * *  6.2 ** ** ** ** ** ** ** ** *   84   61 ****** *****  936.3 *** *** ***** ***** ***** ***** **
620080 ***** 201508081500 040  11 *** *** SCT * * *  6.2 ** ** ** ** ** ** ** ** *   88   62 ****** *****  936.3 *** *** ***** ***** ***** ***** **
620080 ***** 201508092100 090   7 *** *** *** * * *  6.2 ** ** ** ** ** ** ** ** *   78   64 ****** *****  939.0 *** *** ***** ***** ***** ***** **
620080 ***** 201508101500 330   7 *** *** SCT * * *  6.2 ** ** ** ** ** ** ** ** *   94   58 ****** *****  936.6 *** *** ***** ***** ***** ***** **
620080 ***** 201508102100 090   6 ***  79 BKN * * *  6.2 ** ** ** ** ** ** ** ** *   84   59 ****** *****  937.6 *** *** ***** ***** ***** ***** **
620080 ***** 201508110000 150  11 *** *** SCT * * *  6.2 ** ** ** ** ** ** ** ** *   81   58 ****** *****  936.6 *** *** ***** ***** ***** ***** **
620080 ***** 201508110300 150  14 ***  79 BKN * * *  6.2 ** ** ** ** ** ** ** ** *   78   62 ****** *****  935.9 *** *** ***** ***** ***** ***** **
620080 ***** 201508110600 150  13 ***  79 BKN * * *  6.2 ** ** ** ** ** ** ** ** *   79   58 ****** *****  935.1 ***  78 ***** ***** ***** ***** **
620080 ***** 201508110900 210  11 ***  79 BKN * * *  6.2 ** ** ** ** ** ** ** ** *   78   74 ****** *****  936.6 *** *** ***** ***** ***** ***** **
620080 ***** 201508111200 260  16 *** *** SCT * * *  6.2 ** ** ** ** ** ** ** ** *   90   53 ****** *****  935.4 *** *** ***** ***** ***** ***** **
620080 ***** 201508111800 030  13 *** *** SCT * * *  6.2 ** ** ** ** ** ** ** ** *   89   64 ****** *****  934.9  95 *** ***** ***** ***** ***** **
620080 ***** 201508112100 040   9 *** *** SCT * * *  6.2 ** ** ** ** ** ** ** ** *   80   66 ****** ***** ****** *** *** ***** ***** ***** ***** **
620080 ***** 201508120000 120   8 *** *** *** * * *  6.2 ** ** ** ** ** ** ** ** *   81   58 ****** *****  937.1 *** *** ***** ***** ***** ***** **
620080 ***** 201508120300 030   7 *** *** *** * * *  6.2 ** ** ** ** ** ** ** ** *   78   68 ****** *****  935.7 *** *** ***** ***** ***** ***** **
620080 ***** 201508120600 330   8 *** *** *** * * *  6.2 ** ** ** ** ** ** ** ** *   74   64 ****** *****  936.5 ***  74 ***** ***** ***** ***** **
620080 ***** 201508120900 330   8 *** *** *** * * *  6.2 ** ** ** ** ** ** ** ** *   79   69 ****** *****  938.7 *** *** ***** ***** ***** ***** **
620080 ***** 201508121200 330   8 *** *** *** * * *  6.2 ** ** ** ** ** ** ** ** *   88   63 ****** *****  938.4 *** *** ***** ***** ***** ***** **
620080 ***** 201508121500 330  11 *** *** SCT * * *  6.2 ** ** ** ** ** ** ** ** *   92   60 ****** *****  936.7 *** *** ***** ***** ***** ***** **
620080 ***** 201508121800 030  15 *** *** *** * * *  6.2 ** ** ** ** ** ** ** ** *   80   66 ****** *****  936.6  92 *** ***** ***** ***** ***** **
620080 ***** 201508122100 060   7 *** *** *** * * *  6.2 ** ** ** ** ** ** ** ** *   77   59 ****** *****  937.9 *** *** ***** ***** ***** ***** **
620080 ***** 201508130000 030   6 *** *** *** * * *  6.2 ** ** ** ** ** ** ** ** *   77   58 ****** *****  937.4 *** *** ***** ***** ***** ***** **
620080 ***** 201508130300 010   6 *** *** *** * * *  6.2 ** ** ** ** ** ** ** ** *   73   60 ****** *****  936.7 *** *** ***** ***** ***** ***** **
620080 ***** 201508130600 360   7 ***  20 BKN * * *  6.2 ** ** ** ** ** ** ** ** *   71   65 ****** *****  936.6 ***  70 ***** ***** ***** ***** **
620080 ***** 201508130900 330  14 ***  79 BKN * * *  6.2 ** ** ** ** ** ** ** ** *   75   65 ****** *****  937.2 *** *** ***** ***** ***** ***** **
620080 ***** 201508131200 300   9 ***  79 BKN * * *  6.2 ** ** ** ** ** ** ** ** *   81   62 ****** *****  936.6 *** *** ***** ***** ***** ***** **
620080 ***** 201508131500 360  29 ***  79 BKN * * *  6.2 ** ** ** ** ** ** ** ** *   82   64 ****** *****  936.0 *** *** ***** ***** ***** ***** **
620080 ***** 201508131800 330  17 ***  79 BKN * * *  6.2 ** ** ** ** ** ** ** ** *   77   64 ****** *****  936.0  83 *** ***** ***** ***** ***** **
620080 ***** 201508132100 300   8 ***  98 BKN * * *  6.2 ** ** ** ** ** ** ** ** *   73   67 ****** *****  936.7 *** *** ***** ***** ***** ***** **
620080 ***** 201508140000 360   7 *** *** SCT * * *  6.2 ** ** ** ** ** ** ** ** *   70   68 ****** *****  934.5 *** *** ***** ***** ***** ***** **
620080 ***** 201508140300 030   6 *** *** SCT * * *  6.2 ** ** ** ** ** ** ** ** *   70   67 ****** *****  935.3 *** *** ***** ***** ***** ***** **
620080 ***** 201508140600 330   7 ***  18 OVC * * * 37.5 ** ** ** ** ** ** ** ** *   69   67 ****** *****  936.3 ***  69 ***** ***** ***** ***** **
620080 ***** 201508141200 330   9 ***  20 BKN * * *  6.2 ** ** ** ** ** ** ** ** *   81   63 ****** *****  936.9 *** *** ***** ***** ***** ***** **
620080 ***** 201508150000 070   7 *** *** *** * * *  6.2 ** ** ** ** ** ** ** ** *   77   66 ****** *****  936.0 *** *** ***** ***** ***** ***** **
620080 ***** 201508150300 150   8 *** *** *** * * *  6.2 ** ** ** ** ** ** ** ** *   76   62 ****** *****  934.3 *** *** ***** ***** ***** ***** **
620080 ***** 201508150600 210   8 *** *** *** * * *  6.2 ** ** ** ** ** ** ** ** *   73   66 ****** *****  934.3  73 *** ***** ***** ***** ***** **
620080 ***** 201508150900 ***   0 *** *** *** * * *  6.2 ** ** ** ** ** ** ** ** *   82   64 ****** *****  935.6 *** *** ***** ***** ***** ***** **
620080 ***** 201508151200 330   7 *** *** *** * * *  6.2 ** ** ** ** ** ** ** ** *   91   59 ****** *****  935.9 *** *** ***** ***** ***** ***** **
620080 ***** 201508151500 300   9 *** *** SCT * * *  6.2 ** ** ** ** ** ** ** ** *   92   55 ****** *****  935.5 *** *** ***** ***** ***** ***** **
620080 ***** 201508160000 150   9 *** *** SCT * * *  6.2 ** ** ** ** ** ** ** ** *   82   60 ****** *****  934.7 *** *** ***** ***** ***** ***** **
620080 ***** 201508160900 180   6 ***  79 BKN * * *  6.2 ** ** ** ** ** ** ** ** *   83   59 ****** *****  936.2 *** *** ***** ***** ***** ***** **
620080 ***** 201508161200 150   9 *** *** BKN * * *  6.2 ** ** ** ** ** ** ** ** *   90   60 ****** *****  934.5 *** *** ***** ***** ***** ***** **
620080 ***** 201508162100 100  13 ***  79 BKN * * *  6.2 ** ** ** ** ** ** ** ** *   81   61 ****** *****  933.3 *** *** ***** ***** ***** ***** **
620080 ***** 201508170000 080   6 *** *** SCT * * *  6.2 ** ** ** ** ** ** ** ** *   79   61 ****** *****  933.6 *** *** ***** ***** ***** ***** **
620080 ***** 201508170300 ***   0 *** *** *** * * *  6.2 ** ** ** ** ** ** ** ** *   74   63 ****** *****  932.7 *** *** ***** ***** ***** ***** **
620080 ***** 201508171500 060   7 *** *** *** * * *  6.2 ** ** ** ** ** ** ** ** *   91   66 ****** *****  931.8 *** *** ***** ***** ***** ***** **
620080 ***** 201508171800 030  11 *** *** *** * * *  6.2 ** ** ** ** ** ** ** ** *   84   69 ****** *****  933.3  91 *** ***** ***** ***** ***** **
620080 ***** 201508180600 160  11 *** *** *** * * *  6.2 ** ** ** ** ** ** ** ** *   76   62 ****** *****  932.5 ***  73 ***** ***** ***** ***** **
620080 ***** 201508180900 ***   0 *** *** *** * * *  6.2 ** ** ** ** ** ** ** ** *   88   59 ****** *****  934.6 *** *** ***** ***** ***** ***** **
620080 ***** 201508181200 330   7 *** *** *** * * *  6.2 ** ** ** ** ** ** ** ** *   94   63 ****** *****  936.0 *** *** ***** ***** ***** ***** **
620080 ***** 201508181500 240  10 *** *** *** * * *  6.2 ** ** ** ** ** ** ** ** *   99   61 ****** *****  935.3 *** *** ***** ***** ***** ***** **
620080 ***** 201508181800 080   7 *** *** *** * * *  6.2 ** ** ** ** ** ** ** ** *   94   60 ****** *****  934.6  99 *** ***** ***** ***** ***** **
620080 ***** 201508182100 150  11 *** *** *** * * *  6.2 ** ** ** ** ** ** ** ** *   88   59 ****** *****  935.8 *** *** ***** ***** ***** ***** **
620080 ***** 201508190000 150  16 *** *** *** * * *  6.2 ** ** ** ** ** ** ** ** *   79   65 ****** *****  935.3 *** *** ***** ***** ***** ***** **
620080 ***** 201508190600 150  20 ***  79 BKN * * *  6.2 ** ** ** ** ** ** ** ** *   81   60 ****** *****  935.3 ***  79 ***** ***** ***** ***** **
620080 ***** 201508190900 030  14 ***  79 BKN * * *  6.2 ** ** ** ** ** ** ** ** *   83   63 ****** *****  938.2 *** *** ***** ***** ***** ***** **
620080 ***** 201508191200 150  18 *** 197 BKN * * *  6.2 ** ** ** ** ** ** ** ** *   91   63 ****** *****  936.6 *** *** ***** ***** ***** ***** **
620080 ***** 201508191500 220  17 ***  79 BKN * * *  6.2 ** ** ** ** ** ** ** ** *   95   56 ****** *****  935.2 *** *** ***** ***** ***** ***** **
620080 ***** 201508201800 030  13 ***  79 BKN * * *  6.2 ** ** ** ** ** ** ** ** *   80   69 ****** *****  939.3  86 *** ***** ***** ***** ***** **
620080 ***** 201508202100 030   8 *** *** SCT * * *  6.2 ** ** ** ** ** ** ** ** *   77   67 ****** *****  940.3 *** *** ***** ***** ***** ***** **
620080 ***** 201508210300 ***   0 *** *** SCT * * *  6.2 ** ** ** ** ** ** ** ** *   72   66 ****** *****  940.8 *** *** ***** ***** ***** ***** **
620080 ***** 201508210600 ***   0 ***  20 BKN * * *  6.2 ** ** ** ** ** ** ** ** *   71   68 ****** *****  941.4 ***  71 ***** ***** ***** ***** **
620080 ***** 201508210900 030   7 *** *** SCT * * *  6.2 ** ** ** ** ** ** ** ** *   77   66 ****** *****  942.2 *** *** ***** ***** ***** ***** **
620080 ***** 201508211200 030   7 *** *** *** * * *  6.2 ** ** ** ** ** ** ** ** *   85   61 ****** *****  941.6 *** *** ***** ***** ***** ***** **
620080 ***** 201508211500 030  10 *** *** *** * * *  6.2 ** ** ** ** ** ** ** ** *   87   59 ****** *****  940.2 *** *** ***** ***** ***** ***** **
620080 ***** 201508211800 030  13 *** *** *** * * *  6.2 ** ** ** ** ** ** ** ** *   82   61 ****** *****  940.5  87 *** ***** ***** ***** ***** **
620080 ***** 201508212100 030   8 *** *** *** * * *  6.2 ** ** ** ** ** ** ** ** *   76   61 ****** *****  940.7 *** *** ***** ***** ***** ***** **
620080 ***** 201508220000 030   7 *** *** *** * * *  6.2 ** ** ** ** ** ** ** ** *   73   58 ****** *****  941.1 *** *** ***** ***** ***** ***** **
620080 ***** 201508220300 030   8 *** *** *** * * *  6.2 ** ** ** ** ** ** ** ** *   73   46 ****** *****  939.3 *** *** ***** ***** ***** ***** **
620080 ***** 201508220600 030   7 *** *** *** * * *  6.2 ** ** ** ** ** ** ** ** *   73   45 ****** *****  935.5 ***  73 ***** ***** ***** ***** **
620080 ***** 201508220900 030   7 *** *** *** * * *  6.2 ** ** ** ** ** ** ** ** *   82   47 ****** *****  940.4 *** *** ***** ***** ***** ***** **
620080 ***** 201508221200 060   8 *** *** *** * * *  6.2 ** ** ** ** ** ** ** ** *   89   54 ****** *****  939.6 *** *** ***** ***** ***** ***** **
620080 ***** 201508221500 030   7 *** *** *** * * *  6.2 ** ** ** ** ** ** ** ** *   90   59 ****** *****  939.2 *** *** ***** ***** ***** ***** **
620080 ***** 201508221800 030   9 *** *** *** * * *  6.2 ** ** ** ** ** ** ** ** *   87   59 ****** *****  939.0  91 *** ***** ***** ***** ***** **
620080 ***** 201508222100 030   7 *** *** *** * * *  6.2 ** ** ** ** ** ** ** ** *   81   60 ****** *****  938.4 *** *** ***** ***** ***** ***** **
620080 ***** 201508230000 030   9 *** *** *** * * *  6.2 ** ** ** ** ** ** ** ** *   79   56 ****** *****  938.1 *** *** ***** ***** ***** ***** **
620080 ***** 201508230600 030   7 *** *** *** * * *  6.2 ** ** ** ** ** ** ** ** *   74   61 ****** *****  937.5 ***  73 ***** ***** ***** ***** **
620080 ***** 201508230900 180   6 *** *** *** * * *  6.2 ** ** ** ** ** ** ** ** *   84   60 ****** *****  938.0 *** *** ***** ***** ***** ***** **
620080 ***** 201508231200 030   9 *** *** SCT * * *  6.2 ** ** ** ** ** ** ** ** *   92   61 ****** *****  937.7 *** *** ***** ***** ***** ***** **
620080 ***** 201508231500 030   8 ***  20 BKN * * *  6.2 ** ** ** ** ** ** ** ** *   92   62 ****** *****  936.2 *** *** ***** ***** ***** ***** **
620080 ***** 201508231800 090   9 *** *** SCT * * *  6.2 ** ** ** ** ** ** ** ** *   90   60 ****** *****  936.2  93 *** ***** ***** ***** ***** **
620080 ***** 201508232100 120  14 *** *** *** * * *  6.2 ** ** ** ** ** ** ** ** *   84   62 ****** *****  936.9 *** *** ***** ***** ***** ***** **
620080 ***** 201508240000 180  11 *** *** *** * * *  6.2 ** ** ** ** ** ** ** ** *   82   65 ****** *****  936.2 *** *** ***** ***** ***** ***** **
620080 ***** 201508240300 180  11 *** *** *** * * *  6.2 ** ** ** ** ** ** ** ** *   79   58 ****** *****  936.9 *** *** ***** ***** ***** ***** **
620080 ***** 201508240600 180  11 *** *** *** * * *  6.2 ** ** ** ** ** ** ** ** *   82   65 ****** *****  936.2 *** *** ***** ***** ***** ***** **
620080 ***** 201508240900 190   6 *** *** *** * * *  6.2 ** ** ** ** ** ** ** ** *   87   59 ****** *****  938.1 *** *** ***** ***** ***** ***** **
620080 ***** 201508241500 160   7 *** *** SCT * * *  6.2 ** ** ** ** ** ** ** ** *   98   63 ****** *****  936.9 *** *** ***** ***** ***** ***** **
620080 ***** 201508241800 150  10 ***  79 BKN * * *  6.2 ** ** ** ** ** ** ** ** *   94   60 ****** *****  935.6  98 *** ***** ***** ***** ***** **
620080 ***** 201508242100 150  11 *** *** SCT * * *  6.2 ** ** ** ** ** ** ** ** *   87   61 ****** *****  937.3 *** *** ***** ***** ***** ***** **
620080 ***** 201508250000 160  11 *** *** *** * * *  6.2 ** ** ** ** ** ** ** ** *   81   77 ****** *****  937.1 *** *** ***** ***** ***** ***** **
620080 ***** 201508250300 160  13 *** *** *** * * *  6.2 ** ** ** ** ** ** ** ** *   78   78 ****** *****  938.1 *** *** ***** ***** ***** ***** **
620080 ***** 201508250600 160  13 *** *** *** * * *  6.2 ** ** ** ** ** ** ** ** *   77   77 ****** *****  939.1 ***  77 ***** ***** ***** ***** **
620080 ***** 201508250900 220   9 *** *** *** * * *  6.2 ** ** ** ** ** ** ** ** *   89   60 ****** *****  939.9 *** *** ***** ***** ***** ***** **
620080 ***** 201508251200 150   7 *** *** *** * * *  6.2 ** ** ** ** ** ** ** ** *   95   59 ****** *****  939.5 *** *** ***** ***** ***** ***** **
620080 ***** 201508251500 360   9 *** *** SCT * * *  6.2 ** ** ** ** ** ** ** ** *   97   56 ****** *****  938.6 *** *** ***** ***** ***** ***** **
620080 ***** 201508260000 150  11 *** *** *** * * *  6.2 ** ** ** ** ** ** ** ** *   85   51 ****** *****  939.0 *** *** ***** ***** ***** ***** **
620080 ***** 201508260300 180  11 *** *** *** * * *  6.2 ** ** ** ** ** ** ** ** *   82   51 ****** *****  938.6 *** *** ***** ***** ***** ***** **
620080 ***** 201508260600 210   9 *** *** *** * * *  6.2 ** ** ** ** ** ** ** ** *   81   50 ****** *****  938.6 ***  81 ***** ***** ***** ***** **
620080 ***** 201508260900 280   6 *** *** *** * * *  6.2 ** ** ** ** ** ** ** ** *   87   57 ****** *****  939.6 *** *** ***** ***** ***** ***** **
620080 ***** 201508261200 300   9 *** *** *** * * *  6.2 ** ** ** ** ** ** ** ** *   89   60 ****** *****  939.2 *** *** ***** ***** ***** ***** **
620080 ***** 201508261800 020  10 *** *** SCT * * *  6.2 ** ** ** ** ** ** ** ** *   88   58 ****** *****  937.2  92 *** ***** ***** ***** ***** **
620080 ***** 201508262100 100   8 *** *** SCT * * *  6.2 ** ** ** ** ** ** ** ** *   82   59 ****** *****  938.6 *** *** ***** ***** ***** ***** **
620080 ***** 201508270000 170   9 *** *** *** * * *  6.2 ** ** ** ** ** ** ** ** *   82   55 ****** *****  937.3 *** *** ***** ***** ***** ***** **
620080 ***** 201508270300 160   8 *** *** *** * * *  6.2 ** ** ** ** ** ** ** ** *   80   56 ****** *****  936.6 *** *** ***** ***** ***** ***** **
620080 ***** 201508270600 170   6 *** *** SCT * * *  6.2 ** ** ** ** ** ** ** ** *   78   56 ****** *****  937.3 ***  78 ***** ***** ***** ***** **
620080 ***** 201508270900 300   6 *** *** SCT * * *  6.2 ** ** ** ** ** ** ** ** *   85   59 ****** *****  939.0 *** *** ***** ***** ***** ***** **
620080 ***** 201508271800 060   9 *** *** SCT * * *  6.2 ** ** ** ** ** ** ** ** *   85   62 ****** *****  937.5  94 *** ***** ***** ***** ***** **
620080 ***** 201508272100 090   9 *** *** SCT * * *  6.2 ** ** ** ** ** ** ** ** *   82   65 ****** *****  938.3 *** *** ***** ***** ***** ***** **
620080 ***** 201508280000 ***   0 *** *** *** * * *  6.2 ** ** ** ** ** ** ** ** *   81   64 ****** *****  938.1 *** *** ***** ***** ***** ***** **
620080 ***** 201508280300 ***   0 *** *** *** * * *  6.2 ** ** ** ** ** ** ** ** *   78   65 ****** *****  938.1 *** *** ***** ***** ***** ***** **
620080 ***** 201508280600 ***   0 *** *** *** * * *  6.2 ** ** ** ** ** ** ** ** *   75   67 ****** *****  938.1 ***  75 ***** ***** ***** ***** **
620080 ***** 201508280900 ***   0 *** *** *** * * *  6.2 ** ** ** ** ** ** ** ** *   84   65 ****** *****  939.1 *** *** ***** ***** ***** ***** **
620080 ***** 201508281200 330   9 *** *** SCT * * *  6.2 ** ** ** ** ** ** ** ** *   87   68 ****** *****  939.1 *** *** ***** ***** ***** ***** **
620080 ***** 201508281500 340   8 *** *** SCT * * *  6.2 ** ** ** ** ** ** ** ** *   90   66 ****** *****  938.1 *** *** ***** ***** ***** ***** **
620080 ***** 201508281800 040   8 *** *** SCT * * *  6.2 ** ** ** ** ** ** ** ** *   81   68 ****** *****  938.1  90 *** ***** ***** ***** ***** **
620080 ***** 201508290900 280   8 *** *** SCT * * *  6.2 ** ** ** ** ** ** ** ** *   79   67 ****** *****  941.4 *** *** ***** ***** ***** ***** **
620080 ***** 201508291200 340   8 ***  20 BKN * * *  6.2 ** ** ** ** ** ** ** ** *   85   67 ****** *****  940.9 *** *** ***** ***** ***** ***** **
620080 ***** 201508291800 330  11 *** *** *** * * *  6.2 ** ** ** ** ** ** ** ** *   81   61 ****** *****  938.6  87 *** ***** ***** ***** ***** **
620080 ***** 201508292100 100  17 *** *** *** * * *  6.2 ** ** ** ** ** ** ** ** *   77   58 ****** *****  940.2 *** *** ***** ***** ***** ***** **
620080 ***** 201508300000 150  11 *** *** *** * * *  6.2 ** ** ** ** ** ** ** ** *   73   59 ****** *****  939.7 *** *** ***** ***** ***** ***** **
620080 ***** 201508300300 150  11 *** *** *** * * *  6.2 ** ** ** ** ** ** ** ** *   72   59 ****** *****  938.3 *** *** ***** ***** ***** ***** **
620080 ***** 201508300900 ***   0 *** *** *** * * *  6.2 ** ** ** ** ** ** ** ** *   79   61 ****** *****  941.3 *** *** ***** ***** ***** ***** **
620080 ***** 201508301200 360   7 *** *** SCT * * *  6.2 ** ** ** ** ** ** ** ** *   85   60 ****** *****  940.3 *** *** ***** ***** ***** ***** **
620080 ***** 201508301500 030   9 *** *** SCT * * *  6.2 ** ** ** ** ** ** ** ** *   87   57 ****** *****  939.6 *** *** ***** ***** ***** ***** **
620080 ***** 201508301800 060  11 *** *** SCT * * *  6.2 ** ** ** ** ** ** ** ** *   81   60 ****** *****  938.8  87 *** ***** ***** ***** ***** **
620080 ***** 201508302100 090  11 *** *** SCT * * *  6.2 ** ** ** ** ** ** ** ** *   77   63 ****** *****  939.6 *** *** ***** ***** ***** ***** **
620080 ***** 201508310000 150  11 *** *** *** * * *  6.2 ** ** ** ** ** ** ** ** *   72   56 ****** *****  939.2 *** *** ***** ***** ***** ***** **
620080 ***** 201508310300 150  11 *** *** *** * * *  6.2 ** ** ** ** ** ** ** ** *   70   50 ****** *****  938.3 *** *** ***** ***** ***** ***** **
620080 ***** 201508310600 150   9 *** *** *** * * *  6.2 ** ** ** ** ** ** ** ** *   69   47 ****** *****  938.4 ***  69 ***** ***** ***** ***** **
620080 ***** 201508310900 210   9 *** *** *** * * *  6.2 ** ** ** ** ** ** ** ** *   69   58 ****** *****  939.6 *** *** ***** ***** ***** ***** **
620080 ***** 201508311200 360  10 *** *** *** * * *  6.2 ** ** ** ** ** ** ** ** *   85   54 ****** *****  939.3 *** *** ***** ***** ***** ***** **
620080 ***** 201508311500 030   8 *** *** *** * * *  6.2 ** ** ** ** ** ** ** ** *   87   53 ****** *****  937.9 *** *** ***** ***** ***** ***** **
620080 ***** 201508311800 100  10 *** *** *** * * *  6.2 ** ** ** ** ** ** ** ** *   82   56 ****** *****  936.0  87 *** ***** ***** ***** ***** **
620080 ***** 201508312100 100  10 *** *** *** * * *  6.2 ** ** ** ** ** ** ** ** *   76   46 ****** *****  938.0 *** *** ***** ***** ***** ***** **
620080 ***** 201509010000 140  10 *** *** *** * * *  6.2 ** ** ** ** ** ** ** ** *   75   58 ****** *****  936.8 *** *** ***** ***** ***** ***** **
620080 ***** 201509010300 110  59 *** *** *** * * *  6.2 ** ** ** ** ** ** ** ** *   72   60 ****** *****  936.2 *** *** ***** ***** ***** ***** **
620080 ***** 201509010600 210  10 *** *** *** * * *  6.2 ** ** ** ** ** ** ** ** *   71   58 ****** *****  936.7 ***  71 ***** ***** ***** ***** **
620080 ***** 201509010900 260   9 *** *** *** * * *  6.2 ** ** ** ** ** ** ** ** *   78   60 ****** *****  938.6 *** *** ***** ***** ***** ***** **
620080 ***** 201509011500 280  11 *** *** *** * * *  6.2 ** ** ** ** ** ** ** ** *   88   56 ****** *****  936.3 *** *** ***** ***** ***** ***** **
620080 ***** 201509011800 010   7 *** *** *** * * *  6.2 ** ** ** ** ** ** ** ** *   83   62 ****** *****  936.6  88 *** ***** ***** ***** ***** **
620080 ***** 201509020600 360   6 *** *** *** * * *  6.2 ** ** ** ** ** ** ** ** *   72   51 ****** *****  937.3 ***  68 ***** ***** ***** ***** **
620080 ***** 201509020900 330   7 *** *** *** * * *  6.2 ** ** ** ** ** ** ** ** *   78   52 ****** *****  938.5 *** *** ***** ***** ***** ***** **
620080 ***** 201509021200 020   7 *** *** *** * * *  6.2 ** ** ** ** ** ** ** ** *   85   55 ****** *****  937.4 *** *** ***** ***** ***** ***** **
620080 ***** 201509021500 330   9 *** *** *** * * *  6.2 ** ** ** ** ** ** ** ** *   86   56 ****** *****  937.7 *** *** ***** ***** ***** ***** **
620080 ***** 201509021800 360   8 *** *** *** * * *  6.2 ** ** ** ** ** ** ** ** *   82   59 ****** *****  937.8  86 *** ***** ***** ***** ***** **
620080 ***** 201509022100 ***   0 *** *** *** * * *  6.2 ** ** ** ** ** ** ** ** *   78   65 ****** *****  939.2 *** *** ***** ***** ***** ***** **
620080 ***** 201509030000 *** *** *** *** *** * * * **** ** ** ** ** ** ** ** ** * **** **** ****** ***** ****** *** *** ***** ***** ***** ***** **
620080 ***** 201509030300 160   6 *** *** *** * * *  6.2 ** ** ** ** ** ** ** ** *   73   58 ****** *****  939.0 *** *** ***** ***** ***** ***** **
620080 ***** 201509030600 150  11 *** *** *** * * *  6.2 ** ** ** ** ** ** ** ** *   71   62 ****** *****  939.1 ***  70 ***** ***** ***** ***** **
620080 ***** 201509030900 210   8 *** *** *** * * *  6.2 ** ** ** ** ** ** ** ** *   82   66 ****** *****  938.8 *** *** ***** ***** ***** ***** **
620080 ***** 201509031800 030  11 *** *** *** * * *  6.2 ** ** ** ** ** ** ** ** *   89   60 ****** *****  936.0  97 *** ***** ***** ***** ***** **
620080 ***** 201509032100 120  15 *** *** *** * * *  6.2 ** ** ** ** ** ** ** ** *   85   59 ****** *****  936.2 *** *** ***** ***** ***** ***** **
620080 ***** 201509040000 150  11 *** *** *** * * *  6.2 ** ** ** ** ** ** ** ** *   83   53 ****** *****  938.3 *** *** ***** ***** ***** ***** **
620080 ***** 201509040300 160  17 *** *** *** * * *  6.2 ** ** ** ** ** ** ** ** *   81   54 ****** *****  937.7 *** *** ***** ***** ***** ***** **
620080 ***** 201509040600 160  17 *** *** *** * * *  6.2 ** ** ** ** ** ** ** ** *   82   55 ****** *****  937.7 ***  81 ***** ***** ***** ***** **
620080 ***** 201509040900 180  11 *** *** SCT * * *  6.2 ** ** ** ** ** ** ** ** *   89   56 ****** *****  940.0 *** *** ***** ***** ***** ***** **
620080 ***** 201509041200 180  11 *** *** SCT * * *  6.2 ** ** ** ** ** ** ** ** *   95   57 ****** *****  939.7 *** *** ***** ***** ***** ***** **
620080 ***** 201509041500 180  11 *** *** SCT * * *  6.2 ** ** ** ** ** ** ** ** *   99   59 ****** *****  937.6 *** *** ***** ***** ***** ***** **
620080 ***** 201509041800 150   8 *** *** SCT * * *  6.2 ** ** ** ** ** ** ** ** *   95   55 ****** *****  936.1  99 *** ***** ***** ***** ***** **
620080 ***** 201509042100 150  14 *** *** *** * * *  6.2 ** ** ** ** ** ** ** ** *   89   58 ****** *****  937.8 *** *** ***** ***** ***** ***** **
620080 ***** 201509050000 150  17 *** *** SCT * * *  6.2 ** ** ** ** ** ** ** ** *   86   54 ****** *****  937.4 *** *** ***** ***** ***** ***** **
620080 ***** 201509050300 180  14 *** *** SCT * * *  6.2 ** ** ** ** ** ** ** ** *   83   54 ****** *****  937.4 *** *** ***** ***** ***** ***** **
620080 ***** 201509050600 150  17 ***  79 BKN * * *  6.2 ** ** ** ** ** ** ** ** *   82   56 ****** *****  938.0 ***  81 ***** ***** ***** ***** **
620080 ***** 201509050900 200  17 *** *** *** * * *  6.2 ** ** ** ** ** ** ** ** *   90   56 ****** *****  939.2 *** *** ***** ***** ***** ***** **
620080 ***** 201509051200 210  21 *** 197 BKN * * *  6.2 ** ** ** ** ** ** ** ** *   97   59 ****** *****  938.2 *** *** ***** ***** ***** ***** **
620080 ***** 201509051800 ***   0 *** 197 BKN * * *  3.8 06 ** ** ** ** ** ** ** 2   95   65 ****** *****  937.2 100 *** ***** ***** ***** ***** **
620080 ***** 201509052100 ***   0 *** *** *** * * *  6.2 ** ** ** ** ** ** ** ** *   92   63 ****** *****  937.8 *** *** ***** ***** ***** ***** **
620080 ***** 201509060000 150  15 *** 197 BKN * * *  6.2 ** ** ** ** ** ** ** ** *   88   58 ****** *****  938.3 *** *** ***** ***** ***** ***** **
620080 ***** 201509060300 160  10 *** *** *** * * *  6.2 ** ** ** ** ** ** ** ** *   84   59 ****** *****  937.5 *** *** ***** ***** ***** ***** **
620080 ***** 201509060600 ***   0 ***  98 BKN * * *  6.2 ** ** ** ** ** ** ** ** *   83   61 ****** *****  938.4 ***  83 ***** ***** ***** ***** **
620080 ***** 201509060900 ***   0 *** *** SCT * * *  6.2 ** ** ** ** ** ** ** ** *   86   67 ****** *****  940.0 *** *** ***** ***** ***** ***** **
620080 ***** 201509061200 330   9 ***  98 BKN * * *  6.2 ** ** ** ** ** ** ** ** *   89   73 ****** *****  939.0 *** *** ***** ***** ***** ***** **
620080 ***** 201509061500 ***   0 ***  98 BKN * * *  6.2 ** ** ** ** ** ** ** ** *   90   68 ****** *****  939.0 *** *** ***** ***** ***** ***** **
620080 ***** 201509070900 340  10 ***  98 BKN * * *  6.2 ** ** ** ** ** ** ** ** *   77   74 ****** *****  940.0 *** *** ***** ***** ***** ***** **
620080 ***** 201509071200 030  10 *** *** SCT * * *  6.2 ** ** ** ** ** ** ** ** *   82   72 ****** *****  939.0 *** *** ***** ***** ***** ***** **
620080 ***** 201509071500 060   7 ***  98 BKN * * *  6.2 ** ** ** ** ** ** ** ** *   86   73 ****** *****  937.0 *** *** ***** ***** ***** ***** **
620080 ***** 201509072100 120  11 ***  98 BKN * * *  6.2 ** ** ** ** ** ** ** ** *   77   72 ****** *****  938.1 *** *** ***** ***** ***** ***** **
620080 ***** 201509080000 120  13 *** *** SCT * * *  6.2 ** ** ** ** ** ** ** ** *   77   66 ****** *****  936.1 *** *** ***** ***** ***** ***** **
620080 ***** 201509080300 150  11 *** *** SCT * * *  6.2 ** ** ** ** ** ** ** ** *   77   66 ****** *****  935.1 *** *** ***** ***** ***** ***** **
620080 ***** 201509080600 150  11 *** *** SCT * * *  6.2 ** ** ** ** ** ** ** ** *   77   66 ****** *****  935.1 *** *** ***** ***** ***** ***** **
620080 ***** 201509080900 150   7 ***  98 BKN * * *  6.2 ** ** ** ** ** ** ** ** *   85   62 ****** *****  936.5 *** *** ***** ***** ***** ***** **
620080 ***** 201509081200 300   6 *** *** SCT * * *  6.2 ** ** ** ** ** ** ** ** *   89   70 ****** *****  936.0 *** *** ***** ***** ***** ***** **
620080 ***** 201509081500 160  11 *** *** *** * * *  6.2 ** ** ** ** ** ** ** ** *   95   65 ****** *****  933.1 *** *** ***** ***** ***** ***** **
620080 ***** 201509081800 160  15 ***  98 BKN * * *  6.2 ** ** ** ** ** ** ** ** *   93   64 ****** *****  932.1  95 *** ***** ***** ***** ***** **
620080 ***** 201509082100 320   7 *** *** *** * * *  6.2 ** ** ** ** ** ** ** ** *   78   73 ****** *****  934.2 *** *** ***** ***** ***** ***** **
620080 ***** 201509090000 160  23 *** *** *** * * *  6.2 ** ** ** ** ** ** ** ** *   79   61 ****** *****  932.7 *** *** ***** ***** ***** ***** **
620080 ***** 201509090600 250   9 ***  10 OVC * * *  6.2 ** ** ** ** ** ** ** ** *   73   70 ****** *****  934.5 ***  70 ***** ***** ***** ***** **
620080 ***** 201509090900 330   9 ***  79 BKN * * *  6.2 ** ** ** ** ** ** ** ** *   77   64 ****** *****  933.7 *** *** ***** ***** ***** ***** **
620080 ***** 201509091200 270  14 ***  79 BKN * * *  6.2 ** ** ** ** ** ** ** ** *   78   60 ****** *****  932.6 *** *** ***** ***** ***** ***** **
620080 ***** 201509091500 330   7 ***  20 BKN * * *  6.2 ** ** ** ** ** ** ** ** *   82   69 ****** *****  932.4 *** *** ***** ***** ***** ***** **
620080 ***** 201509091800 060   9 ***  20 BKN * * *  6.2 ** ** ** ** ** ** ** ** *   77   67 ****** *****  932.8  82 *** ***** ***** ***** ***** **
620080 ***** 201509092100 060   9 *** *** SCT * * *  6.2 ** ** ** ** ** ** ** ** *   74   64 ****** *****  933.7 *** *** ***** ***** ***** ***** **
620080 ***** 201509100000 060   6 *** *** SCT * * *  6.2 ** ** ** ** ** ** ** ** *   74   58 ****** *****  934.3 *** *** ***** ***** ***** ***** **
620080 ***** 201509100600 ***   0 ***  20 BKN * * *  6.2 ** ** ** ** ** ** ** ** *   70   67 ****** *****  935.4 ***  69 ***** ***** ***** ***** **
620080 ***** 201509100900 100   7 ***  20 BKN * * *  6.2 ** ** ** ** ** ** ** ** *   74   66 ****** *****  937.4 *** *** ***** ***** ***** ***** **
620080 ***** 201509101200 090   8 ***  20 BKN * * *  6.2 ** ** ** ** ** ** ** ** *   81   65 ****** *****  936.7 *** *** ***** ***** ***** ***** **
620080 ***** 201509101500 020   9 ***  20 BKN * * *  6.2 ** ** ** ** ** ** ** ** *   82   63 ****** *****  936.3 *** *** ***** ***** ***** ***** **
620080 ***** 201509101800 120  14 ***  20 BKN * * *  6.2 ** ** ** ** ** ** ** ** *   76   65 ****** *****  936.3  83 *** ***** ***** ***** ***** **
620080 ***** 201509102100 070   8 ***  20 BKN * * *  6.2 ** ** ** ** ** ** ** ** *   73   67 ****** *****  937.9 *** *** ***** ***** ***** ***** **
620080 ***** 201509110000 080   6 *** *** *** * * *  6.2 ** ** ** ** ** ** ** ** *   71   64 ****** *****  938.0 *** *** ***** ***** ***** ***** **
620080 ***** 201509110300 110   7 *** *** *** * * *  6.2 ** ** ** ** ** ** ** ** *   70   61 ****** *****  938.0 *** *** ***** ***** ***** ***** **
620080 ***** 201509110600 100  11 *** *** *** * * *  6.2 ** ** ** ** ** ** ** ** *   69   62 ****** *****  939.0 ***  69 ***** ***** ***** ***** **
620080 ***** 201509110900 090   9 *** *** SCT * * *  6.2 ** ** ** ** ** ** ** ** *   77   58 ****** *****  940.9 *** *** ***** ***** ***** ***** **
620080 ***** 201509111200 120  14 *** *** *** * * *  6.2 ** ** ** ** ** ** ** ** *   84   60 ****** *****  940.2 *** *** ***** ***** ***** ***** **
620080 ***** 201509111500 120  11 ***  20 BKN * * *  6.2 ** ** ** ** ** ** ** ** *   87   54 ****** *****  939.2 *** *** ***** ***** ***** ***** **
620080 ***** 201509111800 ***   9 *** *** SCT * * *  6.2 ** ** ** ** ** ** ** ** *   84   59 ****** *****  939.1  86 *** ***** ***** ***** ***** **
620080 ***** 201509112100 120  14 *** *** *** * * *  6.2 ** ** ** ** ** ** ** ** *   77   62 ****** *****  939.7 *** *** ***** ***** ***** ***** **
620080 ***** 201509120000 120  11 *** *** *** * * *  6.2 ** ** ** ** ** ** ** ** *   75   55 ****** *****  940.4 *** *** ***** ***** ***** ***** **
620080 ***** 201509120300 150  11 *** *** *** * * *  6.2 ** ** ** ** ** ** ** ** *   73   55 ****** *****  940.4 *** *** ***** ***** ***** ***** **
620080 ***** 201509120600 150  11 *** *** *** * * *  6.2 ** ** ** ** ** ** ** ** *   73   53 ****** *****  940.3 ***  71 ***** ***** ***** ***** **
620080 ***** 201509120900 150   9 *** *** SCT * * *  6.2 ** ** ** ** ** ** ** ** *   81   60 ****** *****  941.9 *** *** ***** ***** ***** ***** **
620080 ***** 201509121200 210   7 *** *** *** * * *  6.2 ** ** ** ** ** ** ** ** *   90   61 ****** *****  941.4 *** *** ***** ***** ***** ***** **
620080 ***** 201509121500 210   6 ***  79 BKN * * *  6.2 ** ** ** ** ** ** ** ** *   90   61 ****** *****  939.8 *** *** ***** ***** ***** ***** **
620080 ***** 201509130600 090   7 *** *** SCT * * *  6.2 ** ** ** ** ** ** ** ** *   74   61 ****** *****  940.0 ***  73 ***** ***** ***** ***** **
620080 ***** 201509130900 150   8 *** *** *** * * *  6.2 ** ** ** ** ** ** ** ** *   80   62 ****** *****  940.2 *** *** ***** ***** ***** ***** **
620080 ***** 201509131800 180   7 *** *** *** * * *  6.2 ** ** ** ** ** ** ** ** *   87   64 ****** *****  937.4  94 *** ***** ***** ***** ***** **
620080 ***** 201509132100 150  11 *** *** *** * * *  6.2 ** ** ** ** ** ** ** ** *   81   67 ****** *****  937.7 *** *** ***** ***** ***** ***** **
620080 ***** 201509140000 240  10 *** *** *** * * *  6.2 ** ** ** ** ** ** ** ** *   77   66 ****** *****  938.7 *** *** ***** ***** ***** ***** **
620080 ***** 201509140600 150  17 *** *** SCT * * *  6.2 ** ** ** ** ** ** ** ** *   76   63 ****** *****  938.1 ***  73 ***** ***** ***** ***** **
620080 ***** 201509140900 180  11 *** *** SCT * * *  6.2 ** ** ** ** ** ** ** ** *   85   62 ****** *****  939.6 *** *** ***** ***** ***** ***** **
620080 ***** 201509141200 060   8 *** *** SCT * * *  6.2 ** ** ** ** ** ** ** ** *   93   66 ****** *****  937.7 *** *** ***** ***** ***** ***** **
620080 ***** 201509142100 180  11 *** *** *** * * *  6.2 ** ** ** ** ** ** ** ** *   83   60 ****** *****  936.8 *** *** ***** ***** ***** ***** **
620080 ***** 201509150000 150  14 *** *** *** * * *  6.2 ** ** ** ** ** ** ** ** *   77   61 ****** *****  937.1 *** *** ***** ***** ***** ***** **
620080 ***** 201509150300 150  11 *** *** *** * * *  6.2 ** ** ** ** ** ** ** ** *   76   60 ****** *****  937.5 *** *** ***** ***** ***** ***** **
620080 ***** 201509150600 150  14 *** *** *** * * *  6.2 ** ** ** ** ** ** ** ** *   76   60 ****** *****  937.0 ***  73 ***** ***** ***** ***** **
620080 ***** 201509151800 150  10 *** *** SCT * * *  6.2 ** ** ** ** ** ** ** ** *   87   56 ****** *****  935.8  93 *** ***** ***** ***** ***** **
620080 ***** 201509152100 160  14 *** *** *** * * *  6.2 ** ** ** ** ** ** ** ** *   80   56 ****** *****  936.7 *** *** ***** ***** ***** ***** **
620080 ***** 201509160000 160  16 *** *** *** * * *  6.2 ** ** ** ** ** ** ** ** *   78   53 ****** *****  936.0 *** *** ***** ***** ***** ***** **
620080 ***** 201509160300 140  15 *** *** *** * * *  6.2 ** ** ** ** ** ** ** ** *   76   58 ****** *****  934.9 *** *** ***** ***** ***** ***** **
620080 ***** 201509160600 150  14 *** *** *** * * *  6.2 ** ** ** ** ** ** ** ** *   74   56 ****** *****  935.8 ***  74 ***** ***** ***** ***** **
620080 ***** 201509160900 170  14 *** *** *** * * *  6.2 ** ** ** ** ** ** ** ** *   85   53 ****** *****  937.5 *** *** ***** ***** ***** ***** **
620080 ***** 201509161200 150  17 *** *** *** * * *  6.2 ** ** ** ** ** ** ** ** *   90   55 ****** *****  936.4 *** *** ***** ***** ***** ***** **
620080 ***** 201509162100 150  16 ***  98 BKN * * *  6.2 ** ** ** ** ** ** ** ** *   83   64 ****** *****  936.1 *** *** ***** ***** ***** ***** **
620080 ***** 201509170900 150  11 *** *** *** * * *  6.2 ** ** ** ** ** ** ** ** *   82   65 ****** *****  935.9 *** *** ***** ***** ***** ***** **
620080 ***** 201509181200 210   8 *** *** *** * * *  6.2 ** ** ** ** ** ** ** ** *   93   73 ****** *****  938.5 *** *** ***** ***** ***** ***** **
620080 ***** 201509190900 210   9 *** *** *** * * *  6.2 ** ** ** ** ** ** ** ** *   82   64 ****** *****  939.4 *** *** ***** ***** ***** ***** **
620080 ***** 201509191200 030   7 *** *** *** * * *  6.2 ** ** ** ** ** ** ** ** *   91   69 ****** ***** ****** *** *** ***** ***** ***** ***** **
620080 ***** 201509191500 360   7 *** *** *** * * *  6.2 ** ** ** ** ** ** ** ** *   92   71 ****** *****  938.9 *** *** ***** ***** ***** ***** **
620080 ***** 201509200000 150   6 *** *** *** * * *  6.2 ** ** ** ** ** ** ** ** *   81   68 ****** *****  939.4 *** *** ***** ***** ***** ***** **
