  USAF  WBAN YR--MODAHRMN DIR SPD GUS CLG SKC L M H  VSB MW MW MW MW AW AW AW AW W TEMP DEWP    SLP   ALT    STP MAX MIN PCP01 PCP06 PCP24 PCPXX SD
623570 ***** 201501020600 360   9 *** *** BKN * * *  6.2 ** ** ** ** ** ** ** ** *   50   29 1023.9 ***** ****** ***  45 ***** ***** ***** ***** **
623570 ***** 201501090300 280  23 *** *** BKN * * *  6.2 ** ** ** ** ** ** ** ** *   31   28 ****** ***** ****** *** *** ***** ***** ***** ***** **
623570 ***** 201501210000 ***   0 *** *** *** * * *  6.2 ** ** ** ** ** ** ** ** *   44   41 1019.5 ***** ****** *** *** ***** ***** ***** ***** **
623570 ***** 201503210300 320   6 *** *** *** * * *  6.2 ** ** ** ** ** ** ** ** *   47   29 1051.9 ***** ****** *** *** ***** ***** ***** ***** **
623570 ***** 201503220000 280   9 *** *** *** * * *  6.2 ** ** ** ** ** ** ** ** *   45   37 ****** ***** ****** *** *** ***** ***** ***** ***** **
623570 ***** 201505060600 ***   0 *** *** BKN * * *  6.2 ** ** ** ** ** ** ** ** *   72   65 1010.4 ***** ****** ***  59 ***** ***** ***** ***** **
623570 ***** 201505260600 100   2 *** *** BKN * * *  6.2 ** ** ** ** ** ** ** ** *   81   62 1013.4 ***** ****** ***  66 ***** ***** ***** ***** **
623570 ***** 201506221500 360  13 *** *** *** * * *  6.2 ** ** ** ** ** ** ** ** *   94   54 1007.6 ***** ****** *** *** ***** ***** ***** ***** **
623570 ***** 201507271500 350  13 *** *** *** * * *  6.2 ** ** ** ** ** ** ** ** *   84   75 1006.3 ***** ****** *** *** ***** ***** ***** ***** **
