  USAF  WBAN YR--MODAHRMN DIR SPD GUS CLG SKC L M H  VSB MW MW MW MW AW AW AW AW W TEMP DEWP    SLP   ALT    STP MAX MIN PCP01 PCP06 PCP24 PCPXX SD
627500 ***** 201501031500 360   9 *** 246 BKN * * * 12.5 ** ** ** ** ** ** ** ** *   88   54 1008.4 *****  966.2  90  68 ***** ***** ***** ***** **
627500 ***** 201501031800 360  11 *** 246 BKN * * * 12.5 ** ** ** ** ** ** ** ** *   78   49 1010.0 *****  967.2  90 *** ***** ***** ***** ***** **
627500 ***** 201501040300 320  18 *** 246 BKN * * *  9.4 07 ** ** ** ** ** ** ** 2   63   36 1013.9 *****  969.5 *** *** ***** ***** ***** ***** **
627500 ***** 201501050300 360  11 *** 246 BKN * * * 12.5 ** ** ** ** ** ** ** ** *   59   38 1014.1 *****  969.8 *** *** ***** ***** ***** ***** **
627500 ***** 201501051800 360   3 *** 246 BKN * * * 12.5 ** ** ** ** ** ** ** ** *   70   46 1010.6 *****  967.4  81 *** ***** ***** ***** ***** **
627500 ***** 201501052100 360   6 *** 246 BKN * * * 12.5 ** ** ** ** ** ** ** ** *   64   37 1012.4 *****  968.6 *** *** ***** ***** ***** ***** **
627500 ***** 201501070900 360  11 *** 246 BKN * * * 12.5 ** ** ** ** ** ** ** ** *   72   34 1015.8 *****  972.4 *** *** ***** ***** ***** ***** **
627500 ***** 201501080600 360  11 *** 246 BKN * * * 12.5 ** ** ** ** ** ** ** ** *   58   30 1017.5 *****  973.8  79  56 ***** ***** ***** ***** **
627500 ***** 201501090600 320  11 *** 246 BKN * * * 12.5 ** ** ** ** ** ** ** ** *   55   32 1020.6 *****  975.6  81  53 ***** ***** ***** ***** **
627500 ***** 201501110300 320   9 *** 246 BKN * * * 12.5 ** ** ** ** ** ** ** ** *   52   30 1019.0 *****  973.8 *** *** ***** ***** ***** ***** **
627500 ***** 201501140300 360   6 *** 246 BKN * * * 12.5 ** ** ** ** ** ** ** ** *   59   41 1013.0 *****  968.8 *** *** ***** ***** ***** ***** **
627500 ***** 201501160000 360   6 *** 246 BKN * * * 12.5 ** ** ** ** ** ** ** ** *   61   32 1013.7 *****  969.6 *** *** ***** ***** ***** ***** **
627500 ***** 201501170600 360  13 *** 246 BKN * * * 12.5 ** ** ** ** ** ** ** ** *   61   37 1015.1 *****  970.6  81  57 ***** ***** ***** ***** **
627500 ***** 201501170900 360  15 *** 246 BKN * * * 12.5 ** ** ** ** ** ** ** ** *   73   37 1014.3 *****  970.3 *** *** ***** ***** ***** ***** **
627500 ***** 201501182100 320   8 *** 246 BKN * * * 12.5 ** ** ** ** ** ** ** ** *   66   41 1014.0 *****  970.0 *** *** ***** ***** ***** ***** **
627500 ***** 201501190000 360  11 *** 246 BKN * * * 12.5 ** ** ** ** ** ** ** ** *   59   41 1014.0 *****  969.3 *** *** ***** ***** ***** ***** **
627500 ***** 201501221200 360   7 *** *** BKN * * * 12.5 ** ** ** ** ** ** ** ** *   92   52 1008.3 *****  966.2 *** *** ***** ***** ***** ***** **
627500 ***** 201501221800 320   5 *** 246 BKN * * * 12.5 ** ** ** ** ** ** ** ** *   80   55 1009.3 *****  966.5  94 *** ***** ***** ***** ***** **
627500 ***** 201501222100 360   5 *** 246 BKN * * * 12.5 ** ** ** ** ** ** ** ** *   76   49 1010.4 *****  967.3 *** *** ***** ***** ***** ***** **
627500 ***** 201501230000 360   7 *** *** BKN * * * 12.5 ** ** ** ** ** ** ** ** *   72   48 1009.9 *****  966.5 *** *** ***** ***** ***** ***** **
627500 ***** 201501230300 320   3 *** 246 BKN * * * 12.5 ** ** ** ** ** ** ** ** *   69   48 1010.7 *****  967.0 *** *** ***** ***** ***** ***** **
627500 ***** 201501230600 360   8 *** 246 BKN * * * 12.5 ** ** ** ** ** ** ** ** *   73   50 1010.9 *****  967.5  94  68 ***** ***** ***** ***** **
627500 ***** 201501230900 360   7 *** 246 BKN * * * 12.5 ** ** ** ** ** ** ** ** *   84   52 1009.1 *****  966.7 *** *** ***** ***** ***** ***** **
627500 ***** 201501231500 360   7 *** 246 BKN * * * 12.5 ** ** ** ** ** ** ** ** *   92   60 1004.9 *****  962.9  93  68 ***** ***** ***** ***** **
627500 ***** 201501231800 360   5 *** 246 BKN * * * 12.5 ** ** ** ** ** ** ** ** *   81   60 1007.8 *****  964.3  93 *** ***** ***** ***** ***** **
627500 ***** 201501232100 320   3 *** *** BKN * * * 12.5 ** ** ** ** ** ** ** ** *   77 **** ****** ***** ****** *** *** ***** ***** ***** ***** **
627500 ***** 201501240300 320   3 *** 246 BKN * * * 12.5 ** ** ** ** ** ** ** ** *   70   48 1007.7 *****  964.0 *** *** ***** ***** ***** ***** **
627500 ***** 201501260000 360   3 *** 246 BKN * * * 12.5 ** ** ** ** ** ** ** ** *   73   59 1006.6 *****  963.7 *** *** ***** ***** ***** ***** **
627500 ***** 201501260300 360   2 *** *** BKN * * * 12.5 ** ** ** ** ** ** ** ** *   73   52 1007.7 *****  964.8 *** *** ***** ***** ***** ***** **
627500 ***** 201501270600 320   7 *** 246 BKN * * * 12.5 ** ** ** ** ** ** ** ** *   73   55 1008.6 *****  965.7  97  68 ***** ***** ***** ***** **
627500 ***** 201501270900 360   7 *** 246 BKN * * * 12.5 ** ** ** ** ** ** ** ** *   90   54 1007.3 *****  965.2 *** *** ***** ***** ***** ***** **
627500 ***** 201501280600 360  18 *** 246 BKN * * * 12.5 ** ** ** ** ** ** ** ** *   76   51 1007.4 *****  964.3  98  71 ***** ***** ***** ***** **
627500 ***** 201501280900 360   7 *** 246 BKN * * * 12.5 ** ** ** ** ** ** ** ** *   91   52 1005.2 *****  964.2 *** *** ***** ***** ***** ***** **
627500 ***** 201501282100 360   2 *** *** BKN * * * 12.5 ** ** ** ** ** ** ** ** *   81   70 1005.6 *****  963.3 *** *** ***** ***** ***** ***** **
627500 ***** 201501290300 360   6 *** 246 BKN * * * 12.5 ** ** ** ** ** ** ** ** *   72   57 1005.4 *****  962.4 *** *** ***** ***** ***** ***** **
627500 ***** 201501301800 360   7 *** 246 BKN * * * 12.5 ** ** ** ** ** ** ** ** *   84   54 1007.0 *****  965.0  99 *** ***** ***** ***** ***** **
627500 ***** 201501310300 360   7 *** 246 BKN * * * 12.5 ** ** ** ** ** ** ** ** *   73   46 1008.1 *****  964.7 *** *** ***** ***** ***** ***** **
627500 ***** 201502021800 320   3 *** 246 BKN * * * 12.5 ** ** ** ** ** ** ** ** *   87   53 1005.4 *****  963.2 100 *** ***** ***** ***** ***** **
627500 ***** 201502030300 320   5 *** 246 BKN * * * 12.5 ** ** ** ** ** ** ** ** *   73   46 1007.6 *****  964.2 *** *** ***** ***** ***** ***** **
627500 ***** 201502031800 360   5 *** 246 BKN * * * 12.5 ** ** ** ** ** ** ** ** *   88   52 1005.7 *****  964.0 100 *** ***** ***** ***** ***** **
627500 ***** 201502032100 320   7 *** 246 BKN * * * 12.5 ** ** ** ** ** ** ** ** *   81   54 1007.2 *****  964.9 *** *** ***** ***** ***** ***** **
627500 ***** 201502081500 360   3 *** 246 BKN * * * 12.5 ** ** ** ** ** ** ** ** *  100   45 1001.9 *****  960.9 102  71 ***** ***** ***** ***** **
627500 ***** 201502081800 360   6 *** 246 BKN * * * 12.5 ** ** ** ** ** ** ** ** *   91   48 1003.8 *****  962.2 102 *** ***** ***** ***** ***** **
627500 ***** 201502110600 360   5 *** 246 BKN * * * 12.5 ** ** ** ** ** ** ** ** *   74   42 1009.5 *****  966.7 101  73 ***** ***** ***** ***** **
627500 ***** 201502121200 360  11 *** 246 BKN * * * 11.2 07 ** ** ** ** ** ** ** 2   84   39 1010.0 *****  968.0 *** *** ***** ***** ***** ***** **
627500 ***** 201502121500 360   9 *** 246 BKN * * * 12.5 ** ** ** ** ** ** ** ** *   84   34 1009.0 *****  966.5  87  65 ***** ***** ***** ***** **
627500 ***** 201502121800 340   8 *** 246 BKN * * * 12.5 ** ** ** ** ** ** ** ** *   73   43 1011.0 *****  967.7  87 *** ***** ***** ***** ***** **
627500 ***** 201502122100 *** *** *** *** *** * * * **** ** ** ** ** ** ** ** ** * **** **** ****** ***** ****** *** *** ***** ***** ***** ***** **
627500 ***** 201502160900 050   8 *** 246 BKN * * * 12.5 ** ** ** ** ** ** ** ** *   91   40 1008.3 *****  966.2 *** *** ***** ***** ***** ***** **
627500 ***** 201502191800 360  10 *** 246 BKN * * * 12.5 ** ** ** ** ** ** ** ** *   86   54 1003.8 *****  961.9 103 *** ***** ***** ***** ***** **
627500 ***** 201502200300 360  10 *** 246 BKN * * * 12.5 ** ** ** ** ** ** ** ** *   70   41 1006.8 *****  963.6 *** *** ***** ***** ***** ***** **
627500 ***** 201502202100 360   8 *** *** BKN * * * 12.5 ** ** ** ** ** ** ** ** *   75   44 1008.8 *****  966.0 *** *** ***** ***** ***** ***** **
627500 ***** 201502210000 360  14 *** *** BKN * * * 12.5 ** ** ** ** ** ** ** ** *   70   36 1009.2 *****  966.0 *** *** ***** ***** ***** ***** **
627500 ***** 201502230300 360   8 *** 246 BKN * * * 12.5 ** ** ** ** ** ** ** ** *   63   36 1010.2 *****  966.3 *** *** ***** ***** ***** ***** **
627500 ***** 201502242100 ***   0 *** *** BKN * * * 12.5 ** ** ** ** ** ** ** ** *   81   61 1005.7 *****  963.3 *** *** ***** ***** ***** ***** **
627500 ***** 201502250000 360   3 *** *** BKN * * * 12.5 ** ** ** ** ** ** ** ** *   77   55 1005.4 *****  962.7 *** *** ***** ***** ***** ***** **
627500 ***** 201502250600 360  16 *** 246 BKN * * *  6.2 07 ** ** ** ** ** ** ** 2   75   43 1007.1 *****  964.3 103  73 ***** ***** ***** ***** **
627500 ***** 201502250900 260  17 *** 246 BKN * * *  6.2 07 ** ** ** ** ** ** ** 2   87   45 1006.8 *****  964.6 *** *** ***** ***** ***** ***** **
627500 ***** 201503030600 360   7 *** 246 BKN * * * 12.5 ** ** ** ** ** ** ** ** *   83   55 1004.7 *****  962.6 106  81 ***** ***** ***** ***** **
627500 ***** 201503030900 360   8 *** 246 BKN * * * 12.5 ** ** ** ** ** ** ** ** *   96   60 1004.3 *****  962.7 *** *** ***** ***** ***** ***** **
627500 ***** 201503051200 360   7 *** 246 BKN * * * 12.5 ** ** ** ** ** ** ** ** *   96   53 1002.5 *****  961.2 *** *** ***** ***** ***** ***** **
627500 ***** 201503091200 040  28 *** 246 BKN * * * 11.9 07 ** ** ** ** ** ** ** 2  108   41 1000.5 *****  960.1 *** *** ***** ***** ***** ***** **
627500 ***** 201503230600 360   9 *** *** BKN * * * 12.5 ** ** ** ** ** ** ** ** *   77   41 ****** ***** ****** *** *** ***** ***** ***** ***** **
627500 ***** 201503230900 360   5 *** *** BKN * * * 12.5 ** ** ** ** ** ** ** ** *   91   36 1007.5 *****  966.0 *** *** ***** ***** ***** ***** **
627500 ***** 201503241200 360   7 *** 246 BKN * * * 12.5 ** ** ** ** ** ** ** ** *  100   46 1003.3 *****  962.3 *** *** ***** ***** ***** ***** **
627500 ***** 201503241500 360   7 *** 246 BKN * * * 12.5 ** ** ** ** ** ** ** ** *   98   41 1002.8 *****  961.5 101  74 ***** ***** ***** ***** **
627500 ***** 201503241800 320   2 *** 246 BKN * * * 12.5 ** ** ** ** ** ** ** ** *   85   49 1004.2 *****  962.2 101 *** ***** ***** ***** ***** **
627500 ***** 201503250300 360   2 *** 246 BKN * * * 12.5 ** ** ** ** ** ** ** ** *   73   46 1006.9 *****  964.0 *** *** ***** ***** ***** ***** **
627500 ***** 201503291200 180   6 *** 246 BKN * * * 12.5 ** ** ** ** ** ** ** ** *  108   57 1000.1 *****  959.4 *** *** ***** ***** ***** ***** **
627500 ***** 201503291800 ***   0 *** 246 BKN * * * 12.5 ** ** ** ** ** ** ** ** *   97   68 1001.9 *****  960.6 108 *** ***** ***** ***** ***** **
627500 ***** 201503300000 360   2 *** 246 BKN * * * 12.5 ** ** ** ** ** ** ** ** *   84   59 1002.6 *****  960.6 *** *** ***** ***** ***** ***** **
627500 ***** 201503310000 360   5 *** *** BKN * * * 12.5 ** ** ** ** ** ** ** ** *   86   48 1003.7 *****  961.8 *** *** ***** ***** ***** ***** **
627500 ***** 201504031200 360  11 *** 246 BKN * * * 12.5 ** ** ** ** ** ** ** ** *  102   34 1000.8 *****  959.9 *** *** ***** ***** ***** ***** **
627500 ***** 201504050000 360  16 *** 246 BKN * * * 12.5 ** ** ** ** ** ** ** ** *   83   51 1002.8 *****  960.6 *** *** ***** ***** ***** ***** **
627500 ***** 201504050300 360  11 *** 148 BKN * * * 12.5 ** ** ** ** ** ** ** ** *   80   39 1003.8 *****  961.3 *** *** ***** ***** ***** ***** **
627500 ***** 201504081500 320   3 *** 246 BKN * * * 12.5 ** ** ** ** ** ** ** ** *  100   45 1000.2 *****  959.2 105  71 ***** ***** ***** ***** **
627500 ***** 201504081800 360   2 *** 246 BKN * * * 12.5 ** ** ** ** ** ** ** ** *   91   48 1002.4 *****  960.9 105 *** ***** ***** ***** ***** **
627500 ***** 201504090000 360   3 *** 246 BKN * * * 12.5 ** ** ** ** ** ** ** ** *   81   37 1003.3 *****  961.0 *** *** ***** ***** ***** ***** **
627500 ***** 201504282100 340   3 *** 246 BKN * * * 12.5 ** ** ** ** ** ** ** ** *   90   50 1004.3 *****  962.7 *** *** ***** ***** ***** ***** **
627500 ***** 201505040300 320   3 *** 246 BKN * * * 12.5 ** ** ** ** ** ** ** ** *   84   68 1005.3 *****  963.1 *** *** ***** ***** ***** ***** **
627500 ***** 201505131200 270   5 *** 246 BKN * * * 12.5 ** ** ** ** ** ** ** ** *  104   63 1003.5 *****  962.5 *** *** ***** ***** ***** ***** **
627500 ***** 201505131500 ***   0 *** *** SCT * * * 12.5 ** ** ** ** ** ** ** ** * ****   61 1001.2 *****  960.5 107  82 ***** ***** ***** ***** **
627500 ***** 201505182100 270   2 *** 246 BKN * * * 12.5 ** ** ** ** ** ** ** ** *   92   52 1003.3 *****  961.8 *** *** ***** ***** ***** ***** **
627500 ***** 201505191200 050   9 *** *** BKN * * * 12.5 ** ** ** ** ** ** ** ** *  111   49 1002.0 *****  960.5 *** *** ***** ***** ***** ***** **
627500 ***** 201505232100 360   2 *** 246 BKN * * * 12.5 ** ** ** ** ** ** ** ** *   90   64 1005.5 *****  963.9 *** *** ***** ***** ***** ***** **
627500 ***** 201505281500 140   5 *** 246 BKN * * * 12.5 ** ** ** ** ** ** ** ** *  101   64 1001.9 *****  961.1 104  80 ***** ***** ***** ***** **
627500 ***** 201505310300 270   7 *** 246 BKN * * * 12.5 ** ** ** ** ** ** ** ** *   86   68 1004.0 *****  962.1 *** *** ***** ***** ***** ***** **
627500 ***** 201506020900 220  13 *** 246 BKN * * * 12.5 ** ** ** ** ** ** ** ** *   91   68 1007.0 *****  964.9 *** *** ***** ***** ***** ***** **
627500 ***** 201506021200 270   5 *** *** BKN * * * 12.5 ** ** ** ** ** ** ** ** *   99   70 1004.1 *****  963.0 *** *** ***** ***** ***** ***** **
627500 ***** 201506110000 180   2 *** 246 BKN * * * 12.5 ** ** ** ** ** ** ** ** *   81   66 1003.7 *****  961.4 *** *** *****  0.28 ***** ***** **
627500 ***** 201506160600 250   8 *** 246 BKN * * * 12.5 ** ** ** ** ** ** ** ** *   81   70 1006.1 *****  963.8 106  77 ***** ***** ***** ***** **
627500 ***** 201506231200 230   6 *** 246 BKN * * * 12.5 ** ** ** ** ** ** ** ** *   95   66 1006.5 *****  963.9 *** *** ***** ***** ***** ***** **
627500 ***** 201506241200 220   7 *** *** BKN * * * 12.5 ** ** ** ** ** ** ** ** *  100   63 1006.3 *****  963.7 *** *** ***** ***** ***** ***** **
627500 ***** 201506271800 220   7 *** 148 BKN * * * 12.5 13 ** ** ** ** ** ** ** 2   90   66 1006.8 *****  965.2  98 *** ***** ***** ***** ***** **
627500 ***** 201507010300 180  11 *** 246 BKN * * * 12.5 ** ** ** ** ** ** ** ** *   84   63 1005.7 *****  963.5 *** *** ***** ***** ***** ***** **
627500 ***** 201507071200 340   3 *** *** BKN * * * 12.5 ** ** ** ** ** ** ** ** *  106   50 1004.3 *****  963.7 *** *** ***** ***** ***** ***** **
627500 ***** 201507090600 230  16 *** 246 BKN * * * 12.5 ** ** ** ** ** ** ** ** *   90   68 1006.0 *****  964.4 109  82 ***** ***** ***** ***** **
627500 ***** 201507121200 270   5 *** *** BKN * * * 12.5 ** ** ** ** ** ** ** ** *  104   55 1003.0 *****  961.3 *** *** ***** ***** ***** ***** **
627500 ***** 201507121800 170   8 *** *** BKN * * * 12.5 ** ** ** ** ** ** ** ** *   93   63 ****** ***** ****** *** *** ***** ***** ***** ***** **
627500 ***** 201507130600 180   6 *** *** BKN * * * 12.5 ** ** ** ** ** ** ** ** *   84   68 ****** ***** ****** *** *** ***** ***** ***** ***** **
627500 ***** 201507140900 220  11 *** 246 BKN * * * 12.5 ** ** ** ** ** ** ** ** *   95   70 1007.5 *****  964.9 *** *** ***** ***** ***** ***** **
627500 ***** 201507141200 180   5 *** *** BKN * * * 12.5 ** ** ** ** ** ** ** ** *  100   66 1005.7 *****  963.7 *** *** ***** ***** ***** ***** **
627500 ***** 201507141500 180  10 *** *** BKN * * * 12.5 ** ** ** ** ** ** ** ** *   97   64 ****** ***** ****** *** *** ***** ***** ***** ***** **
627500 ***** 201507141800 090   5 *** *** BKN * * * 12.5 ** ** ** ** ** ** ** ** *   95   66 ****** ***** ****** *** *** ***** ***** ***** ***** **
627500 ***** 201507170000 360   9 *** *** BKN * * * 12.5 ** ** ** ** ** ** ** ** *   81   66 1008.8 *****  966.5 *** *** ***** ***** ***** ***** **
627500 ***** 201507170900 180   6 *** 246 BKN * * * 12.5 ** ** ** ** ** ** ** ** *   95   70 1006.1 *****  964.7 *** *** ***** ***** ***** ***** **
627500 ***** 201507171200 270   6 *** 246 BKN * * * 12.5 ** ** ** ** ** ** ** ** *  102   68 1004.2 *****  963.3 *** *** ***** ***** ***** ***** **
627500 ***** 201507172100 180   2 *** *** BKN * * * 12.5 ** ** ** ** ** ** ** ** *   91   68 1005.1 *****  963.5 *** *** ***** ***** ***** ***** **
627500 ***** 201507251200 220   7 *** *** BKN * * * 12.5 ** ** ** ** ** ** ** ** *   97   68 1005.1 *****  963.8 *** *** ***** ***** ***** ***** **
627500 ***** 201507271800 180   3 *** 246 BKN * * * 12.5 ** ** ** ** ** ** ** ** *   88   71 1003.8 *****  962.1  98 *** ***** ***** ***** ***** **
627500 ***** 201507272100 220   5 *** 246 BKN * * * 12.5 ** ** ** ** ** ** ** ** *   84   70 1005.3 *****  963.3 *** *** ***** ***** ***** ***** **
627500 ***** 201508040900 220   7 *** *** BKN * * * 12.5 ** ** ** ** ** ** ** ** *   93   66 1006.6 *****  964.7 *** *** ***** ***** ***** ***** **
627500 ***** 201508050600 180   7 *** 138 BKN * * * 12.5 17 ** ** ** ** ** ** ** 2   82   73 1008.6 *****  966.4  98  82 ***** ***** ***** ***** **
627500 ***** 201508061200 180   8 *** 148 BKN * * * 12.5 ** ** ** ** ** ** ** ** *   92   64 1008.5 *****  965.3 *** *** ***** ***** ***** ***** **
627500 ***** 201508062100 140   7 *** 246 BKN * * * 12.5 ** ** ** ** ** ** ** ** *   83   70 1007.4 *****  964.9 *** *** ***** ***** ***** ***** **
627500 ***** 201508070300 180   5 *** *** BKN * * * 12.5 ** ** ** ** ** ** ** ** *   81   70 1007.9 *****  965.1 *** *** ***** ***** ***** ***** **
627500 ***** 201508111500 220   2 *** 148 BKN * * * 11.2 95 ** ** ** ** ** ** ** 9   77   66 1009.3 *****  961.6 104 *** ***** ***** ***** ***** **
627500 ***** 201508120300 180   6 *** 148 BKN * * * 12.5 ** ** ** ** ** ** ** ** *   75   66 1006.8 *****  964.0 *** *** ***** ***** ***** ***** **
627500 ***** 201508151800 ***   0 *** 246 BKN * * * 12.5 ** ** ** ** ** ** ** ** *   86   70 1005.9 *****  964.0  94 *** ***** ***** ***** ***** **
627500 ***** 201508152100 190   5 *** 246 BKN * * * 12.5 ** ** ** ** ** ** ** ** *   82   73 1008.0 *****  965.8 *** *** ***** ***** ***** ***** **
627500 ***** 201508161500 220   7 *** *** BKN * * * 12.5 ** ** ** ** ** ** ** ** *   98   66 1003.1 *****  961.9  99  78 ***** ***** ***** ***** **
627500 ***** 201508170000 220   5 *** *** BKN * * * 12.5 ** ** ** ** ** ** ** ** *   86   68 1005.1 *****  963.2 *** *** ***** ***** ***** ***** **
627500 ***** 201508172100 180   8 *** *** BKN * * * 12.5 ** ** ** ** ** ** ** ** *   84   68 1006.0 *****  964.5 *** *** ***** ***** ***** ***** **
627500 ***** 201508201200 *** *** *** *** *** * * * **** ** ** ** ** ** ** ** ** * **** **** ****** ***** ****** *** *** ***** ***** ***** ***** **
627500 ***** 201508201500 270   5 *** *** BKN * * * 12.5 ** ** ** ** ** ** ** ** *  100   66 ****** ***** ****** *** *** ***** ***** ***** ***** **
627500 ***** 201508310600 180   3 *** *** BKN * * * 12.5 ** ** ** ** ** ** ** ** *   82   72 ****** ***** ****** *** *** ***** ***** ***** ***** **
627500 ***** 201508311800 290   6 *** 148 BKN * * * 12.5 ** ** ** ** ** ** ** ** *   91   69 1004.6 *****  964.0  98 *** ***** ***** ***** ***** **
627500 ***** 201509010300 180  14 *** 148 BKN * * * 12.5 ** ** ** ** ** ** ** ** *   77   70 1007.6 *****  964.8 *** *** ***** ***** ***** ***** **
627500 ***** 201509051800 220   3 *** 246 BKN * * * 12.5 ** ** ** ** ** ** ** ** *   92   67 1006.8 *****  964.8 100 *** ***** ***** ***** ***** **
627500 ***** 201509161200 180   7 *** *** BKN * * * 12.5 ** ** ** ** ** ** ** ** *  100   66 1005.4 *****  961.9 *** *** ***** ***** ***** ***** **
