  USAF  WBAN YR--MODAHRMN DIR SPD GUS CLG SKC L M H  VSB MW MW MW MW AW AW AW AW W TEMP DEWP    SLP   ALT    STP MAX MIN PCP01 PCP06 PCP24 PCPXX SD
638440 ***** 201502042100 040   9 *** *** *** * * *  6.2 ** ** ** ** ** ** ** ** *   81   73 ****** ***** ****** *** *** ***** ***** ***** ***** **
638440 ***** 201502042200 050   9 *** *** *** * * *  6.2 ** ** ** ** ** ** ** ** *   79   72 ****** ***** ****** *** *** ***** ***** ***** ***** **
638440 ***** 201502042300 060   7 *** *** *** * * *  6.2 ** ** ** ** ** ** ** ** *   79   72 ****** ***** ****** *** *** ***** ***** ***** ***** **
638440 ***** 201502050200 060   7 *** *** *** * * *  6.2 ** ** ** ** ** ** ** ** *   79   72 ****** ***** ****** *** *** ***** ***** ***** ***** **
638440 ***** 201502242000 ***   0 *** *** *** * * *  6.2 ** ** ** ** ** ** ** ** *   82   77 ****** 29.83 ****** *** *** ***** ***** ***** ***** **
638440 ***** 201502242100 ***   0 *** *** *** * * *  6.2 ** ** ** ** ** ** ** ** *   81   75 ****** 29.83 ****** *** *** ***** ***** ***** ***** **
638440 ***** 201502242200 ***   0 *** *** *** * * *  6.2 ** ** ** ** ** ** ** ** *   81   75 ****** 29.83 ****** *** *** ***** ***** ***** ***** **
638440 ***** 201502242300 ***   0 *** *** *** * * *  6.2 ** ** ** ** ** ** ** ** *   79   75 ****** 29.83 ****** *** *** ***** ***** ***** ***** **
638440 ***** 201502250000 ***   0 *** *** *** * * *  6.2 ** ** ** ** ** ** ** ** *   79   75 ****** 29.80 ****** *** *** ***** ***** ***** ***** **
638440 ***** 201502250100 ***   0 *** *** *** * * *  6.2 ** ** ** ** ** ** ** ** *   77   75 ****** 29.80 ****** *** *** ***** ***** ***** ***** **
638440 ***** 201504120900 180  11 ***  80 *** * * *  6.2 ** ** ** ** ** ** ** ** *   88   79 ****** 29.94 ****** *** *** ***** ***** ***** ***** **
