  USAF  WBAN YR--MODAHRMN DIR SPD GUS CLG SKC L M H  VSB MW MW MW MW AW AW AW AW W TEMP DEWP    SLP   ALT    STP MAX MIN PCP01 PCP06 PCP24 PCPXX SD
786150 ***** 201501010000 ***   0 ***  89 OVC * * * 25.0 03 ** ** ** ** ** ** ** 6   72   70 1019.6 ***** 1005.0  82  70 *****  0.28  0.28 ***** **
786150 ***** 201501011800 ***   0 ***  89 BKN * * * 25.0 ** ** ** ** ** ** ** ** *   80   72 1019.0 ***** 1004.8  80  69 ***** ***** ***** ***** **
786150 ***** 201501020000 ***   0 ***  20 BKN * * * 25.0 03 ** ** ** ** ** ** ** 6   74   72 1016.6 ***** 1002.6  84  69 *****  0.31  0.31 ***** **
786150 ***** 201501030000 *** *** *** *** SCT * * * 25.0 ** ** ** ** ** ** ** ** *   81   72 1015.0 ***** 1001.2  86  70 ***** *****  0.45 ***** **
786150 ***** 201501031200 ***   0 *** *** *** * * * 25.0 ** ** ** ** ** ** ** ** *   69   68 1015.0 ***** 1001.2  86  68 ***** *****  0.06 ***** **
786150 ***** 201501031800 ***   0 *** *** SCT * * * 25.0 ** ** ** ** ** ** ** ** *   85   74 1016.0 ***** 1002.0  86  68 ***** ***** ***** ***** **
786150 ***** 201501040000 060  13 *** *** *** * * * 25.0 ** ** ** ** ** ** ** ** *   82   74 1014.0 ***** 1000.0  90  68 ***** ***** ***** ***** **
786150 ***** 201501041800 090   5 *** *** SCT * * * 25.0 15 ** ** ** ** ** ** ** 0   86   75 1018.4 ***** 1004.4  87  72 ***** ***** ***** ***** **
786150 ***** 201501051200 ***   0 *** *** SCT * * * 25.0 ** ** ** ** ** ** ** ** *   70   69 1021.1 ***** 1007.2  90  69 ***** ***** ***** ***** **
786150 ***** 201501051800 ***   0 ***  89 OVC * * * 25.0 03 ** ** ** ** ** ** ** 6   77   73 1021.6 ***** 1007.8  77  69 *****  0.67 ***** ***** **
786150 ***** 201501060000 *** *** ***  89 BKN * * * 25.0 03 ** ** ** ** ** ** ** 6   74 **** 1020.7 ***** 1006.6  82  69 *****  0.08  0.75 ***** **
786150 ***** 201501061200 ***   0 *** *** BKN * * * 25.0 ** ** ** ** ** ** ** ** *   72   72 1021.1 ***** 1007.0  82  71 ***** *****  0.83 ***** **
786150 ***** 201501061800 060   7 ***  89 BKN * * * 25.0 01 ** ** ** ** ** ** ** 6   78   72 1022.1 ***** 1008.2  81  71 *****  0.03 ***** ***** **
786150 ***** 201501070000 *** *** *** *** *** * * * 25.0 ** ** ** ** ** ** ** ** *   78   71 1019.5 ***** 1005.6  86  71 ***** *****  0.12 ***** **
786150 ***** 201501071200 ***   0 ***  12 BKN * * * 25.0 ** ** ** ** ** ** ** ** *   68   68 1020.1 ***** 1006.2 122  67 ***** *****  0.03 ***** **
786150 ***** 201501071800 ***   0 *** *** SCT * * * 25.0 ** ** ** ** ** ** ** ** *   81   68 1020.6 ***** 1006.4  81  67 ***** ***** ***** ***** **
786150 ***** 201501080000 360  13 ***  25 BKN * * * 25.0 15 ** ** ** ** ** ** ** 1   74   66 1020.2 ***** 1006.0  86  67 ***** ***** ***** ***** **
786150 ***** 201501081200 ***   0 *** *** OVC * * * 25.0 61 ** ** ** ** ** ** ** 6   70   69 1021.2 ***** 1006.8 *** *** *****  0.16 ***** ***** **
786150 ***** 201501081800 ***   0 ***  18 OVC * * * 25.0 03 ** ** ** ** ** ** ** 6   77   70 1020.2 ***** 1006.0  77  66 *****  0.67 ***** ***** **
786150 ***** 201501091200 ***   0 ***  12 OVC * * * 25.0 ** ** ** ** ** ** ** ** *   68   67 1020.2 ***** 1005.8  79  68 ***** *****  1.33 ***** **
786150 ***** 201501091800 ***   0 *** *** SCT * * * 25.0 ** ** ** ** ** ** ** ** *   78   70 1020.1 ***** 1006.0  79  67 ***** ***** ***** ***** **
786150 ***** 201501100000 ***   0 ***  89 OVC * * * 25.0 ** ** ** ** ** ** ** ** *   74   69 1018.6 ***** 1004.4  82  67 ***** *****  0.56 ***** **
786150 ***** 201501101200 ***   0 ***  89 OVC * * * 25.0 ** ** ** ** ** ** ** ** *   67   67 1019.6 ***** 1005.6  82  65 ***** ***** ***** ***** **
786150 ***** 201501101800 ***   0 ***  89 OVC * * * 25.0 ** ** ** ** ** ** ** ** *   77   70 1020.2 ***** 1005.8  77  65 ***** ***** ***** ***** **
786150 ***** 201501110000 090   5 ***  89 OVC * * * 25.0 03 ** ** ** ** ** ** ** 6   72   69 1018.6 ***** 1004.6  79  65 *****  0.47  0.47 ***** **
786150 ***** 201501111200 ***   0 ***  10 BKN * * * 25.0 ** ** ** ** ** ** ** ** *   70   69 1018.6 ***** 1004.4  79  68 ***** *****  0.47 ***** **
786150 ***** 201501111800 090   5 ***  79 OVC * * * 25.0 03 ** ** ** ** ** ** ** 5   76 **** 1019.0 ***** 1004.8  76  68 ***** ***** ***** ***** **
786150 ***** 201501120000 240   5 ***  89 OVC * * *  5.0 51 ** ** ** ** ** ** ** 5   74   72 1017.6 ***** 1003.4  81  68 *****  0.08  0.20 ***** **
786150 ***** 201501121200 270   7 ***  12 OVC * * * 25.0 ** ** ** ** ** ** ** ** *   69   69 1019.1 ***** 1005.0  81  69 ***** *****  1.23 ***** **
786150 ***** 201501130000 360   9 *** *** SCT * * * 25.0 ** ** ** ** ** ** ** ** *   75   72 1016.6 ***** 1002.6  85  69 ***** *****  1.02 ***** **
786150 ***** 201501131200 ***   0 ***  12 OVC * * *  5.0 50 ** ** ** ** ** ** ** 2   71   71 1018.5 ***** 1004.4  85  71 *****  0.00  1.47 ***** **
786150 ***** 201501131800 ***   0 ***  89 OVC * * * 25.0 03 ** ** ** ** ** ** ** 5   76   71 1020.1 ***** 1006.2  77  71 *****  0.04 ***** ***** **
786150 ***** 201501140000 ***   0 ***  89 BKN * * * 25.0 ** ** ** ** ** ** ** ** *   76   71 1017.5 ***** 1003.8  82 *** ***** *****  1.52 ***** **
786150 ***** 201501141200 ***   0 ***  12 OVC * * * 25.0 03 ** ** ** ** ** ** ** 6   70   70 1018.5 ***** 1004.4  82  70 *****  0.03  0.15 ***** **
786150 ***** 201501150000 ***   0 ***  89 OVC * * * 25.0 ** ** ** ** ** ** ** ** *   77   73 1016.6 ***** 1002.6  83  70 ***** *****  0.12 ***** **
786150 ***** 201501151200 270   5 ***  12 OVC * * * 25.0 ** ** ** ** ** ** ** ** *   70   70 1019.0 ***** 1005.0  83  70 ***** *****  0.42 ***** **
786150 ***** 201501161200 ***   0 ***  10 OVC * * *  5.0 60 ** ** ** ** ** ** ** 6   71   70 1020.1 ***** 1006.0  86  71 *****  0.47  0.85 ***** **
786150 ***** 201501161800 290   5 ***  79 OVC * * * 25.0 03 ** ** ** ** ** ** ** 6   76   72 1021.1 ***** 1007.0  76  71 *****  0.02 ***** ***** **
786150 ***** 201501170000 300   7 ***  89 BKN * * * 25.0 ** ** ** ** ** ** ** ** *   73   71 1019.6 ***** 1005.6  80  71 ***** *****  0.87 ***** **
786150 ***** 201501171200 300   7 ***  10 OVC * * * 25.0 03 ** ** ** ** ** ** ** 5   68   67 1021.2 ***** 1007.2  80  68 *****  0.04  0.09 ***** **
786150 ***** 201501171800 ***   0 ***  15 OVC * * * 25.0 03 ** ** ** ** ** ** ** 5   74   69 1021.2 ***** 1007.2  74  68 *****  0.31 ***** ***** **
786150 ***** 201501180000 ***   0 ***  89 BKN * * * 25.0 ** ** ** ** ** ** ** ** *   74   71 1019.1 ***** 1004.8  81  68 ***** *****  0.38 ***** **
786150 ***** 201501181200 290  18 ***  10 OVC * * * 25.0 ** ** ** ** ** ** ** ** *   67   67 1021.2 ***** 1006.8  81  65 ***** *****  0.34 ***** **
786150 ***** 201501181800 300   7 ***  89 OVC * * * 25.0 03 ** ** ** ** ** ** ** 4   74   67 1023.2 ***** 1009.4  75  65 ***** ***** ***** ***** **
786150 ***** 201501190000 300   5 ***  89 BKN * * * 25.0 ** ** ** ** ** ** ** ** *   75   67 1021.2 ***** 1006.8  80  65 ***** ***** ***** ***** **
786150 ***** 201501191200 270   5 ***  12 OVC * * * 25.0 ** ** ** ** ** ** ** ** *   66   64 1021.7 ***** 1007.4  80  66 ***** ***** ***** ***** **
786150 ***** 201501200000 *** *** ***  89 BKN * * * 25.0 ** ** ** ** ** ** ** ** *   74   68 1018.1 ***** 1004.0  78  66 ***** ***** ***** ***** **
786150 ***** 201501201800 060   5 *** *** SCT * * * 25.0 ** ** ** ** ** ** ** ** *   81   67 1016.5 ***** 1002.6  81  63 ***** ***** ***** ***** **
786150 ***** 201501231200 ***   0 *** *** *** * * * 25.0 ** ** ** ** ** ** ** ** *   64   64 1014.5 ***** 1000.4  91  64 ***** ***** ***** ***** **
786150 ***** 201501231800 340   7 *** *** SCT * * * 25.0 03 ** ** ** ** ** ** ** 4   83   74 1015.0 ***** 1001.2  83  63 ***** ***** ***** ***** **
786150 ***** 201501240000 340  13 *** *** SCT * * * 25.0 ** ** ** ** ** ** ** ** *   80   74 1014.1 ***** 1000.2  90  63 ***** ***** ***** ***** **
786150 ***** 201501241200 300   7 *** *** SCT * * *  5.0 10 ** ** ** ** ** ** ** 4   72   70 1018.4 ***** 1004.4  90  72 ***** ***** ***** ***** **
786150 ***** 201501241800 340   5 ***  79 OVC * * * 25.0 03 ** ** ** ** ** ** ** 4   77   68 1020.6 ***** 1006.4  77  72 ***** ***** ***** ***** **
786150 ***** 201501251800 ***   0 ***  89 OVC * * * 25.0 ** ** ** ** ** ** ** ** *   73   59 1020.2 ***** 1006.0  73  65 ***** ***** ***** ***** **
786150 ***** 201501261200 ***   0 ***  10 *** * * * 25.0 ** ** ** ** ** ** ** ** *   67   63 1022.2 ***** 1008.0  77  67 ***** ***** ***** ***** **
786150 ***** 201501261800 290   7 ***  79 OVC * * * 25.0 ** ** ** ** ** ** ** ** *   73   62 1022.7 ***** 1008.4  74  66 ***** ***** ***** ***** **
786150 ***** 201501270000 300   5 ***  28 OVC * * * 25.0 ** ** ** ** ** ** ** ** *   70   64 1021.3 ***** 1007.2  76  66 ***** ***** ***** ***** **
786150 ***** 201501271200 270   7 ***  89 OVC * * * 25.0 ** ** ** ** ** ** ** ** *   64   63 1023.3 ***** 1009.0  76  64 ***** *****  0.02 ***** **
786150 ***** 201501271800 ***   0 ***  79 OVC * * * 25.0 ** ** ** ** ** ** ** ** *   70   62 1023.3 ***** 1009.0  71  64 ***** ***** ***** ***** **
786150 ***** 201501280000 *** *** *** *** SCT * * * 25.0 ** ** ** ** ** ** ** ** *   74   62 1020.3 ***** 1006.2  79  64 ***** *****  0.02 ***** **
786150 ***** 201501281200 ***   0 *** *** *** * * * 25.0 ** ** ** ** ** ** ** ** *   54   53 1022.4 ***** 1008.2  79  53 ***** ***** ***** ***** **
786150 ***** 201501281800 ***   0 *** *** SCT * * * 25.0 ** ** ** ** ** ** ** ** *   75   62 1022.3 ***** 1008.4  75  53 ***** ***** ***** ***** **
786150 ***** 201501290000 300   5 *** *** SCT * * * 25.0 ** ** ** ** ** ** ** ** *   75   63 1019.8 ***** 1005.6  81  53 ***** ***** ***** ***** **
786150 ***** 201501291200 ***   0 *** *** *** * * * 25.0 ** ** ** ** ** ** ** ** *   57   56 1020.8 ***** 1006.4  81  57 ***** ***** ***** ***** **
786150 ***** 201501291800 ***   0 ***  20 BKN * * * 25.0 ** ** ** ** ** ** ** ** *   77   65 1021.2 ***** 1007.0  78  56 ***** ***** ***** ***** **
786150 ***** 201501300000 *** *** ***  20 BKN * * * 25.0 ** ** ** ** ** ** ** ** *   76   65 1018.7 ***** 1004.6  82  56 ***** ***** ***** ***** **
786150 ***** 201501301200 ***   0 ***  16 OVC * * * 25.0 ** ** ** ** ** ** ** ** *   65   65 1021.2 ***** 1007.0  82  65 ***** *****  0.07 ***** **
786150 ***** 201501301800 ***   0 ***  89 BKN * * * 25.0 ** ** ** ** ** ** ** ** *   78   65 1022.2 ***** 1008.0  79  65 ***** ***** ***** ***** **
786150 ***** 201501310000 ***   0 *** *** OVC * * * 25.0 ** ** ** ** ** ** ** ** *   72   67 1020.3 ***** 1006.2 *** *** ***** ***** ***** ***** **
786150 ***** 201501311800 ***   0 ***  89 OVC * * * 25.0 ** ** ** ** ** ** ** ** *   76   67 1020.7 ***** 1006.4  76  63 ***** ***** ***** ***** **
786150 ***** 201502010000 ***   0 ***  89 OVC * * * 25.0 ** ** ** ** ** ** ** ** *   74   69 1014.1 ***** 1003.0  82  63 ***** ***** ***** ***** **
786150 ***** 201502011200 ***   0 ***  89 OVC * * * 25.0 ** ** ** ** ** ** ** ** *   65   64 1017.1 ***** 1003.0  82  65 ***** ***** ***** ***** **
786150 ***** 201502020000 ***   0 *** *** *** * * * 25.0 ** ** ** ** ** ** ** ** *   83   67 1013.0 *****  999.0  88  65 ***** ***** ***** ***** **
786150 ***** 201502021200 ***   0 *** *** *** * * * 25.0 ** ** ** ** ** ** ** ** *   61   60 1015.1 ***** 1001.2  88  61 ***** ***** ***** ***** **
786150 ***** 201502021800 330   7 *** *** SCT * * * 25.0 ** ** ** ** ** ** ** ** *   82   72 1016.5 ***** 1002.8  83  65 ***** ***** ***** ***** **
786150 ***** 201502030000 ***   0 ***  89 BKN * * * 25.0 21 ** ** ** ** ** ** ** 1   76   73 1014.2 ***** 1000.4  90  60 *****  0.02  0.02 ***** **
786150 ***** 201502031200 ***   0 ***   4 OVC * * *  4.4 10 ** ** ** ** ** ** ** 4   68   67 1018.1 ***** 1003.8  90  67 ***** *****  0.02 ***** **
786150 ***** 201502031800 360   5 *** *** SCT * * * 25.0 01 ** ** ** ** ** ** ** 4   82   73 1019.0 ***** 1005.0  83  67 ***** ***** ***** ***** **
786150 ***** 201502040000 200   5 *** *** SCT * * * 25.0 ** ** ** ** ** ** ** ** *   79   70 1015.5 ***** 1001.2  90  67 ***** ***** ***** ***** **
786150 ***** 201502041200 ***   0 ***  12 OVC * * * 25.0 ** ** ** ** ** ** ** ** *   69   69 1016.0 ***** 1002.0  90  67 ***** ***** ***** ***** **
786150 ***** 201502041800 ***   0 *** *** SCT * * * 25.0 01 ** ** ** ** ** ** ** 4   81   71 1016.0 ***** 1002.0  81  67 ***** ***** ***** ***** **
786150 ***** 201502050000 300  13 ***  20 BKN * * * 25.0 15 ** ** ** ** ** ** ** 1   81   72 1013.5 *****  999.4  86  67 ***** ***** ***** ***** **
786150 ***** 201502060000 320   9 ***  89 BKN * * * 25.0 ** ** ** ** ** ** ** ** *   73   69 1018.1 ***** 1004.2  83  71 ***** *****  0.49 ***** **
786150 ***** 201502061200 320   7 *** *** OVC * * * 25.0 ** ** ** ** ** ** ** ** *   69 **** ****** ***** ****** *** *** ***** ***** ***** ***** **
786150 ***** 201502061800 320   7 ***  16 OVC * * * 25.0 03 ** ** ** ** ** ** ** 5   73   66 1023.2 ***** 1009.2  74  69 *****  0.02 ***** ***** **
786150 ***** 201502071800 330   7 ***  89 BKN * * * 25.0 ** ** ** ** ** ** ** ** *   74   65 1022.2 ***** 1008.2  74  65 ***** ***** ***** ***** **
786150 ***** 201502080000 120   7 ***  89 OVC * * * 25.0 ** ** ** ** ** ** ** ** *   72   63 1019.2 ***** 1005.4  79  65 ***** *****  0.25 ***** **
786150 ***** 201502081200 ***   0 *** *** *** * * * 25.0 ** ** ** ** ** ** ** ** *   62   61 1018.2 ***** 1004.0  79  62 ***** ***** ***** ***** **
786150 ***** 201502081800 ***   0 *** *** SCT * * * 25.0 ** ** ** ** ** ** ** ** *   78   66 1018.0 ***** 1004.0 ***  59 ***** ***** ***** ***** **
786150 ***** 201502090600 ***   0 *** *** SCT * * * 25.0 ** ** ** ** ** ** ** ** *   66   65 1015.6 ***** 1001.8  84  60 ***** ***** ***** ***** **
786150 ***** 201502091200 ***   0 *** *** SCT * * * 25.0 ** ** ** ** ** ** ** ** *   62   61 ****** ***** 1000.0 *** *** ***** ***** ***** ***** **
786150 ***** 201502091800 300   5 *** *** SCT * * * 25.0 ** ** ** ** ** ** ** ** *   81   68 1016.5 ***** 1002.4  81  61 ***** ***** ***** ***** **
786150 ***** 201502101200 ***   0 ***  12 BKN * * * 25.0 ** ** ** ** ** ** ** ** *   63   62 1017.6 ***** 1003.4  87  63 ***** ***** ***** ***** **
786150 ***** 201502101800 320   7 *** *** SCT * * * 25.0 ** ** ** ** ** ** ** ** *   76   64 1018.6 ***** 1004.4  76  61 ***** ***** ***** ***** **
786150 ***** 201502110000 ***   0 *** *** *** * * * 25.0 ** ** ** ** ** ** ** ** *   76   64 1015.6 ***** 1001.4  81  62 ***** ***** ***** ***** **
786150 ***** 201502120000 ***   0 *** *** *** * * * 25.0 ** ** ** ** ** ** ** ** *   79   65 1014.2 ***** 1000.0  84  57 ***** ***** ***** ***** **
786150 ***** 201502121200 ***   0 *** *** *** * * * 25.0 ** ** ** ** ** ** ** ** *   60   59 1017.1 ***** 1003.0  84  60 ***** ***** ***** ***** **
786150 ***** 201502121800 ***   0 ***  98 BKN * * * 25.0 03 ** ** ** ** ** ** ** 4   79   65 1019.1 ***** 1005.0  80  59 ***** ***** ***** ***** **
786150 ***** 201502130000 *** *** ***  20 BKN * * * 25.0 ** ** ** ** ** ** ** ** *   81   68 1017.6 ***** 1003.6  85  59 ***** ***** ***** ***** **
786150 ***** 201502131200 270   5 ***  10 OVC * * * 25.0 ** ** ** ** ** ** ** ** *   65   64 1021.1 ***** 1007.0  85  65 ***** *****  0.19 ***** **
786150 ***** 201502131800 350  13 *** *** SCT * * * 25.0 ** ** ** ** ** ** ** ** *   78   65 1022.6 ***** 1008.8  79  64 ***** ***** ***** ***** **
786150 ***** 201502140000 300   9 *** *** SCT * * * 25.0 ** ** ** ** ** ** ** ** *   76   65 1020.2 ***** 1006.4  82  64 ***** *****  0.19 ***** **
786150 ***** 201502141200 *** *** *** *** *** * * * **** ** ** ** ** ** ** ** ** * **** **** ****** ***** ****** *** *** ***** ***** ***** ***** **
786150 ***** 201502141800 ***   0 *** *** SCT * * * 25.0 ** ** ** ** ** ** ** ** *   79   66 1023.6 ***** 1009.4  80  66 ***** ***** ***** ***** **
786150 ***** 201502150000 ***   0 ***  89 BKN * * * 25.0 ** ** ** ** ** ** ** ** *   75   67 1021.2 ***** 1007.0  84  66 ***** *****  0.54 ***** **
786150 ***** 201502151800 090   9 *** *** BKN * * * 25.0 ** ** ** ** ** ** ** ** *   78   64 1021.7 ***** 1007.6  80  61 ***** ***** ***** ***** **
786150 ***** 201502160000 ***   0 ***  20 BKN * * * 25.0 ** ** ** ** ** ** ** ** *   74   67 1018.2 ***** 1004.2  87  61 ***** ***** ***** ***** **
786150 ***** 201502161200 ***   0 *** *** *** * * * 25.0 ** ** ** ** ** ** ** ** *   57   57 1017.2 ***** 1003.0 *** *** ***** ***** ***** ***** **
786150 ***** 201502161800 ***   0 ***  18 BKN * * * 25.0 ** ** ** ** ** ** ** ** *   78   66 1017.1 ***** 1003.0  79  57 ***** ***** ***** ***** **
786150 ***** 201502171800 360   7 *** *** *** * * * 25.0 ** ** ** ** ** ** ** ** *   84   69 1014.5 ***** 1000.4  85  56 ***** ***** ***** ***** **
786150 ***** 201502180000 *** *** *** *** *** * * * 25.0 ** ** ** ** ** ** ** ** *   85   74 1012.1 *****  998.2  91  56 ***** ***** ***** ***** **
786150 ***** 201502181200 320   9 ***  12 OVC * * *  4.4 05 ** ** ** ** ** ** ** 1   71   67 1018.9 ***** 1005.0  91  67 ***** ***** ***** ***** **
786150 ***** 201502181800 300   5 ***  89 OVC * * * 25.0 03 ** ** ** ** ** ** ** 4   79   69 1021.0 ***** 1007.0  79  67 ***** ***** ***** ***** **
786150 ***** 201502190000 300   7 ***  20 BKN * * * 25.0 ** ** ** ** ** ** ** ** *   79   69 1019.0 ***** 1005.0  85  67 ***** ***** ***** ***** **
786150 ***** 201502191200 030   7 ***  12 OVC * * * 25.0 ** ** ** ** ** ** ** ** *   72   67 1022.1 ***** 1008.2  85  69 ***** ***** ***** ***** **
786150 ***** 201502191800 040   7 ***  89 BKN * * * 25.0 ** ** ** ** ** ** ** ** *   78   62 1024.1 ***** 1009.8  78  68 ***** ***** ***** ***** **
786150 ***** 201502200000 060   9 ***  89 OVC * * * 25.0 ** ** ** ** ** ** ** ** *   74   65 1021.7 ***** 1007.6  82  68 ***** ***** ***** ***** **
786150 ***** 201502201200 ***   0 ***  89 BKN * * * 25.0 ** ** ** ** ** ** ** ** *   66   63 1021.7 ***** 1007.4  82  66 ***** ***** ***** ***** **
786150 ***** 201502201800 090   7 ***  79 OVC * * * 25.0 ** ** ** ** ** ** ** ** *   77   67 1021.6 ***** 1007.4  80  66 ***** ***** ***** ***** **
786150 ***** 201502210000 090  22 ***  16 BKN * * * 25.0 ** ** ** ** ** ** ** ** *   72   66 1018.6 ***** 1004.4  80  66 ***** ***** ***** ***** **
786150 ***** 201502211200 ***   0 *** *** *** * * * 25.0 ** ** ** ** ** ** ** ** *   63   62 1016.8 ***** 1002.4  80  63 ***** ***** ***** ***** **
786150 ***** 201502211800 ***   0 ***  89 BKN * * * 25.0 ** ** ** ** ** ** ** ** *   81   68 1017.5 ***** 1003.6  81  62 ***** ***** ***** ***** **
786150 ***** 201502220000 090   7 *** *** SCT * * * 25.0 ** ** ** ** ** ** ** ** *   79   67 1015.1 ***** 1000.8  86  62 ***** ***** ***** ***** **
786150 ***** 201502221200 ***   0 ***  12 OVC * * * 25.0 ** ** ** ** ** ** ** ** *   66   65 1015.0 ***** 1001.2  86  64 ***** ***** ***** ***** **
786150 ***** 201502221800 060   7 ***  18 BKN * * * 25.0 ** ** ** ** ** ** ** ** *   85   71 1016.0 ***** 1002.0  85  64 ***** ***** ***** ***** **
786150 ***** 201502231200 090   5 *** *** *** * * * 25.0 ** ** ** ** ** ** ** ** *   70   69 1017.0 ***** 1003.0  93  69 ***** ***** ***** ***** **
786150 ***** 201502231800 060   7 ***  18 BKN * * * 25.0 ** ** ** ** ** ** ** ** *   88   70 1018.3 ***** 1004.4  89  69 ***** ***** ***** ***** **
786150 ***** 201502240000 090   9 ***  89 BKN * * * 25.0 ** ** ** ** ** ** ** ** *   83   73 1016.4 ***** 1002.6  93  69 ***** ***** ***** ***** **
786150 ***** 201502241200 ***   0 ***  10 OVC * * *  3.1 10 ** ** ** ** ** ** ** 4   65   65 1015.0 ***** 1004.2  93  64 ***** ***** ***** ***** **
786150 ***** 201502241800 ***   0 ***  18 BKN * * * 25.0 03 ** ** ** ** ** ** ** 4   84   71 1018.4 ***** 1004.6  84  64 ***** ***** ***** ***** **
786150 ***** 201502250000 090   9 *** *** SCT * * * 25.0 ** ** ** ** ** ** ** ** *   86   72 1014.5 ***** 1000.6  91  64 ***** ***** ***** ***** **
786150 ***** 201502251800 120  14 *** *** *** * * * 25.0 ** ** ** ** ** ** ** ** *   89   70 1011.8 *****  998.2  90  64 ***** ***** ***** ***** **
786150 ***** 201502260000 120   5 *** *** *** * * * 25.0 ** ** ** ** ** ** ** ** *   92   67 1007.3 *****  993.6  97  64 ***** ***** ***** ***** **
786150 ***** 201502261200 ***   0 *** *** SCT * * * 25.0 ** ** ** ** ** ** ** ** *   69   68 1011.3 *****  997.4  97  69 ***** ***** ***** ***** **
786150 ***** 201502261800 300   7 ***  18 BKN * * * 25.0 ** ** ** ** ** ** ** ** *   81   72 1013.0 *****  999.0  82  69 ***** ***** ***** ***** **
786150 ***** 201502271200 ***   0 *** *** *** * * * 25.0 ** ** ** ** ** ** ** ** *   67   66 1014.9 ***** 1000.8  88  67 ***** ***** ***** ***** **
786150 ***** 201502280000 180   9 ***  18 OVC * * * 25.0 60 ** ** ** ** ** ** ** 1   78   74 1013.1 *****  999.2  92  67 *****  0.04  0.05 ***** **
786150 ***** 201502281200 ***   0 *** *** OVC * * *  4.4 10 ** ** ** ** ** ** ** 4   70   69 1018.0 ***** 1003.8  92  70 ***** ***** ***** ***** **
786150 ***** 201502281800 ***   0 *** *** SCT * * * 25.0 01 ** ** ** ** ** ** ** 4   85   71 1018.9 ***** 1005.0  86  70 ***** ***** ***** ***** **
786150 ***** 201503010000 ***   0 *** *** SCT * * * 25.0 ** ** ** ** ** ** ** ** *   84   69 1016.4 ***** 1002.4  92  70 ***** *****  0.03 ***** **
786150 ***** 201503011200 ***   0 ***  89 OVC * * * 25.0 ** ** ** ** ** ** ** ** *   71   69 1019.4 ***** 1005.4  92  71 ***** ***** ***** ***** **
786150 ***** 201503011800 090   7 ***  18 BKN * * * 25.0 03 ** ** ** ** ** ** ** 6   85   70 1020.0 ***** 1006.0  87  71 *****  0.12 ***** ***** **
786150 ***** 201503020000 060   7 *** *** SCT * * * 25.0 ** ** ** ** ** ** ** ** *   83   66 1018.0 ***** 1004.2  89  71 ***** *****  0.10 ***** **
786150 ***** 201503021200 ***   0 ***  12 BKN * * * 25.0 ** ** ** ** ** ** ** ** *   72   71 1019.4 ***** 1005.6  89  69 ***** *****  0.10 ***** **
786150 ***** 201503021800 090   7 ***  18 BKN * * * 25.0 ** ** ** ** ** ** ** ** *   84   68 1020.0 ***** 1006.0  86 *** ***** ***** ***** ***** **
786150 ***** 201503030000 060   5 *** *** SCT * * * 25.0 ** ** ** ** ** ** ** ** *   86   69 1016.4 ***** 1002.6  90  69 ***** ***** ***** ***** **
786150 ***** 201503031800 090   5 ***  18 BKN * * * 25.0 03 ** ** ** ** ** ** ** 4   87   68 1017.4 ***** 1003.6  87  63 ***** ***** ***** ***** **
786150 ***** 201503040000 ***   0 *** *** SCT * * * 25.0 ** ** ** ** ** ** ** ** *   85   71 1013.5 *****  999.4  92  63 ***** ***** ***** ***** **
786150 ***** 201503041800 360   7 *** *** SCT * * * 25.0 ** ** ** ** ** ** ** ** *   87   69 1014.9 ***** 1000.8  89  63 ***** ***** ***** ***** **
786150 ***** 201503050000 090  18 *** *** *** * * * 25.0 ** ** ** ** ** ** ** ** *   87   66 1010.5 *****  996.6  96  63 ***** ***** ***** ***** **
786150 ***** 201503051200 ***   0 ***  10 BKN * * * 25.0 ** ** ** ** ** ** ** ** *   67   66 1012.9 *****  999.0  96  66 ***** ***** ***** ***** **
786150 ***** 201503051800 090   7 *** *** SCT * * * 25.0 03 ** ** ** ** ** ** ** 4   91   70 1014.3 ***** 1000.4  91  66 ***** ***** ***** ***** **
786150 ***** 201503060000 060   7 *** *** *** * * * 25.0 ** ** ** ** ** ** ** ** *   88   67 1013.4 *****  999.6  95  66 ***** ***** ***** ***** **
786150 ***** 201503061200 ***   0 *** *** SCT * * * 25.0 ** ** ** ** ** ** ** ** *   70   68 1018.4 ***** 1004.6  95  69 ***** ***** ***** ***** **
786150 ***** 201503061800 340  11 ***  18 BKN * * * 25.0 21 ** ** ** ** ** ** ** 4   82   70 1020.0 ***** 1006.0  84  69 *****  0.02 ***** ***** **
786150 ***** 201503070000 130   9 *** *** SCT * * * 25.0 01 ** ** ** ** ** ** ** 6   74   70 1019.1 ***** 1005.0  86  69 *****  0.12  0.13 ***** **
786150 ***** 201503071200 300   9 ***  12 OVC * * * 25.0 ** ** ** ** ** ** ** ** *   66   63 1022.2 ***** 1008.2  86  66 ***** *****  0.13 ***** **
786150 ***** 201503071800 290   7 ***  16 OVC * * * 25.0 03 ** ** ** ** ** ** ** 6   74   66 1023.2 ***** 1009.0  74  66 *****  0.03 ***** ***** **
786150 ***** 201503080000 320   5 *** *** SCT * * * 25.0 ** ** ** ** ** ** ** ** *   75   68 1019.1 ***** 1004.8  79  66 ***** *****  0.03 ***** **
786150 ***** 201503081200 260   5 ***  10 OVC * * *  4.4 10 ** ** ** ** ** ** ** 4   68   67 1019.6 ***** 1005.6  79  68 ***** *****  0.03 ***** **
786150 ***** 201503081800 320   5 *** *** SCT * * * 25.0 03 ** ** ** ** ** ** ** 4   78   67 1019.0 ***** 1005.2  80  68 ***** ***** ***** ***** **
786150 ***** 201503090000 200   5 ***  22 BKN * * * 25.0 03 ** ** ** ** ** ** ** 6   78   68 1015.0 ***** 1001.2  81  68 *****  0.02  0.02 ***** **
786150 ***** 201503091800 120   7 ***  18 BKN * * * 25.0 03 ** ** ** ** ** ** ** 4   85   67 1014.5 ***** 1000.4  85  63 ***** ***** ***** ***** **
786150 ***** 201503100000 090  22 *** *** *** * * * 25.0 ** ** ** ** ** ** ** ** *   85   64 1011.5 *****  997.4  93  63 ***** ***** ***** ***** **
786150 ***** 201503101200 ***   0 *** *** *** * * * 25.0 ** ** ** ** ** ** ** ** *   66   65 1012.5 *****  998.6  93  66 ***** ***** ***** ***** **
786150 ***** 201503101800 300   5 *** *** BKN * * * 25.0 ** ** ** ** ** ** ** ** *   85   73 1013.4 *****  999.4 *** *** ***** ***** ***** ***** **
786150 ***** 201503111200 ***   0 *** *** SCT * * * 25.0 ** ** ** ** ** ** ** ** *   67   65 1014.0 ***** 1000.0  94  66 ***** ***** ***** ***** **
786150 ***** 201503111800 070   7 *** *** SCT * * * 25.0 ** ** ** ** ** ** ** ** *   90   70 1014.3 ***** 1000.6  90  66 ***** ***** ***** ***** **
786150 ***** 201503120000 060  22 ***  89 BKN * * * 25.0 ** ** ** ** ** ** ** ** *   87   69 1012.9 *****  999.0  94  66 ***** ***** ***** ***** **
786150 ***** 201503121200 300   9 ***  10 BKN * * * 25.0 ** ** ** ** ** ** ** ** *   73   72 1016.3 ***** 1002.4  94  73 ***** ***** ***** ***** **
786150 ***** 201503121800 320   9 ***  16 OVC * * * 25.0 03 ** ** ** ** ** ** ** 5   76   71 1017.5 ***** 1003.4  76  72 *****  0.16 ***** ***** **
786150 ***** 201503131200 270   5 ***  10 OVC * * * 25.0 ** ** ** ** ** ** ** ** *   69   68 1017.1 ***** 1003.0  79  69 ***** *****  0.43 ***** **
786150 ***** 201503131800 360   5 ***  16 BKN * * * 25.0 01 ** ** ** ** ** ** ** 4   78   70 1017.0 ***** 1003.0  78  69 ***** ***** ***** ***** **
786150 ***** 201503140000 ***   0 *** *** SCT * * * 25.0 ** ** ** ** ** ** ** ** *   77   72 1014.0 ***** 1000.2  85  69 ***** *****  0.28 ***** **
786150 ***** 201503141200 ***   0 ***   2 OVC * * *  0.3 46 ** ** ** ** ** ** ** 4   69   69 1015.0 ***** 1001.2  85  67 ***** ***** ***** ***** **
786150 ***** 201503141800 060   7 ***  18 BKN * * * 25.0 01 ** ** ** ** ** ** ** 4   84   73 1015.3 ***** 1001.0  84  67 ***** ***** ***** ***** **
786150 ***** 201503150000 *** *** *** *** SCT * * * 25.0 01 ** ** ** ** ** ** ** 6   87   62 1011.9 *****  998.0  94 *** *****  0.08 ***** ***** **
786150 ***** 201503151200 ***   0 *** *** SCT * * * 25.0 ** ** ** ** ** ** ** ** *   65   64 1015.9 ***** 1002.2  94  65 ***** *****  0.07 ***** **
786150 ***** 201503151800 110   9 ***  18 BKN * * * 25.0 ** ** ** ** ** ** ** ** *   91   67 1016.3 ***** 1002.6  91  65 ***** ***** ***** ***** **
786150 ***** 201503160000 090   7 ***  89 BKN * * * 25.0 01 ** ** ** ** ** ** ** 6   74   72 1016.2 ***** 1002.4  93  65 *****  0.12  0.13 ***** **
786150 ***** 201503161200 ***   0 ***  89 OVC * * * 25.0 ** ** ** ** ** ** ** ** *   69   68 1019.1 ***** 1005.2  93  69 ***** *****  0.13 ***** **
786150 ***** 201503161800 270   5 ***  18 BKN * * * 25.0 ** ** ** ** ** ** ** ** *   80   72 1020.0 ***** 1006.0  83  69 ***** ***** ***** ***** **
786150 ***** 201503170000 *** *** *** *** SCT * * * 25.0 ** ** ** ** ** ** ** ** *   82   71 1017.0 ***** 1003.0  90  69 ***** ***** ***** ***** **
786150 ***** 201503171200 ***   0 *** *** *** * * * 25.0 ** ** ** ** ** ** ** ** *   62   60 1018.6 ***** 1004.6  90  62 ***** ***** ***** ***** **
786150 ***** 201503171800 340   5 *** 197 BKN * * * 25.0 03 ** ** ** ** ** ** ** 4   83   67 1019.0 ***** 1005.2  83  62 ***** ***** ***** ***** **
786150 ***** 201503181800 ***   0 *** 197 BKN * * * 25.0 ** ** ** ** ** ** ** ** *   87   58 1016.8 ***** 1003.0  89  65 ***** ***** ***** ***** **
786150 ***** 201503190000 *** *** *** *** SCT * * * 25.0 ** ** ** ** ** ** ** ** *   86   67 1014.0 *****  999.8  93  65 ***** ***** ***** ***** **
786150 ***** 201503191800 330   7 *** *** SCT * * * 25.0 ** ** ** ** ** ** ** ** *   87   69 1015.9 ***** 1001.8  87  62 ***** ***** ***** ***** **
786150 ***** 201503200000 140   7 ***  20 OVC * * * 25.0 60 ** ** ** ** ** ** ** 2   76   75 1013.2 *****  999.4  92  62 *****  0.63  0.65 ***** **
786150 ***** 201503201200 ***   0 *** *** *** * * * 25.0 ** ** ** ** ** ** ** ** *   68   67 1016.1 ***** 1002.0  92  67 ***** *****  0.70 ***** **
786150 ***** 201503201800 090   7 ***  18 BKN * * * 25.0 ** ** ** ** ** ** ** ** *   89   71 1016.8 ***** 1003.0  90  67 ***** ***** ***** ***** **
786150 ***** 201503211200 ***   0 *** *** SCT * * * 18.8 ** ** ** ** ** ** ** ** *   65   64 1016.6 ***** 1002.6  93  65 ***** ***** ***** ***** **
786150 ***** 201503211800 100   9 *** *** SCT * * * 25.0 ** ** ** ** ** ** ** ** *   91   69 1016.8 ***** 1002.8  91  65 ***** ***** ***** ***** **
786150 ***** 201503220000 060   7 *** *** *** * * * 25.0 ** ** ** ** ** ** ** ** *   89   68 1012.9 *****  999.0  95  65 ***** ***** ***** ***** **
786150 ***** 201503221200 ***   0 *** *** *** * * * 25.0 ** ** ** ** ** ** ** ** *   67   66 1015.4 ***** 1001.6  95  67 ***** ***** ***** ***** **
786150 ***** 201503221800 020   5 *** *** SCT * * * 25.0 ** ** ** ** ** ** ** ** *   88   71 1015.3 ***** 1001.4  89  66 ***** ***** ***** ***** **
786150 ***** 201503230000 ***   0 *** *** *** * * * 25.0 ** ** ** ** ** ** ** ** *   89   66 1012.9 *****  998.8  94  66 ***** ***** ***** ***** **
786150 ***** 201503231200 ***   0 *** *** SCT * * * 25.0 ** ** ** ** ** ** ** ** *   64   62 1015.9 ***** 1001.8  94  64 ***** ***** ***** ***** **
786150 ***** 201503240000 ***   0 *** *** SCT * * * 25.0 ** ** ** ** ** ** ** ** *   89   68 1013.9 ***** 1000.2  95  64 ***** ***** ***** ***** **
786150 ***** 201503241200 ***   0 *** *** SCT * * * 25.0 ** ** ** ** ** ** ** ** *   65   64 1016.9 ***** 1003.0  95  65 ***** ***** ***** ***** **
786150 ***** 201503241800 360   7 ***  89 BKN * * * 25.0 ** ** ** ** ** ** ** ** *   86   73 1017.4 ***** 1003.6  87  65 ***** ***** ***** ***** **
786150 ***** 201503250000 ***   0 *** *** *** * * * 25.0 ** ** ** ** ** ** ** ** *   90   67 1013.9 ***** 1000.2  94  65 ***** ***** ***** ***** **
786150 ***** 201503251200 ***   0 *** *** *** * * * 25.0 ** ** ** ** ** ** ** ** *   64   63 1015.9 ***** 1002.0  94  64 ***** ***** ***** ***** **
786150 ***** 201503251800 060   7 *** *** SCT * * * 25.0 ** ** ** ** ** ** ** ** *   91   65 1015.8 ***** 1002.0  92  63 ***** ***** ***** ***** **
786150 ***** 201503260000 090  13 *** *** *** * * * 25.0 ** ** ** ** ** ** ** ** *   89   68 1013.4 *****  999.4  97  64 ***** ***** ***** ***** **
786150 ***** 201503261200 ***   0 *** *** *** * * * 25.0 ** ** ** ** ** ** ** ** *   68   67 1013.9 ***** 1000.2  97  68 ***** ***** ***** ***** **
786150 ***** 201503261800 040   5 *** *** SCT * * * 25.0 ** ** ** ** ** ** ** ** *   90   72 1013.3 *****  999.4  91  68 ***** ***** ***** ***** **
786150 ***** 201503270000 060   9 *** *** *** * * * 25.0 ** ** ** ** ** ** ** ** *   93   71 1009.2 *****  995.6  97  68 ***** ***** ***** ***** **
786150 ***** 201503271800 320  11 *** 197 OVC * * * 25.0 03 ** ** ** ** ** ** ** 4   89 **** 1015.3 ***** 1001.6  91  73 ***** ***** ***** ***** **
786150 ***** 201503280000 290  16 ***  25 OVC * * * 25.0 15 ** ** ** ** ** ** ** 9   84   72 1014.9 ***** 1000.8  92  73 ***** ***** ***** ***** **
786150 ***** 201503281200 ***   0 ***  10 OVC * * *  5.0 10 ** ** ** ** ** ** ** 6   72   71 1019.4 ***** 1005.6  92  72 *****  0.31  0.30 ***** **
786150 ***** 201503281800 090   5 ***  12 OVC * * *  2.5 65 ** ** ** ** ** ** ** 6   71   70 1021.7 ***** 1007.4  77  71 *****  0.87 ***** ***** **
786150 ***** 201503290000 ***   0 ***  89 OVC * * * 25.0 03 ** ** ** ** ** ** ** 6   73   71 1019.1 ***** 1005.2  77  71 *****  1.18  2.37 ***** **
786150 ***** 201503291200 ***   0 ***  12 OVC * * * 25.0 ** ** ** ** ** ** ** ** *   69   67 1021.2 ***** 1007.0  77  69 ***** *****  2.07 ***** **
786150 ***** 201503291800 020  13 *** *** SCT * * * 25.0 ** ** ** ** ** ** ** ** *   82   70 1021.1 ***** 1007.2  83  69 ***** ***** ***** ***** **
786150 ***** 201503300000 *** *** *** *** SCT * * * 25.0 01 ** ** ** ** ** ** ** 6   80   74 1017.5 ***** 1003.4  89  69 *****  0.35  0.34 ***** **
786150 ***** 201503301200 ***   0 *** *** SCT * * * 25.0 03 ** ** ** ** ** ** ** 6   70   70 1019.1 ***** 1005.2  89  70 *****  0.04  0.64 ***** **
786150 ***** 201503310000 200   5 ***  89 BKN * * * 25.0 ** ** ** ** ** ** ** ** *   76   71 1018.0 ***** 1004.0  90  70 ***** *****  0.30 ***** **
786150 ***** 201503311200 ***   0 ***  10 BKN * * *  4.4 10 ** ** ** ** ** ** ** 4   67   66 1018.1 ***** 1004.2  90  66 ***** ***** ***** ***** **
786150 ***** 201504011200 ***   0 *** *** *** * * * 25.0 ** ** ** ** ** ** ** ** *   67   66 1016.0 ***** 1002.0  90  66 ***** *****  0.21 ***** **
786150 ***** 201504011800 090   5 ***  18 BKN * * * 25.0 ** ** ** ** ** ** ** ** *   84   70 1015.9 ***** 1001.8  87  66 ***** ***** ***** ***** **
786150 ***** 201504020000 070   7 ***  20 BKN * * * 25.0 ** ** ** ** ** ** ** ** *   82   71 1013.5 *****  999.6  90  66 ***** ***** ***** ***** **
786150 ***** 201504021200 110   7 *** *** *** * * * 25.0 ** ** ** ** ** ** ** ** *   72   71 1014.4 ***** 1000.6  90 *** ***** ***** ***** ***** **
786150 ***** 201504021800 ***   0 ***  18 BKN * * * 25.0 ** ** ** ** ** ** ** ** *   89   72 1015.8 ***** 1002.0  90  72 ***** ***** ***** ***** **
786150 ***** 201504040000 090   7 *** *** SCT * * * 25.0 ** ** ** ** ** ** ** ** *   89   72 1012.9 *****  998.8  93  69 ***** ***** ***** ***** **
786150 ***** 201504041200 ***   0 *** *** *** * * * 25.0 ** ** ** ** ** ** ** ** *   67   65 1015.9 ***** 1001.8  93  66 ***** ***** ***** ***** **
786150 ***** 201504041800 090  11 *** *** SCT * * * 25.0 01 ** ** ** ** ** ** ** 4   91   69 1017.3 ***** 1003.6  91  66 ***** ***** ***** ***** **
786150 ***** 201504050000 070   7 *** *** *** * * * 25.0 ** ** ** ** ** ** ** ** *   89   65 1013.9 ***** 1000.2  95  66 ***** ***** ***** ***** **
786150 ***** 201504051800 320   7 *** *** SCT * * * 25.0 ** ** ** ** ** ** ** ** *   86   69 1015.9 ***** 1002.2  87  63 ***** ***** ***** ***** **
786150 ***** 201504060000 ***   0 *** *** SCT * * * 25.0 ** ** ** ** ** ** ** ** *   90   66 1012.4 *****  998.4  92  63 ***** ***** ***** ***** **
786150 ***** 201504061800 120   7 *** *** SCT * * * 25.0 ** ** ** ** ** ** ** ** *   90   67 1015.7 ***** 1001.8  91  70 ***** ***** ***** ***** **
786150 ***** 201504070000 090  13 ***  20 BKN * * * 25.0 ** ** ** ** ** ** ** ** *   86   71 1012.9 *****  998.8  92  70 ***** ***** ***** ***** **
786150 ***** 201504071200 ***   0 *** *** SCT * * * 25.0 ** ** ** ** ** ** ** ** *   69   69 1015.4 ***** 1001.6  92  69 ***** ***** ***** ***** **
786150 ***** 201504071800 090   9 ***  18 BKN * * * 25.0 ** ** ** ** ** ** ** ** *   87   69 1015.8 ***** 1002.0  90  69 ***** ***** ***** ***** **
786150 ***** 201504080000 090  13 *** *** SCT * * * 25.0 ** ** ** ** ** ** ** ** *   88   71 1012.9 *****  999.0  94  69 ***** ***** ***** ***** **
786150 ***** 201504090000 180  13 ***  20 BKN * * * 25.0 ** ** ** ** ** ** ** ** *   87   70 1011.4 *****  997.6  93  67 ***** ***** ***** ***** **
786150 ***** 201504091200 ***   0 *** *** *** * * * 25.0 ** ** ** ** ** ** ** ** *   67   66 1014.4 ***** 1000.4  93  67 ***** ***** ***** ***** **
786150 ***** 201504091800 090   5 ***  18 BKN * * * 25.0 ** ** ** ** ** ** ** ** *   90   71 1014.3 ***** 1000.6  91  67 ***** ***** ***** ***** **
786150 ***** 201504100000 090  11 *** *** SCT * * * 25.0 ** ** ** ** ** ** ** ** *   87   68 1012.4 *****  998.6  98  67 ***** ***** ***** ***** **
786150 ***** 201504101200 ***   0 *** *** *** * * * 25.0 ** ** ** ** ** ** ** ** *   68   67 1013.9 ***** 1000.2  98  67 ***** ***** ***** ***** **
786150 ***** 201504101800 060   7 *** *** SCT * * * 25.0 ** ** ** ** ** ** ** ** *   91   69 1014.3 ***** 1000.6  92  67 ***** ***** ***** ***** **
786150 ***** 201504110000 090  13 *** *** SCT * * * 25.0 ** ** ** ** ** ** ** ** *   90   72 1012.4 *****  998.6  97  67 ***** ***** ***** ***** **
786150 ***** 201504111200 ***   0 *** *** *** * * * 25.0 ** ** ** ** ** ** ** ** *   71   70 1014.8 ***** 1001.0  97  71 ***** ***** ***** ***** **
786150 ***** 201504111800 090   9 ***  20 BKN * * * 25.0 ** ** ** ** ** ** ** ** *   91   69 1015.2 ***** 1004.1  92  71 ***** ***** ***** ***** **
786150 ***** 201504120000 180  11 ***  25 BKN * * * 25.0 15 ** ** ** ** ** ** ** 1   89   70 1012.2 *****  998.6  98  71 ***** ***** ***** ***** **
786150 ***** 201504121800 090   7 ***  20 BKN * * * 25.0 ** ** ** ** ** ** ** ** *   93   73 1013.8 ***** 1000.0  94  68 ***** ***** ***** ***** **
786150 ***** 201504130000 090  22 *** *** SCT * * * 25.0 ** ** ** ** ** ** ** ** *   90   36 ****** ***** ****** *** *** ***** ***** ***** ***** **
786150 ***** 201504131200 120   5 *** *** SCT * * * 25.0 ** ** ** ** ** ** ** ** *   72   71 1014.3 ***** 1000.4  96  71 ***** ***** ***** ***** **
786150 ***** 201504131800 120   7 ***  18 BKN * * * 25.0 03 ** ** ** ** ** ** ** 4   94   72 1013.9 ***** 1000.0  94  71 ***** ***** ***** ***** **
786150 ***** 201504140000 060  18 *** *** SCT * * * 25.0 ** ** ** ** ** ** ** ** *   90   73 1011.3 *****  997.6 100  71 ***** ***** ***** ***** **
786150 ***** 201504141200 ***   0 *** *** SCT * * *  5.6 10 ** ** ** ** ** ** ** 0   72   72 1014.8 ***** 1001.2 100  72 ***** ***** ***** ***** **
786150 ***** 201504141800 060   7 ***  18 BKN * * * 25.0 03 ** ** ** ** ** ** ** 4   91   74 1015.2 ***** 1001.6  93  72 ***** ***** ***** ***** **
786150 ***** 201504150000 060   7 *** *** BKN * * * 25.0 ** ** ** ** ** ** ** ** *   90   72 1011.8 *****  998.0  98  72 ***** ***** ***** ***** **
786150 ***** 201504151200 090   7 *** *** BKN * * *  5.6 ** ** ** ** ** ** ** ** *   73   72 1013.8 ***** 1000.0 *** *** ***** ***** ***** ***** **
786150 ***** 201504151800 090   5 *** 197 BKN * * * 25.0 03 ** ** ** ** ** ** ** 4   92   71 1014.7 ***** 1001.0  93  73 ***** ***** ***** ***** **
786150 ***** 201504160000 060  18 *** *** BKN * * * 25.0 ** ** ** ** ** ** ** ** *   89   71 1011.3 *****  997.6  96  73 ***** ***** ***** ***** **
786150 ***** 201504161200 ***   0 *** *** *** * * * 25.0 ** ** ** ** ** ** ** ** *   71   70 1013.8 ***** 1000.0  96  71 ***** ***** ***** ***** **
786150 ***** 201504161800 090   7 *** *** SCT * * * 25.0 ** ** ** ** ** ** ** ** *   93   72 1013.7 *****  999.8  95  71 ***** ***** ***** ***** **
786150 ***** 201504171200 ***   0 *** *** *** * * * 25.0 ** ** ** ** ** ** ** ** *   70   69 1013.3 *****  999.6  99  68 ***** ***** ***** ***** **
786150 ***** 201504171800 090   5 *** *** SCT * * * 25.0 ** ** ** ** ** ** ** ** *   93   73 1012.7 *****  998.8  95  68 ***** ***** ***** ***** **
786150 ***** 201504180000 090  18 *** *** SCT * * * 25.0 ** ** ** ** ** ** ** ** *   92   73 1009.8 *****  996.0  99  69 ***** ***** ***** ***** **
786150 ***** 201504181200 120   7 *** *** SCT * * *  5.0 ** ** ** ** ** ** ** ** *   72   72 1011.1 *****  997.6 *** *** ***** ***** ***** ***** **
786150 ***** 201504190000 090   7 *** *** SCT * * * 25.0 ** ** ** ** ** ** ** ** *   95   73 1007.1 *****  993.4 101  72 ***** ***** ***** ***** **
786150 ***** 201504191200 ***   0 *** *** SCT * * *  5.6 10 ** ** ** ** ** ** ** 0   74   73 1010.8 *****  997.0 101  73 ***** ***** ***** ***** **
786150 ***** 201504191800 300   5 *** *** *** * * * 25.0 01 ** ** ** ** ** ** ** 4   93   73 1010.8 *****  996.8  94  73 ***** ***** ***** ***** **
786150 ***** 201504201200 120   7 *** *** *** * * * 25.0 ** ** ** ** ** ** ** ** *   74   73 1009.1 *****  995.6 101  74 ***** ***** ***** ***** **
786150 ***** 201504201800 340   7 *** *** *** * * * 25.0 ** ** ** ** ** ** ** ** *   96   74 1008.5 *****  995.2  98  74 ***** ***** ***** ***** **
786150 ***** 201504210000 090   9 *** *** *** * * * 25.0 ** ** ** ** ** ** ** ** *   99   71 1006.1 *****  992.4 104  74 ***** ***** ***** ***** **
786150 ***** 201504211200 090   5 *** *** SCT * * *  5.6 10 ** ** ** ** ** ** ** 0   77   74 1011.1 *****  997.6 104  77 ***** ***** ***** ***** **
786150 ***** 201504211800 340   5 *** *** SCT * * * 25.0 03 ** ** ** ** ** ** ** 4   95   73 1011.1 *****  997.6  95  77 ***** ***** ***** ***** **
786150 ***** 201504220000 ***   0 *** *** *** * * * 25.0 ** ** ** ** ** ** ** ** *   94   73 1007.6 *****  994.0 100  77 ***** ***** ***** ***** **
786150 ***** 201504221200 ***   0 *** *** SCT * * *  5.6 10 ** ** ** ** ** ** ** 0   75   73 1011.7 *****  998.0 100  75 ***** ***** ***** ***** **
786150 ***** 201504230000 300   9 *** *** SCT * * * 25.0 ** ** ** ** ** ** ** ** *   96   73 1008.0 *****  994.4  99  75 ***** ***** ***** ***** **
786150 ***** 201504231200 120   5 *** *** SCT * * *  5.0 10 ** ** ** ** ** ** ** 0   74   74 1011.7 *****  998.2  99  74 ***** ***** ***** ***** **
786150 ***** 201504231800 060   7 *** *** SCT * * * 25.0 03 ** ** ** ** ** ** ** 4   94   75 1011.7 *****  998.2  95  68 ***** ***** ***** ***** **
786150 ***** 201504240000 090  13 *** *** SCT * * * 25.0 ** ** ** ** ** ** ** ** *   94   73 1008.7 *****  995.0 103  74 ***** ***** ***** ***** **
786150 ***** 201504241200 ***   0 *** *** SCT * * *  5.6 10 ** ** ** ** ** ** ** 0   72   70 1013.3 *****  999.4 103  72 ***** ***** ***** ***** **
786150 ***** 201504241800 060   7 *** *** *** * * * 25.0 02 ** ** ** ** ** ** ** 4   94   73 1012.7 *****  999.4  95  72 ***** ***** ***** ***** **
786150 ***** 201504250000 090   9 *** *** SCT * * * 25.0 ** ** ** ** ** ** ** ** * ****   71 ****** ***** ****** *** *** ***** ***** ***** ***** **
786150 ***** 201504251200 ***   0 *** *** SCT * * *  5.0 10 ** ** ** ** ** ** ** 0   69   68 1011.8 *****  998.0 102  69 ***** ***** ***** ***** **
786150 ***** 201504251800 130   7 *** *** *** * * * 25.0 02 ** ** ** ** ** ** ** 4   96   73 1011.2 *****  997.6  96  69 ***** ***** ***** ***** **
786150 ***** 201504260000 090  13 *** *** SCT * * *  5.6 05 ** ** ** ** ** ** ** 4   96   73 1007.7 *****  994.2 102  69 ***** ***** ***** ***** **
786150 ***** 201504261200 090   7 *** *** SCT * * *  5.6 10 ** ** ** ** ** ** ** 0   72   71 1010.2 *****  996.4 102  72 ***** ***** ***** ***** **
786150 ***** 201504261800 120   7 *** *** *** * * * 25.0 02 ** ** ** ** ** ** ** 4   97   69 1008.5 *****  995.2  99  72 ***** ***** ***** ***** **
786150 ***** 201504270000 ***   0 *** *** *** * * * 25.0 ** ** ** ** ** ** ** ** *   99   69 1004.1 *****  990.6 104  72 ***** ***** ***** ***** **
786150 ***** 201504271200 110   7 *** *** SCT * * *  5.0 10 ** ** ** ** ** ** ** 0   73   72 1005.6 *****  992.0 104  73 ***** ***** ***** ***** **
786150 ***** 201504271800 300   7 *** *** *** * * * 25.0 02 ** ** ** ** ** ** ** 4  100   73 1005.0 *****  991.4 101  73 ***** ***** ***** ***** **
786150 ***** 201504280000 ***   0 *** *** SCT * * * 25.0 ** ** ** ** ** ** ** ** *  101   73 1002.4 *****  988.0 108  73 ***** ***** ***** ***** **
786150 ***** 201504281200 ***   0 *** *** SCT * * *  3.1 10 ** ** ** ** ** ** ** 0   77   75 1005.5 *****  991.8 108  77 ***** ***** ***** ***** **
786150 ***** 201504281800 360   7 *** *** *** * * *  5.0 05 ** ** ** ** ** ** ** 4   96   74 1006.5 *****  993.0  97  77 ***** ***** ***** ***** **
786150 ***** 201504290000 120  13 *** *** SCT * * * 25.0 03 ** ** ** ** ** ** ** 9   96   67 1003.6 *****  990.2 104  77 ***** ***** ***** ***** **
786150 ***** 201504291200 ***   0 ***  89 OVC * * * 25.0 03 ** ** ** ** ** ** ** 9   73   71 1011.2 *****  997.6 104  72 *****  0.71  0.71 ***** **
786150 ***** 201504291800 300   7 ***  89 BKN * * * 25.0 ** ** ** ** ** ** ** ** *   90   73 1010.7 *****  997.0  90  72 ***** ***** ***** ***** **
786150 ***** 201504300000 310   9 *** *** SCT * * * 25.0 ** ** ** ** ** ** ** ** *   89   75 1007.7 *****  994.0  94  72 ***** *****  0.71 ***** **
786150 ***** 201504301200 350   9 ***  12 OVC * * * 25.0 03 ** ** ** ** ** ** ** 9   71   70 1013.8 *****  999.8  94  71 *****  2.13  3.86 ***** **
786150 ***** 201504301800 ***   0 ***  18 OVC * * * 25.0 03 ** ** ** ** ** ** ** 6   74   72 1016.5 ***** 1002.4  74  71 *****  0.16 ***** ***** **
786150 ***** 201505010000 230   9 ***  89 OVC * * * 25.0 03 ** ** ** ** ** ** ** 5   77   71 1014.0 ***** 1000.0  80  71 *****  0.04  4.06 ***** **
786150 ***** 201505011200 ***   0 ***  10 OVC * * * 25.0 ** ** ** ** ** ** ** ** *   72   70 1015.5 ***** 1001.6  80  72 ***** *****  0.20 ***** **
786150 ***** 201505011800 ***   0 ***  89 BKN * * * 25.0 ** ** ** ** ** ** ** ** *   84   70 1016.4 ***** 1002.4  85  72 ***** ***** ***** ***** **
786150 ***** 201505020000 *** *** *** *** *** * * * **** ** ** ** ** ** ** ** ** * **** **** ****** ***** ****** *** *** ***** ***** ***** ***** **
786150 ***** 201505021800 ***   0 ***  16 OVC * * * 25.0 03 ** ** ** ** ** ** ** 5   80   72 1016.9 ***** 1002.8  81  73 *****  0.04 ***** ***** **
786150 ***** 201505030000 ***   0 ***  25 BKN * * * 25.0 ** ** ** ** ** ** ** ** *   82   73 1013.4 *****  999.6  86  73 ***** *****  0.06 ***** **
786150 ***** 201505031200 ***   0 *** *** SCT * * * 25.0 ** ** ** ** ** ** ** ** *   72   71 1014.9 ***** 1001.0  86  72 ***** *****  0.13 ***** **
786150 ***** 201505031800 120  11 ***  89 BKN * * * 25.0 ** ** ** ** ** ** ** ** *   85   71 1015.9 ***** 1002.0  85  72 ***** ***** ***** ***** **
786150 ***** 201505040000 090  13 *** *** SCT * * * 25.0 ** ** ** ** ** ** ** ** *   85   67 1012.9 *****  999.0  91  72 ***** *****  0.08 ***** **
786150 ***** 201505041200 ***   0 *** *** SCT * * * 25.0 ** ** ** ** ** ** ** ** *   68   66 1014.9 ***** 1001.0  91  68 ***** ***** ***** ***** **
786150 ***** 201505041800 090   7 *** *** *** * * * 25.0 ** ** ** ** ** ** ** ** *   91   66 1014.8 ***** 1001.0  91  68 ***** ***** ***** ***** **
786150 ***** 201505050000 090  13 *** *** *** * * * 25.0 ** ** ** ** ** ** ** ** *   91   67 1011.8 *****  998.0  96  68 ***** ***** ***** ***** **
786150 ***** 201505051200 ***   0 *** *** *** * * * 25.0 ** ** ** ** ** ** ** ** *   67   66 1014.9 ***** 1001.0  96  67 ***** ***** ***** ***** **
786150 ***** 201505051800 ***   0 *** *** SCT * * * 25.0 ** ** ** ** ** ** ** ** *   92   66 1013.8 ***** 1000.0  93  67 ***** ***** ***** ***** **
786150 ***** 201505060000 090   5 *** *** *** * * * 25.0 ** ** ** ** ** ** ** ** *   93   68 1010.9 *****  997.2  98  67 ***** ***** ***** ***** **
786150 ***** 201505061200 ***   0 *** *** *** * * * 25.0 ** ** ** ** ** ** ** ** *   66   65 1013.3 *****  999.6  98  66 ***** ***** ***** ***** **
786150 ***** 201505071200 *** *** *** *** *** * * * 25.0 ** ** ** ** ** ** ** ** *   71   69 1012.8 *****  999.0  98  71 ***** ***** ***** ***** **
786150 ***** 201505071800 020   5 *** *** SCT * * * 25.0 ** ** ** ** ** ** ** ** *   91   70 1013.2 *****  999.4  93  71 ***** ***** ***** ***** **
786150 ***** 201505080000 090   5 *** *** SCT * * * 25.0 ** ** ** ** ** ** ** ** *   92   69 1010.9 *****  997.0  98  71 ***** ***** ***** ***** **
786150 ***** 201505081200 120   7 *** *** SCT * * *  3.8 10 ** ** ** ** ** ** ** 0   72   72 1013.3 *****  998.6  98  72 ***** ***** ***** ***** **
786150 ***** 201505090000 *** *** *** *** *** * * * **** ** ** ** ** ** ** ** ** * **** **** ****** ***** ****** *** *** ***** ***** ***** ***** **
786150 ***** 201505091200 ***   0 *** *** *** * * *  5.6 10 ** ** ** ** ** ** ** 0   73   72 1013.9 ***** 1000.0  96  73 ***** ***** ***** ***** **
786150 ***** 201505091800 060   7 *** *** SCT * * * 25.0 01 ** ** ** ** ** ** ** 4 ****   74 1012.7 *****  999.0 *** *** ***** ***** ***** ***** **
786150 ***** 201505101800 080   9 ***  18 BKN * * * 25.0 03 ** ** ** ** ** ** ** 4   95   73 1012.2 *****  998.4  96  73 ***** ***** ***** ***** **
786150 ***** 201505110000 090  22 *** *** *** * * * 25.0 ** ** ** ** ** ** ** ** *   89   71 1010.3 *****  996.6  98 *** ***** ***** ***** ***** **
786150 ***** 201505111200 090   5 *** *** SCT * * * 25.0 ** ** ** ** ** ** ** ** *   74   72 1012.3 *****  998.8  98  74 ***** ***** ***** ***** **
786150 ***** 201505111800 070   9 *** *** SCT * * * 25.0 ** ** ** ** ** ** ** ** *   94   69 1012.7 *****  998.8  95  74 ***** ***** ***** ***** **
786150 ***** 201505120000 090  11 *** *** *** * * * 25.0 ** ** ** ** ** ** ** ** *   90   69 1010.8 *****  997.0  98  74 ***** ***** ***** ***** **
786150 ***** 201505121800 090   7 *** 197 OVC * * * 25.0 ** ** ** ** ** ** ** ** *   91   73 1014.7 ***** 1000.8  92  74 ***** ***** ***** ***** **
786150 ***** 201505130000 090  11 *** 197 BKN * * * 25.0 ** ** ** ** ** ** ** ** *   85   73 1012.4 *****  998.6  95  74 ***** ***** ***** ***** **
786150 ***** 201505131200 ***   0 *** *** *** * * * 25.0 ** ** ** ** ** ** ** ** *   72   72 1015.4 ***** 1001.4  95  72 ***** ***** ***** ***** **
786150 ***** 201505131800 060   9 *** *** SCT * * * 25.0 ** ** ** ** ** ** ** ** *   96   70 1014.7 ***** 1001.0  96  72 ***** ***** ***** ***** **
786150 ***** 201505140000 090   9 *** 197 BKN * * * 25.0 ** ** ** ** ** ** ** ** *   89   68 1012.3 *****  998.4  98  72 ***** ***** ***** ***** **
786150 ***** 201505141200 ***   0 *** *** *** * * * 25.0 ** ** ** ** ** ** ** ** *   74   72 1015.3 ***** 1001.6  98  74 ***** ***** ***** ***** **
786150 ***** 201505141800 060   7 *** *** SCT * * * 25.0 ** ** ** ** ** ** ** ** *   93   70 1015.2 ***** 1001.6  94  74 ***** ***** ***** ***** **
786150 ***** 201505150000 090  13 *** *** SCT * * * 25.0 ** ** ** ** ** ** ** ** *   88   69 1013.8 ***** 1000.0  98  74 ***** ***** ***** ***** **
786150 ***** 201505151200 ***   0 *** *** *** * * * 25.0 ** ** ** ** ** ** ** ** *   70   69 1014.4 ***** 1000.6  98  69 ***** ***** ***** ***** **
786150 ***** 201505151800 080   9 ***  18 BKN * * * 25.0 ** ** ** ** ** ** ** ** *   92   68 1014.3 ***** 1000.4  95  69 ***** ***** ***** ***** **
786150 ***** 201505160000 240   5 ***  89 BKN * * * 25.0 01 ** ** ** ** ** ** ** 9   73 **** 1013.6 *****  999.6  95  69 *****  5.12  5.10 ***** **
786150 ***** 201505161200 ***   0 *** *** SCT * * *  5.6 10 ** ** ** ** ** ** ** 0   72   71 1015.0 ***** 1001.0 *** *** ***** ***** ***** ***** **
786150 ***** 201505170000 090   7 *** *** *** * * * 25.0 ** ** ** ** ** ** ** ** *   92   65 1012.3 *****  998.4  98  71 ***** ***** ***** ***** **
786150 ***** 201505171200 360   5 ***   8 OVC * * *  3.8 10 ** ** ** ** ** ** ** *   53   52 ****** ***** ******  73  52 ***** ***** ***** ***** **
786150 ***** 201505171800 ***   0 ***  18 BKN * * * 25.0 ** ** ** ** ** ** ** ** *   93   72 1014.7 ***** 1001.0  94  70 ***** ***** ***** ***** **
786150 ***** 201505180000 090  11 *** *** SCT * * * 25.0 ** ** ** ** ** ** ** ** *   90   68 1013.3 *****  999.6  99  70 ***** ***** ***** ***** **
786150 ***** 201505181200 ***   0 *** *** *** * * * 25.0 ** ** ** ** ** ** ** ** *   72   72 1016.3 ***** 1002.4  99  71 ***** ***** ***** ***** **
786150 ***** 201505191200 ***   0 *** *** *** * * * 25.0 ** ** ** ** ** ** ** ** *   69   68 1014.8 ***** 1001.0  96  69 ***** ***** ***** ***** **
786150 ***** 201505191800 090   7 *** *** SCT * * * 25.0 ** ** ** ** ** ** ** ** *   93   71 1014.7 ***** 1001.0  94  69 ***** ***** ***** ***** **
786150 ***** 201505200000 090  22 *** *** SCT * * * 25.0 ** ** ** ** ** ** ** ** *   91   70 1011.8 *****  998.0  99  69 ***** ***** ***** ***** **
786150 ***** 201505201200 ***   0 *** *** SCT * * * 25.0 ** ** ** ** ** ** ** ** *   69   68 1014.4 ***** 1000.6  99  68 ***** ***** ***** ***** **
786150 ***** 201505210000 160  14 ***  25 OVC * * * 25.0 17 ** ** ** ** ** ** ** 2   88   70 1011.4 *****  997.6  97  68 ***** ***** ***** ***** **
786150 ***** 201505211200 ***   0 *** *** *** * * * 25.0 ** ** ** ** ** ** ** ** *   67   66 1014.9 ***** 1001.0  97  67 ***** ***** ***** ***** **
786150 ***** 201505211800 050   5 *** *** BKN * * * 25.0 ** ** ** ** ** ** ** ** *   92   73 1014.3 ***** 1000.6  92  67 ***** ***** ***** ***** **
786150 ***** 201505220000 120   7 *** *** SCT * * * 25.0 ** ** ** ** ** ** ** ** *   88   71 1012.4 *****  998.6  99  67 ***** ***** ***** ***** **
786150 ***** 201505221200 ***   0 *** *** SCT * * * 25.0 ** ** ** ** ** ** ** ** *   73   71 1015.3 ***** 1001.6  99  73 ***** ***** ***** ***** **
786150 ***** 201505221800 020   5 ***  20 BKN * * * 25.0 ** ** ** ** ** ** ** ** *   91   73 1016.3 ***** 1002.4  93  73 ***** ***** ***** ***** **
786150 ***** 201505230000 ***   0 ***  89 OVC * * * 25.0 03 ** ** ** ** ** ** ** 9   74   72 1014.0 ***** 1000.2  98  73 *****  0.08  0.06 ***** **
786150 ***** 201505231200 ***   0 ***  89 BKN * * * 25.0 ** ** ** ** ** ** ** ** *   74   73 1017.0 ***** 1002.8  98  74 ***** *****  0.06 ***** **
786150 ***** 201505231800 120  11 ***  18 BKN * * * 25.0 ** ** ** ** ** ** ** ** *   91   72 1016.8 ***** 1003.2  92  74 ***** ***** ***** ***** **
786150 ***** 201505240000 ***   0 ***  89 OVC * * * 25.0 03 ** ** ** ** ** ** ** 9   77   76 1016.0 ***** 1002.0  96  74 *****  1.02  1.04 ***** **
786150 ***** 201505241200 ***   0 ***  89 BKN * * * 25.0 ** ** ** ** ** ** ** ** *   72   71 1015.5 ***** 1001.6  96  72 ***** *****  1.04 ***** **
786150 ***** 201505241800 090   5 *** *** SCT * * * 25.0 ** ** ** ** ** ** ** ** *   92   75 1014.7 ***** 1000.8  94  72 ***** ***** ***** ***** **
786150 ***** 201505250000 090  11 *** *** SCT * * * 25.0 ** ** ** ** ** ** ** ** *   90   67 1012.3 *****  998.4  98  72 ***** ***** ***** ***** **
786150 ***** 201505251200 ***   0 *** *** SCT * * * 25.0 ** ** ** ** ** ** ** ** *   73   73 1014.3 ***** 1000.4  98  73 ***** ***** ***** ***** **
786150 ***** 201505251800 090   7 *** *** SCT * * * 25.0 ** ** ** ** ** ** ** ** *   94   73 1014.2 ***** 1000.4  94  73 ***** ***** ***** ***** **
786150 ***** 201505260000 090  22 *** *** *** * * * 25.0 ** ** ** ** ** ** ** ** *   90   66 1011.8 *****  998.0 *** *** ***** ***** ***** ***** **
786150 ***** 201505261200 ***   0 *** *** SCT * * * 25.0 ** ** ** ** ** ** ** ** *   73   71 1013.8 ***** 1000.0  99  73 ***** ***** ***** ***** **
786150 ***** 201505261800 090   9 ***  18 BKN * * * 25.0 ** ** ** ** ** ** ** ** *   93   73 1013.7 ***** 1009.2  94  73 ***** ***** ***** ***** **
786150 ***** 201505270000 160   5 *** 197 BKN * * * 25.0 01 ** ** ** ** ** ** ** 9   84   74 1012.9 *****  999.0  97  73 ***** ***** ***** ***** **
786150 ***** 201505271200 ***   0 *** *** *** * * * 25.0 ** ** ** ** ** ** ** ** *   70   69 1015.4 ***** 1001.6  97  70 ***** ***** ***** ***** **
786150 ***** 201505271800 090   9 ***  18 BKN * * * 25.0 ** ** ** ** ** ** ** ** *   92   73 1014.8 ***** 1001.0  93  70 ***** ***** ***** ***** **
786150 ***** 201505280000 *** *** *** *** SCT * * * 25.0 ** ** ** ** ** ** ** ** *   83   74 1012.9 *****  999.0  96  70 ***** ***** ***** ***** **
786150 ***** 201505281200 ***   0 *** *** *** * * * 25.0 ** ** ** ** ** ** ** ** *   68   68 1015.5 ***** 1001.6  96  68 ***** ***** ***** ***** **
786150 ***** 201505290000 ***   0 *** *** SCT * * * 25.0 ** ** ** ** ** ** ** ** *   81   73 1013.5 *****  999.6  95  68 ***** ***** ***** ***** **
786150 ***** 201505291200 ***   0 *** *** SCT * * * 25.0 ** ** ** ** ** ** ** ** *   68   67 1013.5 *****  999.4  95  68 ***** ***** ***** ***** **
786150 ***** 201505291800 ***   0 *** *** SCT * * * 25.0 ** ** ** ** ** ** ** ** *   90   72 1014.8 ***** 1001.0  91  68 ***** ***** ***** ***** **
786150 ***** 201505301200 ***   0 *** *** SCT * * * 25.0 ** ** ** ** ** ** ** ** *   70   69 1013.3 *****  999.6  97  69 ***** ***** ***** ***** **
786150 ***** 201505301800 330   5 *** 197 BKN * * * 25.0 ** ** ** ** ** ** ** ** *   90   72 1013.8 ***** 1000.0  92  69 ***** ***** ***** ***** **
786150 ***** 201505310000 090   7 *** 197 BKN * * * 25.0 ** ** ** ** ** ** ** ** *   90   70 1010.9 *****  997.0  97  69 ***** ***** ***** ***** **
786150 ***** 201505311200 ***   0 *** *** SCT * * * 25.0 ** ** ** ** ** ** ** ** *   71   69 1013.8 ***** 1000.0  97  71 ***** ***** ***** ***** **
786150 ***** 201505311800 320   7 ***  98 BKN * * * 25.0 ** ** ** ** ** ** ** ** *   91   69 1013.7 ***** 1000.2  92  71 ***** ***** ***** ***** **
786150 ***** 201506011200 ***   0 *** *** SCT * * * 25.0 ** ** ** ** ** ** ** ** *   74   73 1014.4 ***** 1000.6  96  73 ***** *****  0.31 ***** **
786150 ***** 201506011800 ***   0 ***  89 OVC * * * 25.0 ** ** ** ** ** ** ** ** *   86   75 1014.8 ***** 1000.8  87  73 ***** ***** ***** ***** **
786150 ***** 201506020000 ***   0 ***  89 OVC * * * 25.0 03 ** ** ** ** ** ** ** 9   78   76 1012.9 *****  999.2  90  73 *****  0.12  0.11 ***** **
786150 ***** 201506021200 ***   0 ***  14 OVC * * * 25.0 ** ** ** ** ** ** ** ** *   76   73 1014.4 ***** 1000.4  90  76 ***** ***** ***** ***** **
786150 ***** 201506021800 ***   0 ***  18 OVC * * * 25.0 ** ** ** ** ** ** ** ** *   86   75 1013.8 ***** 1000.2  87  76 ***** ***** ***** ***** **
786150 ***** 201506030000 120   7 *** *** BKN * * * 25.0 01 ** ** ** ** ** ** ** 9   77   76 1011.4 *****  997.4 *** *** ***** ***** ***** ***** **
786150 ***** 201506031200 ***   0 ***  12 OVC * * * 25.0 ** ** ** ** ** ** ** ** *   74   73 1013.0 *****  999.0  91  74 ***** *****  1.95 ***** **
786150 ***** 201506031800 ***   0 *** *** SCT * * * 25.0 03 ** ** ** ** ** ** ** 6   83   76 1012.9 *****  999.0  84  74 *****  0.08 ***** ***** **
786150 ***** 201506040000 ***   0 ***  20 BKN * * * 25.0 ** ** ** ** ** ** ** ** *   84   72 1010.4 *****  996.6  91  74 ***** *****  0.38 ***** **
786150 ***** 201506041200 ***   0 ***  89 BKN * * * 25.0 ** ** ** ** ** ** ** ** *   74   74 1012.9 *****  999.0  91  74 ***** *****  0.09 ***** **
786150 ***** 201506041800 ***   0 *** *** SCT * * * 25.0 ** ** ** ** ** ** ** ** *   89   75 1013.3 *****  999.4  90  74 ***** ***** ***** ***** **
786150 ***** 201506050000 ***   0 *** *** BKN * * * 25.0 ** ** ** ** ** ** ** ** * **** **** ****** ***** ****** *** *** ***** ***** ***** ***** **
786150 ***** 201506051200 ***   0 ***  89 OVC * * * 25.0 21 ** ** ** ** ** ** ** 1   76   75 1013.7 ***** 1000.0  96  76 *****  0.04  0.04 ***** **
786150 ***** 201506051800 ***   0 ***  69 OVC * * * 25.0 ** ** ** ** ** ** ** ** *   82   75 1014.8 ***** 1001.0  82  76 ***** ***** ***** ***** **
786150 ***** 201506060000 ***   0 ***  79 OVC * * * 25.0 ** ** ** ** ** ** ** ** *   83   73 1012.9 *****  999.2  86  76 ***** *****  0.04 ***** **
786150 ***** 201506061200 ***   0 ***  89 OVC * * * 25.0 ** ** ** ** ** ** ** ** *   73   72 1013.9 ***** 1000.2  86  73 ***** *****  0.02 ***** **
786150 ***** 201506061800 ***   0 *** *** SCT * * * 25.0 ** ** ** ** ** ** ** ** *   87   73 1013.8 ***** 1000.0  88  73 ***** ***** ***** ***** **
786150 ***** 201506070000 270   7 *** *** SCT * * * 25.0 ** ** ** ** ** ** ** ** *   92   72 1010.3 *****  996.6  95  73 ***** *****  0.02 ***** **
786150 ***** 201506071200 ***   0 *** *** *** * * * 25.0 ** ** ** ** ** ** ** ** *   72   71 1012.8 *****  999.0  95  71 ***** *****  0.07 ***** **
786150 ***** 201506071800 360   7 *** *** SCT * * * 25.0 01 ** ** ** ** ** ** ** 4   87   73 1013.9 ***** 1000.0  87  71 ***** ***** ***** ***** **
786150 ***** 201506080000 150   7 *** *** SCT * * * 25.0 ** ** ** ** ** ** ** ** *   85   72 1011.4 *****  997.6  94  71 ***** *****  0.07 ***** **
786150 ***** 201506081200 ***   0 *** *** SCT * * * 25.0 ** ** ** ** ** ** ** ** *   73   72 1013.4 *****  999.6  94  73 ***** ***** ***** ***** **
786150 ***** 201506081800 ***   0 ***  18 BKN * * * 25.0 ** ** ** ** ** ** ** ** *   90   73 1013.7 ***** 1000.0  90  73 ***** ***** ***** ***** **
786150 ***** 201506090000 ***   0 ***  89 OVC * * * 25.0 03 ** ** ** ** ** ** ** 9   77   76 1012.5 *****  998.4  94  73 *****  0.67  0.65 ***** **
786150 ***** 201506091200 ***   0 ***  89 OVC * * * 25.0 ** ** ** ** ** ** ** ** *   74   73 1013.0 *****  999.0  94  74 ***** *****  0.65 ***** **
786150 ***** 201506091800 ***   0 ***  18 BKN * * * 25.0 ** ** ** ** ** ** ** ** *   89   73 1011.8 *****  998.2  90  72 ***** ***** ***** ***** **
786150 ***** 201506101200 ***   0 *** 197 BKN * * * 25.0 ** ** ** ** ** ** ** ** *   75   74 1011.3 *****  997.4  94  75 ***** ***** ***** ***** **
786150 ***** 201506101800 ***   0 ***  25 OVC * * * 25.0 ** ** ** ** ** ** ** ** *   86   76 1011.3 *****  997.4  88  75 ***** ***** ***** ***** **
786150 ***** 201506110000 090  13 *** *** SCT * * * 25.0 ** ** ** ** ** ** ** ** *   86   76 1008.7 *****  994.8  93  75 ***** ***** ***** ***** **
786150 ***** 201506111800 ***   0 *** *** SCT * * * 25.0 ** ** ** ** ** ** ** ** *   91   76 1009.7 *****  996.0  91  73 ***** ***** ***** ***** **
786150 ***** 201506120000 180   9 ***   9 OVC * * * 25.0 95 ** ** ** ** ** ** ** 9   73 **** 1008.9 *****  995.0  93  73 *****  2.24 ***** ***** **
786150 ***** 201506121200 ***   0 ***  89 OVC * * * 25.0 ** ** ** ** ** ** ** ** *   73   73 1011.1 *****  997.0  93  73 ***** *****  2.49 ***** **
786150 ***** 201506121800 090   7 ***  89 OVC * * * 25.0 ** ** ** ** ** ** ** ** *   85   76 1011.1 *****  997.0  86  73 ***** ***** ***** ***** **
786150 ***** 201506130000 090  13 ***  89 OVC * * * 25.0 ** ** ** ** ** ** ** ** *   81   74 1009.9 *****  996.2  86  73 ***** *****  0.24 ***** **
786150 ***** 201506131800 090   5 *** 197 OVC * * * 25.0 ** ** ** ** ** ** ** ** *   87   74 1010.3 *****  996.4  88  72 ***** ***** ***** ***** **
786150 ***** 201506140000 *** *** ***  89 OVC * * * 25.0 ** ** ** ** ** ** ** ** *   88   75 1009.2 *****  995.0  92  72 ***** *****  0.43 ***** **
786150 ***** 201506141200 ***   0 ***  79 OVC * * * 25.0 ** ** ** ** ** ** ** ** *   73   72 1010.3 *****  996.4  92  73 ***** *****  0.19 ***** **
786150 ***** 201506141800 ***   0 ***  89 BKN * * * 25.0 ** ** ** ** ** ** ** ** *   87   78 1010.3 *****  996.4  88  73 ***** ***** ***** ***** **
786150 ***** 201506150000 090  22 ***  25 BKN * * * 25.0 17 ** ** ** ** ** ** ** 2   83   72 1009.3 *****  995.4  95  73 ***** *****  0.19 ***** **
786150 ***** 201506151200 ***   0 ***  89 BKN * * * 25.0 03 ** ** ** ** ** ** ** 6   73   72 1011.9 *****  998.0  95  73 *****  0.04  0.79 ***** **
786150 ***** 201506151800 ***   0 ***  89 OVC * * * 25.0 ** ** ** ** ** ** ** ** *   87   78 1012.3 *****  998.4  89  73 ***** ***** ***** ***** **
786150 ***** 201506160000 *** *** ***  89 OVC * * * 25.0 03 ** ** ** ** ** ** ** 9   81   71 1011.0 *****  997.2  96  73 ***** *****  0.79 ***** **
786150 ***** 201506161200 ***   0 *** *** OVC * * * 25.0 ** ** ** ** ** ** ** ** *   75   75 1012.9 *****  999.0  96  75 ***** *****  0.09 ***** **
786150 ***** 201506161800 090   5 ***  18 BKN * * * 25.0 ** ** ** ** ** ** ** ** *   90   77 1013.3 *****  999.6  90  75 ***** ***** ***** ***** **
786150 ***** 201506170000 050   5 *** *** SCT * * * 25.0 ** ** ** ** ** ** ** ** *   86   75 1011.3 *****  997.6  92  75 ***** *****  0.09 ***** **
786150 ***** 201506171800 090   9 *** *** SCT * * * 25.0 ** ** ** ** ** ** ** ** *   93   71 1013.7 ***** 1000.2  94  76 ***** ***** ***** ***** **
786150 ***** 201506180000 060  13 *** *** SCT * * * 25.0 ** ** ** ** ** ** ** ** *   87   71 1012.3 *****  998.6  96  76 ***** ***** ***** ***** **
786150 ***** 201506181200 ***   0 *** *** SCT * * * 25.0 ** ** ** ** ** ** ** ** *   73   72 1013.3 *****  999.6  96  73 ***** ***** ***** ***** **
786150 ***** 201506181800 050   7 ***  25 OVC * * * 25.0 95 ** ** ** ** ** ** ** 9   82   78 1013.9 *****  999.8  89  73 *****  0.12 ***** ***** **
786150 ***** 201506190000 ***   0 ***  89 OVC * * * 25.0 03 ** ** ** ** ** ** ** 9   77   76 1013.0 *****  999.2  89  73 *****  0.28 ***** ***** **
786150 ***** 201506191200 ***   0 ***  14 OVC * * * 25.0 ** ** ** ** ** ** ** ** *   74   73 1014.5 ***** 1000.4  89  74 ***** *****  0.40 ***** **
786150 ***** 201506191800 ***   0 ***  16 OVC * * * 25.0 03 ** ** ** ** ** ** ** 6   76   74 1015.0 ***** 1001.2  78  74 *****  0.12 ***** ***** **
786150 ***** 201506200000 *** *** ***  89 OVC * * * 25.0 ** ** ** ** ** ** ** ** *   82   77 1014.4 ***** 1000.6  85  74 ***** *****  0.13 ***** **
786150 ***** 201506201200 120   7 ***  89 OVC * * * 25.0 ** ** ** ** ** ** ** ** *   76   75 1015.9 ***** 1002.2  85  74 ***** *****  0.13 ***** **
786150 ***** 201506201800 120   7 *** 197 OVC * * * 25.0 ** ** ** ** ** ** ** ** *   87   76 1016.8 ***** 1003.0  88  74 ***** ***** ***** ***** **
786150 ***** 201506210000 ***   0 ***  89 OVC * * * 25.0 03 ** ** ** ** ** ** ** 9   81   78 1015.9 ***** 1002.0  91  74 *****  0.12  0.12 ***** **
786150 ***** 201506211200 ***   0 *** *** *** * * * 25.0 ** ** ** ** ** ** ** ** *   74   73 1016.9 ***** 1003.0  91  74 ***** *****  0.12 ***** **
786150 ***** 201506211800 090   7 *** *** SCT * * * 25.0 03 ** ** ** ** ** ** ** 4   91   74 1017.3 ***** 1003.4  91  74 ***** ***** ***** ***** **
786150 ***** 201506220000 060  11 *** *** SCT * * * 25.0 ** ** ** ** ** ** ** ** *   90   72 1014.3 ***** 1000.6  95  74 ***** ***** ***** ***** **
786150 ***** 201506221200 ***   0 ***  98 BKN * * *  5.6 10 ** ** ** ** ** ** ** 0   73   72 1016.8 ***** 1003.0  95  73 ***** ***** ***** ***** **
786150 ***** 201506221800 090   7 *** *** SCT * * * 25.0 ** ** ** ** ** ** ** ** *   90   72 ****** ***** ****** *** *** ***** ***** ***** ***** **
786150 ***** 201506230000 *** *** ***  89 BKN * * * 25.0 03 ** ** ** ** ** ** ** 9   79   74 1015.4 ***** 1001.4  95  73 *****  0.08  0.09 ***** **
786150 ***** 201506231200 ***   0 *** *** SCT * * * 25.0 ** ** ** ** ** ** ** ** *   70   69 1016.5 ***** 1002.6  95  70 ***** ***** ***** ***** **
786150 ***** 201506231800 ***   0 *** *** SCT * * * 25.0 03 ** ** ** ** ** ** ** 4   90   73 1016.8 ***** 1003.0  90  70 ***** ***** ***** ***** **
786150 ***** 201506240000 ***   0 *** *** BKN * * * 25.0 03 ** ** ** ** ** ** ** 9   83   73 1015.4 ***** 1001.6  93  70 *****  0.02  0.02 ***** **
786150 ***** 201506241200 ***   0 *** *** SCT * * * 25.0 ** ** ** ** ** ** ** ** *   72   71 1016.4 ***** 1002.4  93  71 ***** *****  0.02 ***** **
786150 ***** 201506241800 090   7 ***  22 OVC * * * 25.0 17 ** ** ** ** ** ** ** 6   78   73 1017.4 ***** 1003.6  84  71 *****  0.12 ***** ***** **
786150 ***** 201506251200 ***   0 ***  89 OVC * * * 25.0 03 ** ** ** ** ** ** ** 6   73   73 1017.5 ***** 1003.6  84  73 *****  0.16  0.45 ***** **
786150 ***** 201506251800 ***   0 ***  89 BKN * * * 25.0 ** ** ** ** ** ** ** ** *   84   76 1017.9 ***** 1004.0  85  73 ***** ***** ***** ***** **
786150 ***** 201506260000 120   5 ***  89 BKN * * * 25.0 ** ** ** ** ** ** ** ** *   81   74 1015.9 ***** 1002.0  91  73 ***** *****  0.21 ***** **
786150 ***** 201506261200 ***   0 ***  89 OVC * * * 25.0 ** ** ** ** ** ** ** ** *   74   73 1017.4 ***** 1003.6  91  74 ***** ***** ***** ***** **
786150 ***** 201506261800 090   7 ***  18 BKN * * * 25.0 ** ** ** ** ** ** ** ** *   85   74 1017.3 ***** 1003.4  87  74 ***** ***** ***** ***** **
786150 ***** 201506270000 090   9 *** *** SCT * * * 25.0 ** ** ** ** ** ** ** ** *   86   74 1014.8 ***** 1001.0  93  74 ***** ***** ***** ***** **
786150 ***** 201506270600 120   5 ***  89 BKN * * * 25.0 ** ** ** ** ** ** ** ** *   77   73 1016.8 ***** 1003.2  93  77 ***** ***** ***** ***** **
786150 ***** 201506271200 ***   0 *** *** SCT * * *  5.6 10 ** ** ** ** ** ** ** 1   73   73 1016.8 ***** 1002.4  93  73 ***** ***** ***** ***** **
786150 ***** 201506271800 120   9 *** *** SCT * * * 25.0 03 ** ** ** ** ** ** ** 4   90   71 1016.8 ***** 1002.8  92  73 ***** ***** ***** ***** **
786150 ***** 201506280000 090  11 ***  25 BKN * * * 25.0 ** ** ** ** ** ** ** ** *   87   71 1014.3 ***** 1000.6  97  73 ***** ***** ***** ***** **
786150 ***** 201506281200 ***   0 *** *** SCT * * * 25.0 ** ** ** ** ** ** ** ** *   71   69 1015.9 ***** 1002.0  97  71 ***** ***** ***** ***** **
786150 ***** 201506281800 090   9 ***  79 BKN * * * 25.0 ** ** ** ** ** ** ** ** *   90   73 1015.8 ***** 1002.2  92  71 ***** ***** ***** ***** **
786150 ***** 201506291200 ***   0 *** *** SCT * * * 25.0 ** ** ** ** ** ** ** ** *   74   73 1015.2 ***** 1001.6  93  73 ***** *****  0.35 ***** **
786150 ***** 201506291800 090  11 ***  18 BKN * * * 25.0 ** ** ** ** ** ** ** ** *   92   76 1015.2 ***** 1001.6  93  73 ***** ***** ***** ***** **
786150 ***** 201506301800 090   7 ***  18 BKN * * * 25.0 ** ** ** ** ** ** ** ** *   91   73 1015.2 ***** 1001.4  93  74 ***** ***** ***** ***** **
786150 ***** 201507010000 080  22 *** *** *** * * * 25.0 ** ** ** ** ** ** ** ** *   89   71 1013.3 *****  999.6  97  74 ***** ***** ***** ***** **
786150 ***** 201507011200 120   5 ***  10 BKN * * *  4.4 10 ** ** ** ** ** ** ** 0   73   73 1015.3 ***** 1001.6  97  73 ***** ***** ***** ***** **
786150 ***** 201507011800 090  16 *** *** SCT * * * 25.0 01 ** ** ** ** ** ** ** 4   92   70 1015.7 ***** 1001.8  93  73 ***** ***** ***** ***** **
786150 ***** 201507020000 090   9 *** *** SCT * * * 25.0 ** ** ** ** ** ** ** ** *   88   70 1013.8 *****  999.8  96  73 ***** ***** ***** ***** **
786150 ***** 201507021200 ***   0 *** *** SCT * * * 25.0 ** ** ** ** ** ** ** ** *   73   73 1013.3 *****  999.6  96  73 ***** ***** ***** ***** **
786150 ***** 201507021800 040   7 ***  18 BKN * * * 25.0 ** ** ** ** ** ** ** ** *   85   74 1014.4 ***** 1000.6  90  73 ***** ***** ***** ***** **
786150 ***** 201507030000 ***   0 ***  89 BKN * * * 25.0 01 ** ** ** ** ** ** ** 9   77   75 1013.0 *****  999.0  90  73 *****  0.43  0.45 ***** **
786150 ***** 201507031200 ***   0 *** *** *** * * * 25.0 ** ** ** ** ** ** ** ** *   74   73 1013.5 *****  999.6  90  74 ***** *****  0.45 ***** **
786150 ***** 201507031800 060   5 *** 197 OVC * * * 25.0 ** ** ** ** ** ** ** ** *   86   75 1014.3 ***** 1000.4  87  74 ***** ***** ***** ***** **
786150 ***** 201507040000 090   7 *** *** SCT * * * 25.0 ** ** ** ** ** ** ** ** *   86   70 1012.3 *****  998.6  93  74 ***** ***** ***** ***** **
786150 ***** 201507041200 120   7 *** *** BKN * * * 25.0 ** ** ** ** ** ** ** ** *   74   74 1014.9 ***** 1001.2  93  74 ***** ***** ***** ***** **
786150 ***** 201507041800 080   9 *** *** SCT * * * 25.0 ** ** ** ** ** ** ** ** *   93   74 1014.7 ***** 1001.0  93  74 ***** ***** ***** ***** **
786150 ***** 201507050000 060  11 *** *** SCT * * * 25.0 ** ** ** ** ** ** ** ** *   89   68 1014.3 ***** 1000.6  96  74 ***** ***** ***** ***** **
786150 ***** 201507051200 ***   0 *** *** *** * * * 25.0 ** ** ** ** ** ** ** ** * **** **** ****** ***** ****** *** *** ***** ***** ***** ***** **
786150 ***** 201507051800 090   9 ***  89 BKN * * * 25.0 17 ** ** ** ** ** ** ** 1   88   74 1016.3 ***** 1002.6  91  72 ***** ***** ***** ***** **
786150 ***** 201507060000 ***   0 ***  89 BKN * * * 25.0 01 ** ** ** ** ** ** ** 9   82   75 1015.9 ***** 1002.0  91  72 ***** ***** ***** ***** **
786150 ***** 201507061200 ***   0 *** *** SCT * * * 25.0 ** ** ** ** ** ** ** ** *   76   75 1016.9 ***** 1003.0  91  75 ***** ***** ***** ***** **
786150 ***** 201507061800 090   9 *** *** SCT * * * 25.0 ** ** ** ** ** ** ** ** *   91   73 1017.2 ***** 1003.4  92  75 ***** ***** ***** ***** **
786150 ***** 201507071200 ***   0 *** *** SCT * * * 25.0 ** ** ** ** ** ** ** ** *   73   72 1016.8 ***** 1003.2  95  73 ***** ***** ***** ***** **
786150 ***** 201507081200 ***   0 *** *** SCT * * *  5.6 10 ** ** ** ** ** ** ** 0   72   70 1015.9 ***** 1002.2  94  71 ***** ***** ***** ***** **
786150 ***** 201507081800 120  11 *** 197 OVC * * * 25.0 03 ** ** ** ** ** ** ** 4   92   71 1015.8 ***** 1002.2  92  71 ***** ***** ***** ***** **
786150 ***** 201507090000 090  22 *** 197 OVC * * * 25.0 ** ** ** ** ** ** ** ** *   85   69 1014.4 ***** 1000.6  93  71 ***** ***** ***** ***** **
786150 ***** 201507091800 120   5 ***  89 OVC * * * 25.0 11 ** ** ** ** ** ** ** 6   80   76 1015.9 ***** 1002.2  85  73 *****  0.12 ***** ***** **
786150 ***** 201507100000 ***   0 *** *** OVC * * * 25.0 01 ** ** ** ** ** ** ** 7   75   74 1014.5 ***** 1000.6 *** *** ***** ***** ***** ***** **
786150 ***** 201507101200 ***   0 ***  89 OVC * * * 25.0 ** ** ** ** ** ** ** ** *   74   73 1015.0 ***** 1001.0  87  74 ***** *****  0.79 ***** **
786150 ***** 201507101800 120   9 ***  69 OVC * * * 25.0 15 ** ** ** ** ** ** ** 2   86   74 1015.3 ***** 1001.6  87  74 ***** ***** ***** ***** **
786150 ***** 201507111200 ***   0 ***  89 BKN * * * 25.0 ** ** ** ** ** ** ** ** *   73   72 1016.4 ***** 1002.4  89  73 ***** ***** ***** ***** **
786150 ***** 201507111800 090  11 *** *** SCT * * * 34.4 ** ** ** ** ** ** ** ** *   92   73 1017.2 ***** 1003.4  94  73 ***** ***** ***** ***** **
786150 ***** 201507120000 090   7 *** *** SCT * * * 25.0 01 ** ** ** ** ** ** ** 6   84   74 1015.9 ***** 1002.0 ***  73 *****  0.04  0.04 ***** **
786150 ***** 201507121200 ***   0 *** *** SCT * * *  5.6 10 ** ** ** ** ** ** ** 0   70   69 1017.9 ***** 1003.8  97  70 ***** *****  0.04 ***** **
786150 ***** 201507121800 360   5 *** 197 BKN * * * 25.0 03 ** ** ** ** ** ** ** 4   90   75 1017.8 ***** 1003.8  91  70 ***** ***** ***** ***** **
786150 ***** 201507130000 060   7 *** *** SCT * * * 25.0 ** ** ** ** ** ** ** ** *   94   70 1014.8 ***** 1000.8  96  70 ***** ***** ***** ***** **
786150 ***** 201507131200 ***   0 *** *** SCT * * * 25.0 ** ** ** ** ** ** ** ** *   71   70 1015.8 ***** 1002.2  96  71 ***** ***** ***** ***** **
786150 ***** 201507131800 ***   0 ***  20 BKN * * * 25.0 ** ** ** ** ** ** ** ** *   90   70 1015.2 ***** 1001.6  90  71 ***** ***** ***** ***** **
786150 ***** 201507140000 *** *** *** *** *** * * * **** ** ** ** ** ** ** ** ** * **** **** ****** ***** ****** *** *** ***** ***** ***** ***** **
786150 ***** 201507141200 ***   0 *** *** *** * * * 25.0 ** ** ** ** ** ** ** ** *   70   69 1014.4 ***** 1000.4  95  70 ***** ***** ***** ***** **
786150 ***** 201507141800 030   7 *** *** SCT * * * 25.0 ** ** ** ** ** ** ** ** *   91   71 1014.3 ***** 1000.4  92  70 ***** ***** ***** ***** **
786150 ***** 201507151200 ***   0 *** *** *** * * * 25.0 ** ** ** ** ** ** ** ** *   72   71 1013.8 ***** 1000.0  93  72 ***** ***** ***** ***** **
786150 ***** 201507151800 360   5 ***  20 OVC * * * 25.0 ** ** ** ** ** ** ** ** *   90   72 1013.8 ***** 1000.2  92  72 ***** ***** ***** ***** **
786150 ***** 201507161200 ***   0 *** *** BKN * * * 25.0 ** ** ** ** ** ** ** ** *   74   73 1014.9 ***** 1001.0  79  74 ***** ***** ***** ***** **
786150 ***** 201507161800 ***   0 ***  89 BKN * * * 25.0 ** ** ** ** ** ** ** ** *   83   73 1015.8 ***** 1001.8  84  74 ***** ***** ***** ***** **
786150 ***** 201507170000 090  13 ***  20 BKN * * * 25.0 ** ** ** ** ** ** ** ** *   89   75 1012.8 *****  998.8  93  74 ***** ***** ***** ***** **
786150 ***** 201507171800 060  13 ***  18 BKN * * * 25.0 ** ** ** ** ** ** ** ** *   91   75 1014.8 ***** 1001.0  91  74 ***** ***** ***** ***** **
786150 ***** 201507180000 060  18 *** *** SCT * * * 25.0 ** ** ** ** ** ** ** ** *   89   72 1012.3 *****  998.4  97  74 ***** *****  0.13 ***** **
786150 ***** 201507181800 300   5 *** *** SCT * * * 25.0 ** ** ** ** ** ** ** ** *   90   75 1016.1 ***** 1002.4 *** *** ***** ***** ***** ***** **
786150 ***** 201507191200 ***   0 *** *** SCT * * * 25.0 ** ** ** ** ** ** ** ** *   70   70 1016.0 ***** 1002.0  96  70 ***** *****  0.59 ***** **
786150 ***** 201507191800 340   5 *** *** SCT * * * 25.0 ** ** ** ** ** ** ** ** *   89   75 1015.8 ***** 1001.8  90  70 ***** ***** ***** ***** **
786150 ***** 201507200000 ***   0 *** *** OVC * * * 25.0 ** ** ** ** ** ** ** ** * **** **** ****** ***** ****** *** *** ***** ***** ***** ***** **
786150 ***** 201507201200 ***   0 ***  10 OVC * * *  5.6 10 ** ** ** ** ** ** ** 1   72   71 1016.0 ***** 1002.0  95  72 ***** ***** ***** ***** **
786150 ***** 201507201800 320   5 *** 197 BKN * * * 25.0 03 ** ** ** ** ** ** ** 4   88   76 1014.8 ***** 1001.2  89  72 ***** ***** ***** ***** **
786150 ***** 201507210000 060  22 *** *** BKN * * * 25.0 ** ** ** ** ** ** ** ** *   90   74 1012.3 *****  998.6  97  72 ***** ***** ***** ***** **
786150 ***** 201507211200 ***   0 *** *** SCT * * * 25.0 ** ** ** ** ** ** ** ** *   70   69 1014.8 ***** 1001.0  97  70 ***** ***** ***** ***** **
786150 ***** 201507211800 090   9 *** *** SCT * * * 25.0 ** ** ** ** ** ** ** ** *   92   73 1014.7 ***** 1000.8  95  70 ***** ***** ***** ***** **
786150 ***** 201507220000 *** *** ***  89 BKN * * * 25.0 01 ** ** ** ** ** ** ** 9   83   76 1012.9 *****  998.8  95  70 *****  0.12  0.12 ***** **
786150 ***** 201507221200 ***   0 *** *** SCT * * * 25.0 ** ** ** ** ** ** ** ** *   70   69 1014.4 ***** 1005.4  95  70 ***** *****  0.12 ***** **
786150 ***** 201507221800 060   7 ***  18 BKN * * * 25.0 ** ** ** ** ** ** ** ** *   92   72 1014.8 ***** 1001.0  93  70 ***** ***** ***** ***** **
786150 ***** 201507230000 060   9 *** *** SCT * * * 25.0 ** ** ** ** ** ** ** ** *   91   70 1012.4 *****  998.8  96  70 ***** ***** ***** ***** **
786150 ***** 201507231200 ***   0 ***   8 BKN * * *  5.6 10 ** ** ** ** ** ** ** 0   74   72 1015.2 ***** 1001.6  96  73 ***** ***** ***** ***** **
786150 ***** 201507231800 140   9 ***  18 BKN * * * 25.0 03 ** ** ** ** ** ** ** 4   93   74 1015.7 ***** 1002.0  96  73 ***** ***** ***** ***** **
786150 ***** 201507240000 ***   0 *** 197 BKN * * * 25.0 01 ** ** ** ** ** ** ** 9   81   77 1014.9 ***** 1000.8  99  73 *****  0.35  0.35 ***** **
786150 ***** 201507241200 ***   0 *** *** SCT * * * 25.0 ** ** ** ** ** ** ** ** *   74   74 1015.9 ***** 1002.2  99  74 ***** *****  0.35 ***** **
786150 ***** 201507241800 060   7 *** *** SCT * * * 25.0 ** ** ** ** ** ** ** ** *   95   77 1015.7 ***** 1002.0  96  74 ***** ***** ***** ***** **
786150 ***** 201507250000 ***   0 *** *** SCT * * * 25.0 01 ** ** ** ** ** ** ** 9   83   78 1013.9 ***** 1000.0  97  74 *****  0.04  0.04 ***** **
786150 ***** 201507251200 ***   0 *** *** *** * * * 25.0 ** ** ** ** ** ** ** ** *   73   72 1014.9 ***** 1000.8  97  73 ***** *****  0.04 ***** **
786150 ***** 201507251800 320   7 ***  20 BKN * * * 25.0 ** ** ** ** ** ** ** ** *   91   76 1014.8 ***** 1001.2  92  73 ***** ***** ***** ***** **
786150 ***** 201507260000 060  11 *** *** SCT * * * 25.0 ** ** ** ** ** ** ** ** *   90   69 1013.3 *****  999.6  99  73 ***** ***** ***** ***** **
786150 ***** 201507261200 ***   0 *** *** SCT * * * 25.0 ** ** ** ** ** ** ** ** *   73   72 1013.8 ***** 1000.0  99  73 ***** ***** ***** ***** **
786150 ***** 201507261800 090   7 *** *** SCT * * * 25.0 ** ** ** ** ** ** ** ** *   95   70 1013.7 ***** 1000.0  96  73 ***** ***** ***** ***** **
786150 ***** 201507270000 090   7 *** *** SCT * * * 25.0 ** ** ** ** ** ** ** ** *   91   71 1012.3 *****  998.6 100  73 ***** ***** ***** ***** **
786150 ***** 201507271800 120   7 *** *** SCT * * * 25.0 ** ** ** ** ** ** ** ** *   94   71 1014.2 ***** 1000.4  95  71 ***** ***** ***** ***** **
786150 ***** 201507280000 090  11 *** *** SCT * * * 25.0 ** ** ** ** ** ** ** ** *   90   72 1012.9 *****  999.0 100  71 ***** ***** ***** ***** **
786150 ***** 201507281200 ***   0 *** 197 BKN * * * 25.0 ** ** ** ** ** ** ** ** *   72   70 1013.8 ***** 1000.2 100  72 ***** ***** ***** ***** **
786150 ***** 201507281800 ***   0 *** *** *** * * * 25.0 ** ** ** ** ** ** ** ** *   87   71 1016.3 ***** 1002.6  88  64 ***** ***** ***** ***** **
786150 ***** 201507291200 ***   0 *** *** SCT * * * 25.0 ** ** ** ** ** ** ** ** *   69   68 1014.5 ***** 1000.6  95  69 ***** ***** ***** ***** **
786150 ***** 201507291800 070   9 *** *** SCT * * * 25.0 ** ** ** ** ** ** ** ** *   94   71 1015.2 ***** 1001.4  95  69 ***** ***** ***** ***** **
786150 ***** 201507300000 090   7 *** *** *** * * * 25.0 01 ** ** ** ** ** ** ** 9   84   74 1014.9 ***** 1001.0  97  69 *****  0.63  0.65 ***** **
786150 ***** 201507301200 ***   0 *** *** SCT * * * 25.0 ** ** ** ** ** ** ** ** *   73   71 1016.4 ***** 1002.6  97  73 ***** *****  0.65 ***** **
786150 ***** 201507301800 ***   0 ***  18 BKN * * * 25.0 01 ** ** ** ** ** ** ** 4   89   76 1016.3 ***** 1002.6  90  73 ***** ***** ***** ***** **
786150 ***** 201507311200 ***   0 ***   8 OVC * * *  3.1 10 ** ** ** ** ** ** ** 1   72   72 1015.6 ***** 1001.6  91  72 ***** *****  0.10 ***** **
786150 ***** 201507311800 ***   0 *** *** SCT * * * 25.0 03 ** ** ** ** ** ** ** 4   86   75 1016.4 ***** 1002.8  88  72 ***** ***** ***** ***** **
786150 ***** 201508010000 090   5 *** *** SCT * * * 25.0 ** ** ** ** ** ** ** ** *   92   70 1012.8 *****  999.2  96  72 ***** ***** ***** ***** **
786150 ***** 201508011200 ***   0 *** *** *** * * * 25.0 ** ** ** ** ** ** ** ** *   72   71 1014.8 ***** 1001.0  96  71 ***** ***** ***** ***** **
786150 ***** 201508011800 090   7 ***  18 BKN * * * 25.0 ** ** ** ** ** ** ** ** *   91   72 1014.7 ***** 1001.0  93  71 ***** ***** ***** ***** **
786150 ***** 201508020000 ***   0 *** *** SCT * * * 25.0 01 ** ** ** ** ** ** ** 9   81   74 1012.4 *****  998.6  95  71 ***** ***** ***** ***** **
786150 ***** 201508021200 ***   0 *** *** SCT * * * 25.0 ** ** ** ** ** ** ** ** *   69   69 1013.5 *****  999.6  95  69 ***** ***** ***** ***** **
786150 ***** 201508021800 120   5 ***  20 BKN * * * 25.0 ** ** ** ** ** ** ** ** *   91   74 1012.8 *****  999.2  93  69 ***** ***** ***** ***** **
786150 ***** 201508030000 ***   0 ***  89 BKN * * * 25.0 01 ** ** ** ** ** ** ** 9   76   74 1011.6 *****  997.6  94  69 *****  0.63  0.65 ***** **
786150 ***** 201508040000 ***   0 *** *** SCT * * * 25.0 01 ** ** ** ** ** ** ** 9   81   74 1011.4 *****  997.6  92  72 *****  0.08  0.07 ***** **
786150 ***** 201508041200 ***   0 *** *** *** * * * 25.0 ** ** ** ** ** ** ** ** *   69   69 1014.0 ***** 1000.2  92  69 ***** *****  0.07 ***** **
786150 ***** 201508041800 130   9 ***  18 BKN * * * 25.0 ** ** ** ** ** ** ** ** *   92   72 1014.3 ***** 1000.6  94  69 ***** ***** ***** ***** **
786150 ***** 201508050000 060   9 *** *** SCT * * * 25.0 ** ** ** ** ** ** ** ** *   90   71 1012.4 *****  998.6  98  69 ***** ***** ***** ***** **
786150 ***** 201508051200 ***   0 *** *** SCT * * * 25.0 ** ** ** ** ** ** ** ** *   74   72 1015.8 ***** 1002.0  98  73 ***** ***** ***** ***** **
786150 ***** 201508060000 ***   0 ***  89 BKN * * * 25.0 01 ** ** ** ** ** ** ** 9   79   77 1012.4 *****  998.6  93  73 *****  0.55  0.57 ***** **
786150 ***** 201508061200 ***   0 ***  89 BKN * * * 25.0 ** ** ** ** ** ** ** ** *   76   75 1014.9 ***** 1001.2  93  75 ***** *****  0.57 ***** **
786150 ***** 201508061800 210  23 *** *** BKN * * * 25.0 ** ** ** ** ** ** ** ** * **** **** ****** ***** ****** *** *** ***** ***** ***** ***** **
786150 ***** 201508070000 060   7 *** *** *** * * * 25.0 ** ** ** ** ** ** ** ** *   90   70 1012.3 *****  998.6  97  75 ***** ***** ***** ***** **
786150 ***** 201508071200 ***   0 *** *** SCT * * * 25.0 ** ** ** ** ** ** ** ** *   72   70 1014.3 ***** 1000.6  97  72 ***** ***** ***** ***** **
786150 ***** 201508071800 ***   0 *** *** SCT * * * 25.0 ** ** ** ** ** ** ** ** *   89   75 1014.8 ***** 1000.0  90  72 ***** ***** ***** ***** **
786150 ***** 201508080000 ***   0 *** *** SCT * * * 25.0 ** ** ** ** ** ** ** ** *   94   74 1011.3 *****  997.4  96  72 ***** ***** ***** ***** **
786150 ***** 201508081200 ***   0 *** *** *** * * * 25.0 ** ** ** ** ** ** ** ** *   69   68 1013.8 ***** 1000.0  96  69 ***** ***** ***** ***** **
786150 ***** 201508081800 320   7 *** *** SCT * * * 25.0 ** ** ** ** ** ** ** ** *   91   72 1013.8 ***** 1000.2  92  69 ***** ***** ***** ***** **
786150 ***** 201508090000 060   7 *** *** BKN * * * 25.0 ** ** ** ** ** ** ** ** *   90   73 ****** ***** ****** *** *** ***** ***** ***** ***** **
786150 ***** 201508091200 ***   0 *** 197 OVC * * * 25.0 ** ** ** ** ** ** ** ** *   56   55 ****** *****  818.5  85  56 ***** ***** ***** ***** **
786150 ***** 201508091800 320   5 *** *** BKN * * * 25.0 ** ** ** ** ** ** ** ** *   90   74 1013.7 ***** 1000.0  91  70 ***** ***** ***** ***** **
786150 ***** 201508100000 180   7 ***  25 BKN * * * 25.0 17 ** ** ** ** ** ** ** 9   84   74 1011.4 *****  997.6  99  70 *****  0.04  0.04 ***** **
786150 ***** 201508101200 ***   0 *** *** SCT * * * 25.0 ** ** ** ** ** ** ** ** *   69   68 1012.9 *****  999.0  99  69 ***** *****  0.04 ***** **
786150 ***** 201508110000 300   5 ***  89 BKN * * * 25.0 03 ** ** ** ** ** ** ** 9   78   73 1010.5 *****  996.6  98  69 *****  0.63  0.63 ***** **
786150 ***** 201508111200 ***   0 *** *** *** * * * 25.0 ** ** ** ** ** ** ** ** *   70   69 1013.5 *****  999.6  98  70 ***** *****  0.63 ***** **
786150 ***** 201508111800 320   5 *** *** SCT * * * 25.0 ** ** ** ** ** ** ** ** *   90   72 1013.8 ***** 1000.0  92  70 ***** ***** ***** ***** **
786150 ***** 201508121800 ***   0 ***  89 OVC * * * 25.0 ** ** ** ** ** ** ** ** *   87   76 1015.8 ***** 1002.0  87  75 ***** ***** ***** ***** **
786150 ***** 201508130000 ***   0 ***  89 BKN * * * 25.0 03 ** ** ** ** ** ** ** 9   83   75 1013.9 ***** 1000.0  89  75 ***** ***** ***** ***** **
786150 ***** 201508131200 ***   0 ***   6 OVC * * *  3.1 10 ** ** ** ** ** ** ** 0   71   70 1015.9 ***** 1001.8  89  71 ***** ***** ***** ***** **
786150 ***** 201508131800 360   7 *** *** SCT * * * 25.0 03 ** ** ** ** ** ** ** 4   89   74 1015.8 ***** 1002.2  90  71 ***** ***** ***** ***** **
786150 ***** 201508141200 ***   0 ***   7 BKN * * * 25.0 ** ** ** ** ** ** ** ** *   72   71 1015.5 ***** 1001.4  94  72 ***** *****  0.08 ***** **
786150 ***** 201508141800 360   5 ***  18 BKN * * * 25.0 03 ** ** ** ** ** ** ** 4   89   74 1015.8 ***** 1002.2  89  72 ***** ***** ***** ***** **
786150 ***** 201508150000 180   9 ***  89 BKN * * * 25.0 17 ** ** ** ** ** ** ** 9   94   74 1012.8 *****  998.8  96  72 ***** ***** ***** ***** **
786150 ***** 201508151200 ***   0 *** *** SCT * * * 25.0 ** ** ** ** ** ** ** ** *   71   70 1015.6 ***** 1001.6  96  71 ***** ***** ***** ***** **
786150 ***** 201508160000 ***   0 ***  89 BKN * * * 25.0 03 ** ** ** ** ** ** ** 9   78   73 1013.5 *****  999.6  98  71 ***** ***** ***** ***** **
786150 ***** 201508161200 ***   0 ***  10 BKN * * * 25.0 ** ** ** ** ** ** ** ** *   73   71 1015.0 ***** 1001.0  98  73 ***** ***** ***** ***** **
786150 ***** 201508170000 ***   0 *** 197 BKN * * * 25.0 01 ** ** ** ** ** ** ** 9   80   74 1013.4 *****  999.6  94  73 *****  0.04  0.04 ***** **
786150 ***** 201508171200 ***   0 *** 197 OVC * * * 25.0 ** ** ** ** ** ** ** ** *   74   73 1014.9 ***** 1001.0  94  72 ***** *****  0.04 ***** **
786150 ***** 201508171800 ***   0 ***  89 BKN * * * 25.0 ** ** ** ** ** ** ** ** *   84   76 1015.4 ***** 1001.4  85  72 ***** ***** ***** ***** **
786150 ***** 201508180000 *** *** ***  25 BKN * * * 25.0 03 ** ** ** ** ** ** ** 6   85   79 1011.9 *****  998.0  94 *** *****  0.08  0.08 ***** **
786150 ***** 201508181200 ***   0 *** 197 BKN * * * 25.0 ** ** ** ** ** ** ** ** *   74   74 1014.3 ***** 1000.4  94  74 ***** *****  0.08 ***** **
786150 ***** 201508190000 120   5 *** *** SCT * * * 25.0 01 ** ** ** ** ** ** ** 9   79   76 1011.0 *****  997.0  99  74 *****  0.08  0.08 ***** **
786150 ***** 201508191800 030   5 *** *** SCT * * * 25.0 ** ** ** ** ** ** ** ** *   93   76 1012.8 *****  999.0  94  67 ***** ***** ***** ***** **
786150 ***** 201508201800 090   7 ***  18 BKN * * * 25.0 03 ** ** ** ** ** ** ** 4   91   77 1013.3 *****  999.6  93  70 ***** ***** ***** ***** **
786150 ***** 201508211800 220   9 ***  18 BKN * * * 25.0 03 ** ** ** ** ** ** ** 4   91   76 1014.3 ***** 1000.4  92  70 ***** ***** ***** ***** **
786150 ***** 201508221200 ***   0 *** *** *** * * * 25.0 ** ** ** ** ** ** ** ** *   71   69 1014.8 ***** 1001.0  99  71 ***** ***** ***** ***** **
786150 ***** 201508221800 040   5 *** 197 OVC * * * 25.0 ** ** ** ** ** ** ** ** *   92   72 1014.1 ***** 1000.4  94  71 ***** ***** ***** ***** **
786150 ***** 201508231200 ***   0 *** *** SCT * * * 25.0 ** ** ** ** ** ** ** ** *   69   68 1014.4 ***** 1000.6  98  69 ***** ***** ***** ***** **
786150 ***** 201508231800 090   5 *** *** BKN * * * 25.0 ** ** ** ** ** ** ** ** *   94   71 1014.3 ***** 1000.8  93  69 ***** ***** ***** ***** **
786150 ***** 201508241200 ***   0 *** *** *** * * * 25.0 ** ** ** ** ** ** ** ** *   72   70 1014.3 ***** 1000.4  98  71 ***** ***** ***** ***** **
786150 ***** 201508241800 ***   0 *** *** SCT * * * 25.0 ** ** ** ** ** ** ** ** *   92   72 1014.2 ***** 1000.4  93  71 ***** ***** ***** ***** **
786150 ***** 201508250000 340   5 ***  89 BKN * * * 25.0 ** ** ** ** ** ** ** ** *   82   74 1011.4 *****  997.6  99  71 ***** ***** ***** ***** **
786150 ***** 201508251200 ***   0 ***  10 OVC * * * 25.0 ** ** ** ** ** ** ** ** *   75   73 1014.4 ***** 1000.4  99  75 ***** ***** ***** ***** **
786150 ***** 201508251800 330   5 *** *** SCT * * * 25.0 ** ** ** ** ** ** ** ** *   86   75 1014.8 ***** 1001.2  86  75 ***** ***** ***** ***** **
786150 ***** 201508260000 *** *** *** *** SCT * * * 25.0 ** ** ** ** ** ** ** ** *   91   72 1011.8 *****  998.0  93  75 ***** ***** ***** ***** **
786150 ***** 201508261200 ***   0 *** *** SCT * * * 25.0 ** ** ** ** ** ** ** ** *   72   71 1013.8 ***** 1000.2  93  72 ***** ***** ***** ***** **
786150 ***** 201508261800 320   7 *** *** SCT * * * 25.0 ** ** ** ** ** ** ** ** *   91   73 1015.2 ***** 1001.6 *** *** ***** ***** ***** ***** **
786150 ***** 201508270000 300  22 *** *** SCT * * * 25.0 ** ** ** ** ** ** ** ** *   92   74 1012.8 *****  999.0  99  72 ***** ***** ***** ***** **
786150 ***** 201508271200 ***   0 ***  10 OVC * * * 25.0 ** ** ** ** ** ** ** ** *   74   73 1014.7 ***** 1000.8  99  74 ***** *****  0.05 ***** **
786150 ***** 201508271800 ***   0 *** *** SCT * * * 25.0 ** ** ** ** ** ** ** ** *   85   75 1015.8 ***** 1002.0  86  74 ***** ***** ***** ***** **
786150 ***** 201508280000 *** *** ***  89 OVC * * * 25.0 03 ** ** ** ** ** ** ** 9   79   72 1012.9 *****  999.0  95  74 ***** *****  0.05 ***** **
786150 ***** 201508281200 ***   0 ***  12 OVC * * * 25.0 ** ** ** ** ** ** ** ** *   74   72 1013.9 *****  999.8  95  73 ***** ***** ***** ***** **
786150 ***** 201508281800 360   7 ***  18 BKN * * * 25.0 ** ** ** ** ** ** ** ** *   85   75 1013.9 ***** 1000.4  86  86 ***** ***** ***** ***** **
786150 ***** 201508290000 120  18 *** *** OVC * * * 25.0 ** ** ** ** ** ** ** ** *   86   74 1011.4 *****  997.6 *** *** ***** ***** ***** ***** **
786150 ***** 201508291200 ***   0 *** *** SCT * * *  5.6 10 ** ** ** ** ** ** ** 4   75   74 1014.3 ***** 1000.4  94  74 ***** *****  0.20 ***** **
786150 ***** 201508291800 ***   0 ***  89 BKN * * * 25.0 01 ** ** ** ** ** ** ** 6   82   77 1014.8 ***** 1001.0  84  74 *****  0.43 ***** ***** **
786150 ***** 201508310000 120  11 *** *** SCT * * * 25.0 17 ** ** ** ** ** ** ** 1   89   74 1011.8 *****  995.0  98  72 ***** ***** ***** ***** **
786150 ***** 201508311200 ***   0 *** *** BKN * * * 25.0 ** ** ** ** ** ** ** ** *   73   72 ****** ***** ****** *** *** ***** ***** ***** ***** **
786150 ***** 201508311800 360   5 *** *** SCT * * * 25.0 ** ** ** ** ** ** ** ** *   90   75 1014.8 ***** 1001.0  91  72 ***** ***** ***** ***** **
786150 ***** 201509010000 200   9 ***  89 OVC * * * 25.0 03 ** ** ** ** ** ** ** 9   75   74 1013.5 *****  999.6  97  72 *****  1.14  1.35 ***** **
786150 ***** 201509011200 ***   0 *** *** SCT * * * 25.0 ** ** ** ** ** ** ** ** *   72   72 1015.5 ***** 1001.6  97  72 ***** *****  1.14 ***** **
786150 ***** 201509011800 ***   0 *** *** SCT * * * 25.0 ** ** ** ** ** ** ** ** *   91   77 1013.7 ***** 1000.2  93  72 ***** ***** ***** ***** **
786150 ***** 201509020000 ***   0 ***  89 OVC * * * 25.0 17 ** ** ** ** ** ** ** 9   76   74 1012.5 *****  998.6  97  72 *****  0.24  0.24 ***** **
786150 ***** 201509021200 120   5 *** *** SCT * * * 25.0 ** ** ** ** ** ** ** ** *   73   73 1015.0 ***** 1000.8  97  73 ***** *****  0.24 ***** **
786150 ***** 201509021800 090   7 *** 197 BKN * * * 25.0 ** ** ** ** ** ** ** ** *   92   75 1014.7 ***** 1001.2  94  73 ***** ***** ***** ***** **
786150 ***** 201509030000 180   9 *** *** OVC * * * 25.0 ** ** ** ** ** ** ** ** * ****   74 ****** ***** ****** *** *** ***** ***** ***** ***** **
786150 ***** 201509031200 ***   0 *** *** *** * * * 25.0 ** ** ** ** ** ** ** ** *   72   71 1013.5 *****  999.4  97  72 ***** ***** ***** ***** **
786150 ***** 201509031800 140   7 *** *** SCT * * * 25.0 ** ** ** ** ** ** ** ** *   94   75 1013.2 *****  999.4  96  72 ***** ***** ***** ***** **
786150 ***** 201509040000 140   9 ***  20 BKN * * * 25.0 03 ** ** ** ** ** ** ** 9   79   75 1010.0 *****  996.0  98 *** *****  0.35  0.35 ***** **
786150 ***** 201509041200 ***   0 *** *** *** * * * 25.0 ** ** ** ** ** ** ** ** *   72   71 1013.5 *****  999.6  98  72 ***** *****  0.35 ***** **
786150 ***** 201509041800 ***   0 ***  18 BKN * * * 25.0 ** ** ** ** ** ** ** ** *   91   74 1013.3 *****  999.4  94  72 ***** ***** ***** ***** **
786150 ***** 201509070000 090   5 ***  89 BKN * * * 25.0 ** ** ** ** ** ** ** ** *   86   74 1012.4 *****  998.6  93  72 ***** ***** ***** ***** **
786150 ***** 201509071200 ***   0 *** *** *** * * * 25.0 ** ** ** ** ** ** ** ** *   72   71 1014.4 ***** 1000.4  93  72 ***** ***** ***** ***** **
786150 ***** 201509081800 090   7 *** 197 BKN * * * 25.0 ** ** ** ** ** ** ** ** *   89   75 1013.8 ***** 1000.0  90  72 ***** ***** ***** ***** **
786150 ***** 201509091200 ***   0 *** *** SCT * * * 25.0 ** ** ** ** ** ** ** ** *   73   71 1013.4 *****  992.6  95  73 ***** ***** ***** ***** **
786150 ***** 201509100000 ***   0 ***  25 OVC * * * 25.0 17 ** ** ** ** ** ** ** 2   84   76 1010.9 *****  997.0  96  73 ***** ***** ***** ***** **
786150 ***** 201509101200 ***   0 ***  89 OVC * * * 25.0 ** ** ** ** ** ** ** ** *   73   72 1013.9 ***** 1000.0  96  73 ***** ***** ***** ***** **
786150 ***** 201509101800 060   5 ***  20 OVC * * * 25.0 ** ** ** ** ** ** ** ** *   90   74 1013.3 *****  999.4  92  73 ***** ***** ***** ***** **
786150 ***** 201509120000 *** *** *** 197 BKN * * * 25.0 03 ** ** ** ** ** ** ** 9   88   78 1009.9 *****  996.0  97  72 ***** ***** ***** ***** **
786150 ***** 201509121200 ***   0 *** *** *** * * * 25.0 ** ** ** ** ** ** ** ** *   71   70 1012.9 *****  999.0  97  71 ***** ***** ***** ***** **
786150 ***** 201509121800 300   5 *** *** SCT * * * 25.0 ** ** ** ** ** ** ** ** *   91   74 1011.7 *****  998.0  93  71 ***** ***** ***** ***** **
786150 ***** 201509141200 ***   0 ***  89 BKN * * * 25.0 ** ** ** ** ** ** ** ** *   74   74 1012.5 *****  998.6  98  73 ***** *****  1.31 ***** **
786150 ***** 201509141800 060   5 ***  89 BKN * * * 25.0 ** ** ** ** ** ** ** ** *   90   75 1013.8 *****  999.8  91  73 ***** ***** ***** ***** **
786150 ***** 201509160000 270   5 *** 197 OVC * * * 25.0 ** ** ** ** ** ** ** ** *   85   74 1012.4 *****  998.4  98  73 ***** ***** ***** ***** **
786150 ***** 201509161200 ***   0 *** *** SCT * * * 25.0 ** ** ** ** ** ** ** ** *   72   71 1014.4 ***** 1000.6  98  72 ***** ***** ***** ***** **
786150 ***** 201509161800 200   5 ***  18 BKN * * * 25.0 ** ** ** ** ** ** ** ** *   88   77 1014.8 ***** 1001.0  92  72 ***** ***** ***** ***** **
786150 ***** 201509180000 320   7 *** *** SCT * * * 25.0 ** ** ** ** ** ** ** ** *   88   75 1009.2 *****  995.6  92  72 ***** ***** ***** ***** **
786150 ***** 201509181800 180   5 *** 197 BKN * * * 25.0 ** ** ** ** ** ** ** ** *   91   77 1011.2 *****  996.6  91  71 ***** ***** ***** ***** **
786150 ***** 201509190000 300   5 *** 197 BKN * * * 25.0 ** ** ** ** ** ** ** ** *   90   75 1008.2 *****  994.6  95  71 ***** ***** ***** ***** **
786150 ***** 201509191800 ***   0 *** 197 BKN * * * 25.0 ** ** ** ** ** ** ** ** *   90   74 1011.8 *****  998.0  91  72 ***** ***** ***** ***** **
786150 ***** 201509200000 060   7 ***  89 BKN * * * 25.0 01 ** ** ** ** ** ** ** 9   81   74 1010.4 *****  996.6  95  72 *****  0.02  0.02 ***** **
