  USAF  WBAN YR--MODAHRMN DIR SPD GUS CLG SKC L M H  VSB MW MW MW MW AW AW AW AW W TEMP DEWP    SLP   ALT    STP MAX MIN PCP01 PCP06 PCP24 PCPXX SD
804320 ***** 201502031200 *** *** *** *** *** * * * 12.5 ** ** ** ** ** ** ** ** *   79   74 1011.8 *****  993.9 ***  73 ***** ***** ***** ***** **
804320 ***** 201503111800 *** *** *** *** BKN * * * 12.5 ** ** ** ** ** ** ** ** *   92   80 1008.2 *****  990.2 *** *** ***** ***** ***** ***** **
804320 ***** 201503120000 *** *** *** *** SCT * * *  6.2 ** ** ** ** ** ** ** ** *   83   74 1007.0 *****  989.0  93 *** ***** ***** ***** ***** **
804320 ***** 201503121200 *** *** *** *** SCT * * * 12.5 ** ** ** ** ** ** ** ** *   77   74 1009.3 *****  991.3 ***  72 ***** ***** ***** ***** **
804320 ***** 201503121800 *** *** *** *** SCT * * * 12.5 ** ** ** ** ** ** ** ** *   95   78 1006.6 *****  988.6 *** *** ***** ***** ***** ***** **
804320 ***** 201503130000 *** *** *** *** *** * * *  6.2 ** ** ** ** ** ** ** ** *   84   72 1005.9 *****  987.9  95 *** ***** ***** ***** ***** **
804320 ***** 201503181200 *** *** *** *** BKN * * * 12.5 ** ** ** ** ** ** ** ** *   77   72 1008.7 *****  990.7 *** *** ***** ***** ***** ***** **
804320 ***** 201503191200 *** *** *** *** SCT * * * 12.5 ** ** ** ** ** ** ** ** *   78   76 1008.2 *****  990.3 *** *** ***** ***** ***** ***** **
804320 ***** 201503211200 *** *** *** *** SCT * * * 12.5 ** ** ** ** ** ** ** ** *   78   76 1008.2 *****  990.3 ***  74 ***** ***** ***** ***** **
804320 ***** 201503221200 *** *** *** *** *** * * * 12.5 ** ** ** ** ** ** ** ** *   79   74 1009.7 *****  991.8 ***  72 ***** ***** ***** ***** **
804320 ***** 201503231200 *** *** *** *** SCT * * * 12.5 ** ** ** ** ** ** ** ** *   80   74 1009.6 *****  991.7 ***  73 ***** ***** ***** ***** **
804320 ***** 201503260000 *** *** *** *** *** * * *  6.2 ** ** ** ** ** ** ** ** *   90   75 1008.0 *****  990.0 *** *** ***** ***** ***** ***** **
804320 ***** 201504241800 *** *** ***  20 BKN * * * 12.5 ** ** ** ** ** ** ** ** *   93   76 1006.6 *****  988.7 *** *** ***** ***** ***** ***** **
804320 ***** 201504291800 *** *** ***  20 BKN * * * 12.5 ** ** ** ** ** ** ** ** *   98   80 1005.9 *****  987.9 *** *** ***** ***** ***** ***** **
804320 ***** 201505080000 *** *** *** *** *** * * * 12.5 ** ** ** ** ** ** ** ** *   89   80 1007.3 *****  989.4  99 *** ***** ***** ***** ***** **
804320 ***** 201505211800 *** *** *** *** *** * * * **** ** ** ** ** ** ** ** ** * **** **** ****** ***** ****** *** *** ***** ***** ***** ***** **
804320 ***** 201505231800 *** *** *** *** BKN * * * 12.5 ** ** ** ** ** ** ** ** *   92   80 1010.0 *****  992.0 *** *** ***** ***** ***** ***** **
804320 ***** 201505240000 *** *** *** *** SCT * * *  6.2 ** ** ** ** ** ** ** ** *   88   76 1008.1 *****  990.2  94 *** ***** ***** ***** ***** **
804320 ***** 201505261200 *** *** *** *** SCT * * * 12.5 ** ** ** ** ** ** ** ** *   78   75 1010.4 *****  992.7 ***  75 ***** ***** ***** ***** **
804320 ***** 201505270000 *** *** *** *** SCT * * *  6.2 ** ** ** ** ** ** ** ** *   86   79 1005.4 *****  988.7  94 *** ***** ***** ***** ***** **
804320 ***** 201505271200 *** *** *** *** SCT * * * 12.5 ** ** ** ** ** ** ** ** *   80   77 1010.4 *****  992.5 ***  73 ***** ***** ***** ***** **
804320 ***** 201505271800 *** *** *** *** BKN * * * 12.5 ** ** ** ** ** ** ** ** *   92   76 1007.3 *****  989.1 *** *** ***** ***** ***** ***** **
804320 ***** 201505281800 *** *** ***  20 BKN * * * 12.5 ** ** ** ** ** ** ** ** *   93   80 1007.7 *****  987.7 *** *** ***** ***** ***** ***** **
804320 ***** 201505290000 *** *** *** *** SCT * * *  6.2 ** ** ** ** ** ** ** ** *   86   76 1005.3 *****  987.4  93 *** ***** ***** ***** ***** **
804320 ***** 201506011800 *** *** *** *** BKN * * * 12.5 ** ** ** ** ** ** ** ** *   89   78 1008.8 *****  990.9 *** *** ***** ***** ***** ***** **
804320 ***** 201506020000 *** *** *** *** SCT * * *  6.2 ** ** ** ** ** ** ** ** *   85   76 1008.1 *****  990.3  92 *** ***** ***** ***** ***** **
804320 ***** 201506021200 *** *** *** *** BKN * * * 12.5 ** ** ** ** ** ** ** ** *   76   74 1011.9 *****  993.9 ***  74 ***** ***** ***** ***** **
804320 ***** 201506031800 *** *** *** *** *** * * * **** ** ** ** ** ** ** ** ** * **** **** ****** ***** ****** *** *** ***** ***** ***** ***** **
804320 ***** 201506041200 *** *** *** *** *** * * * **** ** ** ** ** ** ** ** ** * **** **** ****** ***** ****** *** *** ***** ***** ***** ***** **
804320 ***** 201506041800 *** *** *** *** SCT * * * 12.5 ** ** ** ** ** ** ** ** *   92   82 1008.3 *****  990.4 *** *** ***** ***** ***** ***** **
804320 ***** 201506051200 *** *** *** *** SCT * * * 12.5 ** ** ** ** ** ** ** ** *   80   76 1009.7 *****  991.8 *** *** ***** ***** ***** ***** **
804320 ***** 201506061800 *** *** *** *** BKN * * * 12.5 ** ** ** ** ** ** ** ** *   89   79 1008.2 *****  990.2 *** *** ***** ***** ***** ***** **
804320 ***** 201506080000 *** *** *** *** SCT * * *  6.2 ** ** ** ** ** ** ** ** *   79   78 1008.0 *****  989.9  91 *** ***** ***** ***** ***** **
804320 ***** 201506090000 *** *** *** *** SCT * * *  6.2 ** ** ** ** ** ** ** ** *   79   78 1008.0 *****  989.9 *** *** ***** ***** ***** ***** **
804320 ***** 201506091200 *** *** *** *** *** * * * 12.5 ** ** ** ** ** ** ** ** *   76   73 1009.0 *****  991.0 *** *** ***** ***** ***** ***** **
804320 ***** 201506091800 *** *** *** *** BKN * * * 12.5 ** ** ** ** ** ** ** ** *   92   81 1008.2 *****  990.2 *** *** ***** ***** ***** ***** **
804320 ***** 201506111200 *** *** *** *** BKN * * * 12.5 ** ** ** ** ** ** ** ** *   79   76 1010.7 *****  992.7 ***  73 ***** ***** ***** ***** **
804320 ***** 201506111800 *** *** ***  20 BKN * * * 12.5 ** ** ** ** ** ** ** ** *   90   82 1008.7 *****  990.7 *** *** ***** ***** ***** ***** **
804320 ***** 201506130600 *** *** *** *** *** * * * **** ** ** ** ** ** ** ** ** * **** **** ****** ***** ****** *** *** ***** ***** ***** ***** **
804320 ***** 201506141200 *** *** *** *** *** * * * 12.5 ** ** ** ** ** ** ** ** *   80   77 1010.0 *****  992.1 ***  74 ***** ***** ***** ***** **
804320 ***** 201506151200 *** *** *** *** SCT * * * 12.5 ** ** ** ** ** ** ** ** *   77   74 1009.9 *****  991.9 ***  75 ***** ***** ***** ***** **
804320 ***** 201506161200 *** *** ***  20 OVC * * * 12.5 ** ** ** ** ** ** ** ** *   74   73 1011.6 *****  993.5 ***  71 ***** ***** ***** ***** **
804320 ***** 201506171800 *** *** *** *** BKN * * * 12.5 ** ** ** ** ** ** ** ** *   86   81 ****** ***** ****** *** *** ***** ***** ***** ***** **
804320 ***** 201506250000 *** *** *** *** SCT * * *  6.2 ** ** ** ** ** ** ** ** * **** **** ****** *****  987.9 *** *** ***** ***** ***** ***** **
804320 ***** 201508221200 *** *** *** *** SCT * * * 12.5 ** ** ** ** ** ** ** ** *   77   73 1010.3 *****  992.2 ***  73 ***** *****  0.20 ***** **
804320 ***** 201508231200 *** *** ***  20 BKN * * * 12.5 ** ** ** ** ** ** ** ** *   76   72 1009.8 *****  991.7 ***  73 ***** *****  0.24 ***** **
804320 ***** 201508241200 *** *** *** *** BKN * * * 12.5 ** ** ** ** ** ** ** ** *   80   76 1009.9 *****  991.9 ***  76 ***** ***** ***** ***** **
804320 ***** 201508251200 *** *** ***  20 BKN * * * 12.5 ** ** ** ** ** ** ** ** *   79   77 1009.0 *****  991.1 ***  75 ***** ***** ***** ***** **
804320 ***** 201508251800 *** *** ***  20 BKN * * * 12.5 ** ** ** ** ** ** ** ** *   90   83 1006.9 *****  989.0 *** *** ***** ***** ***** ***** **
804320 ***** 201508261800 *** *** *** *** SCT * * * 12.5 ** ** ** ** ** ** ** ** *   91   82 1007.9 *****  989.1 *** *** ***** ***** ***** ***** **
804320 ***** 201508270000 *** *** *** *** SCT * * *  6.2 ** ** ** ** ** ** ** ** *   84   80 ****** ***** ****** *** *** ***** ***** ***** ***** **
804320 ***** 201508271200 *** *** *** *** SCT * * * 12.5 ** ** ** ** ** ** ** ** *   76   73 1008.4 *****  990.4 *** *** ***** ***** ***** ***** **
804320 ***** 201508281800 *** *** ***  20 BKN * * * 12.5 ** ** ** ** ** ** ** ** *   89   81 1008.4 *****  990.4 *** *** ***** ***** ***** ***** **
804320 ***** 201508290000 *** *** ***  20 BKN * * *  6.2 50 ** ** ** ** ** ** ** 5   81   78 1007.5 *****  989.5  89 *** *****  0.01 ***** ***** **
804320 ***** 201508291800 *** *** *** *** SCT * * * 12.5 ** ** ** ** ** ** ** ** *   89   82 1008.5 *****  990.6 *** *** ***** ***** ***** ***** **
804320 ***** 201508300000 *** *** *** *** SCT * * *  6.2 ** ** ** ** ** ** ** ** *   83   79 1007.5 *****  989.5  91 *** ***** ***** ***** ***** **
804320 ***** 201508301200 *** *** ***  16 OVC * * *  3.8 17 ** ** ** ** ** ** ** 9   79   77 1010.6 *****  992.6 ***  72 ***** *****  0.12 ***** **
804320 ***** 201508310000 *** *** ***  20 BKN * * *  6.2 ** ** ** ** ** ** ** ** *   78   75 1007.6 *****  989.9  82 *** ***** ***** ***** ***** **
804320 ***** 201509011800 *** *** ***  20 BKN * * * 12.5 ** ** ** ** ** ** ** ** *   93   81 1009.3 *****  991.3 *** *** ***** ***** ***** ***** **
