  USAF  WBAN YR--MODAHRMN DIR SPD GUS CLG SKC L M H  VSB MW MW MW MW AW AW AW AW W TEMP DEWP    SLP   ALT    STP MAX MIN PCP01 PCP06 PCP24 PCPXX SD
827840 ***** 201501030000 140   3 *** *** OVC * * *  1.2 17 ** ** ** ** ** ** ** 2   78   74 1012.0 *****  966.6 *** *** ***** ***** ***** ***** **
827840 ***** 201501041200 360   0 ***  26 OVC * * * 12.5 02 ** ** ** ** ** ** ** 6   73   70 1015.3 *****  969.7 ***  68 ***** *****  1.54 ***** **
827840 ***** 201501041800 360   0 ***  26 BKN * * * 12.5 ** ** ** ** ** ** ** ** *   82   70 1011.9 *****  966.7 *** *** ***** ***** ***** ***** **
827840 ***** 201501061200 360   0 ***  26 BKN * * * 12.5 ** ** ** ** ** ** ** ** *   78   71 1010.6 *****  969.1 ***  69 ***** ***** ***** ***** **
827840 ***** 201501121800 360   0 *** *** SCT * * * 12.5 ** ** ** ** ** ** ** ** *   94   64 1009.2 *****  964.9 *** *** ***** ***** ***** ***** **
827840 ***** 201501290000 360   0 *** *** SCT * * *  1.2 ** ** ** ** ** ** ** ** *   81   57 1009.4 *****  964.5 *** *** ***** ***** ***** ***** **
827840 ***** 201502020000 360   0 *** *** SCT * * *  1.2 ** ** ** ** ** ** ** ** *   83   66 1010.4 *****  965.7 *** *** ***** ***** ***** ***** **
827840 ***** 201502160000 360   0 ***  26 OVC * * *  1.2 ** ** ** ** ** ** ** ** *   76   71 1012.9 *****  967.4 *** *** ***** ***** ***** ***** **
827840 ***** 201503030000 360   0 ***  26 OVC * * *  1.2 ** ** ** ** ** ** ** ** *   73   71 1011.4 *****  965.6 *** *** ***** ***** ***** ***** **
827840 ***** 201503061200 360   0 *** *** BKN * * * 12.5 02 ** ** ** ** ** ** ** 6   80   72 1010.7 *****  965.7 ***  70 ***** *****  0.75 ***** **
827840 ***** 201503081200 360   0 *** *** SCT * * * 12.5 ** ** ** ** ** ** ** ** *   80   71 1012.8 *****  967.3 ***  66 ***** ***** ***** ***** **
827840 ***** 201503151800 360   0 *** *** BKN * * * 12.5 ** ** ** ** ** ** ** ** *   90   68 1007.0 *****  962.3 *** *** ***** ***** ***** ***** **
827840 ***** 201503160000 360   0 *** *** SCT * * *  1.2 ** ** ** ** ** ** ** ** *   76   73 1009.8 *****  964.7 *** *** ***** ***** ***** ***** **
827840 ***** 201503170000 360   0 *** *** SCT * * *  1.2 ** ** ** ** ** ** ** ** *   76   73 1010.1 *****  964.6 *** *** ***** ***** ***** ***** **
827840 ***** 201503190000 360   0 ***  57 BKN * * *  1.2 ** ** ** ** ** ** ** ** *   78   72 1010.1 *****  965.0 *** *** ***** ***** ***** ***** **
827840 ***** 201503211800 360   0 *** *** OVC * * * 12.5 ** ** ** ** ** ** ** ** *   85   70 1007.5 *****  962.5 *** *** ***** ***** ***** ***** **
827840 ***** 201504070000 360   0 *** 722 CLR * * *  1.2 ** ** ** ** ** ** ** ** *   74   73 1010.2 *****  964.8 *** *** ***** ***** ***** ***** **
827840 ***** 201504121800 090   5 *** *** SCT * * * 12.5 ** ** ** ** ** ** ** ** *   90   70 1009.3 *****  964.3 *** *** ***** ***** ***** ***** **
827840 ***** 201504141200 *** *** ***  26 BKN * * *  2.5 02 ** ** ** ** ** ** ** 6   79   74 1015.2 *****  969.7 ***  70 ***** *****  0.51 ***** **
827840 ***** 201504221800 090   1 *** *** SCT * * * 12.5 ** ** ** ** ** ** ** ** *   90   68 1008.4 *****  963.6 *** *** ***** ***** ***** ***** **
827840 ***** 201505101800 360   0 ***  26 BKN * * * 12.5 ** ** ** ** ** ** ** ** *   86   73 1010.3 *****  965.2 *** *** ***** ***** ***** ***** **
827840 ***** 201505140000 360   0 *** 722 CLR * * *  1.2 ** ** ** ** ** ** ** ** *   70   69 1012.7 *****  966.9 *** *** ***** ***** ***** ***** **
827840 ***** 201505151200 090   1 *** *** SCT * * * 12.5 ** ** ** ** ** ** ** ** *   80   67 1014.7 *****  969.4 ***  67 ***** ***** ***** ***** **
827840 ***** 201506010000 360   0 ***  57 BKN * * *  1.2 ** ** ** ** ** ** ** ** *   76   69 1013.3 *****  968.0 *** *** ***** ***** ***** ***** **
827840 ***** 201506051800 140   5 *** *** SCT * * * 12.5 ** ** ** ** ** ** ** ** *   89   69 1013.1 *****  967.7 *** *** ***** ***** ***** ***** **
827840 ***** 201507041200 140   1 *** *** SCT * * * 12.5 ** ** ** ** ** ** ** ** *   80   69 1015.2 *****  969.6 ***  69 ***** ***** ***** ***** **
827840 ***** 201507301200 090   5 *** *** SCT * * * 12.5 ** ** ** ** ** ** ** ** *   76   67 1016.8 *****  971.3 ***  68 ***** ***** ***** ***** **
827840 ***** 201507301800 140   5 *** *** SCT * * * 12.5 ** ** ** ** ** ** ** ** *   89   58 1012.1 *****  969.8 *** *** ***** ***** ***** ***** **
827840 ***** 201507310000 360   0 *** 722 CLR * * *  1.2 ** ** ** ** ** ** ** ** *   80   57 1015.3 *****  970.0 *** *** ***** ***** ***** ***** **
827840 ***** 201507311200 140   3 ***  20 BKN * * * 12.5 ** ** ** ** ** ** ** ** *   76   67 1016.5 *****  971.0 ***  69 ***** ***** ***** ***** **
827840 ***** 201507311800 140   3 *** *** BKN * * * 12.5 ** ** ** ** ** ** ** ** *   81   72 1013.4 *****  967.8 *** *** ***** ***** ***** ***** **
827840 ***** 201508010000 360   0 ***  20 BKN * * *  1.2 02 ** ** ** ** ** ** ** 5   73   66 1016.3 *****  970.5 *** *** *****  0.01 ***** ***** **
827840 ***** 201508011200 090   3 ***  20 BKN * * * 12.5 ** ** ** ** ** ** ** ** *   76   61 1017.5 *****  971.6 ***  63 ***** *****  0.01 ***** **
827840 ***** 201508011800 140   3 ***  20 BKN * * * 12.5 ** ** ** ** ** ** ** ** *   85   71 1011.5 *****  967.0 *** *** ***** ***** ***** ***** **
827840 ***** 201508020000 140   7 *** 722 CLR * * *  1.2 ** ** ** ** ** ** ** ** *   76   63 1014.5 *****  968.9 *** *** ***** ***** ***** ***** **
827840 ***** 201508021200 090   8 *** *** SCT * * * 12.5 ** ** ** ** ** ** ** ** *   77   73 1016.9 *****  971.2 ***  68 ***** ***** ***** ***** **
827840 ***** 201508021800 140   3 *** *** SCT * * * 12.5 ** ** ** ** ** ** ** ** *   87   67 1012.9 *****  967.1 *** *** ***** ***** ***** ***** **
827840 ***** 201508030000 180   3 *** 722 CLR * * *  1.2 ** ** ** ** ** ** ** ** *   75   58 1013.8 *****  968.3 *** *** ***** ***** ***** ***** **
827840 ***** 201508031200 360   0 *** 722 CLR * * *  1.2 ** ** ** ** ** ** ** ** *   77   59 1017.0 *****  971.3 ***  64 ***** ***** ***** ***** **
827840 ***** 201508031800 360   0 *** 722 CLR * * *  1.2 ** ** ** ** ** ** ** ** *   89   58 1012.7 *****  966.9 *** *** ***** ***** ***** ***** **
827840 ***** 201508040000 090   3 *** 722 CLR * * *  1.2 ** ** ** ** ** ** ** ** *   76   58 1015.3 *****  969.7 *** *** ***** ***** ***** ***** **
827840 ***** 201508041200 090   3 *** *** SCT * * * 12.5 ** ** ** ** ** ** ** ** *   77   63 1017.8 *****  972.1 ***  67 ***** ***** ***** ***** **
827840 ***** 201508041800 090   1 *** 722 CLR * * * 12.5 ** ** ** ** ** ** ** ** *   89   64 1013.6 *****  968.9 *** *** ***** ***** ***** ***** **
827840 ***** 201508050000 360   0 *** 722 CLR * * *  1.2 ** ** ** ** ** ** ** ** *   71   56 1015.9 *****  970.1 *** *** ***** ***** ***** ***** **
827840 ***** 201508051200 360   0 *** 722 CLR * * * 12.5 ** ** ** ** ** ** ** ** *   79   69 1017.6 *****  971.8 *** *** ***** ***** ***** ***** **
827840 ***** 201508051800 360   0 *** *** SCT * * * 12.5 ** ** ** ** ** ** ** ** *   91   59 1011.6 *****  966.6 *** *** ***** ***** ***** ***** **
827840 ***** 201508060000 360   0 *** 722 CLR * * *  1.2 ** ** ** ** ** ** ** ** *   76   63 1014.3 *****  968.9 *** *** ***** ***** ***** ***** **
827840 ***** 201508061200 360   0 *** *** SCT * * * 12.5 ** ** ** ** ** ** ** ** *   80   70 1015.3 *****  969.9 ***  63 ***** ***** ***** ***** **
827840 ***** 201508061800 180   1 ***  20 BKN * * * 12.5 ** ** ** ** ** ** ** ** *   90   68 1011.2 *****  966.2 *** *** ***** ***** ***** ***** **
827840 ***** 201508070000 360   0 *** *** SCT * * * 12.5 ** ** ** ** ** ** ** ** *   75   61 1013.3 *****  967.9 *** *** ***** ***** ***** ***** **
827840 ***** 201508071200 180   3 *** *** SCT * * * 12.5 ** ** ** ** ** ** ** ** *   77   68 1016.1 *****  970.5 ***  66 ***** ***** ***** ***** **
827840 ***** 201508071800 180   3 *** *** SCT * * * 12.5 ** ** ** ** ** ** ** ** *   89   59 1010.8 *****  965.7 *** *** ***** ***** ***** ***** **
827840 ***** 201508080000 360   0 *** 722 CLR * * *  1.2 ** ** ** ** ** ** ** ** *   73   61 1013.9 *****  968.3 *** *** ***** ***** ***** ***** **
827840 ***** 201508081200 140   3 ***  41 BKN * * * 12.5 ** ** ** ** ** ** ** ** *   78   66 1015.7 *****  970.0 ***  66 ***** ***** ***** ***** **
827840 ***** 201508081800 360   0 ***  20 BKN * * * 12.5 ** ** ** ** ** ** ** ** *   87   59 1011.3 *****  966.2 *** *** ***** ***** ***** ***** **
827840 ***** 201508090000 360   0 *** 722 CLR * * *  1.2 ** ** ** ** ** ** ** ** *   74   57 1014.2 *****  968.6 *** *** ***** ***** ***** ***** **
827840 ***** 201508091200 090   5 *** 722 CLR * * * 12.5 ** ** ** ** ** ** ** ** *   77   60 1015.8 *****  970.2 ***  68 ***** ***** ***** ***** **
827840 ***** 201508091800 360   0 *** *** BKN * * * 12.5 ** ** ** ** ** ** ** ** *   89   68 1010.9 *****  965.8 *** *** ***** ***** ***** ***** **
827840 ***** 201508100000 140   5 *** 722 CLR * * *  1.2 ** ** ** ** ** ** ** ** *   78   61 1013.5 *****  968.2 *** *** ***** ***** ***** ***** **
827840 ***** 201508101200 090   3 *** *** SCT * * * 12.5 ** ** ** ** ** ** ** ** *   77   63 1017.0 *****  971.5 ***  65 ***** ***** ***** ***** **
827840 ***** 201508101800 360   0 *** *** SCT * * * 12.5 ** ** ** ** ** ** ** ** *   89   65 1010.4 *****  965.3 *** *** ***** ***** ***** ***** **
827840 ***** 201508110000 090   5 *** 722 CLR * * *  1.2 ** ** ** ** ** ** ** ** *   78   61 1015.2 *****  969.8 *** *** ***** ***** ***** ***** **
827840 ***** 201508111200 140   5 ***  20 BKN * * * 12.5 ** ** ** ** ** ** ** ** *   76   66 1017.3 *****  971.7 ***  69 ***** ***** ***** ***** **
827840 ***** 201508111800 090   5 ***  20 BKN * * * 12.5 ** ** ** ** ** ** ** ** *   86   69 1011.8 *****  969.8 *** *** ***** ***** ***** ***** **
827840 ***** 201508120000 360   0 *** 722 CLR * * *  1.2 ** ** ** ** ** ** ** ** *   72   65 1015.7 *****  969.9 *** *** ***** ***** ***** ***** **
827840 ***** 201508121200 090   3 ***  20 BKN * * * 12.5 ** ** ** ** ** ** ** ** *   74   65 1017.7 *****  971.7 ***  67 ***** ***** ***** ***** **
827840 ***** 201508121800 140   3 *** *** SCT * * * 12.5 ** ** ** ** ** ** ** ** *   86   61 1012.4 *****  967.0 *** *** ***** ***** ***** ***** **
827840 ***** 201508130000 360   0 *** 722 CLR * * *  1.2 ** ** ** ** ** ** ** ** *   71   65 1015.8 *****  969.8 *** *** ***** ***** ***** ***** **
827840 ***** 201508131200 140   8 *** *** SCT * * * 12.5 ** ** ** ** ** ** ** ** *   74   61 1017.4 *****  971.3 ***  66 ***** ***** ***** ***** **
827840 ***** 201508131800 140   3 *** *** SCT * * * 12.5 ** ** ** ** ** ** ** ** *   87   63 1013.1 *****  967.6 *** *** ***** ***** ***** ***** **
827840 ***** 201508140000 360   0 *** 722 CLR * * *  1.2 ** ** ** ** ** ** ** ** *   75   59 1015.8 *****  970.0 *** *** ***** ***** ***** ***** **
827840 ***** 201508141200 140   7 ***  20 BKN * * * 12.5 ** ** ** ** ** ** ** ** *   79   69 1017.6 *****  972.0 ***  67 ***** ***** ***** ***** **
827840 ***** 201508141800 360   2 ***  20 BKN * * * 12.5 ** ** ** ** ** ** ** ** *   87   63 1012.9 *****  967.6 *** *** ***** ***** ***** ***** **
827840 ***** 201508150000 360   0 *** *** SCT * * *  1.2 ** ** ** ** ** ** ** ** *   75   64 1014.5 *****  969.0 *** *** ***** ***** ***** ***** **
827840 ***** 201508151200 140   5 *** *** SCT * * * 12.5 ** ** ** ** ** ** ** ** *   78   65 1017.5 *****  971.8 ***  66 ***** ***** ***** ***** **
827840 ***** 201508151800 090   3 ***  20 BKN * * * 12.5 ** ** ** ** ** ** ** ** *   84   69 1014.0 *****  968.8 *** *** ***** ***** ***** ***** **
827840 ***** 201508161200 090   3 *** *** SCT * * * 12.5 ** ** ** ** ** ** ** ** *   79   61 1017.6 *****  971.9 ***  67 ***** ***** ***** ***** **
827840 ***** 201508161800 140   3 *** *** SCT * * * 12.5 ** ** ** ** ** ** ** ** *   87   64 1012.7 *****  967.5 *** *** ***** ***** ***** ***** **
827840 ***** 201508170000 090   3 *** 722 CLR * * *  1.2 ** ** ** ** ** ** ** ** *   77   63 1014.9 *****  969.5 *** *** ***** ***** ***** ***** **
827840 ***** 201508171200 090   3 ***  20 BKN * * * 12.5 ** ** ** ** ** ** ** ** *   75   64 1017.6 *****  971.9 ***  70 ***** ***** ***** ***** **
827840 ***** 201508171800 090   3 *** *** SCT * * * 12.5 ** ** ** ** ** ** ** ** *   88   62 1013.0 *****  967.8 *** *** ***** ***** ***** ***** **
827840 ***** 201508180000 140   5 *** 722 CLR * * *  1.2 ** ** ** ** ** ** ** ** *   79   59 1013.6 *****  968.2 *** *** ***** ***** ***** ***** **
827840 ***** 201508181200 360   0 *** *** SCT * * * 12.5 ** ** ** ** ** ** ** ** *   78   67 1016.4 *****  971.0 ***  67 ***** ***** ***** ***** **
827840 ***** 201508181800 140   3 *** *** SCT * * * 12.5 ** ** ** ** ** ** ** ** *   91   63 1011.3 *****  966.3 *** *** ***** ***** ***** ***** **
827840 ***** 201508190000 360   0 *** 722 CLR * * *  1.2 ** ** ** ** ** ** ** ** *   75   58 1013.2 *****  967.8 *** *** ***** ***** ***** ***** **
827840 ***** 201508191200 090   3 *** *** SCT * * * 12.5 ** ** ** ** ** ** ** ** *   76   65 1015.6 *****  970.0 ***  66 ***** ***** ***** ***** **
827840 ***** 201508191800 360   0 *** *** SCT * * * 12.5 ** ** ** ** ** ** ** ** *   90   62 1010.4 *****  965.4 *** *** ***** ***** ***** ***** **
827840 ***** 201508200000 360   0 *** 722 CLR * * *  1.2 ** ** ** ** ** ** ** ** *   79   65 1012.2 *****  966.9 *** *** ***** ***** ***** ***** **
827840 ***** 201508201200 360   0 *** *** SCT * * * 12.5 ** ** ** ** ** ** ** ** *   78   67 1015.2 *****  969.9 ***  63 ***** ***** ***** ***** **
827840 ***** 201508201800 360   0 *** *** SCT * * * 12.5 ** ** ** ** ** ** ** ** *   92   64 1009.7 *****  964.7 *** *** ***** ***** ***** ***** **
827840 ***** 201508210000 360   0 *** 722 CLR * * *  1.2 ** ** ** ** ** ** ** ** *   73   60 1012.9 *****  967.3 *** *** ***** ***** ***** ***** **
827840 ***** 201508211200 090   5 *** *** SCT * * * 12.5 ** ** ** ** ** ** ** ** *   80   67 1016.0 *****  970.4 ***  66 ***** ***** ***** ***** **
827840 ***** 201508211800 140   3 *** *** SCT * * * 12.5 ** ** ** ** ** ** ** ** *   91   63 1009.4 *****  964.4 *** *** ***** ***** ***** ***** **
827840 ***** 201508220000 360   0 *** *** SCT * * *  1.2 ** ** ** ** ** ** ** ** *   82   62 1011.8 *****  966.8 *** *** ***** ***** ***** ***** **
827840 ***** 201508221200 090   3 *** *** SCT * * * 12.5 ** ** ** ** ** ** ** ** *   82   65 1014.0 *****  969.1 ***  70 ***** ***** ***** ***** **
827840 ***** 201508221800 140   5 *** 722 CLR * * * 12.5 ** ** ** ** ** ** ** ** *   94   56 1008.5 *****  963.5 *** *** ***** ***** ***** ***** **
827840 ***** 201508230000 360   0 *** 722 CLR * * *  1.2 ** ** ** ** ** ** ** ** *   80   59 1011.4 *****  966.5 *** *** ***** ***** ***** ***** **
827840 ***** 201508231200 140   3 *** 722 CLR * * * 12.5 ** ** ** ** ** ** ** ** *   80   65 1013.8 *****  968.7 ***  65 ***** ***** ***** ***** **
827840 ***** 201508231800 140   5 *** 722 CLR * * * 12.5 ** ** ** ** ** ** ** ** *   91   62 1008.5 *****  963.4 *** *** ***** ***** ***** ***** **
827840 ***** 201508240000 140   3 *** 722 CLR * * *  1.2 ** ** ** ** ** ** ** ** *   80   64 1011.8 *****  966.8 *** *** ***** ***** ***** ***** **
827840 ***** 201508241200 360   0 *** 722 CLR * * * 12.5 ** ** ** ** ** ** ** ** *   79   65 1014.9 *****  969.7 ***  65 ***** ***** ***** ***** **
827840 ***** 201508241800 360   0 *** 722 CLR * * * 12.5 ** ** ** ** ** ** ** ** *   93   62 1009.5 *****  964.6 *** *** ***** ***** ***** ***** **
827840 ***** 201508250000 360   0 *** 722 CLR * * *  1.2 ** ** ** ** ** ** ** ** *   81   68 1011.7 *****  966.6 *** *** ***** ***** ***** ***** **
827840 ***** 201508251200 360   0 ***  20 OVC * * * 12.5 ** ** ** ** ** ** ** ** *   77   71 1016.3 *****  970.9 ***  66 ***** ***** ***** ***** **
827840 ***** 201508251800 360   0 ***  20 BKN * * * 12.5 ** ** ** ** ** ** ** ** *   94   62 1009.6 *****  964.6 *** *** ***** ***** ***** ***** **
827840 ***** 201508260000 360   0 ***  20 BKN * * *  1.2 ** ** ** ** ** ** ** ** *   81   68 1012.6 *****  967.4 *** *** ***** ***** ***** ***** **
827840 ***** 201508261200 360   0 ***  20 BKN * * * 12.5 ** ** ** ** ** ** ** ** *   78   70 1016.0 *****  970.7 ***  66 ***** ***** ***** ***** **
827840 ***** 201508261800 360   0 *** *** SCT * * * 12.5 ** ** ** ** ** ** ** ** *   94   63 1010.3 *****  965.4 *** *** ***** ***** ***** ***** **
827840 ***** 201508270000 360   0 *** *** SCT * * *  1.2 ** ** ** ** ** ** ** ** *   76   70 1013.3 *****  967.9 *** *** ***** ***** ***** ***** **
827840 ***** 201508271200 360   0 *** 722 CLR * * * 12.5 ** ** ** ** ** ** ** ** *   80   70 1014.5 *****  969.1 ***  63 ***** ***** ***** ***** **
827840 ***** 201508271800 140   3 *** 722 CLR * * * 12.5 ** ** ** ** ** ** ** ** *   96   59 1009.0 *****  964.1 *** *** ***** ***** ***** ***** **
827840 ***** 201508280000 140   3 *** 722 CLR * * *  1.2 ** ** ** ** ** ** ** ** *   83   57 1011.7 *****  966.8 *** *** ***** ***** ***** ***** **
827840 ***** 201508281200 140   3 *** 722 CLR * * * 12.5 ** ** ** ** ** ** ** ** *   82   63 1014.7 *****  969.8 ***  65 ***** ***** ***** ***** **
827840 ***** 201508281800 140   3 *** 722 CLR * * * 12.5 ** ** ** ** ** ** ** ** *   97   59 1008.1 *****  963.2 *** *** ***** ***** ***** ***** **
827840 ***** 201508290000 360   0 *** 722 CLR * * *  1.2 ** ** ** ** ** ** ** ** *   81   58 1013.0 *****  968.1 *** *** ***** ***** ***** ***** **
827840 ***** 201508291200 140   5 *** 722 CLR * * * 12.5 ** ** ** ** ** ** ** ** *   79   62 1017.2 *****  972.0 ***  63 ***** ***** ***** ***** **
827840 ***** 201508291800 140   3 *** 722 CLR * * * 12.5 ** ** ** ** ** ** ** ** *   94   59 1010.8 *****  965.9 *** *** ***** ***** ***** ***** **
827840 ***** 201508300000 360   0 *** 722 CLR * * *  1.2 ** ** ** ** ** ** ** ** *   74   61 1014.8 *****  969.3 *** *** ***** ***** ***** ***** **
827840 ***** 201508301200 140   3 ***  20 BKN * * * 12.5 ** ** ** ** ** ** ** ** *   80   68 1017.1 *****  971.6 ***  70 ***** ***** ***** ***** **
827840 ***** 201508301800 360   0 ***  20 BKN * * * 12.5 ** ** ** ** ** ** ** ** *   91   64 1012.2 *****  967.3 *** *** ***** ***** ***** ***** **
827840 ***** 201508310000 140   1 *** *** SCT * * *  1.2 ** ** ** ** ** ** ** ** *   80   64 1014.5 *****  969.4 *** *** ***** ***** ***** ***** **
827840 ***** 201508311200 140   3 *** *** SCT * * * 12.5 ** ** ** ** ** ** ** ** *   78   65 1016.8 *****  971.5 ***  62 ***** ***** ***** ***** **
827840 ***** 201508311800 140   1 *** *** BKN * * * 12.5 ** ** ** ** ** ** ** ** *   91   65 1011.0 *****  966.0 *** *** ***** ***** ***** ***** **
827840 ***** 201509010000 360   0 ***  74 BKN * * *  1.2 ** ** ** ** ** ** ** ** *   77   65 1013.8 *****  968.5 *** *** ***** ***** ***** ***** **
827840 ***** 201509011200 360   0 *** *** SCT * * * 12.5 ** ** ** ** ** ** ** ** *   80   68 1015.6 *****  970.3 ***  67 ***** ***** ***** ***** **
827840 ***** 201509011800 180   1 *** *** SCT * * * 12.5 ** ** ** ** ** ** ** ** *   93   63 1010.4 *****  965.5 *** *** ***** ***** ***** ***** **
827840 ***** 201509020000 360   0 *** 722 CLR * * *  1.2 ** ** ** ** ** ** ** ** *   80   64 1012.6 *****  967.5 *** *** ***** ***** ***** ***** **
827840 ***** 201509021200 180   5 *** *** SCT * * * 12.5 ** ** ** ** ** ** ** ** *   82   63 1015.3 *****  970.2 ***  67 ***** ***** ***** ***** **
827840 ***** 201509021800 140   3 *** *** SCT * * * 12.5 ** ** ** ** ** ** ** ** *   94   66 1009.8 *****  965.0 *** *** ***** ***** ***** ***** **
827840 ***** 201509030000 360   0 *** 722 CLR * * *  1.2 ** ** ** ** ** ** ** ** *   77   68 1012.4 *****  967.3 *** *** ***** ***** ***** ***** **
827840 ***** 201509031200 180   5 *** *** SCT * * * 12.5 ** ** ** ** ** ** ** ** *   81   64 1015.5 *****  970.2 ***  71 ***** ***** ***** ***** **
827840 ***** 201509031800 140   3 *** *** SCT * * * 12.5 ** ** ** ** ** ** ** ** *   90   62 1011.1 *****  966.3 *** *** ***** ***** ***** ***** **
827840 ***** 201509040000 360   0 *** 722 CLR * * *  1.2 ** ** ** ** ** ** ** ** *   75   62 1013.7 *****  968.4 *** *** ***** ***** ***** ***** **
827840 ***** 201509041200 090   1 ***  20 BKN * * * 12.5 ** ** ** ** ** ** ** ** *   81   63 1016.4 *****  970.9 ***  65 ***** ***** ***** ***** **
827840 ***** 201509041800 090   3 *** *** SCT * * * 12.5 ** ** ** ** ** ** ** ** *   93   64 1011.6 *****  966.8 *** *** ***** ***** ***** ***** **
827840 ***** 201509050000 360   0 *** 722 CLR * * *  1.2 ** ** ** ** ** ** ** ** *   81   60 1013.2 *****  968.2 *** *** ***** ***** ***** ***** **
827840 ***** 201509051200 360   0 ***  20 BKN * * * 12.5 ** ** ** ** ** ** ** ** *   81   66 1014.9 *****  969.9 ***  64 ***** ***** ***** ***** **
827840 ***** 201509051800 360   0 ***  20 BKN * * * 12.5 ** ** ** ** ** ** ** ** *   99   62 1008.8 *****  964.2 *** *** ***** ***** ***** ***** **
827840 ***** 201509060000 360   0 ***  20 BKN * * *  1.2 ** ** ** ** ** ** ** ** *   86   53 1010.9 *****  966.3 *** *** ***** ***** ***** ***** **
827840 ***** 201509061200 140   3 ***  20 BKN * * * 12.5 ** ** ** ** ** ** ** ** *   83   68 1015.2 *****  970.5 ***  72 ***** ***** ***** ***** **
827840 ***** 201509061800 360   0 *** 722 CLR * * * 12.5 ** ** ** ** ** ** ** ** *   96   59 1009.0 *****  964.7 *** *** ***** ***** ***** ***** **
827840 ***** 201509070000 360   0 *** 722 CLR * * *  1.2 ** ** ** ** ** ** ** ** *   78   56 1012.3 *****  967.6 *** *** ***** ***** ***** ***** **
827840 ***** 201509071200 360   0 *** *** SCT * * * 12.5 ** ** ** ** ** ** ** ** *   83   57 1014.9 *****  969.8 ***  65 ***** ***** ***** ***** **
827840 ***** 201509071800 180   1 *** 722 CLR * * * 12.5 ** ** ** ** ** ** ** ** *   93   53 1010.0 *****  965.1 *** *** ***** ***** ***** ***** **
827840 ***** 201509080000 360   0 *** 722 CLR * * *  1.2 ** ** ** ** ** ** ** ** *   73   61 1012.9 *****  966.7 *** *** ***** ***** ***** ***** **
827840 ***** 201509081200 140   5 ***  20 BKN * * * 12.5 ** ** ** ** ** ** ** ** *   80   63 1015.3 *****  969.8 ***  60 ***** ***** ***** ***** **
827840 ***** 201509081800 140   3 *** 722 CLR * * * 12.5 ** ** ** ** ** ** ** ** *   93   53 1010.1 *****  965.1 *** *** ***** ***** ***** ***** **
827840 ***** 201509090000 360   0 *** 722 CLR * * *  1.2 ** ** ** ** ** ** ** ** *   74   62 1011.5 *****  966.2 *** *** ***** ***** ***** ***** **
827840 ***** 201509091200 140   5 *** 722 CLR * * *  1.2 ** ** ** ** ** ** ** ** *   82   61 1014.4 *****  969.0 ***  63 ***** ***** ***** ***** **
827840 ***** 201509091800 140   3 *** *** SCT * * * 12.5 ** ** ** ** ** ** ** ** *   94   53 1009.3 *****  964.3 *** *** ***** ***** ***** ***** **
827840 ***** 201509100000 360   0 *** 722 CLR * * *  1.2 ** ** ** ** ** ** ** ** *   77   65 1011.5 *****  966.5 *** *** ***** ***** ***** ***** **
827840 ***** 201509101200 140   3 *** *** SCT * * * 12.5 ** ** ** ** ** ** ** ** *   81   67 1014.5 *****  969.2 ***  67 ***** ***** ***** ***** **
827840 ***** 201509101800 140   3 *** *** SCT * * * 12.5 ** ** ** ** ** ** ** ** *   95   58 1008.5 *****  963.4 *** *** ***** ***** ***** ***** **
827840 ***** 201509110000 360   0 *** 722 CLR * * *  1.2 ** ** ** ** ** ** ** ** *   81   66 1010.4 *****  965.5 *** *** ***** ***** ***** ***** **
827840 ***** 201509111200 090   1 *** *** SCT * * * 12.5 ** ** ** ** ** ** ** ** *   80   61 1014.6 *****  969.5 ***  67 ***** ***** ***** ***** **
827840 ***** 201509111800 360   0 *** *** SCT * * * 12.5 ** ** ** ** ** ** ** ** *   94   59 1008.0 *****  963.3 *** *** ***** ***** ***** ***** **
827840 ***** 201509120000 360   0 *** *** SCT * * *  1.2 ** ** ** ** ** ** ** ** *   79   66 1011.5 *****  966.5 *** *** ***** ***** ***** ***** **
827840 ***** 201509121200 360   0 *** *** SCT * * * 12.5 ** ** ** ** ** ** ** ** *   81   67 1015.7 *****  970.5 ***  63 ***** ***** ***** ***** **
827840 ***** 201509121800 180   3 *** *** SCT * * * 12.5 ** ** ** ** ** ** ** ** *   98   53 1009.7 *****  964.1 *** *** ***** ***** ***** ***** **
827840 ***** 201509130000 140   3 *** 722 CLR * * *  1.2 ** ** ** ** ** ** ** ** *   84   58 1011.1 *****  966.3 *** *** ***** ***** ***** ***** **
827840 ***** 201509131200 360   0 ***  20 BKN * * * 12.5 ** ** ** ** ** ** ** ** *   79   67 1015.7 *****  970.6 ***  66 ***** ***** ***** ***** **
827840 ***** 201509131800 140   1 *** *** SCT * * * 12.5 ** ** ** ** ** ** ** ** *   97   59 1009.4 *****  964.7 *** *** ***** ***** ***** ***** **
827840 ***** 201509140000 360   0 *** 722 CLR * * *  1.2 ** ** ** ** ** ** ** ** *   80   62 1011.4 *****  967.5 *** *** ***** ***** ***** ***** **
827840 ***** 201509141200 140   5 *** *** SCT * * * 12.5 ** ** ** ** ** ** ** ** *   80   68 ****** *****  970.7 ***  70 ***** ***** ***** ***** **
827840 ***** 201509150000 140   5 *** 722 CLR * * *  1.2 ** ** ** ** ** ** ** ** *   83   59 1013.1 *****  968.2 *** *** ***** ***** ***** ***** **
827840 ***** 201509151200 140   5 ***  20 BKN * * * 12.5 ** ** ** ** ** ** ** ** *   82   65 1016.3 *****  971.3 ***  72 ***** ***** ***** ***** **
827840 ***** 201509151800 140   3 ***  20 BKN * * * 12.5 ** ** ** ** ** ** ** ** *   94   60 1010.3 *****  965.6 *** *** ***** ***** ***** ***** **
827840 ***** 201509160000 360   0 *** 722 CLR * * *  1.2 ** ** ** ** ** ** ** ** *   81   64 1012.9 *****  968.0 *** *** ***** ***** ***** ***** **
827840 ***** 201509161200 140   5 ***  20 BKN * * * 12.5 ** ** ** ** ** ** ** ** *   80   63 1016.4 *****  971.1 ***  66 ***** ***** ***** ***** **
827840 ***** 201509161800 140   5 ***  20 BKN * * * 12.5 ** ** ** ** ** ** ** ** *   91   59 1009.9 *****  965.2 *** *** ***** ***** ***** ***** **
827840 ***** 201509170000 360   0 *** 722 CLR * * *  1.2 ** ** ** ** ** ** ** ** *   81   62 1011.8 *****  966.8 *** *** ***** ***** ***** ***** **
827840 ***** 201509171200 360   0 ***  20 BKN * * * 12.5 ** ** ** ** ** ** ** ** *   81   61 1015.2 *****  970.1 ***  66 ***** ***** ***** ***** **
827840 ***** 201509171800 140   3 ***  20 BKN * * * 12.5 ** ** ** ** ** ** ** ** *   91   60 1010.3 *****  964.7 *** *** ***** ***** ***** ***** **
827840 ***** 201509180000 140   7 *** *** SCT * * *  1.2 ** ** ** ** ** ** ** ** *   80   64 1012.7 *****  967.7 *** *** ***** ***** ***** ***** **
827840 ***** 201509181200 180   3 ***  20 OVC * * * 12.5 ** ** ** ** ** ** ** ** *   78   64 1015.4 *****  970.3 ***  70 ***** ***** ***** ***** **
827840 ***** 201509181800 140   1 ***  20 BKN * * * 12.5 ** ** ** ** ** ** ** ** *   92   62 1009.3 *****  964.5 *** *** ***** ***** ***** ***** **
827840 ***** 201509190000 360   0 *** *** SCT * * *  1.2 ** ** ** ** ** ** ** ** *   77   59 1012.7 *****  967.4 *** *** ***** ***** ***** ***** **
827840 ***** 201509191200 140   3 *** 722 CLR * * * 12.5 ** ** ** ** ** ** ** ** *   82   60 1016.3 *****  971.0 ***  66 ***** ***** ***** ***** **
827840 ***** 201509191800 090   3 *** *** SCT * * * 12.5 ** ** ** ** ** ** ** ** *   93   60 1010.0 *****  965.1 *** *** ***** ***** ***** ***** **
