  USAF  WBAN YR--MODAHRMN DIR SPD GUS CLG SKC L M H  VSB MW MW MW MW AW AW AW AW W TEMP DEWP    SLP   ALT    STP MAX MIN PCP01 PCP06 PCP24 PCPXX SD
858920 ***** 201501021200 290  14 *** *** SCT * * * 12.5 ** ** ** ** ** ** ** ** *   52   40 1016.8 ***** ****** ***  43 ***** ***** ***** ***** **
858920 ***** 201501021800 230  11 *** 197 OVC * * * 12.5 ** ** ** ** ** ** ** ** *   69   45 1011.6 ***** ****** *** *** *****  0.00 ***** ***** **
858920 ***** 201501051200 270  15 *** *** SCT * * * 12.5 ** ** ** ** ** ** ** ** *   53   36 1003.9 ***** ****** ***  47 ***** ***** ***** ***** **
858920 ***** 201501051800 240  13 *** *** SCT * * * 12.5 ** ** ** ** ** ** ** ** *   63   26 1001.6 ***** ****** *** *** *****  0.00 ***** ***** **
858920 ***** 201501061200 220  14 ***  34 BKN * * * 12.5 ** ** ** ** ** ** ** ** *   50   35 1004.0 ***** ****** ***  45 ***** *****  0.00 ***** **
858920 ***** 201501061800 220  37 ***  39 BKN * * * 12.5 ** ** ** ** ** ** ** ** *   59   29 1004.6 ***** ****** *** *** ***** *****  0.00 ***** **
858920 ***** 201501071200 280   9 *** *** SCT * * * 12.5 ** ** ** ** ** ** ** ** *   52   33 1010.3 ***** ****** ***  43 ***** *****  0.00 ***** **
858920 ***** 201501071800 230  17 *** *** SCT * * * 12.5 ** ** ** ** ** ** ** ** *   65   36 1008.2 ***** ****** *** *** *****  0.00 ***** ***** **
858920 ***** 201501081200 320   3 ***  39 BKN * * * 12.5 ** ** ** ** ** ** ** ** *   51   43 1003.1 ***** ****** ***  43 ***** *****  0.00 ***** **
858920 ***** 201501081800 270   9 ***  39 OVC * * * 12.5 ** ** ** ** ** ** ** ** *   64   47  999.5 ***** ****** *** *** *****  0.00 ***** ***** **
858920 ***** 201501091200 280   8 *** *** SCT * * * 12.5 ** ** ** ** ** ** ** ** *   57   41 1009.1 ***** ****** ***  50 ***** *****  0.00 ***** **
858920 ***** 201501091800 250   8 *** *** SCT * * * 12.5 ** ** ** ** ** ** ** ** *   69   39 1005.6 ***** ****** *** *** *****  0.00 ***** ***** **
858920 ***** 201501121200 270   8 *** *** SCT * * * 12.5 ** ** ** ** ** ** ** ** *   47   32 1011.6 ***** ****** ***  39 ***** *****  1.38 ***** **
858920 ***** 201501121800 200   8 *** *** SCT * * * 12.5 ** ** ** ** ** ** ** ** *   59   35 1008.3 ***** ****** *** *** *****  0.00 ***** ***** **
858920 ***** 201501131200 300  13 *** *** SCT * * * 12.5 ** ** ** ** ** ** ** ** *   51   37 1007.1 ***** ****** ***  45 ***** *****  0.00 ***** **
858920 ***** 201501131800 250  17 *** *** SCT * * * 12.5 ** ** ** ** ** ** ** ** *   63   33 1007.0 ***** ****** *** *** *****  0.00 ***** ***** **
858920 ***** 201501141200 280   5 *** *** *** * * * 18.8 ** ** ** ** ** ** ** ** *   50   34 1021.0 ***** ****** ***  42 ***** *****  0.00 ***** **
858920 ***** 201501141800 300   9 *** *** *** * * * 18.8 ** ** ** ** ** ** ** ** *   67   34 1017.3 ***** ****** *** *** *****  0.00 ***** ***** **
858920 ***** 201501151200 290  13 ***  98 BKN * * * 12.5 ** ** ** ** ** ** ** ** *   56   40 1011.7 ***** ****** ***  47 ***** *****  0.00 ***** **
858920 ***** 201501151800 230  15 ***  39 BKN * * * 12.5 ** ** ** ** ** ** ** ** *   75   46 1004.9 ***** ****** *** *** *****  0.00 ***** ***** **
858920 ***** 201501161200 260   7 ***  39 BKN * * * 12.5 ** ** ** ** ** ** ** ** *   60   50 1009.9 ***** ****** *** *** ***** *****  0.00 ***** **
858920 ***** 201501161800 210  11 *** *** SCT * * * 12.5 ** ** ** ** ** ** ** ** *   76   47 1009.9 ***** ****** *** *** *****  0.00 ***** ***** **
858920 ***** 201501191200 ***   0 *** *** SCT * * * 12.5 ** ** ** ** ** ** ** ** *   57   50 1021.0 ***** ****** ***  47 ***** *****  0.51 ***** **
858920 ***** 201501191800 260   6 *** *** *** * * * 18.8 ** ** ** ** ** ** ** ** *   75   45 1018.0 ***** ****** *** *** *****  0.00 ***** ***** **
858920 ***** 201501201200 300   7 *** *** *** * * * 18.8 ** ** ** ** ** ** ** ** *   58   45 1018.3 ***** ****** ***  49 ***** *****  0.00 ***** **
858920 ***** 201501201800 240   8 *** *** *** * * * 18.8 ** ** ** ** ** ** ** ** *   78   37 1013.2 ***** ****** *** *** *****  0.00 ***** ***** **
858920 ***** 201501211200 260   3 *** *** *** * * * 12.5 ** ** ** ** ** ** ** ** *   56   42 1013.0 ***** ****** ***  46 ***** *****  0.00 ***** **
858920 ***** 201501211800 320  10 *** *** *** * * * 12.5 ** ** ** ** ** ** ** ** *   80   40 1007.6 ***** ****** *** *** *****  0.00 ***** ***** **
858920 ***** 201501221200 ***   0 *** *** *** * * * 12.5 ** ** ** ** ** ** ** ** *   59   44 1007.7 ***** ****** ***  47 ***** *****  0.00 ***** **
858920 ***** 201501221800 250  17 ***  98 BKN * * * 12.5 ** ** ** ** ** ** ** ** *   78   29 1005.7 ***** ****** *** *** *****  0.00 ***** ***** **
858920 ***** 201501231200 ***   0 *** *** SCT * * * 12.5 ** ** ** ** ** ** ** ** *   60   50 1014.0 ***** ****** ***  49 ***** *****  0.00 ***** **
858920 ***** 201501231800 230  11 *** *** SCT * * * 12.5 ** ** ** ** ** ** ** ** *   77   47 1009.0 ***** ****** *** *** *****  0.00 ***** ***** **
858920 ***** 201501261200 ***   0 ***  39 BKN * * * 12.5 ** ** ** ** ** ** ** ** *   54   49 1002.1 ***** ****** ***  49 ***** *****  0.02 ***** **
858920 ***** 201501261800 240  10 ***  39 BKN * * * 12.5 ** ** ** ** ** ** ** ** *   65   37  999.6 ***** ****** *** *** *****  0.00 ***** ***** **
858920 ***** 201501271200 270   7 *** *** SCT * * * 12.5 ** ** ** ** ** ** ** ** *   51   41 1004.4 ***** ****** ***  43 ***** *****  0.04 ***** **
858920 ***** 201501271800 270   5 *** *** SCT * * * 12.5 ** ** ** ** ** ** ** ** *   63   40 1006.8 ***** ****** *** *** *****  0.00 ***** ***** **
858920 ***** 201501281200 300   9 *** *** SCT * * * 12.5 ** ** ** ** ** ** ** ** *   54   43 1016.8 ***** ****** ***  46 ***** *****  0.00 ***** **
858920 ***** 201501281800 280   7 *** *** SCT * * * 12.5 ** ** ** ** ** ** ** ** *   68   39 1014.8 ***** ****** *** *** *****  0.00 ***** ***** **
858920 ***** 201501291200 300   5 *** *** SCT * * * 12.5 ** ** ** ** ** ** ** ** *   51   42 1012.9 ***** ****** ***  43 ***** *****  0.00 ***** **
858920 ***** 201501291800 290  10 *** *** SCT * * * 12.5 ** ** ** ** ** ** ** ** *   73   43 1006.8 ***** ****** *** *** *****  0.00 ***** ***** **
858920 ***** 201501301200 190   2 *** *** SCT * * * 12.5 ** ** ** ** ** ** ** ** *   58   45 1007.2 ***** ****** ***  50 ***** *****  0.00 ***** **
858920 ***** 201501301800 220   6 ***  39 BKN * * * 12.5 ** ** ** ** ** ** ** ** *   71   49 1005.2 ***** ****** *** *** *****  0.00 ***** ***** **
858920 ***** 201502021200 300   9 *** *** *** * * * 18.8 ** ** ** ** ** ** ** ** *   54   41 1019.0 ***** ****** ***  47 ***** *****  0.00 ***** **
858920 ***** 201502021800 270   7 *** *** *** * * * 18.8 ** ** ** ** ** ** ** ** *   77   35 1013.1 ***** ****** *** *** *****  0.00 ***** ***** **
858920 ***** 201502031200 120   2 *** *** *** * * * 12.5 ** ** ** ** ** ** ** ** *   56   45 1012.4 ***** ****** ***  47 ***** *****  0.00 ***** **
858920 ***** 201502031800 240  11 *** *** *** * * * 12.5 ** ** ** ** ** ** ** ** *   81   40 ****** ***** ****** *** *** *****  0.00 ***** ***** **
858920 ***** 201502041800 250   8 *** *** SCT * * * 12.5 ** ** ** ** ** ** ** ** *   77   39 1004.0 ***** ****** *** *** *****  0.00 ***** ***** **
858920 ***** 201502051200 290   5 ***  21 OVC * * *  5.0 61 ** ** ** ** ** ** ** 6   53   49 1005.8 ***** ****** ***  53 ***** *****  0.09 ***** **
858920 ***** 201502051800 320   9 *** *** SCT * * * 12.5 01 ** ** ** ** ** ** ** 6   71   52 1002.4 ***** ****** *** *** *****  0.12 ***** ***** **
858920 ***** 201502061200 230   9 ***  34 BKN * * * 12.5 ** ** ** ** ** ** ** ** *   53   40 1006.4 ***** ****** ***  46 ***** *****  0.13 ***** **
858920 ***** 201502061800 240  21 *** *** SCT * * * 12.5 ** ** ** ** ** ** ** ** *   65   31 1008.9 ***** ****** *** *** *****  0.00 ***** ***** **
858920 ***** 201502091200 280   9 *** *** SCT * * * 12.5 ** ** ** ** ** ** ** ** *   49   31 1010.9 ***** ****** ***  45 ***** *****  0.17 ***** **
858920 ***** 201502091800 200  16 ***  39 OVC * * * 12.5 ** ** ** ** ** ** ** ** *   55   32 1009.0 ***** ****** *** *** *****  0.00 ***** ***** **
858920 ***** 201502101200 240  15 ***  39 BKN * * * 12.5 ** ** ** ** ** ** ** ** *   55   43 1004.5 ***** ****** ***  49 ***** *****  0.00 ***** **
858920 ***** 201502101800 180   7 ***  39 BKN * * * 12.5 ** ** ** ** ** ** ** ** *   53   45 1003.1 ***** ****** *** *** *****  0.00 ***** ***** **
858920 ***** 201502111200 270  10 ***  39 BKN * * * 12.5 ** ** ** ** ** ** ** ** *   57   38  999.1 ***** ****** ***  52 ***** *****  0.00 ***** **
858920 ***** 201502111800 210  14 ***  39 BKN * * * 12.5 ** ** ** ** ** ** ** ** *   59   38 1001.9 ***** ****** *** *** *****  0.00 ***** ***** **
858920 ***** 201502121200 270  18 *** 197 BKN * * * 12.5 ** ** ** ** ** ** ** ** *   50   33 ****** ***** ****** ***  46 ***** *****  0.00 ***** **
858920 ***** 201502121800 230  20 *** *** SCT * * * 12.5 ** ** ** ** ** ** ** ** *   62   34 1018.3 ***** ****** *** *** *****  0.00 ***** ***** **
858920 ***** 201502131200 ***   0 *** *** *** * * * 18.8 ** ** ** ** ** ** ** ** *   48   38 1019.1 ***** ****** ***  40 ***** *****  0.00 ***** **
858920 ***** 201502161200 230  13 *** *** SCT * * * 18.8 ** ** ** ** ** ** ** ** *   50   31 1016.6 ***** ****** ***  44 ***** *****  0.00 ***** **
858920 ***** 201502161800 260  17 *** *** SCT * * * 12.5 ** ** ** ** ** ** ** ** *   63   27 1016.4 ***** ****** *** *** *****  0.00 ***** ***** **
858920 ***** 201502171200 ***   0 *** *** SCT * * * 12.5 ** ** ** ** ** ** ** ** *   42   32 1010.9 ***** ****** ***  34 ***** *****  0.00 ***** **
858920 ***** 201502171800 230   9 ***  39 BKN * * * 12.5 ** ** ** ** ** ** ** ** *   55   34 1008.9 ***** ****** *** *** *****  0.00 ***** ***** **
858920 ***** 201502181200 260   8 ***  98 OVC * * * 12.5 ** ** ** ** ** ** ** ** *   46   31 1017.6 ***** ****** ***  42 ***** *****  0.00 ***** **
858920 ***** 201502181800 270  11 *** 197 OVC * * * 12.5 ** ** ** ** ** ** ** ** *   53   33 1015.4 ***** ****** *** *** *****  0.00 ***** ***** **
858920 ***** 201502191200 310  13 ***  39 BKN * * * 12.5 ** ** ** ** ** ** ** ** *   53   43 1014.2 ***** ****** ***  51 ***** *****  0.00 ***** **
858920 ***** 201502191800 230  11 *** *** SCT * * * 12.5 ** ** ** ** ** ** ** ** *   69   42 1012.9 ***** ****** *** *** *****  0.00 ***** ***** **
858920 ***** 201502201200 310   9 ***  39 BKN * * * 12.5 ** ** ** ** ** ** ** ** *   52   43 1014.5 ***** ****** ***  48 ***** *****  0.00 ***** **
858920 ***** 201502201800 270  14 *** *** BKN * * * 12.5 ** ** ** ** ** ** ** ** *   71   46 1009.4 ***** ****** *** *** *****  0.00 ***** ***** **
858920 ***** 201502231200 ***   0 *** *** BKN * * * 12.5 ** ** ** ** ** ** ** ** *   45   43 1006.8 ***** ****** ***  43 ***** *****  0.00 ***** **
858920 ***** 201502231800 280  11 ***  39 BKN * * * 12.5 ** ** ** ** ** ** ** ** *   74   45 1002.0 ***** ****** *** *** *****  0.00 ***** ***** **
858920 ***** 201502241200 260   6 *** *** *** * * * 12.5 ** ** ** ** ** ** ** ** *   53   37 1017.8 ***** ****** ***  49 ***** *****  0.00 ***** **
858920 ***** 201502241800 250  13 *** *** *** * * * 12.5 ** ** ** ** ** ** ** ** *   65   35 1018.7 ***** ****** *** *** *****  0.00 ***** ***** **
858920 ***** 201502251200 200   5 *** *** SCT * * * 12.5 ** ** ** ** ** ** ** ** *   44   39 1024.6 ***** ****** ***  39 ***** *****  0.00 ***** **
858920 ***** 201502251800 300  10 *** *** SCT * * * 12.5 ** ** ** ** ** ** ** ** *   70   38 1018.4 ***** ****** *** *** *****  0.00 ***** ***** **
858920 ***** 201502261200 340   7 *** *** SCT * * * 12.5 ** ** ** ** ** ** ** ** *   59   46 1016.0 ***** ****** ***  55 ***** *****  0.00 ***** **
858920 ***** 201502261800 240  11 *** *** *** * * * 18.8 ** ** ** ** ** ** ** ** *   75   36 1013.0 ***** ****** *** *** *****  0.00 ***** ***** **
858920 ***** 201502271200 ***   0 *** *** *** * * * 18.8 ** ** ** ** ** ** ** ** *   53   42 1015.1 ***** ****** ***  46 ***** *****  0.00 ***** **
858920 ***** 201502271800 320   9 *** *** *** * * * 18.8 ** ** ** ** ** ** ** ** *   76   40 1008.6 ***** ****** *** *** *****  0.00 ***** ***** **
858920 ***** 201503021200 250  11 ***  39 BKN * * * 12.5 ** ** ** ** ** ** ** ** *   50   41 1002.3 ***** ****** ***  49 ***** ***** ***** ***** **
858920 ***** 201503021800 150  21 ***  39 OVC * * * 12.5 ** ** ** ** ** ** ** ** *   60   33 1000.4 ***** ****** *** *** *****  0.00 ***** ***** **
858920 ***** 201503031200 ***   0 ***  39 OVC * * * 12.5 ** ** ** ** ** ** ** ** *   49   39 1006.8 ***** ****** ***  46 ***** *****  0.00 ***** **
858920 ***** 201503031800 290  17 ***  39 BKN * * * 12.5 ** ** ** ** ** ** ** ** *   62   40 1005.7 ***** ****** *** *** *****  0.00 ***** ***** **
858920 ***** 201503041200 ***   0 *** *** SCT * * * 12.5 ** ** ** ** ** ** ** ** *   48   44 1008.1 ***** ****** ***  46 ***** *****  0.00 ***** **
858920 ***** 201503041800 330  10 ***  39 BKN * * * 12.5 ** ** ** ** ** ** ** ** *   68   42 1004.3 ***** ****** *** *** *****  0.00 ***** ***** **
858920 ***** 201503051200 ***   0 ***  34 BKN * * * 12.5 03 ** ** ** ** ** ** ** 8   51   45 1000.8 ***** ****** ***  49 ***** *****  0.05 ***** **
858920 ***** 201503051800 220  16 *** *** SCT * * * 12.5 ** ** ** ** ** ** ** ** *   63   32 1006.5 ***** ****** *** *** *****  0.00 ***** ***** **
858920 ***** 201503061200 240   3 *** *** BKN * * * 12.5 ** ** ** ** ** ** ** ** *   44   37 1006.3 ***** ****** ***  39 ***** *****  0.00 ***** **
858920 ***** 201503061800 310   7 ***  39 BKN * * * 12.5 ** ** ** ** ** ** ** ** *   66   39 1000.8 ***** ****** *** *** *****  0.00 ***** ***** **
858920 ***** 201503091200 ***   0 *** *** SCT * * * 12.5 ** ** ** ** ** ** ** ** *   40   36 1012.5 ***** ****** ***  34 ***** *****  0.53 ***** **
858920 ***** 201503091800 160   6 *** *** SCT * * * 12.5 ** ** ** ** ** ** ** ** *   68   35 1002.6 ***** ****** *** *** *****  0.00 ***** ***** **
858920 ***** 201503101200 290   9 *** *** SCT * * * 12.5 ** ** ** ** ** ** ** ** *   55   45 1004.5 ***** ****** ***  52 ***** *****  0.15 ***** **
858920 ***** 201503101800 250  24 *** *** SCT * * * 12.5 ** ** ** ** ** ** ** ** *   68   36 1004.9 ***** ****** *** *** *****  0.00 ***** ***** **
858920 ***** 201503111200 ***   0 *** *** *** * * * 12.5 ** ** ** ** ** ** ** ** *   45   38 1013.9 ***** ****** ***  41 ***** *****  0.00 ***** **
858920 ***** 201503111800 270   5 *** *** SCT * * * 12.5 ** ** ** ** ** ** ** ** *   65   39 1010.7 ***** ****** *** *** *****  0.00 ***** ***** **
858920 ***** 201503121200 ***   0 ***  39 BKN * * * 12.5 ** ** ** ** ** ** ** ** *   51   42 1001.6 ***** ****** ***  43 ***** *****  0.00 ***** **
858920 ***** 201503121800 250   8 ***  34 OVC * * *  6.2 80 ** ** ** ** ** ** ** 2   56   50  998.2 ***** ****** *** *** ***** ***** ***** ***** **
858920 ***** 201503131200 ***   0 *** *** SCT * * * 12.5 ** ** ** ** ** ** ** ** *   43   35 1008.2 ***** ****** ***  41 ***** *****  0.07 ***** **
858920 ***** 201503131800 200   9 *** *** SCT * * * 12.5 ** ** ** ** ** ** ** ** *   54   34 1009.1 ***** ****** *** *** *****  0.00 ***** ***** **
858920 ***** 201503161200 ***   0 ***  15 OVC * * *  4.4 60 ** ** ** ** ** ** ** 6   51   50  987.9 ***** ****** ***  50 ***** ***** ***** ***** **
858920 ***** 201503161800 230  11 ***  16 OVC * * *  5.6 60 ** ** ** ** ** ** ** 6   48   44  994.9 ***** ****** *** *** *****  0.28 ***** ***** **
858920 ***** 201503171200 290   8 ***  39 BKN * * * 12.5 ** ** ** ** ** ** ** ** *   46   34 1010.2 ***** ****** ***  38 ***** *****  0.51 ***** **
858920 ***** 201503171800 290  18 *** *** SCT * * * 12.5 ** ** ** ** ** ** ** ** *   62   33 1010.5 ***** ****** *** *** *****  0.00 ***** ***** **
858920 ***** 201503181800 280  11 ***  39 BKN * * * 12.5 ** ** ** ** ** ** ** ** *   61   33 1002.4 ***** ****** *** *** *****  0.00 ***** ***** **
858920 ***** 201503191200 ***   0 ***  39 BKN * * * 12.5 ** ** ** ** ** ** ** ** *   46   34 1004.8 ***** ****** ***  42 ***** *****  0.04 ***** **
858920 ***** 201503191800 270   7 ***  34 OVC * * *  9.4 ** ** ** ** ** ** ** ** *   53   37 1002.1 ***** ****** *** *** *****  0.00 ***** ***** **
858920 ***** 201503201200 280   6 *** *** SCT * * * 12.5 ** ** ** ** ** ** ** ** *   42   31 1021.0 ***** ****** ***  38 ***** *****  0.01 ***** **
858920 ***** 201503201800 240   8 *** *** SCT * * * 12.5 ** ** ** ** ** ** ** ** *   54   31 1022.1 ***** ****** *** *** *****  0.00 ***** ***** **
858920 ***** 201503231200 ***   0 *** *** SCT * * * 12.5 ** ** ** ** ** ** ** ** *   41   38 1025.1 ***** ****** ***  38 ***** *****  0.00 ***** **
858920 ***** 201503231800 300   7 *** *** SCT * * * 12.5 ** ** ** ** ** ** ** ** *   68   45 1022.5 ***** ****** *** *** *****  0.00 ***** ***** **
858920 ***** 201503241200 ***   0 *** *** *** * * * 12.5 ** ** ** ** ** ** ** ** *   44   41 1026.1 ***** ****** ***  41 ***** *****  0.00 ***** **
858920 ***** 201503241800 180   3 *** *** *** * * * 12.5 ** ** ** ** ** ** ** ** *   71   45 1023.1 ***** ****** *** *** *****  0.00 ***** ***** **
858920 ***** 201503251200 ***   0 ***  39 OVC * * * 12.5 ** ** ** ** ** ** ** ** *   43   42 1021.9 ***** ****** ***  41 ***** *****  0.00 ***** **
858920 ***** 201503251800 300   6 ***  98 BKN * * * 12.5 ** ** ** ** ** ** ** ** *   58   47 1018.5 ***** ****** *** *** *****  0.00 ***** ***** **
858920 ***** 201503261800 290   8 *** 197 BKN * * * 12.5 ** ** ** ** ** ** ** ** *   64   46 1012.0 ***** ****** *** *** *****  0.00 ***** ***** **
858920 ***** 201503271200 ***   0 *** *** *** * * * 12.5 ** ** ** ** ** ** ** ** *   44   41 1011.3 ***** ****** ***  40 ***** *****  0.00 ***** **
858920 ***** 201503301200 ***   0 ***  39 BKN * * * 12.5 ** ** ** ** ** ** ** ** *   39   35 1014.7 ***** ****** ***  38 ***** *****  0.29 ***** **
858920 ***** 201503301800 300  14 ***  39 BKN * * * 12.5 ** ** ** ** ** ** ** ** *   58   36 1007.5 ***** ****** *** *** *****  0.00 ***** ***** **
858920 ***** 201503311200 ***   0 ***  39 BKN * * * 12.5 ** ** ** ** ** ** ** ** *   46   35 1008.5 ***** ****** ***  39 ***** *****  0.04 ***** **
858920 ***** 201503311800 270   7 ***  59 OVC * * *  6.2 ** ** ** ** ** ** ** ** *   53   44 1001.4 ***** ****** *** *** *****  0.00 ***** ***** **
858920 ***** 201504011200 280  10 ***  30 BKN * * *  9.4 03 ** ** ** ** ** ** ** 6   40   37  996.0 ***** ****** ***  39 ***** *****  1.50 ***** **
858920 ***** 201504011800 240  13 *** *** SCT * * * 12.5 ** ** ** ** ** ** ** ** *   51   30 1002.1 ***** ****** *** *** *****  0.00 ***** ***** **
858920 ***** 201504021200 270   9 ***  13 OVC * * *  4.4 63 ** ** ** ** ** ** ** 6   41   36  995.4 ***** ****** ***  40 ***** *****  0.43 ***** **
858920 ***** 201504021800 270  22 *** *** SCT * * * 12.5 ** ** ** ** ** ** ** ** *   55   27  996.2 ***** ****** *** *** *****  0.12 ***** ***** **
858920 ***** 201504061200 ***   0 *** 197 BKN * * * 12.5 ** ** ** ** ** ** ** ** *   31   30 1018.3 ***** ****** ***  30 ***** *****  0.13 ***** **
858920 ***** 201504061800 080   5 *** 197 BKN * * * 12.5 ** ** ** ** ** ** ** ** *   56   38 1013.8 ***** ****** *** *** *****  0.00 ***** ***** **
858920 ***** 201504071200 ***   0 ***  98 OVC * * * 12.5 ** ** ** ** ** ** ** ** *   41   39 1009.9 ***** ****** ***  40 ***** *****  0.00 ***** **
858920 ***** 201504071800 250   5 ***  98 OVC * * * 12.5 ** ** ** ** ** ** ** ** *   54   45 1007.9 ***** ****** *** *** *****  0.00 ***** ***** **
858920 ***** 201504081200 010   5 ***  30 OVC * * *  5.0 61 ** ** ** ** ** ** ** 2   44   43 1004.6 ***** ****** ***  42 ***** ***** ***** ***** **
858920 ***** 201504081800 270   5 ***  34 BKN * * * 12.5 03 ** ** ** ** ** ** ** 8   62   51 1001.5 ***** ****** *** *** *****  0.02 ***** ***** **
858920 ***** 201504091800 190   2 ***  39 OVC * * * 12.5 03 ** ** ** ** ** ** ** 4   59   47 1006.5 ***** ****** *** *** *****  0.00 ***** ***** **
858920 ***** 201504101200 ***   0 *** *** SCT * * * 12.5 ** ** ** ** ** ** ** ** *   36   35 1018.8 ***** ****** ***  34 ***** *****  0.00 ***** **
858920 ***** 201504101800 290   9 *** *** SCT * * * 12.5 ** ** ** ** ** ** ** ** *   58   45 1017.2 ***** ****** *** *** *****  0.00 ***** ***** **
858920 ***** 201504131800 270  11 ***  34 BKN * * *  9.4 ** ** ** ** ** ** ** ** *   50   39 1005.4 ***** ****** *** *** *****  0.01 ***** ***** **
858920 ***** 201504141200 290   5 ***  20 BKN * * *  6.2 ** ** ** ** ** ** ** ** *   35   35 1020.1 ***** ****** ***  30 ***** *****  0.01 ***** **
858920 ***** 201504141800 300   9 *** *** SCT * * * 12.5 01 ** ** ** ** ** ** ** 4   49   39 1020.2 ***** ****** *** *** *****  0.00 ***** ***** **
858920 ***** 201504151200 ***   0 *** *** SCT * * * 12.5 ** ** ** ** ** ** ** ** *   29   28 1025.0 ***** ****** ***  28 ***** *****  0.00 ***** **
858920 ***** 201504151800 270   7 *** *** *** * * * 12.5 ** ** ** ** ** ** ** ** *   54   39 1019.8 ***** ****** *** *** *****  0.00 ***** ***** **
858920 ***** 201504161200 ***   0 *** *** SCT * * * 12.5 ** ** ** ** ** ** ** ** *   32   31 1016.1 ***** ****** ***  31 ***** *****  0.00 ***** **
858920 ***** 201504161800 300   8 *** *** *** * * * 18.8 ** ** ** ** ** ** ** ** *   54   37 1011.9 ***** ****** *** *** *****  0.00 ***** ***** **
858920 ***** 201504171200 290   5 ***  98 BKN * * * 12.5 ** ** ** ** ** ** ** ** *   39   37 1009.5 ***** ****** ***  38 ***** *****  0.00 ***** **
858920 ***** 201504171800 300  11 ***  98 OVC * * * 12.5 ** ** ** ** ** ** ** ** *   54   44 1004.9 ***** ****** *** *** *****  0.00 ***** ***** **
858920 ***** 201504201200 290  14 ***  98 BKN * * * 12.5 ** ** ** ** ** ** ** ** *   41   36 1015.5 ***** ****** ***  38 ***** ***** ***** ***** **
858920 ***** 201504201800 270  11 ***  98 BKN * * * 12.5 ** ** ** ** ** ** ** ** *   51   33 ****** ***** ****** *** *** ***** ***** ***** ***** **
858920 ***** 201504211200 300   5 *** *** BKN * * * 12.5 ** ** ** ** ** ** ** ** *   39   33 1015.9 ***** ****** ***  36 ***** *****  0.00 ***** **
858920 ***** 201504211800 290   9 *** 197 BKN * * * 12.5 ** ** ** ** ** ** ** ** *   52   39 1014.3 ***** ****** *** *** *****  0.00 ***** ***** **
858920 ***** 201504221200 ***   0 ***  34 BKN * * * 12.5 ** ** ** ** ** ** ** ** *   49   42 1010.8 ***** ****** ***  47 ***** *****  0.00 ***** **
858920 ***** 201504221800 300  11 *** 197 BKN * * * 12.5 ** ** ** ** ** ** ** ** *   64   43 1005.4 ***** ****** *** *** *****  0.00 ***** ***** **
858920 ***** 201504231200 310  15 ***  34 BKN * * * 12.5 ** ** ** ** ** ** ** ** *   62   44  998.4 ***** ****** ***  53 ***** *****  0.00 ***** **
858920 ***** 201504231800 250  32 ***  34 BKN * * * 12.5 ** ** ** ** ** ** ** ** *   72   38  997.9 ***** ****** *** *** *****  0.00 ***** ***** **
858920 ***** 201504241200 310   5 ***   2 OBS * * *  0.1 45 ** ** ** ** ** ** ** 4   49   48 1009.2 ***** ****** ***  47 ***** *****  0.28 ***** **
858920 ***** 201504241800 290   6 ***  34 OVC * * *  6.2 03 ** ** ** ** ** ** ** 4   58   53 1006.7 ***** ****** *** *** *****  0.00 ***** ***** **
858920 ***** 201504271200 ***   0 *** *** SCT * * * 12.5 ** ** ** ** ** ** ** ** *   34   33 1020.5 ***** ****** ***  33 ***** *****  0.24 ***** **
858920 ***** 201504271800 140   5 ***  98 OVC * * * 12.5 ** ** ** ** ** ** ** ** *   50   37 1015.5 ***** ****** *** *** *****  0.00 ***** ***** **
858920 ***** 201504281200 ***   0 ***  15 OVC * * *  0.0 45 ** ** ** ** ** ** ** 8   36   35 1014.3 ***** ****** ***  35 ***** *****  0.06 ***** **
858920 ***** 201504281800 300   7 *** *** SCT * * * 12.5 01 ** ** ** ** ** ** ** 4   56   42 1015.0 ***** ****** *** *** *****  0.00 ***** ***** **
858920 ***** 201504291200 270   5 *** *** SCT * * * 12.5 ** ** ** ** ** ** ** ** *   34   33 1013.8 ***** ****** ***  32 ***** *****  0.00 ***** **
858920 ***** 201504291800 ***   0 *** *** SCT * * * 12.5 ** ** ** ** ** ** ** ** *   52   40 1009.0 ***** ****** *** *** *****  0.00 ***** ***** **
858920 ***** 201504301200 ***   0 *** *** SCT * * * 12.5 ** ** ** ** ** ** ** ** *   35   33 1009.7 ***** ****** ***  33 ***** *****  0.07 ***** **
858920 ***** 201504301800 ***   0 ***  39 BKN * * * 12.5 ** ** ** ** ** ** ** ** *   58   37 1005.0 ***** ****** *** *** *****  0.00 ***** ***** **
858920 ***** 201505041200 ***   0 *** *** SCT * * * 12.5 ** ** ** ** ** ** ** ** *   43   32 1007.1 ***** ****** ***  42 ***** *****  0.06 ***** **
858920 ***** 201505041800 250  13 *** *** SCT * * * 12.5 ** ** ** ** ** ** ** ** *   54   32 1006.9 ***** ****** *** *** *****  0.00 ***** ***** **
858920 ***** 201505051200 ***   0 *** *** SCT * * * 12.5 ** ** ** ** ** ** ** ** *   33   30 1021.1 ***** ****** ***  31 ***** *****  0.00 ***** **
858920 ***** 201505051800 080   5 *** *** *** * * * 18.8 ** ** ** ** ** ** ** ** *   51   34 1021.7 ***** ****** *** *** *****  0.00 ***** ***** **
858920 ***** 201505061200 ***   0 ***  98 BKN * * * 12.5 ** ** ** ** ** ** ** ** *   29   28 1022.1 ***** ****** ***  27 ***** *****  0.00 ***** **
858920 ***** 201505061800 ***   0 ***  98 OVC * * * 12.5 ** ** ** ** ** ** ** ** *   39   34 1017.4 ***** ****** *** *** *****  0.00 ***** ***** **
858920 ***** 201505071200 270   5 ***  34 BKN * * * 12.5 ** ** ** ** ** ** ** ** *   36   34 1010.4 ***** ****** ***  34 ***** *****  0.00 ***** **
858920 ***** 201505071800 090   6 ***  39 BKN * * * 12.5 ** ** ** ** ** ** ** ** *   51   36 1007.8 ***** ****** *** *** *****  0.00 ***** ***** **
858920 ***** 201505081200 ***   0 ***  39 OVC * * * 12.5 ** ** ** ** ** ** ** ** *   39   37 1006.5 ***** ****** ***  38 ***** *****  0.00 ***** **
858920 ***** 201505081800 270   5 ***  79 OVC * * * 12.5 ** ** ** ** ** ** ** ** *   51   38 1003.1 ***** ****** *** *** *****  0.00 ***** ***** **
858920 ***** 201505111200 ***   0 ***  34 OVC * * * 12.5 ** ** ** ** ** ** ** ** *   44   35 1008.0 ***** ****** ***  43 ***** *****  0.03 ***** **
858920 ***** 201505111800 270   5 ***  39 BKN * * * 12.5 ** ** ** ** ** ** ** ** *   58   47 1004.0 ***** ****** *** *** *****  0.00 ***** ***** **
858920 ***** 201505121200 ***   0 ***  34 OVC * * *  6.2 ** ** ** ** ** ** ** ** *   49   45  993.5 ***** ****** ***  46 ***** *****  0.00 ***** **
858920 ***** 201505121800 320  10 ***  34 BKN * * * 12.5 01 ** ** ** ** ** ** ** 8   53   45  996.0 ***** ****** *** *** *****  0.00 ***** ***** **
858920 ***** 201505131200 280   6 ***  20 OVC * * *  2.5 36 ** ** ** ** ** ** ** 6   38   35 1003.5 ***** ****** ***  38 ***** *****  0.87 ***** **
858920 ***** 201505131800 270   7 ***  25 OVC * * *  5.0 80 ** ** ** ** ** ** ** 8   45   35 1005.4 ***** ****** *** *** *****  0.04 ***** ***** **
858920 ***** 201505141200 ***   0 ***   5 OVC * * *  5.0 61 ** ** ** ** ** ** ** 8   41   40  992.1 ***** ****** ***  37 ***** *****  0.18 ***** **
858920 ***** 201505141800 020   5 ***  34 OVC * * *  6.2 03 ** ** ** ** ** ** ** 8   55   51  987.9 ***** ****** *** *** *****  0.08 ***** ***** **
858920 ***** 201505151200 280   5 ***  25 OVC * * *  5.0 61 ** ** ** ** ** ** ** 6   49   43  995.9 ***** ****** ***  47 ***** *****  0.22 ***** **
858920 ***** 201505151800 ***   0 ***  15 OVC * * *  5.0 61 ** ** ** ** ** ** ** 6   49   46  985.5 ***** ****** *** *** *****  0.16 ***** ***** **
858920 ***** 201505181200 ***   0 ***  39 BKN * * * 12.5 ** ** ** ** ** ** ** ** *   37   34 1014.6 ***** ****** ***  34 ***** *****  1.69 ***** **
858920 ***** 201505181800 140   5 *** *** SCT * * * 12.5 ** ** ** ** ** ** ** ** *   56   41 1012.3 ***** ****** *** *** *****  0.00 ***** ***** **
858920 ***** 201505191200 270   5 ***  39 BKN * * * 12.5 ** ** ** ** ** ** ** ** *   38   37 1005.7 ***** ****** ***  35 ***** *****  0.02 ***** **
858920 ***** 201505191800 ***   0 ***  34 OVC * * *  9.4 03 ** ** ** ** ** ** ** 8   48   43  999.4 ***** ****** *** *** *****  0.01 ***** ***** **
858920 ***** 201505201200 270   5 ***  25 BKN * * *  6.2 80 ** ** ** ** ** ** ** 8   46   44  977.4 ***** ****** ***  44 ***** *****  0.35 ***** **
858920 ***** 201505201800 310  14 ***  20 OVC * * *  5.0 80 ** ** ** ** ** ** ** 8   44   38  991.7 ***** ****** *** *** *****  0.04 ***** ***** **
858920 ***** 201505221200 ***   0 ***  15 OVC * * *  5.0 61 ** ** ** ** ** ** ** 6   35   33  996.8 ***** ****** ***  35 ***** *****  1.45 ***** **
858920 ***** 201505221800 310   5 ***  20 BKN * * *  6.2 80 ** ** ** ** ** ** ** 8   39   35 1000.5 ***** ****** *** *** *****  0.08 ***** ***** **
858920 ***** 201505251200 270   7 ***  98 BKN * * * 12.5 ** ** ** ** ** ** ** ** *   46   38 1008.3 ***** ****** ***  43 ***** *****  0.00 ***** **
858920 ***** 201505251800 280  14 *** *** SCT * * * 12.5 ** ** ** ** ** ** ** ** *   54   40 1007.6 ***** ****** *** *** *****  0.00 ***** ***** **
858920 ***** 201505261200 230   5 ***  39 BKN * * * 12.5 ** ** ** ** ** ** ** ** *   38   36 1015.2 ***** ****** ***  38 ***** *****  0.00 ***** **
858920 ***** 201505261800 ***   0 ***  98 OVC * * * 12.5 ** ** ** ** ** ** ** ** *   46   39 1013.4 ***** ****** *** *** *****  0.00 ***** ***** **
858920 ***** 201505271800 320   5 ***  98 OVC * * *  9.4 ** ** ** ** ** ** ** ** *   44   41 1010.9 ***** ****** *** *** *****  0.00 ***** ***** **
858920 ***** 201505281200 270   7 ***  98 OVC * * * 12.5 03 ** ** ** ** ** ** ** 8   44   41  993.2 ***** ****** ***  42 ***** *****  0.02 ***** **
858920 ***** 201505281800 320   5 ***  34 BKN * * *  9.4 03 ** ** ** ** ** ** ** 8   51   47  991.5 ***** ****** *** *** *****  0.02 ***** ***** **
858920 ***** 201505291200 330   3 ***  15 OVC * * *  5.6 61 ** ** ** ** ** ** ** 6   44   39  993.0 ***** ****** ***  38 ***** *****  0.20 ***** **
858920 ***** 201505291800 310  16 ***  25 BKN * * *  9.4 ** ** ** ** ** ** ** ** *   47   38  996.4 ***** ****** *** *** *****  0.02 ***** ***** **
858920 ***** 201506011200 ***   0 ***  20 OVC * * *  5.0 61 ** ** ** ** ** ** ** 6   35   34  995.4 ***** ****** ***  32 ***** *****  0.17 ***** **
858920 ***** 201506011800 290   9 *** *** SCT * * * 12.5 01 ** ** ** ** ** ** ** 6   42   39  995.8 ***** ****** *** *** *****  0.16 ***** ***** **
858920 ***** 201506021200 280   6 ***  25 OVC * * *  5.6 60 ** ** ** ** ** ** ** 6   37   37  988.8 ***** ****** ***  33 ***** *****  0.20 ***** **
858920 ***** 201506031200 290   8 ***  25 OVC * * *  6.2 80 ** ** ** ** ** ** ** 8   41   38  992.8 ***** ****** ***  35 ***** *****  0.18 ***** **
858920 ***** 201506031800 360   3 ***  30 BKN * * *  6.2 ** ** ** ** ** ** ** ** *   46   42 1000.0 ***** ****** *** *** *****  0.04 ***** ***** **
858920 ***** 201506041200 290   8 ***  20 OVC * * *  1.9 50 ** ** ** ** ** ** ** 5   38   37  996.8 ***** ****** ***  34 ***** *****  0.07 ***** **
858920 ***** 201506041800 280   8 ***  34 BKN * * *  9.4 01 ** ** ** ** ** ** ** 6   41   40  996.6 ***** ****** *** *** *****  0.02 ***** ***** **
858920 ***** 201506051200 ***   0 ***  15 OVC * * *  5.0 61 ** ** ** ** ** ** ** 6   37   36  987.3 ***** ****** ***  34 ***** *****  0.35 ***** **
858920 ***** 201506051800 300   6 ***  30 BKN * * *  9.4 01 ** ** ** ** ** ** ** 6   42   38  991.8 ***** ****** *** *** *****  0.03 ***** ***** **
858920 ***** 201506081200 ***   0 *** *** *** * * * 18.8 ** ** ** ** ** ** ** ** *   27   25 1014.4 ***** ****** ***  26 ***** *****  0.11 ***** **
858920 ***** 201506081800 300   8 *** *** *** * * * 18.8 ** ** ** ** ** ** ** ** *   37   28 1010.9 ***** ****** *** *** *****  0.00 ***** ***** **
858920 ***** 201506091200 070   2 *** 197 BKN * * * 12.5 ** ** ** ** ** ** ** ** *   24   23 1008.4 ***** ****** ***  24 ***** *****  0.00 ***** **
858920 ***** 201506101200 310   6 ***  15 OVC * * *  3.8 83 ** ** ** ** ** ** ** 8   35   32  996.4 ***** ****** ***  28 ***** *****  0.01 ***** **
858920 ***** 201506101800 260   9 ***  34 BKN * * *  6.2 03 ** ** ** ** ** ** ** 8   41   31 1000.0 ***** ****** *** *** *****  0.16 ***** ***** **
858920 ***** 201506111200 270   3 ***  39 BKN * * * 12.5 ** ** ** ** ** ** ** ** *   35   24 1012.8 ***** ****** ***  33 ***** *****  0.16 ***** **
858920 ***** 201506111800 290   7 *** *** BKN * * * 12.5 ** ** ** ** ** ** ** ** *   45   28 1007.6 ***** ****** *** *** *****  0.00 ***** ***** **
858920 ***** 201506121200 320   5 ***  34 BKN * * * 12.5 02 ** ** ** ** ** ** ** 6   39   32 1005.8 ***** ****** ***  38 ***** *****  0.02 ***** **
858920 ***** 201506151200 210   6 ***  15 OVC * * *  6.2 61 ** ** ** ** ** ** ** 6   43   41  997.8 ***** ****** ***  40 ***** *****  0.06 ***** **
858920 ***** 201506151800 270   9 ***  34 OVC * * *  6.2 80 ** ** ** ** ** ** ** 8   52   43  994.3 ***** ****** *** *** *****  0.08 ***** ***** **
858920 ***** 201506161200 250  11 ***  34 BKN * * *  9.4 02 ** ** ** ** ** ** ** 6   35   19  999.0 ***** ****** ***  34 ***** *****  0.65 ***** **
858920 ***** 201506161800 230  14 ***  34 BKN * * *  9.4 ** ** ** ** ** ** ** ** *   39   22 1004.9 ***** ****** *** *** *****  0.00 ***** ***** **
858920 ***** 201506171200 300   9 ***  34 BKN * * * 12.5 ** ** ** ** ** ** ** ** *   37   27 1019.3 ***** ****** ***  31 ***** *****  0.00 ***** **
858920 ***** 201506171800 300   8 *** *** SCT * * * 12.5 ** ** ** ** ** ** ** ** *   44   29 1021.2 ***** ****** *** *** *****  0.00 ***** ***** **
858920 ***** 201506181200 090   2 *** *** SCT * * * 12.5 ** ** ** ** ** ** ** ** *   30   26 1022.7 ***** ****** ***  30 ***** *****  0.00 ***** **
858920 ***** 201506181800 280   8 ***  89 OVC * * * 12.5 ** ** ** ** ** ** ** ** *   34   28 1019.2 ***** ****** *** *** *****  0.00 ***** ***** **
858920 ***** 201506191200 270   6 ***  20 OVC * * *  6.2 61 ** ** ** ** ** ** ** 6   33   32 1000.0 ***** ****** ***  28 ***** *****  0.17 ***** **
858920 ***** 201506191800 ***   0 ***  25 BKN * * *  6.2 03 ** ** ** ** ** ** ** 6   39   37  997.0 ***** ****** *** *** *****  0.00 ***** ***** **
858920 ***** 201506221200 020   5 *** *** *** * * * 12.5 ** ** ** ** ** ** ** ** *   29   24 1024.0 ***** ****** ***  29 *****  0.00 ***** ***** **
858920 ***** 201506221800 280   8 *** *** SCT * * * 12.5 ** ** ** ** ** ** ** ** *   39   25 1023.1 ***** ****** *** *** *****  0.00 ***** ***** **
858920 ***** 201506231200 ***   0 *** *** SCT * * * 12.5 ** ** ** ** ** ** ** ** *   25   24 1013.2 ***** ****** ***  23 ***** *****  0.00 ***** **
858920 ***** 201506231800 290   5 *** *** SCT * * * 12.5 ** ** ** ** ** ** ** ** *   36   26 1009.7 ***** ****** *** *** *****  0.00 ***** ***** **
858920 ***** 201506251200 310   5 ***  39 BKN * * * 12.5 ** ** ** ** ** ** ** ** *   35   33 1003.2 ***** ****** ***  31 ***** *****  0.00 ***** **
858920 ***** 201506251800 ***   0 ***  98 BKN * * * 12.5 ** ** ** ** ** ** ** ** *   48   40 1002.3 ***** ****** *** *** *****  0.00 ***** ***** **
858920 ***** 201506261200 270   8 ***  34 BKN * * *  9.4 02 ** ** ** ** ** ** ** 8   41   35 1008.5 ***** ****** ***  40 ***** *****  0.01 ***** **
858920 ***** 201506261800 230  11 ***  34 BKN * * * 12.5 ** ** ** ** ** ** ** ** *   46   29 1015.3 ***** ****** *** *** *****  0.02 ***** ***** **
858920 ***** 201506301200 210   7 *** *** SCT * * * 12.5 ** ** ** ** ** ** ** ** *   23   22 1018.7 ***** ****** *** *** ***** *****  0.01 ***** **
858920 ***** 201506301800 270  10 *** *** SCT * * * 12.5 ** ** ** ** ** ** ** ** *   41   25 1018.8 ***** ****** *** *** *****  0.00 ***** ***** **
858920 ***** 201507011200 ***   0 ***  98 BKN * * * 12.5 ** ** ** ** ** ** ** ** *   29   25 1016.4 ***** ****** ***  28 ***** *****  0.00 ***** **
858920 ***** 201507011800 ***   0 ***  89 OVC * * * 12.5 ** ** ** ** ** ** ** ** *   36   26 1013.8 ***** ****** *** *** *****  0.00 ***** ***** **
858920 ***** 201507021200 080   3 *** *** *** * * * 12.5 ** ** ** ** ** ** ** ** *   22   20 1020.0 ***** ****** ***  22 ***** ***** *****  0.00 **
858920 ***** 201507031200 260   5 *** *** SCT * * * 12.5 ** ** ** ** ** ** ** ** *   26   23 1023.5 ***** ****** ***  25 ***** *****  0.00 ***** **
858920 ***** 201507031800 310   8 *** *** SCT * * * 12.5 ** ** ** ** ** ** ** ** *   34   25 1019.6 ***** ****** *** *** *****  0.00 ***** ***** **
858920 ***** 201507061800 290   9 ***  39 BKN * * * 12.5 ** ** ** ** ** ** ** ** *   39   34 1002.4 ***** ****** *** *** *****  0.00 ***** ***** **
858920 ***** 201507071800 ***   0 ***   1 BKN * * *  0.2 05 ** ** ** ** ** ** ** 4   33   33 1005.0 ***** ****** *** *** *****  0.00 ***** ***** **
858920 ***** 201507081200 ***   0 *** *** OVC * * *  5.0 61 ** ** ** ** ** ** ** 6   32   32  986.8 ***** ****** ***  32 ***** *****  0.16 ***** **
858920 ***** 201507081800 320   6 ***  25 BKN * * *  6.2 03 ** ** ** ** ** ** ** 6   39   35  991.9 ***** ****** *** *** *****  0.04 ***** ***** **
858920 ***** 201507091200 290   7 ***  34 OVC * * *  9.4 ** ** ** ** ** ** ** ** *   35   30 1003.0 ***** ****** ***  33 ***** *****  0.05 ***** **
858920 ***** 201507101200 ***   0 ***  39 BKN * * * 12.5 ** ** ** ** ** ** ** ** *   26   24 1011.9 ***** ****** ***  25 ***** *****  0.00 ***** **
858920 ***** 201507101800 270   7 *** *** SCT * * * 12.5 ** ** ** ** ** ** ** ** *   39   27 1008.8 ***** ****** *** *** *****  0.00 ***** ***** **
858920 ***** 201507131200 270   5 ***  20 OVC * * *  5.0 80 ** ** ** ** ** ** ** 8   35   32  989.1 ***** ****** ***  30 ***** *****  0.17 ***** **
858920 ***** 201507131800 200  14 ***  34 BKN * * * 12.5 03 ** ** ** ** ** ** ** 8   39   32  997.0 ***** ****** *** *** *****  0.02 ***** ***** **
858920 ***** 201507141200 080   2 *** 197 BKN * * *  9.4 ** ** ** ** ** ** ** ** *   27   23 1004.1 ***** ****** ***  26 ***** *****  0.02 ***** **
858920 ***** 201507141800 320   7 ***  30 OVC * * *  9.4 80 ** ** ** ** ** ** ** 2   44   34  995.6 ***** ****** *** *** ***** ***** ***** ***** **
858920 ***** 201507151200 350   5 ***  20 OVC * * *  5.0 80 ** ** ** ** ** ** ** 8   32   30  996.8 ***** ****** ***  26 ***** *****  0.77 *****  0
858920 ***** 201507151800 260  10 *** *** SCT * * * 12.5 01 ** ** ** ** ** ** ** 8   38   31 1005.5 ***** ****** *** *** *****  0.02 ***** ***** **
858920 ***** 201507171200 280   9 ***  30 OVC * * *  5.6 80 ** ** ** ** ** ** ** 8   34   32  993.0 ***** ****** ***  34 ***** *****  0.13  0.12 **
858920 ***** 201507171800 330   8 ***  15 BKN * * *  3.8 85 ** ** ** ** ** ** ** 8   34   32  998.6 ***** ****** *** *** *****  0.02 ***** ***** **
858920 ***** 201507201200 ***   0 ***  98 BKN * * * 12.5 ** ** ** ** ** ** ** ** *   30   28 1018.5 ***** ****** ***  29 ***** *****  0.02 ***** **
858920 ***** 201507201800 ***   0 ***  59 OVC * * *  9.4 ** ** ** ** ** ** ** ** *   44   30 1009.7 ***** ****** *** *** *****  0.00 ***** ***** **
858920 ***** 201507211200 300   7 ***  25 OVC * * *  5.0 61 ** ** ** ** ** ** ** 6   38   36 1004.0 ***** ****** ***  35 ***** *****  0.12 ***** **
858920 ***** 201507211800 280   5 ***  34 BKN * * *  6.2 03 ** ** ** ** ** ** ** 8   45   37 1006.1 ***** ****** *** *** *****  0.00 ***** ***** **
858920 ***** 201507221800 320   2 ***  26 OVC * * *  6.2 ** ** ** ** ** ** ** ** *   44   39 1001.2 ***** ****** *** *** *****  0.00 ***** ***** **
858920 ***** 201507231200 ***   0 ***  30 BKN * * *  7.5 02 ** ** ** ** ** ** ** 6   38   37 1002.2 ***** ****** ***  37 ***** *****  0.94 ***** **
858920 ***** 201507241200 120   2 ***  30 BKN * * *  9.4 02 ** ** ** ** ** ** ** 8   36   35 1002.4 ***** ****** ***  35 ***** *****  0.01 ***** **
858920 ***** 201507241800 310  16 ***  34 OVC * * *  6.2 80 ** ** ** ** ** ** ** 2   56   41  994.2 ***** ****** *** *** ***** ***** ***** ***** **
858920 ***** 201507271200 310   3 ***  34 OVC * * *  9.4 ** ** ** ** ** ** ** ** *   38   37  993.3 ***** ****** ***  37 ***** *****  0.31 ***** **
858920 ***** 201507271800 030   3 ***  39 BKN * * * 12.5 ** ** ** ** ** ** ** ** *   55   38  992.0 ***** ****** *** *** *****  0.00 ***** ***** **
858920 ***** 201507281200 ***   0 *** 197 BKN * * *  9.4 ** ** ** ** ** ** ** ** *   33   32 1004.9 ***** ****** ***  32 ***** *****  0.00 ***** **
858920 ***** 201507281800 300   7 *** 197 BKN * * * 12.5 ** ** ** ** ** ** ** ** *   46   37 1005.5 ***** ****** *** *** *****  0.00 ***** ***** **
858920 ***** 201507291200 290   3 ***  34 BKN * * *  9.4 ** ** ** ** ** ** ** ** *   35   32 1007.8 ***** ****** ***  32 ***** *****  0.00 ***** **
858920 ***** 201507291800 290   8 ***  34 OVC * * *  9.4 ** ** ** ** ** ** ** ** *   49   38 1006.1 ***** ****** *** *** *****  0.00 ***** ***** **
858920 ***** 201507301200 270   9 ***   2 OVC * * *  0.6 10 ** ** ** ** ** ** ** 2   34   34 1005.0 ***** ****** ***  34 ***** *****  0.00 ***** **
858920 ***** 201507301800 290   8 *** *** SCT * * *  9.4 01 ** ** ** ** ** ** ** 4   43   38 1005.1 ***** ****** *** *** *****  0.00 ***** ***** **
858920 ***** 201507311800 ***   0 ***  25 OVC * * *  6.2 01 ** ** ** ** ** ** ** 4   36   35 1007.6 ***** ****** *** *** *****  0.00 ***** ***** **
858920 ***** 201508031200 ***   0 ***  34 BKN * * *  9.4 ** ** ** ** ** ** ** ** *   34   32 1009.7 ***** ****** ***  33 ***** *****  0.02 ***** **
858920 ***** 201508041200 ***   0 ***  98 OVC * * *  9.4 ** ** ** ** ** ** ** ** *   30   29 1007.9 ***** ****** ***  29 ***** *****  0.00 ***** **
858920 ***** 201508041800 300   7 ***  79 OVC * * *  9.4 ** ** ** ** ** ** ** ** *   40   34 1002.1 ***** ****** *** *** *****  0.00 ***** ***** **
858920 ***** 201508051200 ***   0 ***  34 BKN * * *  9.4 02 ** ** ** ** ** ** ** 6   41   38  987.6 ***** ****** ***  37 ***** *****  0.16 ***** **
858920 ***** 201508051800 330   8 ***  34 BKN * * *  9.4 ** ** ** ** ** ** ** ** *   53 ****  989.2 ***** ****** *** *** ***** ***** *****  0.00 **
858920 ***** 201508061200 ***   0 *** 197 BKN * * *  9.4 ** ** ** ** ** ** ** ** *   28   27  999.3 ***** ****** ***  28 ***** *****  0.00 ***** **
858920 ***** 201508061800 270   6 *** 197 BKN * * * 12.5 ** ** ** ** ** ** ** ** *   44   31  997.5 ***** ****** *** *** *****  0.00 ***** ***** **
858920 ***** 201508071200 ***   0 *** 197 BKN * * *  9.4 ** ** ** ** ** ** ** ** *   26   22 1004.3 ***** ****** ***  24 ***** *****  0.00 ***** **
858920 ***** 201508071800 250  13 ***  30 OVC * * *  6.2 ** ** ** ** ** ** ** ** *   39   29 1005.0 ***** ****** *** *** *****  0.00 ***** ***** **
858920 ***** 201508101200 300   8 ***  39 BKN * * * 12.5 ** ** ** ** ** ** ** ** *   34   27 1015.7 ***** ****** ***  29 ***** *****  0.00 ***** **
858920 ***** 201508101800 300   7 ***  39 BKN * * * 12.5 ** ** ** ** ** ** ** ** *   41   26 1014.8 ***** ****** *** *** *****  0.00 ***** ***** **
858920 ***** 201508111200 290   5 ***  39 BKN * * * 12.5 ** ** ** ** ** ** ** ** *   32   28 1014.2 ***** ****** ***  31 ***** *****  0.00 ***** **
858920 ***** 201508111800 250   8 *** *** SCT * * * 12.5 ** ** ** ** ** ** ** ** *   48   32 1014.1 ***** ****** *** *** *****  0.00 ***** ***** **
858920 ***** 201508121200 130   2 *** *** SCT * * * 12.5 ** ** ** ** ** ** ** ** *   28   26 1028.7 ***** ****** ***  28 ***** *****  0.00 ***** **
858920 ***** 201508121800 320   8 *** *** SCT * * * 12.5 ** ** ** ** ** ** ** ** *   45   30 1028.4 ***** ****** *** *** *****  0.00 ***** ***** **
858920 ***** 201508131200 ***   0 *** *** *** * * * 18.8 ** ** ** ** ** ** ** ** *   25   23 1026.6 ***** ****** ***  25 ***** *****  0.00 ***** **
858920 ***** 201508131800 310   8 *** *** SCT * * * 12.5 ** ** ** ** ** ** ** ** *   41   24 1018.8 ***** ****** *** *** *****  0.00 ***** ***** **
858920 ***** 201508141200 ***   0 ***  39 BKN * * * 12.5 ** ** ** ** ** ** ** ** *   29   25 1000.4 ***** ****** ***  27 ***** *****  0.00 ***** **
858920 ***** 201508141800 ***   0 ***  34 OVC * * * 12.5 ** ** ** ** ** ** ** ** *   50   33  994.0 ***** ****** *** *** *****  0.00 ***** ***** **
858920 ***** 201508171200 220   9 ***  20 OVC * * *  5.0 61 ** ** ** ** ** ** ** 6   40   36  995.4 ***** ****** ***  38 ***** *****  1.46 ***** **
858920 ***** 201508171800 200  21 *** *** SCT * * * 12.5 01 ** ** ** ** ** ** ** 6   40   26 1005.1 ***** ****** *** *** *****  0.02 ***** ***** **
858920 ***** 201508181200 290   9 *** *** SCT * * * 12.5 ** ** ** ** ** ** ** ** *   32   19 1020.9 ***** ****** ***  29 ***** *****  0.02 ***** **
858920 ***** 201508181800 220   8 *** *** SCT * * * 12.5 ** ** ** ** ** ** ** ** *   42   22 1020.6 ***** ****** *** *** *****  0.00 ***** ***** **
858920 ***** 201508191200 ***   0 *** *** *** * * * 18.8 ** ** ** ** ** ** ** ** *   29   22 1023.0 ***** ****** ***  27 ***** *****  0.00 ***** **
858920 ***** 201508191800 050   6 *** 197 BKN * * * 12.5 ** ** ** ** ** ** ** ** *   42   24 1018.4 ***** ****** *** *** *****  0.00 ***** ***** **
858920 ***** 201508201800 290  11 ***  25 BKN * * *  9.4 ** ** ** ** ** ** ** ** *   42   37 1008.0 ***** ****** *** *** *****  0.00 ***** ***** **
858920 ***** 201508211200 250   3 ***   2 OBS * * *  0.1 10 ** ** ** ** ** ** ** 4   34   33 1005.2 ***** ****** ***  30 ***** *****  0.00 ***** **
858920 ***** 201508211800 240   3 ***  25 OVC * * *  7.5 02 ** ** ** ** ** ** ** 4   42   40 ****** ***** ****** *** *** *****  0.00 ***** ***** **
858920 ***** 201508241200 ***   0 ***  34 BKN * * *  0.2 42 ** ** ** ** ** ** ** 8   35   34 1001.1 ***** ****** ***  34 ***** *****  0.06 ***** **
858920 ***** 201508241800 290   7 *** *** SCT * * * 12.5 03 ** ** ** ** ** ** ** 4   49   40  998.0 ***** ****** *** *** *****  0.00 ***** ***** **
858920 ***** 201508251200 280   2 ***  30 OVC * * *  6.2 02 ** ** ** ** ** ** ** 8   37   36  997.0 ***** ****** ***  35 ***** *****  0.03 ***** **
858920 ***** 201508251800 060   5 ***  34 BKN * * *  6.2 ** ** ** ** ** ** ** ** *   50   41  994.7 ***** ****** *** *** *****  0.00 ***** ***** **
858920 ***** 201508261200 ***   0 ***  34 BKN * * * 12.5 ** ** ** ** ** ** ** ** *   34   34 1004.3 ***** ****** ***  34 ***** *****  0.00 ***** **
858920 ***** 201508261800 300   9 *** *** SCT * * * 12.5 01 ** ** ** ** ** ** ** 4   51   40 1004.7 ***** ****** *** *** *****  0.00 ***** ***** **
858920 ***** 201508271200 ***   0 ***  30 OVC * * *  9.4 ** ** ** ** ** ** ** ** *   38   34 1000.4 ***** ****** ***  33 ***** *****  0.00 ***** **
858920 ***** 201508271800 070  14 ***  30 OVC * * *  9.4 ** ** ** ** ** ** ** ** *   52   36  990.6 ***** ****** *** *** *****  0.00 ***** ***** **
858920 ***** 201508281200 320   7 ***  20 OVC * * *  5.0 81 ** ** ** ** ** ** ** 8   41   39  987.0 ***** ****** ***  40 ***** *****  0.31 ***** **
858920 ***** 201508281800 220  10 ***  34 BKN * * *  6.2 03 ** ** ** ** ** ** ** 6   47   37  987.8 ***** ****** *** *** *****  0.08 ***** ***** **
858920 ***** 201508311200 260   2 *** *** *** * * * 12.5 ** ** ** ** ** ** ** ** *   32   24 1028.8 ***** ****** ***  32 ***** *****  0.00 ***** **
858920 ***** 201508311800 290   9 *** *** *** * * * 12.5 ** ** ** ** ** ** ** ** *   47   20 1029.1 ***** ****** *** *** *****  0.00 ***** ***** **
858920 ***** 201509011200 270   7 *** *** *** * * * 18.8 ** ** ** ** ** ** ** ** *   30   24 1029.5 ***** ****** ***  27 ***** *****  0.00 ***** **
858920 ***** 201509011800 310  11 *** *** *** * * * 18.8 ** ** ** ** ** ** ** ** *   47   27 1024.5 ***** ****** *** *** *****  0.00 ***** ***** **
858920 ***** 201509021200 310   7 *** *** SCT * * * 12.5 ** ** ** ** ** ** ** ** *   38   26 1027.2 ***** ****** ***  37 ***** *****  0.00 ***** **
858920 ***** 201509021800 260   7 *** *** SCT * * * 12.5 ** ** ** ** ** ** ** ** *   53   28 1023.7 ***** ****** *** *** *****  0.00 ***** ***** **
858920 ***** 201509031200 290  11 ***  39 BKN * * *  9.4 ** ** ** ** ** ** ** ** *   44   27 1018.7 ***** ****** *** *** ***** *****  0.00 ***** **
858920 ***** 201509041200 290   6 ***  98 BKN * * * 12.5 ** ** ** ** ** ** ** ** *   40   34 1021.2 ***** ****** ***  36 ***** *****  0.00 ***** **
858920 ***** 201509071200 ***   0 *** *** SCT * * * 12.5 ** ** ** ** ** ** ** ** *   29   26  999.4 ***** ****** ***  26 ***** *****  0.02 ***** **
858920 ***** 201509071800 260   6 ***  39 BKN * * * 12.5 ** ** ** ** ** ** ** ** *   47   30  995.9 ***** ****** *** *** *****  0.00 ***** ***** **
858920 ***** 201509081200 ***   0 *** *** SCT * * *  9.4 01 ** ** ** ** ** ** ** 7   26   25 1004.7 ***** ****** ***  26 ***** *****  0.12 *****  2
858920 ***** 201509081800 180   9 ***  39 BKN * * * 12.5 ** ** ** ** ** ** ** ** *   43   26 1005.5 ***** ****** *** *** *****  0.00 ***** ***** **
858920 ***** 201509091200 ***   0 ***  20 BKN * * *  6.2 ** ** ** ** ** ** ** ** *   32   21 1006.5 ***** ****** ***  29 ***** *****  0.06 ***** **
858920 ***** 201509091800 240   8 ***  25 OVC * * *  6.2 80 ** ** ** ** ** ** ** 8   40   32 1004.3 ***** ****** *** *** ***** ***** ***** ***** **
858920 ***** 201509101200 180   8 *** *** SCT * * * 12.5 ** ** ** ** ** ** ** ** *   37   20 1015.2 ***** ****** ***  34 ***** *****  0.00 ***** **
858920 ***** 201509101800 230  14 *** *** SCT * * * 12.5 ** ** ** ** ** ** ** ** *   46   20 1017.8 ***** ****** *** *** *****  0.00 ***** ***** **
858920 ***** 201509111200 270  10 ***  39 OVC * * * 12.5 ** ** ** ** ** ** ** ** *   41   31 1018.8 ***** ****** ***  38 ***** *****  0.00 ***** **
858920 ***** 201509111800 250  11 ***  39 BKN * * * 12.5 ** ** ** ** ** ** ** ** *   48   33 1018.2 ***** ****** *** *** *****  0.00 ***** ***** **
858920 ***** 201509141200 270  10 ***  25 OVC * * *  5.0 60 ** ** ** ** ** ** ** 6   36   33  999.2 ***** ****** ***  35 ***** *****  0.06 ***** **
858920 ***** 201509141800 240  10 *** *** SCT * * * 12.5 01 ** ** ** ** ** ** ** 8   44   22 1000.3 ***** ****** *** *** *****  0.00 ***** ***** **
858920 ***** 201509161200 270  10 *** *** SCT * * * 12.5 ** ** ** ** ** ** ** ** *   40   26 1009.5 ***** ****** ***  33 ***** *****  0.00 ***** **
858920 ***** 201509161800 210  10 *** *** SCT * * * 12.5 ** ** ** ** ** ** ** ** *   52   24 1006.9 ***** ****** *** *** *****  0.00 ***** ***** **
858920 ***** 201509171200 260   9 *** *** SCT * * * 12.5 ** ** ** ** ** ** ** ** *   38   25 1014.2 ***** ****** ***  36 ***** *****  0.00 ***** **
858920 ***** 201509171800 240  11 ***  39 BKN * * * 12.5 ** ** ** ** ** ** ** ** *   46   23 1015.1 ***** ****** *** *** *****  0.00 ***** ***** **
