  USAF  WBAN YR--MODAHRMN DIR SPD GUS CLG SKC L M H  VSB MW MW MW MW AW AW AW AW W TEMP DEWP    SLP   ALT    STP MAX MIN PCP01 PCP06 PCP24 PCPXX SD
916480 ***** 201501010600 060  11 *** *** OVC * * * 12.5 15 ** ** ** ** ** ** ** 8   82   78 1005.3 ***** ****** *** *** *****  0.02 ***** ***** **
916480 ***** 201501011800 990   3 *** *** OVC * * * 12.5 15 ** ** ** ** ** ** ** 8   83   78 1005.5 ***** ****** *** *** *****  0.00 ***** ***** **
916480 ***** 201501020000 990   1 *** *** SCT * * * 31.2 01 ** ** ** ** ** ** ** 0   89   80 1006.7 ***** ****** ***  81 *****  0.00  0.32 ***** **
916480 ***** 201501020600 090  10 *** *** OVC * * * 12.5 15 ** ** ** ** ** ** ** 8   83   78 1006.0 ***** ****** *** *** *****  0.28 ***** ***** **
916480 ***** 201501040600 040   6 *** *** BKN * * * 31.2 02 ** ** ** ** ** ** ** 2   85   76 1004.0 ***** ****** *** *** *****  0.00 ***** ***** **
916480 ***** 201501041200 ***   0 *** *** BKN * * * 31.2 02 ** ** ** ** ** ** ** 2   84   78 1005.4 ***** ******  91 *** *****  0.00 ***** ***** **
916480 ***** 201501050000 990   1 *** *** SCT * * * 31.2 01 ** ** ** ** ** ** ** 0   89   78 1004.1 ***** ****** ***  82 *****  0.00  0.01 ***** **
916480 ***** 201501050600 090   6 *** *** BKN * * * 12.5 15 ** ** ** ** ** ** ** 2   86   78 1003.4 ***** ****** *** *** *****  0.00 ***** ***** **
916480 ***** 201501051200 990   3 *** *** SCT * * * 31.2 01 ** ** ** ** ** ** ** 0   84   78 1004.4 ***** ******  91 *** *****  0.00 ***** ***** **
916480 ***** 201501051800 990   2 *** *** BKN * * * 31.2 03 ** ** ** ** ** ** ** 0   84   79 1004.4 ***** ****** *** *** *****  0.00 ***** ***** **
916480 ***** 201501060000 990   2 *** *** BKN * * * 12.5 15 ** ** ** ** ** ** ** 8   87   79 1005.3 ***** ****** ***  83 *****  0.31 39.33 ***** **
916480 ***** 201501060600 230  16 *** *** OVC * * * 12.5 80 ** ** ** ** ** ** ** 6   78   77 1005.9 ***** ****** *** *** *****  2.20 ***** ***** **
916480 ***** 201501070000 050   5 *** *** SCT * * * 12.5 15 ** ** ** ** ** ** ** 8   88   79 1005.4 ***** ****** ***  78 *****  0.00  2.67 ***** **
916480 ***** 201501070600 ***   0 *** *** BKN * * * 12.5 15 ** ** ** ** ** ** ** 2   82   79 1004.7 ***** ****** *** *** *****  0.00 ***** ***** **
916480 ***** 201501090600 ***   0 *** *** SCT * * * 31.2 01 ** ** ** ** ** ** ** 0   86   76 1005.7 ***** ****** *** *** *****  0.00 ***** ***** **
916480 ***** 201501100600 ***   0 *** *** SCT * * * 31.2 02 ** ** ** ** ** ** ** 0   88   79 1006.0 ***** ****** *** *** *****  0.00 ***** ***** **
916480 ***** 201501120600 990   3 *** *** BKN * * * 31.2 02 ** ** ** ** ** ** ** 2   86   78 1008.0 ***** ****** *** *** *****  0.00 ***** ***** **
916480 ***** 201501130600 050   7 *** *** BKN * * * 12.5 15 ** ** ** ** ** ** ** 8   84   78 1007.7 ***** ****** *** *** *****  0.00 ***** ***** **
916480 ***** 201501150000 ***   0 *** *** BKN * * * 31.2 03 ** ** ** ** ** ** ** 8   89   80 1011.1 ***** ****** ***  78 *****  0.01  0.83 ***** **
916480 ***** 201501150600 ***   0 *** *** BKN * * * 31.2 02 ** ** ** ** ** ** ** 2   87   80 1010.6 ***** ****** *** *** *****  0.00 ***** ***** **
916480 ***** 201501160600 ***   0 *** *** BKN * * * 12.5 15 ** ** ** ** ** ** ** 8   83   81 1010.9 ***** ****** *** *** *****  0.31 ***** ***** **
916480 ***** 201501170600 990   1 *** *** SCT * * * 31.2 02 ** ** ** ** ** ** ** 0   87   80 1006.3 ***** ****** *** *** *****  0.00 ***** ***** **
916480 ***** 201501180000 990   3 *** *** BKN * * * 12.5 15 ** ** ** ** ** ** ** 8   83   76 1009.7 ***** ****** ***  79 *****  0.20  0.04 ***** **
916480 ***** 201501180600 ***   0 *** *** BKN * * * 12.5 15 ** ** ** ** ** ** ** 2   84   79 1007.8 ***** ****** *** *** *****  0.00 ***** ***** **
916480 ***** 201501190000 170  11 *** *** BKN * * * 31.2 03 ** ** ** ** ** ** ** 8   84   79 1007.2 ***** ****** ***  79 *****  0.16  0.18 ***** **
916480 ***** 201501200600 990   3 *** *** OVC * * * 12.5 15 ** ** ** ** ** ** ** 8   83   78 1007.7 ***** ****** *** *** *****  0.04 ***** ***** **
916480 ***** 201501220600 990   3 *** *** BKN * * * 12.5 15 ** ** ** ** ** ** ** 2   86   80 1006.4 ***** ****** *** *** *****  0.00 ***** ***** **
916480 ***** 201501230600 ***   0 *** *** BKN * * * 31.2 02 ** ** ** ** ** ** ** 2   84   79 1006.3 ***** ****** *** *** *****  0.00 ***** ***** **
916480 ***** 201501240600 300   6 *** *** BKN * * * 12.5 15 ** ** ** ** ** ** ** 2   84   79 1007.5 ***** ****** *** *** *****  0.00 ***** ***** **
916480 ***** 201501260600 ***   0 *** *** OVC * * * 12.5 15 ** ** ** ** ** ** ** 8   84   80 1001.7 ***** ****** *** *** *****  0.16 ***** ***** **
916480 ***** 201501270600 300  29 *** *** OVC * * * 12.5 15 ** ** ** ** ** ** ** 9   81   76 1006.9 ***** ****** *** *** *****  0.31 ***** ***** **
916480 ***** 201501271800 270  44 *** *** OVC * * * 12.5 64 ** ** ** ** ** ** ** 9   77   77 1005.0 ***** ****** *** *** *****  2.36 ***** ***** **
916480 ***** 201501280000 180  23 *** *** OVC * * * 12.5 64 ** ** ** ** ** ** ** 9   78   77 1005.5 ***** ****** ***  76 *****  1.69  4.39 ***** **
916480 ***** 201501280600 240  23 *** *** OVC * * * 12.5 80 ** ** ** ** ** ** ** 6   82   78 1002.7 ***** ****** *** *** *****  0.35 ***** ***** **
916480 ***** 201501310600 230  15 *** *** OVC * * * 12.5 15 ** ** ** ** ** ** ** 8   83   80 1004.7 ***** ****** *** *** *****  0.67 ***** ***** **
916480 ***** 201502010600 280  23 *** *** OVC * * * 12.5 15 ** ** ** ** ** ** ** 8   84   76 1004.0 ***** ****** *** *** *****  0.04 ***** ***** **
916480 ***** 201502020600 230  17 *** *** BKN * * * 12.5 15 ** ** ** ** ** ** ** 8   83   78 1004.2 ***** ****** *** *** *****  0.01 ***** ***** **
916480 ***** 201502030600 990   3 *** *** OVC * * * 12.5 15 ** ** ** ** ** ** ** 2   84   78 1005.8 ***** ****** *** *** *****  0.00 ***** ***** **
916480 ***** 201502050600 990   1 *** *** BKN * * * 12.5 15 ** ** ** ** ** ** ** 8   83   78 1009.0 ***** ****** *** *** *****  0.31 ***** ***** **
916480 ***** 201502060600 120   9 *** *** BKN * * * 12.5 15 ** ** ** ** ** ** ** 2   83   78 1008.5 ***** ****** *** *** *****  0.00 ***** ***** **
916480 ***** 201502080600 ***   0 *** *** BKN * * * 12.5 15 ** ** ** ** ** ** ** 8   85   79 1008.0 ***** ****** *** *** *****  0.00 ***** ***** **
916480 ***** 201502100600 340   6 *** *** SCT * * * 31.2 01 ** ** ** ** ** ** ** 0   84   77 1007.6 ***** ****** *** *** *****  0.00 ***** ***** **
916480 ***** 201502110600 990   3 *** *** BKN * * * 12.5 15 ** ** ** ** ** ** ** 2   82   76 1008.1 ***** ****** *** *** *****  0.00 ***** ***** **
916480 ***** 201502130000 070   6 *** *** BKN * * * 12.5 15 ** ** ** ** ** ** ** 2   84   78 1007.6 ***** ****** ***  79 *****  0.00  0.04 ***** **
916480 ***** 201502130600 ***   0 *** *** BKN * * * 12.5 15 ** ** ** ** ** ** ** 2   83   79 1006.8 ***** ****** *** *** *****  0.00 ***** ***** **
916480 ***** 201502150600 990   3 *** *** BKN * * * 12.5 15 ** ** ** ** ** ** ** 8   84   78 1005.8 ***** ****** *** *** *****  0.12 ***** ***** **
916480 ***** 201502170600 990   3 *** *** BKN * * * 31.2 03 ** ** ** ** ** ** ** 0   85   78 1006.6 ***** ****** *** *** *****  0.00 ***** ***** **
916480 ***** 201502180600 ***   0 *** *** BKN * * * 31.2 03 ** ** ** ** ** ** ** 0   86   78 1007.9 ***** ****** *** *** *****  0.00 ***** ***** **
916480 ***** 201502190600 ***   0 *** *** SCT * * * 12.5 15 ** ** ** ** ** ** ** 8   84   76 1007.4 ***** ****** *** *** *****  0.04 ***** ***** **
916480 ***** 201502200600 ***   0 *** *** OVC * * * 12.5 15 ** ** ** ** ** ** ** 8   80   79 1007.6 ***** ****** *** *** *****  0.04 ***** ***** **
916480 ***** 201502210600 280   9 *** *** BKN * * * 12.5 15 ** ** ** ** ** ** ** 2   86   77 1007.8 ***** ****** *** *** *****  0.00 ***** ***** **
916480 ***** 201502220000 300   7 *** *** BKN * * * 12.5 15 ** ** ** ** ** ** ** 8   87   79 1008.1 ***** ****** *** *** *****  0.00 39.33 ***** **
916480 ***** 201502220600 220  22 *** *** OVC * * * 12.5 80 ** ** ** ** ** ** ** 8   80   78 1008.6 ***** ****** *** *** *****  0.20 ***** ***** **
916480 ***** 201502230000 280  10 *** *** BKN * * * 31.2 02 ** ** ** ** ** ** ** 2   87   78 1008.3 ***** ****** ***  77 *****  0.00  0.69 ***** **
916480 ***** 201502230600 230  11 *** *** OVC * * * 12.5 80 ** ** ** ** ** ** ** 8   83   78 1007.3 ***** ****** *** *** *****  0.28 ***** ***** **
916480 ***** 201502240600 310   9 *** *** BKN * * * 12.5 15 ** ** ** ** ** ** ** 2   85   79 1006.8 ***** ****** *** *** *****  0.00 ***** ***** **
916480 ***** 201502250600 310   9 *** *** BKN * * * 12.5 15 ** ** ** ** ** ** ** 8   84   79 1006.6 ***** ****** *** *** *****  0.04 ***** ***** **
916480 ***** 201502270000 990   3 *** *** SCT * * * 31.2 02 ** ** ** ** ** ** ** 0   89   79 1007.8 ***** ****** ***  80 *****  0.00  0.00 ***** **
916480 ***** 201502270600 200  11 *** *** BKN * * * 12.5 15 ** ** ** ** ** ** ** 8   83   77 1006.3 ***** ****** *** *** *****  0.00 ***** ***** **
916480 ***** 201502280600 ***   0 *** *** BKN * * * 12.5 15 ** ** ** ** ** ** ** 2   82   78 1006.5 ***** ****** *** *** *****  0.00 ***** ***** **
916480 ***** 201503010600 ***   0 *** *** SCT * * * 31.2 01 ** ** ** ** ** ** ** 8   85   77 1006.5 ***** ****** *** *** *****  0.00 ***** ***** **
916480 ***** 201503020600 ***   0 *** *** BKN * * * 12.5 15 ** ** ** ** ** ** ** 2   86   76 1004.0 ***** ****** *** *** *****  0.00 ***** ***** **
916480 ***** 201503030000 ***   0 *** *** BKN * * * 31.2 02 ** ** ** ** ** ** ** 8   87   76 1005.4 ***** ****** ***  79 *****  0.00 ***** ***** **
916480 ***** 201503040600 ***   0 *** *** BKN * * * 31.2 03 ** ** ** ** ** ** ** 2   86   80 1003.7 ***** ****** *** *** *****  0.00 ***** ***** **
916480 ***** 201503050000 100   5 *** *** SCT * * * 31.2 02 ** ** ** ** ** ** ** 0   90   77 1004.2 ***** ****** ***  79 *****  0.00  0.15 ***** **
916480 ***** 201503060000 070   7 *** *** BKN * * * 31.2 02 ** ** ** ** ** ** ** 2   89   80 1003.6 ***** ****** *** *** *****  0.00 ***** ***** **
916480 ***** 201503060600 080   5 *** *** BKN * * * 31.2 14 ** ** ** ** ** ** ** 8   84   79 1002.1 ***** ****** *** *** *****  0.02 ***** ***** **
916480 ***** 201503061200 080   5 *** *** BKN * * * 12.5 15 ** ** ** ** ** ** ** 8   80   78 1004.1 ***** ******  91 *** *****  0.47 ***** ***** **
916480 ***** 201503061800 080  10 *** *** BKN * * * 31.2 01 ** ** ** ** ** ** ** 2   83   78 1003.5 ***** ****** *** *** *****  0.00 ***** ***** **
916480 ***** 201503070000 070  11 *** *** OVC * * * 12.5 14 ** ** ** ** ** ** ** 8   86   78 1004.3 ***** ****** ***  80 *****  0.08  0.48 ***** **
916480 ***** 201503070600 350  10 *** *** OVC * * * 31.2 02 ** ** ** ** ** ** ** 2   83   76 1002.8 ***** ****** *** *** *****  0.00 ***** ***** **
916480 ***** 201503090000 080   6 *** *** BKN * * * 31.2 03 ** ** ** ** ** ** ** 0   88   78 1003.8 ***** ****** ***  80 *****  0.00  0.20 ***** **
916480 ***** 201503090600 030   5 *** *** OVC * * * 12.5 14 ** ** ** ** ** ** ** 8   83   78 1002.5 ***** ****** *** *** *****  0.04 ***** ***** **
916480 ***** 201503100000 080  13 *** *** OVC * * * 12.5 15 ** ** ** ** ** ** ** 8   85   79 1005.5 ***** ****** ***  81 *****  0.00  0.04 ***** **
916480 ***** 201503101200 340  18 *** *** SCT * * * 31.2 01 ** ** ** ** ** ** ** 8   83   78 1002.4 ***** ******  88 *** *****  0.91 ***** ***** **
916480 ***** 201503101800 340  22 *** *** OVC * * * 12.5 80 ** ** ** ** ** ** ** 8   77   77 1003.1 ***** ****** *** *** *****  0.12 ***** ***** **
916480 ***** 201503110000 350  20 *** *** BKN * * * 12.5 15 ** ** ** ** ** ** ** 8   86   79 1002.8 ***** ****** ***  76 *****  0.04  1.05 ***** **
916480 ***** 201503110600 330  16 *** *** BKN * * * 12.5 14 ** ** ** ** ** ** ** 2   84   79 1001.9 ***** ****** *** *** *****  0.00 ***** ***** **
916480 ***** 201503120600 320  24 *** *** BKN * * * 12.5 15 ** ** ** ** ** ** ** 8   83   73 1009.7 ***** ****** *** *** *****  0.04 ***** ***** **
916480 ***** 201503130000 340  30 *** *** BKN * * * 31.2 14 ** ** ** ** ** ** ** 8   83   78 1004.3 ***** ****** ***  78 *****  0.63  1.41 ***** **
916480 ***** 201503130600 350  24 *** *** BKN * * * 31.2 14 ** ** ** ** ** ** ** 2   84   79 1004.7 ***** ****** *** *** *****  0.00 ***** ***** **
916480 ***** 201503131200 330  21 *** *** OVC * * * 12.5 80 ** ** ** ** ** ** ** 8   81   77 1008.2 ***** ******  88 *** *****  0.94 ***** ***** **
916480 ***** 201503140000 340  16 *** *** BKN * * * 12.5 15 ** ** ** ** ** ** ** 8   80   78 1008.9 ***** ****** ***  76 *****  0.31  1.61 ***** **
916480 ***** 201503140600 350  17 *** *** BKN * * * 31.2 14 ** ** ** ** ** ** ** 8   83   79 1008.3 ***** ****** *** *** *****  0.08 ***** ***** **
916480 ***** 201503150000 350  11 *** *** SCT * * * 31.2 01 ** ** ** ** ** ** ** 2   89   82 1011.4 ***** ****** ***  82 *****  0.00  0.30 ***** **
916480 ***** 201503150600 350  13 *** *** BKN * * * 31.2 14 ** ** ** ** ** ** ** 8   82   78 1010.4 ***** ****** *** *** *****  0.08 ***** ***** **
916480 ***** 201503160000 350   9 *** *** BKN * * * 31.2 03 ** ** ** ** ** ** ** 0   87   78 1010.2 ***** ****** ***  80 *****  0.00  0.06 ***** **
916480 ***** 201503160600 330   8 *** *** BKN * * * 12.5 14 ** ** ** ** ** ** ** 2   85   78 1009.4 ***** ****** *** *** *****  0.00 ***** ***** **
916480 ***** 201503161800 280   9 *** *** BKN * * * 31.2 01 ** ** ** ** ** ** ** 2   83   79 1008.8 ***** ****** *** *** *****  0.00 ***** ***** **
916480 ***** 201503170000 240  13 *** *** BKN * * * 31.2 02 ** ** ** ** ** ** ** 2   88   79 1008.5 ***** ****** ***  82 *****  0.00  0.00 ***** **
916480 ***** 201503170600 230  10 *** *** BKN * * * 31.2 14 ** ** ** ** ** ** ** 2   85   79 1007.7 ***** ****** *** *** *****  0.00 ***** ***** **
916480 ***** 201503171200 990   3 *** *** BKN * * * 12.5 14 ** ** ** ** ** ** ** 2   80   77 1009.0 ***** ****** *** *** *****  0.00 ***** ***** **
916480 ***** 201503171800 990   3 *** *** OVC * * * 12.5 80 ** ** ** ** ** ** ** 8   78   77 1008.4 ***** ****** *** *** *****  0.55 ***** ***** **
916480 ***** 201503180600 220   8 *** *** BKN * * * 12.5 15 ** ** ** ** ** ** ** 8   80   77 1008.1 ***** ****** *** *** *****  0.12 ***** ***** **
916480 ***** 201503181200 260  11 *** *** OVC * * * 12.5 80 ** ** ** ** ** ** ** 8   80   77 1009.6 ***** ******  84 *** *****  0.08 ***** ***** **
916480 ***** 201503190600 230  14 *** *** OVC * * * 12.5 80 ** ** ** ** ** ** ** 8   80   77 1008.0 ***** ****** *** *** *****  0.63 ***** ***** **
916480 ***** 201503191800 230   8 *** *** BKN * * * 12.5 14 ** ** ** ** ** ** ** 2   82   78 1007.2 ***** ****** *** *** *****  0.00 ***** ***** **
916480 ***** 201503200000 250   7 *** *** SCT * * * 31.2 01 ** ** ** ** ** ** ** 2   89   78 1008.4 ***** ****** ***  78 *****  0.00  0.61 ***** **
916480 ***** 201503200600 990   2 *** *** BKN * * * 31.2 03 ** ** ** ** ** ** ** 0   83   77 1007.0 ***** ****** *** *** *****  0.00 ***** ***** **
916480 ***** 201503210000 250  13 *** *** BKN * * * 31.2 15 ** ** ** ** ** ** ** 8   84   77 1007.6 ***** ****** ***  82 *****  0.20  0.00 ***** **
916480 ***** 201503210600 290  10 *** *** OVC * * * 31.2 14 ** ** ** ** ** ** ** 2   84   79 1005.8 ***** ****** *** *** *****  0.00 ***** ***** **
916480 ***** 201503220000 250  13 *** *** OVC * * * 12.5 15 ** ** ** ** ** ** ** 8   77   75 1008.0 ***** ****** *** *** *****  0.16  0.20 ***** **
916480 ***** 201503220600 270  11 *** *** OVC * * * 12.5 15 ** ** ** ** ** ** ** 8   81   78 1007.4 ***** ****** *** *** *****  0.00 ***** ***** **
916480 ***** 201503240000 240   8 *** *** SCT * * * 31.2 02 ** ** ** ** ** ** ** 0   87   79 1008.4 ***** ****** ***  82 *****  0.00  0.00 ***** **
916480 ***** 201503240600 240  10 *** *** BKN * * * 31.2 03 ** ** ** ** ** ** ** 0   84   78 1007.6 ***** ****** *** *** *****  0.00 ***** ***** **
916480 ***** 201503250000 260   6 *** *** BKN * * * 31.2 03 ** ** ** ** ** ** ** 0   87   77 1009.1 ***** ****** ***  82 *****  0.00  0.00 ***** **
916480 ***** 201503250600 220   8 *** *** BKN * * * 31.2 02 ** ** ** ** ** ** ** 2   84   76 1008.5 ***** ****** *** *** *****  0.00 ***** ***** **
916480 ***** 201503251200 210   9 *** *** SCT * * * 31.2 14 ** ** ** ** ** ** ** 0   82   77 1011.0 ***** ****** *** *** *****  0.00 ***** ***** **
916480 ***** 201503251800 240  10 *** *** SCT * * * 31.2 02 ** ** ** ** ** ** ** 0   82   75 1009.7 ***** ****** *** *** *****  0.00 ***** ***** **
916480 ***** 201503261800 ***   0 *** *** SCT * * * 31.2 14 ** ** ** ** ** ** ** 0   78   76 1009.7 ***** ****** *** *** *****  0.00 ***** ***** **
916480 ***** 201503270000 110   7 *** *** BKN * * * 31.2 03 ** ** ** ** ** ** ** 0   88   79 1010.4 ***** ****** ***  77 *****  0.00  0.00 ***** **
916480 ***** 201503270600 120   6 *** *** SCT * * * 31.2 01 ** ** ** ** ** ** ** 2   85   76 1008.7 ***** ****** *** *** *****  0.00 ***** ***** **
916480 ***** 201503280600 ***   0 *** *** SCT * * * 31.2 01 ** ** ** ** ** ** ** 0   85   77 1009.4 ***** ****** *** *** *****  0.00 ***** ***** **
916480 ***** 201503281800 150   8 *** *** SCT * * * 31.2 03 ** ** ** ** ** ** ** 0   83   77 1010.3 ***** ****** *** *** *****  0.00 ***** ***** **
916480 ***** 201503291800 160   6 *** *** SCT * * * 31.2 03 ** ** ** ** ** ** ** 0   82   75 1008.9 ***** ****** *** *** *****  0.00 ***** ***** **
916480 ***** 201503300000 170  22 *** *** BKN * * * 31.2 03 ** ** ** ** ** ** ** 1   85   80 1009.3 ***** ****** ***  77 *****  0.00  0.00 ***** **
916480 ***** 201503300600 150  10 *** *** OVC * * * 12.5 15 ** ** ** ** ** ** ** 8   79   78 1009.6 ***** ****** *** *** *****  0.28 ***** ***** **
916480 ***** 201503310000 170  11 *** *** SCT * * * 31.2 01 ** ** ** ** ** ** ** 2   86   80 1009.3 ***** ****** ***  79 *****  0.00  0.29 ***** **
916480 ***** 201504020000 110   9 *** *** OVC * * * 12.5 80 ** ** ** ** ** ** ** 1   79   78 1009.5 ***** ****** *** *** *****  0.31  0.05 ***** **
916480 ***** 201504021800 100   5 *** *** BKN * * * 31.2 01 ** ** ** ** ** ** ** 2   83   79 1007.3 ***** ****** *** *** *****  0.00 ***** ***** **
916480 ***** 201504030600 100   5 *** *** OVC * * * 12.5 15 ** ** ** ** ** ** ** 2   83   79 1006.3 ***** ****** *** *** *****  0.00 ***** ***** **
916480 ***** 201504041800 070   5 *** *** BKN * * * 31.2 14 ** ** ** ** ** ** ** 2   82   79 1006.5 ***** ****** *** *** *****  0.00 ***** ***** **
916480 ***** 201504050000 990   3 *** *** OVC * * * 12.5 80 ** ** ** ** ** ** ** 2   81   78 1007.8 ***** ****** ***  78 *****  0.16 ***** ***** **
916480 ***** 201504050600 990   3 *** *** OVC * * * 12.5 80 ** ** ** ** ** ** ** 6   78   76 1006.9 ***** ****** *** *** *****  2.44 ***** ***** **
916480 ***** 201504060000 040   6 *** *** BKN * * * 31.2 14 ** ** ** ** ** ** ** 8   85   77 1007.5 ***** ****** ***  75 *****  0.04  3.02 ***** **
916480 ***** 201504060600 030   8 *** *** OVC * * * 12.5 15 ** ** ** ** ** ** ** 2   83   78 1007.9 ***** ****** *** *** *****  0.00 ***** ***** **
916480 ***** 201504070000 050   9 *** *** BKN * * * 12.5 14 ** ** ** ** ** ** ** 2   84   78 1008.6 ***** ****** ***  78 *****  0.00  0.04 ***** **
916480 ***** 201504070600 080   6 *** *** BKN * * * 31.2 14 ** ** ** ** ** ** ** 2   83   78 1007.7 ***** ****** *** *** *****  0.00 ***** ***** **
916480 ***** 201504080000 ***   0 *** *** BKN * * * 31.2 01 ** ** ** ** ** ** ** 2   88   79 1009.2 ***** ****** ***  81 *****  0.00  0.00 ***** **
916480 ***** 201504080600 120   7 *** *** BKN * * * 12.5 ** ** ** ** ** ** ** ** *   82   78 1007.5 ***** ****** *** *** *****  0.24 ***** ***** **
916480 ***** 201504081800 990   3 *** *** SCT * * * 31.2 01 ** ** ** ** ** ** ** 8   81   77 1008.1 ***** ****** *** *** *****  0.04 ***** ***** **
916480 ***** 201504090600 100   6 *** *** BKN * * * 31.2 03 ** ** ** ** ** ** ** 0   83   76 1008.2 ***** ****** *** *** *****  0.00 ***** ***** **
916480 ***** 201504091800 080   8 *** *** BKN * * * 31.2 01 ** ** ** ** ** ** ** 2   81   75 1009.1 ***** ****** *** *** *****  0.00 ***** ***** **
916480 ***** 201504100000 090   5 *** *** BKN * * * 31.2 01 ** ** ** ** ** ** ** 2   88   76 1010.6 ***** ****** ***  78 *****  0.00  0.21 ***** **
916480 ***** 201504100600 100   8 *** *** SCT * * * 31.2 01 ** ** ** ** ** ** ** 2   83   75 1009.4 ***** ****** *** *** *****  0.00 ***** ***** **
916480 ***** 201504101800 080   6 *** *** BKN * * * 31.2 14 ** ** ** ** ** ** ** 2   82   76 1010.1 ***** ****** *** *** *****  0.00 ***** ***** **
916480 ***** 201504110000 090   7 *** *** SCT * * * 31.2 01 ** ** ** ** ** ** ** 8   87   78 1011.0 ***** ****** ***  81 *****  0.02  0.00 ***** **
916480 ***** 201504111200 080   7 *** *** SCT * * * 31.2 03 ** ** ** ** ** ** ** 0   80   77 1010.1 ***** ****** *** *** *****  0.00 ***** ***** **
916480 ***** 201504111800 090   6 *** *** BKN * * * 31.2 03 ** ** ** ** ** ** ** 2   81   77 1010.7 ***** ****** *** *** *****  0.00 ***** ***** **
916480 ***** 201504120600 990   3 *** *** SCT * * * 31.2 03 ** ** ** ** ** ** ** 0   84   78 1009.2 ***** ****** *** *** *****  0.00 ***** ***** **
916480 ***** 201504121800 080   6 *** *** SCT * * * 31.2 02 ** ** ** ** ** ** ** 0   82   77 1010.2 ***** ****** *** *** *****  0.00 ***** ***** **
916480 ***** 201504130000 090   7 *** *** BKN * * * 31.2 03 ** ** ** ** ** ** ** 2   89   80 1011.2 ***** ****** ***  81 *****  0.00  0.00 ***** **
916480 ***** 201504140600 090   8 *** *** BKN * * * 31.2 02 ** ** ** ** ** ** ** 2   84   79 1010.5 ***** ****** *** *** *****  0.00 ***** ***** **
916480 ***** 201504150000 060   5 *** *** OVC * * * 12.5 15 ** ** ** ** ** ** ** 8   79   77 1013.0 ***** ****** ***  79 *****  1.54  0.02 ***** **
916480 ***** 201504150600 990   3 *** *** BKN * * * 12.5 15 ** ** ** ** ** ** ** 8   81   75 1012.3 ***** ****** *** *** *****  0.00 ***** ***** **
916480 ***** 201504160000 040   9 *** *** BKN * * * 31.2 01 ** ** ** ** ** ** ** 8   88   78 1010.2 ***** ****** ***  77 *****  0.00  1.53 ***** **
916480 ***** 201504160600 990   3 *** *** BKN * * * 31.2 02 ** ** ** ** ** ** ** 2   84   80 1009.9 ***** ****** *** *** *****  0.00 ***** ***** **
916480 ***** 201504161200 080   6 *** *** SCT * * * 31.2 01 ** ** ** ** ** ** ** 2   82   78 1009.0 ***** ******  89 *** *****  0.00 ***** ***** **
916480 ***** 201504161800 090   8 *** *** SCT * * * 31.2 02 ** ** ** ** ** ** ** 0   83   78 1009.8 ***** ****** *** *** *****  0.00 ***** ***** **
916480 ***** 201504170000 990   3 *** *** BKN * * * 31.2 14 ** ** ** ** ** ** ** 8   87   79 1010.2 ***** ****** ***  81 *****  0.43  0.00 ***** **
916480 ***** 201504170600 080   5 *** *** BKN * * * 31.2 02 ** ** ** ** ** ** ** 2   84   79 1008.3 ***** ****** *** *** *****  0.00 ***** ***** **
916480 ***** 201504180000 050  10 *** *** BKN * * * 31.2 14 ** ** ** ** ** ** ** 2   84   75 1010.3 ***** ****** ***  82 *****  0.00  0.43 ***** **
916480 ***** 201504181800 050  13 *** *** BKN * * * 31.2 03 ** ** ** ** ** ** ** 0   83   76 1008.7 ***** ****** *** *** *****  0.00 ***** ***** **
916480 ***** 201504190600 040  10 *** *** BKN * * * 12.5 14 ** ** ** ** ** ** ** 8   82   78 1008.9 ***** ****** *** *** *****  0.20 ***** ***** **
916480 ***** 201504200000 040   6 *** *** SCT * * * 31.2 14 ** ** ** ** ** ** ** 2   88   79 1008.8 ***** ****** ***  80 *****  0.00  0.19 ***** **
916480 ***** 201504201800 990   2 *** *** BKN * * * 31.2 15 ** ** ** ** ** ** ** 2   81   78 1008.9 ***** ****** *** *** *****  0.00 ***** ***** **
916480 ***** 201504210600 990   3 *** *** BKN * * * 31.2 02 ** ** ** ** ** ** ** 2   81   78 1007.6 ***** ****** *** *** *****  0.00 ***** ***** **
916480 ***** 201504230000 080   7 *** *** BKN * * * 12.5 14 ** ** ** ** ** ** ** 8   84   78 1008.3 ***** ****** ***  78 *****  0.02  0.00 ***** **
916480 ***** 201504230600 990   3 *** *** BKN * * * 31.2 01 ** ** ** ** ** ** ** 2   84   78 1009.4 ***** ****** *** *** *****  0.00 ***** ***** **
916480 ***** 201504240000 080   8 *** *** SCT * * * 31.2 01 ** ** ** ** ** ** ** 0   87   78 1009.3 ***** ****** ***  77 *****  0.00  0.02 ***** **
916480 ***** 201504250000 070   5 *** *** BKN * * * 31.2 03 ** ** ** ** ** ** ** 2   89   80 1009.3 ***** ****** ***  79 *****  0.00  0.29 ***** **
916480 ***** 201504260000 990   3 *** *** BKN * * * 31.2 14 ** ** ** ** ** ** ** 2   85   79 1010.0 ***** ****** ***  78 *****  0.00  2.97 ***** **
916480 ***** 201505040000 160  11 *** *** OVC * * * 12.5 80 ** ** ** ** ** ** ** 8   80   77 1008.9 ***** ****** *** *** *****  0.43  2.32 ***** **
916480 ***** 201505070600 ***   0 *** *** BKN * * * 31.2 14 ** ** ** ** ** ** ** 2   83   78 1010.4 ***** ****** *** *** *****  0.00 ***** ***** **
916480 ***** 201505090600 ***   0 *** *** SCT * * * 31.2 02 ** ** ** ** ** ** ** 2   83   79 1010.8 ***** ****** *** *** *****  0.00 ***** ***** **
916480 ***** 201505120600 990   3 *** *** SCT * * * 31.2 01 ** ** ** ** ** ** ** 0   83   77 1010.9 ***** ****** *** *** *****  0.00 ***** ***** **
916480 ***** 201505130000 080   8 *** *** SCT * * * 31.2 01 ** ** ** ** ** ** ** 0   88   79 1008.9 ***** ****** ***  79 *****  0.00  0.00 ***** **
916480 ***** 201505140000 100  11 *** *** SCT * * * 31.2 01 ** ** ** ** ** ** ** 0   88   78 1012.9 ***** ****** ***  81 *****  0.00  0.00 ***** **
916480 ***** 201505150000 120   8 *** *** SCT * * * 31.2 01 ** ** ** ** ** ** ** 0   89   79 1009.1 ***** ****** ***  80 *****  0.00  0.00 ***** **
916480 ***** 201505150600 140   6 *** *** SCT * * * 31.2 02 ** ** ** ** ** ** ** 0   83   74 1011.8 ***** ****** *** *** *****  0.00 ***** ***** **
916480 ***** 201505160000 140   5 *** *** SCT * * * 31.2 01 ** ** ** ** ** ** ** 0   86   76 1006.0 ***** ****** *** *** *****  0.00  0.00 ***** **
916480 ***** 201505160600 990   3 *** *** BKN * * * 31.2 03 ** ** ** ** ** ** ** 0   83   77 1006.4 ***** ****** *** *** *****  0.00 ***** ***** **
916480 ***** 201505170600 150  11 *** *** BKN * * * 12.5 15 ** ** ** ** ** ** ** 1   84   76 1007.5 ***** ****** *** *** *****  0.00 ***** ***** **
916480 ***** 201505220000 070   6 *** *** SCT * * * 31.2 01 ** ** ** ** ** ** ** 2   87   78 1010.0 ***** ****** ***  80 *****  0.00  0.00 ***** **
916480 ***** 201505230600 ***   0 *** *** BKN * * * 12.5 14 ** ** ** ** ** ** ** 2   82   76 1007.6 ***** ****** *** *** *****  0.00 ***** ***** **
916480 ***** 201505270600 140  11 *** *** BKN * * * 12.5 15 ** ** ** ** ** ** ** 8   81   78 1009.5 ***** ****** *** *** *****  0.59 ***** ***** **
916480 ***** 201506010000 080   5 *** *** SCT * * * 31.2 03 ** ** ** ** ** ** ** 0   88   79 1010.5 ***** ****** ***  77 *****  0.00  0.00 ***** **
916480 ***** 201506010600 990   2 *** *** SCT * * * 31.2 01 ** ** ** ** ** ** ** 0   83   77 1009.3 ***** ****** *** *** *****  0.00 ***** ***** **
916480 ***** 201506020600 090   6 *** *** BKN * * * 12.5 14 ** ** ** ** ** ** ** 0   83   78 1009.4 ***** ****** *** *** *****  0.00 ***** ***** **
916480 ***** 201506021800 ***   0 *** *** BKN * * * 31.2 03 ** ** ** ** ** ** ** 1   79   76 1010.2 ***** ****** *** *** *****  0.00 ***** ***** **
916480 ***** 201506030000 090   8 *** *** SCT * * * 31.2 ** ** ** ** ** ** ** ** *  104   79 1011.9 ***** ****** ***  79 *****  0.00  0.00 ***** **
916480 ***** 201506030600 080  11 *** *** SCT * * * 31.2 14 ** ** ** ** ** ** ** 1   83   78 1010.6 ***** ****** *** *** *****  0.00 ***** ***** **
916480 ***** 201506040600 090   6 *** *** SCT * * * 31.2 01 ** ** ** ** ** ** ** 0   83   77 1010.5 ***** ****** *** *** *****  0.00 ***** ***** **
916480 ***** 201506041800 080   5 *** *** BKN * * * 31.2 01 ** ** ** ** ** ** ** 2   82   78 1008.3 ***** ****** *** *** *****  0.00 ***** ***** **
916480 ***** 201506050000 090   7 *** *** SCT * * * 31.2 01 ** ** ** ** ** ** ** 8   87   79 1009.8 ***** ****** ***  81 *****  0.12  0.00 ***** **
916480 ***** 201506050500 990   3 *** *** SCT * * * 31.2 01 ** ** ** ** ** ** ** 0   83   78 1008.8 ***** ****** *** *** *****  0.00 ***** ***** **
916480 ***** 201506070600 070  11 *** *** BKN * * * 12.5 15 ** ** ** ** ** ** ** 0   81   77 1009.9 ***** ****** *** *** *****  0.00 ***** ***** **
916480 ***** 201506071800 ***   0 *** *** BKN * * * 12.5 15 ** ** ** ** ** ** ** 2   82   78 1010.1 ***** ****** *** *** *****  0.00 ***** ***** **
916480 ***** 201506080000 990   3 *** *** BKN * * * 12.5 15 ** ** ** ** ** ** ** 8   84   78 1010.9 ***** ****** ***  78 *****  0.00  0.22 ***** **
916480 ***** 201506080600 ***   0 *** *** SCT * * * 31.2 01 ** ** ** ** ** ** ** 2   82   78 1011.7 ***** ****** *** *** *****  0.00 ***** ***** **
916480 ***** 201506090000 070   8 *** *** SCT * * * 31.2 01 ** ** ** ** ** ** ** 1   88   79 1010.4 ***** ****** ***  81 *****  0.00  0.00 ***** **
916480 ***** 201506090600 990   3 *** *** SCT * * * 31.2 14 ** ** ** ** ** ** ** 8   83   78 1009.6 ***** ****** *** *** *****  0.04 ***** ***** **
916480 ***** 201506100000 080  11 *** *** SCT * * * 31.2 01 ** ** ** ** ** ** ** 2   87   78 1011.5 ***** ****** ***  82 *****  0.00  0.04 ***** **
916480 ***** 201506100600 070  11 *** *** SCT * * * 31.2 14 ** ** ** ** ** ** ** 0   83   77 1012.2 ***** ****** *** *** *****  0.00 ***** ***** **
916480 ***** 201506110000 080  11 *** *** SCT * * * 31.2 01 ** ** ** ** ** ** ** 2   88   78 1009.9 ***** ****** ***  80 *****  0.00  0.00 ***** **
916480 ***** 201506111800 ***   0 *** *** OVC * * * 12.5 15 ** ** ** ** ** ** ** 8   80   77 1010.2 ***** ****** *** *** *****  0.24 ***** ***** **
916480 ***** 201506120000 090   9 *** *** OVC * * * 12.5 15 ** ** ** ** ** ** ** 8   78   76 1009.0 ***** ****** ***  78 *****  0.98  0.36 ***** **
916480 ***** 201506120600 990   3 *** *** BKN * * * 12.5 15 ** ** ** ** ** ** ** 8   80   77 1006.3 ***** ****** *** *** *****  1.02 ***** ***** **
916480 ***** 201506130000 080  10 *** *** BKN * * * 12.5 15 ** ** ** ** ** ** ** 8   83   77 1008.5 ***** ****** ***  76 *****  0.00  2.43 ***** **
916480 ***** 201506140600 090   9 *** *** SCT * * * 31.2 01 ** ** ** ** ** ** ** 2   83   78 1008.9 ***** ****** *** *** *****  0.00 ***** ***** **
916480 ***** 201506150000 070  10 *** *** SCT * * * 31.2 01 ** ** ** ** ** ** ** 2   87   79 1009.2 ***** ****** ***  79 *****  0.00  0.05 ***** **
916480 ***** 201506150600 070   6 *** *** SCT * * * 31.2 01 ** ** ** ** ** ** ** 0   83   78 1008.3 ***** ****** *** *** *****  0.00 ***** ***** **
916480 ***** 201506160000 090   6 *** *** SCT * * * 31.2 02 ** ** ** ** ** ** ** 0   86   78 1010.0 ***** ****** ***  81 *****  0.00  0.00 ***** **
916480 ***** 201506160600 090   5 *** *** BKN * * * 31.2 14 ** ** ** ** ** ** ** 8   83   80 1009.9 ***** ****** *** *** *****  0.03 ***** ***** **
916480 ***** 201506180000 990   3 *** *** BKN * * * 12.5 15 ** ** ** ** ** ** ** 8   82   79 1010.1 ***** ****** ***  79 *****  0.20  0.00 ***** **
916480 ***** 201506221800 990   3 *** *** BKN * * * 12.5 14 ** ** ** ** ** ** ** 8   79   78 1007.9 ***** ****** *** *** *****  0.04 ***** ***** **
916480 ***** 201507100000 130  13 *** *** SCT * * * 31.2 02 ** ** ** ** ** ** ** 0   89   76 1010.6 ***** ****** ***  81 *****  0.00  0.00 ***** **
916480 ***** 201507230000 130  14 *** *** BKN * * * 31.2 14 ** ** ** ** ** ** ** 2   85   75 1013.0 ***** ****** ***  78 ***** *****  0.00 ***** **
916480 ***** 201507230600 110  16 *** *** BKN * * * 31.2 02 ** ** ** ** ** ** ** 2   82   74 1012.6 ***** ****** *** *** *****  0.00 ***** ***** **
916480 ***** 201507240000 140  15 *** *** BKN * * * 31.2 14 ** ** ** ** ** ** ** 2   83   74 1010.5 ***** ****** ***  79 *****  0.00  0.00 ***** **
916480 ***** 201507250000 140  14 *** *** SCT * * * 31.2 01 ** ** ** ** ** ** ** 2   85   75 1010.6 ***** ****** ***  78 *****  0.00  0.00 ***** **
916480 ***** 201507250600 150  22 *** *** SCT * * * 31.2 01 ** ** ** ** ** ** ** 0   82   76 1011.8 ***** ****** *** *** *****  0.00 ***** ***** **
916480 ***** 201507260600 130  16 *** *** OVC * * * 12.5 15 ** ** ** ** ** ** ** 8   70 **** 1011.9 ***** ****** *** *** *****  0.20 ***** ***** **
916480 ***** 201507270000 130  21 *** *** BKN * * * 31.2 01 ** ** ** ** ** ** ** 2   85   74 1011.2 ***** ****** ***  76 *****  0.00  0.91 ***** **
916480 ***** 201507280600 150  20 *** *** BKN * * * 31.2 14 ** ** ** ** ** ** ** 2   81   76 1008.8 ***** ****** *** *** *****  0.02 ***** ***** **
916480 ***** 201507300600 150  15 *** *** OVC * * * 12.5 15 ** ** ** ** ** ** ** 8   82   78 1009.3 ***** ****** *** *** *****  0.04 ***** ***** **
916480 ***** 201508051200 090   8 *** *** SCT * * * 31.2 03 ** ** ** ** ** ** ** 0   82   77 1009.4 ***** ****** *** *** *****  0.00 ***** ***** **
916480 ***** 201508060600 090   9 *** *** BKN * * * 31.2 09 ** ** ** ** ** ** ** 0   82   77 1008.3 ***** ****** *** *** *****  0.00 ***** ***** **
916480 ***** 201508180600 150  16 *** *** SCT * * * 31.2 01 ** ** ** ** ** ** ** 8   84   77 1010.3 ***** ****** *** *** *****  0.00 ***** ***** **
916480 ***** 201508240000 080   5 *** *** SCT * * * 31.2 01 ** ** ** ** ** ** ** 2   88   74 ****** ***** ****** ***  81 *****  0.00  0.00 ***** **
916480 ***** 201508250600 090   8 *** *** BKN * * * 31.2 01 ** ** ** ** ** ** ** 2   82   77 1008.0 ***** ****** *** *** *****  0.00 ***** ***** **
916480 ***** 201508260000 120  10 *** *** BKN * * * 31.2 01 ** ** ** ** ** ** ** 8   83   77 1010.5 ***** ****** ***  77 *****  0.08  0.50 ***** **
916480 ***** 201508270600 160  11 *** *** BKN * * * 31.2 03 ** ** ** ** ** ** ** 0   81   73 1011.6 ***** ****** *** *** *****  0.00 ***** ***** **
916480 ***** 201508290000 130   7 *** *** SCT * * * 31.2 03 ** ** ** ** ** ** ** 0   85   73 1008.9 ***** ****** ***  78 *****  0.00  0.01 ***** **
916480 ***** 201508290600 100   9 *** *** SCT * * * 12.5 14 ** ** ** ** ** ** ** 0   82   75 1008.2 ***** ****** *** *** *****  0.00 ***** ***** **
916480 ***** 201508300600 130  13 *** *** BKN * * * 12.5 14 ** ** ** ** ** ** ** 2   81   77 1010.0 ***** ****** *** *** *****  0.00 ***** ***** **
916480 ***** 201509070000 080   6 *** *** SCT * * * 31.2 01 ** ** ** ** ** ** ** 1   86   76 1012.9 ***** ****** ***  78 *****  0.00  0.00 ***** **
