  USAF  WBAN YR--MODAHRMN DIR SPD GUS CLG SKC L M H  VSB MW MW MW MW AW AW AW AW W TEMP DEWP    SLP   ALT    STP MAX MIN PCP01 PCP06 PCP24 PCPXX SD
944220 ***** 201501010100 180   2 *** *** *** * * * 28.1 02 ** ** ** ** ** ** ** 0   80   64 1006.1 *****  974.4 *** *** ***** *****  0.00 ***** **
944220 ***** 201501010700 310   6 *** *** *** * * * 28.1 02 ** ** ** ** ** ** ** 0  104   77 1001.8 *****  970.2 *** *** *****  0.00 ***** ***** **
944220 ***** 201501020100 180   3 *** *** *** * * * 28.1 02 ** ** ** ** ** ** ** 0   80   66 1005.4 *****  973.7 *** *** ***** *****  0.00 ***** **
944220 ***** 201501020700 200   7 *** *** *** * * * 28.1 02 ** ** ** ** ** ** ** 0  100   76 1002.9 *****  971.3 *** *** *****  0.00 ***** ***** **
944220 ***** 201501030100 130   5 *** *** *** * * * 28.1 02 ** ** ** ** ** ** ** 0   84   69 1007.6 *****  975.8 *** *** ***** *****  0.00 ***** **
944220 ***** 201501030700 180   5 *** *** SCT * * * 28.1 02 ** ** ** ** ** ** ** 0  101   78 1004.0 *****  972.3 *** *** *****  0.00 ***** ***** **
944220 ***** 201501040100 130   2 *** *** *** * * * 28.1 02 ** ** ** ** ** ** ** 0   95   78 1005.8 *****  974.1 *** *** ***** *****  0.00 ***** **
944220 ***** 201501040700 090   2 *** *** BKN * * * 28.1 02 ** ** ** ** ** ** ** 1  110   87 1002.2 *****  970.6 *** *** *****  0.00 ***** ***** **
944220 ***** 201501050100 050  14 *** *** SCT * * * 28.1 02 ** ** ** ** ** ** ** 1   99   76 1006.8 *****  975.0 *** *** ***** *****  0.00 ***** **
944220 ***** 201501050700 050   2 *** *** SCT * * * 28.1 02 ** ** ** ** ** ** ** 2  110   90 1003.1 *****  971.4 *** *** *****  0.00 ***** ***** **
944220 ***** 201501060100 050   2 *** *** SCT * * * 28.1 02 ** ** ** ** ** ** ** 0   98   85 1005.5 *****  973.8 *** *** ***** *****  0.00 ***** **
944220 ***** 201501060700 130   2 *** *** BKN * * * 28.1 03 ** ** ** ** ** ** ** 2  109   90 1001.1 *****  969.5 *** *** *****  0.00 ***** ***** **
944220 ***** 201501070100 180   3 *** *** SCT * * * 28.1 02 ** ** ** ** ** ** ** 0   97   84 1003.9 *****  972.2 *** *** ***** *****  0.00 ***** **
944220 ***** 201501070700 180   6 *** *** *** * * * 28.1 02 ** ** ** ** ** ** ** 0  111   54 1000.5 *****  968.9 *** *** *****  0.00 ***** ***** **
944220 ***** 201501080100 180   7 *** *** SCT * * * 28.1 02 ** ** ** ** ** ** ** 0   89   77 1004.9 *****  973.2 *** *** ***** *****  0.00 ***** **
944220 ***** 201501080700 180   2 *** *** *** * * * 28.1 02 ** ** ** ** ** ** ** 0  102   86 1001.2 *****  969.6 *** *** *****  0.00 ***** ***** **
944220 ***** 201501090100 130  11 *** 722 SCT * * * 28.1 02 ** ** ** ** ** ** ** 1   90   80 1004.2 *****  972.5 *** *** ***** ***** ***** ***** **
944220 ***** 201501090700 130   5 *** *** SCT * * * 28.1 02 ** ** ** ** ** ** ** 0   97   77 1001.6 *****  970.0 *** *** *****  0.00 ***** ***** **
944220 ***** 201501100100 110  13 *** *** *** * * * 28.1 02 ** ** ** ** ** ** ** 0   80   73 1006.6 *****  974.8 *** *** ***** *****  0.00 ***** **
944220 ***** 201501100700 130   5 *** *** *** * * * 28.1 02 ** ** ** ** ** ** ** 0   92   84 1003.1 *****  971.4 *** *** *****  0.00 ***** ***** **
944220 ***** 201501110100 090   2 *** 722 CLR * * * 28.1 02 ** ** ** ** ** ** ** 0   86   73 1005.6 *****  973.9 *** *** ***** ***** ***** ***** **
944220 ***** 201501110700 ***   0 *** *** *** * * * 28.1 02 ** ** ** ** ** ** ** 0   96   81 1002.3 *****  970.7 *** *** *****  0.00 ***** ***** **
944220 ***** 201501120100 360   2 *** *** *** * * * 28.1 02 ** ** ** ** ** ** ** 0   90   82 1005.1 *****  973.4 *** *** ***** *****  0.00 ***** **
944220 ***** 201501120700 ***   0 *** *** *** * * * 28.1 02 ** ** ** ** ** ** ** 0  102   88 1001.8 *****  970.2 *** *** *****  0.00 ***** ***** **
944220 ***** 201501130100 ***   0 *** *** *** * * * 28.1 02 ** ** ** ** ** ** ** 0   92   80 1006.3 *****  974.5 *** *** ***** *****  0.00 ***** **
944220 ***** 201501130700 270   1 *** *** SCT * * * 28.1 02 ** ** ** ** ** ** ** 0  106   92 1004.1 *****  972.4 *** *** *****  0.00 ***** ***** **
944220 ***** 201501140100 180   1 *** 722 CLR * * * 28.1 02 ** ** ** ** ** ** ** 0   82   72 1009.2 *****  977.4 *** *** ***** ***** ***** ***** **
944220 ***** 201501140700 180   3 *** *** *** * * * 28.1 02 ** ** ** ** ** ** ** 0  106   94 1006.7 *****  974.9 *** *** *****  0.00 ***** ***** **
944220 ***** 201501150100 180   5 *** *** *** * * * 28.1 02 ** ** ** ** ** ** ** 0   84   77 1010.4 *****  978.5 *** *** ***** *****  0.00 ***** **
944220 ***** 201501150700 130   2 *** *** *** * * * 28.1 02 ** ** ** ** ** ** ** 0  107   94 1006.0 *****  974.3 *** *** *****  0.00 ***** ***** **
944220 ***** 201501160100 130   1 *** *** *** * * * 28.1 02 ** ** ** ** ** ** ** 0   91   84 1009.1 *****  977.3 *** *** ***** *****  0.00 ***** **
944220 ***** 201501160700 090   1 *** *** *** * * * 28.1 02 ** ** ** ** ** ** ** 0  111 **** 1005.5 *****  973.8 *** *** *****  0.00 ***** ***** **
944220 ***** 201501170100 090   5 *** *** SCT * * * 28.1 02 ** ** ** ** ** ** ** 0  105   75 1005.8 *****  974.1 *** *** ***** *****  0.00 ***** **
944220 ***** 201501170700 310   3 *** *** BKN * * * 28.1 03 ** ** ** ** ** ** ** 1  114 **** 1002.3 *****  970.7 *** *** *****  0.00 ***** ***** **
944220 ***** 201501180100 180   2 *** *** SCT * * * 28.1 02 ** ** ** ** ** ** ** 0   89   85 1009.1 *****  977.3 *** *** ***** *****  0.00 ***** **
944220 ***** 201501180700 180   2 *** *** SCT * * * 28.1 02 ** ** ** ** ** ** ** 0  109 **** 1007.0 *****  975.2 *** *** *****  0.00 ***** ***** **
944220 ***** 201501190100 130   1 *** *** *** * * * 28.1 02 ** ** ** ** ** ** ** 0   94   78 1011.5 *****  979.6 *** *** ***** *****  0.00 ***** **
944220 ***** 201501190700 270   3 *** *** SCT * * * 28.1 02 ** ** ** ** ** ** ** 0  107 **** 1008.2 *****  976.4 *** *** *****  0.00 ***** ***** **
944220 ***** 201501200100 130   1 *** *** *** * * * 28.1 02 ** ** ** ** ** ** ** 0   93   86 1010.4 *****  978.5 *** *** ***** *****  0.00 ***** **
944220 ***** 201501200700 ***   0 *** *** SCT * * * 28.1 02 ** ** ** ** ** ** ** 0  112   98 1007.0 *****  975.2 *** *** *****  0.00 ***** ***** **
944220 ***** 201501210100 310   3 *** *** BKN * * * 28.1 02 ** ** ** ** ** ** ** 1   94   89 1011.2 *****  979.3 *** *** ***** *****  0.00 ***** **
944220 ***** 201501210700 270   1 *** *** SCT * * * 28.1 02 ** ** ** ** ** ** ** 1  111 **** 1007.9 *****  976.1 *** *** *****  0.00 ***** ***** **
944220 ***** 201501220100 ***   0 *** *** SCT * * * 28.1 02 ** ** ** ** ** ** ** 1   96   88 1010.6 *****  978.7 *** *** ***** *****  0.00 ***** **
944220 ***** 201501220700 180   2 *** *** BKN * * * 28.1 03 ** ** ** ** ** ** ** 2  112 **** 1006.7 *****  974.9 *** *** *****  0.00 ***** ***** **
944220 ***** 201501230100 160   2 *** *** *** * * * 28.1 02 ** ** ** ** ** ** ** 0   95   85 1007.8 *****  976.0 *** *** ***** *****  0.00 ***** **
944220 ***** 201501230700 ***   0 *** *** BKN * * * 28.1 02 ** ** ** ** ** ** ** 2  112 **** 1004.0 *****  972.3 *** *** *****  0.00 ***** ***** **
944220 ***** 201501240100 130   2 *** *** *** * * * 28.1 02 ** ** ** ** ** ** ** 0   94   72 1008.0 *****  976.2 *** *** ***** *****  0.00 ***** **
944220 ***** 201501240700 230   5 *** *** SCT * * * 28.1 02 ** ** ** ** ** ** ** 0  108   84 1004.4 *****  972.7 *** *** *****  0.00 ***** ***** **
944220 ***** 201501250100 130   2 *** *** *** * * * 28.1 02 ** ** ** ** ** ** ** 0   91   74 1007.1 *****  975.3 *** *** ***** *****  0.00 ***** **
944220 ***** 201501250700 180   3 *** *** SCT * * * 28.1 02 ** ** ** ** ** ** ** 0  108   46 1003.6 *****  971.9 *** *** *****  0.00 ***** ***** **
944220 ***** 201501260100 090   2 *** *** *** * * * 28.1 02 ** ** ** ** ** ** ** 0   91   70 1004.7 *****  973.0 *** *** ***** *****  0.00 ***** **
944220 ***** 201501260700 180   1 *** *** BKN * * * 25.0 03 ** ** ** ** ** ** ** 2  103   80 1000.2 *****  968.6 *** *** *****  0.00 ***** ***** **
944220 ***** 201501270100 050   5 *** *** SCT * * * 28.1 02 ** ** ** ** ** ** ** 0   83   74 1004.9 *****  973.2 *** *** ***** *****  0.00 ***** **
944220 ***** 201501270700 ***   0 *** *** BKN * * * 28.1 03 ** ** ** ** ** ** ** 2   99   76 1001.3 *****  969.7 *** *** *****  0.00 ***** ***** **
944220 ***** 201501280100 090   1 *** *** *** * * * 28.1 02 ** ** ** ** ** ** ** 0   86   74 1005.8 *****  974.1 *** *** ***** *****  0.28 ***** **
944220 ***** 201501280700 230   3 *** *** BKN * * * 28.1 03 ** ** ** ** ** ** ** 2  101   75 1002.4 *****  970.8 *** *** *****  0.00 ***** ***** **
944220 ***** 201501290100 ***   0 *** *** SCT * * * 28.1 02 ** ** ** ** ** ** ** 0   91   75 1005.8 *****  974.1 *** *** ***** *****  0.00 ***** **
944220 ***** 201501290700 360   7 *** *** OVC * * * 18.8 02 ** ** ** ** ** ** ** 6   83   74 1004.2 *****  972.5 *** *** *****  0.39 ***** ***** **
944220 ***** 201501300100 ***   0 *** *** BKN * * * 28.1 02 ** ** ** ** ** ** ** 1   82   73 1007.7 *****  975.9 *** *** ***** *****  0.49 ***** **
944220 ***** 201501300700 180   2 *** *** BKN * * * 28.1 03 ** ** ** ** ** ** ** 2   97   75 1004.2 *****  972.5 *** *** *****  0.00 ***** ***** **
944220 ***** 201501310100 360   0 *** *** BKN * * * 28.1 02 ** ** ** ** ** ** ** 2   82   75 1007.2 *****  975.4 *** *** ***** *****  0.09 ***** **
944220 ***** 201501310700 ***   0 *** *** BKN * * * 28.1 03 ** ** ** ** ** ** ** 2   91   74 1003.6 *****  971.9 *** *** *****  0.03 ***** ***** **
944220 ***** 201502010100 050   3 *** *** BKN * * * 28.1 02 ** ** ** ** ** ** ** 2   77   72 1010.2 *****  978.3 *** *** ***** *****  0.35 ***** **
944220 ***** 201502010700 020   3 *** *** BKN * * * 25.0 03 ** ** ** ** ** ** ** 2   92   79 1007.0 *****  975.2 *** *** *****  0.00 ***** ***** **
944220 ***** 201502020100 090   1 *** *** SCT * * * 28.1 02 ** ** ** ** ** ** ** 1   82   75 1012.1 *****  980.2 *** *** ***** *****  0.00 ***** **
944220 ***** 201502020700 ***   0 *** *** BKN * * * 25.0 03 ** ** ** ** ** ** ** 2   97   77 1008.8 *****  977.0 *** *** *****  0.00 ***** ***** **
944220 ***** 201502030100 ***   0 *** *** SCT * * * 28.1 02 ** ** ** ** ** ** ** 0   83   74 1011.8 *****  979.9 *** *** ***** *****  0.00 ***** **
944220 ***** 201502030700 130   2 *** *** BKN * * * 28.1 03 ** ** ** ** ** ** ** 2   99   96 1008.3 *****  976.5 *** *** *****  0.00 ***** ***** **
944220 ***** 201502040100 ***   0 *** *** BKN * * * 28.1 02 ** ** ** ** ** ** ** 2   83   74 1013.8 *****  981.8 *** *** ***** *****  0.00 ***** **
944220 ***** 201502040700 ***   0 *** *** SCT * * * 28.1 02 ** ** ** ** ** ** ** 0   98   78 1010.4 *****  978.5 *** *** *****  0.00 ***** ***** **
944220 ***** 201502050100 ***   0 *** *** SCT * * * 28.1 02 ** ** ** ** ** ** ** 0   89   75 1011.9 *****  980.0 *** *** ***** *****  0.00 ***** **
944220 ***** 201502050700 160   3 *** *** SCT * * * 28.1 02 ** ** ** ** ** ** ** 0  103   80 1009.3 *****  977.5 *** *** *****  0.00 ***** ***** **
944220 ***** 201502060100 130   5 *** *** *** * * * 28.1 02 ** ** ** ** ** ** ** 0   85   73 1012.7 *****  980.8 *** *** ***** *****  0.00 ***** **
944220 ***** 201502060700 090   1 *** *** SCT * * * 28.1 02 ** ** ** ** ** ** ** 0  106   53 1009.1 *****  977.3 *** *** *****  0.00 ***** ***** **
944220 ***** 201502070100 130   1 *** *** SCT * * * 28.1 02 ** ** ** ** ** ** ** 0   91   67 1010.7 *****  978.8 *** *** ***** *****  0.00 ***** **
944220 ***** 201502070700 310   3 *** *** BKN * * * 28.1 03 ** ** ** ** ** ** ** 2  109   64 1007.8 *****  976.0 *** *** *****  0.00 ***** ***** **
944220 ***** 201502080100 270   2 *** *** SCT * * * 28.1 02 ** ** ** ** ** ** ** 0   95   72 1014.1 *****  982.1 *** *** ***** *****  0.00 ***** **
944220 ***** 201502080700 ***   0 *** *** BKN * * * 28.1 03 ** ** ** ** ** ** ** 2  106   73 1011.4 *****  979.5 *** *** *****  0.00 ***** ***** **
944220 ***** 201502090100 ***   0 *** *** BKN * * * 28.1 03 ** ** ** ** ** ** ** 2   97   75 1015.5 *****  983.5 *** *** ***** *****  0.02 ***** **
944220 ***** 201502090700 230   5 *** *** BKN * * * 28.1 02 ** ** ** ** ** ** ** 2  111   88 1011.8 *****  979.9 *** *** *****  0.00 ***** ***** **
944220 ***** 201502100100 180   5 *** *** SCT * * * 28.1 02 ** ** ** ** ** ** ** 1  100   75 1013.5 *****  981.5 *** *** ***** *****  0.00 ***** **
944220 ***** 201502100700 110   2 *** *** SCT * * * 28.1 02 ** ** ** ** ** ** ** 1  113   95 1001.7 *****  970.1 *** *** *****  0.00 ***** ***** **
944220 ***** 201502110100 090   3 *** *** SCT * * * 28.1 02 ** ** ** ** ** ** ** 0   99   76 1011.9 *****  980.0 *** *** ***** *****  0.00 ***** **
944220 ***** 201502110700 360   1 *** *** BKN * * * 28.1 03 ** ** ** ** ** ** ** 2  115   97 1008.1 *****  976.3 *** *** *****  0.00 ***** ***** **
944220 ***** 201502120100 ***   0 *** *** *** * * * 28.1 02 ** ** ** ** ** ** ** 0   99   87 1009.6 *****  977.8 *** *** ***** *****  0.00 ***** **
944220 ***** 201502120700 ***   0 *** *** BKN * * * 28.1 03 ** ** ** ** ** ** ** 1  115 **** 1004.9 *****  973.2 *** *** *****  0.00 ***** ***** **
944220 ***** 201502130100 160   5 *** *** BKN * * * 28.1 03 ** ** ** ** ** ** ** 2   97   80 1007.1 *****  975.3 *** *** ***** *****  0.00 ***** **
944220 ***** 201502130700 200  11 *** *** BKN * * * 21.9 03 ** ** ** ** ** ** ** 2  102   83 1004.6 *****  972.9 *** *** *****  0.00 ***** ***** **
944220 ***** 201502140100 180   8 *** *** SCT * * * 28.1 02 ** ** ** ** ** ** ** 0   76   73 1013.4 *****  981.4 *** *** ***** *****  0.00 ***** **
944220 ***** 201502140700 180   3 *** *** BKN * * * 28.1 02 ** ** ** ** ** ** ** 2   96   90 1009.9 *****  978.0 *** *** *****  0.00 ***** ***** **
944220 ***** 201502150100 180   8 *** *** BKN * * * 28.1 02 ** ** ** ** ** ** ** 2   84   75 1012.5 *****  980.6 *** *** ***** *****  0.00 ***** **
944220 ***** 201502150700 130   3 *** *** BKN * * * 28.1 02 ** ** ** ** ** ** ** 2  104 **** 1008.2 *****  976.4 *** *** *****  0.00 ***** ***** **
944220 ***** 201502160100 050   3 *** *** SCT * * * 28.1 02 ** ** ** ** ** ** ** 2   97   92 1009.0 *****  977.2 *** *** ***** *****  0.00 ***** **
944220 ***** 201502160700 230   2 *** *** BKN * * * 28.1 03 ** ** ** ** ** ** ** 2  110 **** 1005.4 *****  973.7 *** *** *****  0.00 ***** ***** **
944220 ***** 201502170100 090   1 *** *** BKN * * * 28.1 03 ** ** ** ** ** ** ** 2   96   90 1009.4 *****  977.6 *** *** ***** *****  0.06 ***** **
944220 ***** 201502170700 130   7 *** *** BKN * * * 25.0 03 ** ** ** ** ** ** ** 2  106   66 1006.4 *****  974.7 *** *** *****  0.00 ***** ***** **
944220 ***** 201502180100 110   5 *** *** SCT * * * 28.1 02 ** ** ** ** ** ** ** 0  100   64 1009.3 *****  977.5 *** *** ***** *****  0.00 ***** **
944220 ***** 201502180700 130   2 *** *** BKN * * * 28.1 03 ** ** ** ** ** ** ** 2  111   66 1005.6 *****  973.9 *** *** *****  0.00 ***** ***** **
944220 ***** 201502190100 110   2 *** *** BKN * * * 25.0 02 ** ** ** ** ** ** ** 2   96   71 1011.0 *****  979.1 *** *** ***** *****  0.00 ***** **
944220 ***** 201502190700 090   2 *** *** BKN * * * 28.1 02 ** ** ** ** ** ** ** 2  111   80 1007.3 *****  975.5 *** *** *****  0.00 ***** ***** **
944220 ***** 201502200100 160   2 *** *** SCT * * * 28.1 02 ** ** ** ** ** ** ** 1   93   75 1010.5 *****  978.6 *** *** ***** *****  0.00 ***** **
944220 ***** 201502200700 130   7 *** *** BKN * * * 25.0 03 ** ** ** ** ** ** ** 2   96   83 1008.1 *****  976.3 *** *** *****  0.00 ***** ***** **
944220 ***** 201502210100 180   5 *** *** *** * * * 28.1 02 ** ** ** ** ** ** ** 0   79   71 1009.2 *****  977.4 *** *** ***** *****  0.00 ***** **
944220 ***** 201502210700 270   5 *** *** *** * * * 28.1 02 ** ** ** ** ** ** ** 0   97   82 1005.0 *****  973.3 *** *** *****  0.00 ***** ***** **
944220 ***** 201502220100 180  11 *** *** *** * * * 28.1 02 ** ** ** ** ** ** ** 0   78   71 1007.7 *****  975.9 *** *** ***** *****  0.00 ***** **
944220 ***** 201502220700 180   2 *** *** *** * * * 28.1 02 ** ** ** ** ** ** ** 0  100   86 1003.9 *****  972.2 *** *** *****  0.00 ***** ***** **
944220 ***** 201502230100 130   5 *** *** SCT * * * 28.1 02 ** ** ** ** ** ** ** 0   90   81 1006.4 *****  974.7 *** *** ***** *****  0.00 ***** **
944220 ***** 201502230700 130   3 *** *** SCT * * * 28.1 03 ** ** ** ** ** ** ** 0  109   96 1002.5 *****  970.9 *** *** *****  0.00 ***** ***** **
944220 ***** 201502240100 360   1 *** *** OVC * * * 18.8 02 ** ** ** ** ** ** ** 2   86   81 1008.2 *****  976.4 *** *** ***** *****  0.21 ***** **
944220 ***** 201502240700 020   5 *** *** BKN * * * 18.8 03 ** ** ** ** ** ** ** 2  100   91 1005.1 *****  973.4 *** *** *****  0.00 ***** ***** **
944220 ***** 201502250100 050   2 *** *** SCT * * * 28.1 02 ** ** ** ** ** ** ** 1   91   83 1010.9 *****  979.0 *** *** ***** *****  0.00 ***** **
944220 ***** 201502250700 130   5 *** *** BKN * * * 18.8 03 ** ** ** ** ** ** ** 2  101   93 1003.3 *****  971.7 *** *** *****  0.00 ***** ***** **
944220 ***** 201502260100 250   3 *** *** *** * * * 28.1 02 ** ** ** ** ** ** ** 0   86   81 1006.7 *****  974.9 *** *** ***** *****  0.00 ***** **
944220 ***** 201502260700 270   2 *** *** SCT * * * 28.1 02 ** ** ** ** ** ** ** 2  102   93 1002.6 *****  971.0 *** *** *****  0.00 ***** ***** **
944220 ***** 201502270100 230   2 *** *** BKN * * * 25.0 03 ** ** ** ** ** ** ** 2   77   74 1008.1 *****  976.3 *** *** ***** *****  0.00 ***** **
944220 ***** 201502270700 230   3 *** *** SCT * * * 28.1 02 ** ** ** ** ** ** ** 1   95   85 1004.7 *****  973.0 *** *** *****  0.00 ***** ***** **
944220 ***** 201502280100 180   2 *** *** SCT * * * 28.1 02 ** ** ** ** ** ** ** 0   82   75 1009.1 *****  977.3 *** *** ***** *****  0.00 ***** **
944220 ***** 201502280700 180   3 *** *** BKN * * * 28.1 03 ** ** ** ** ** ** ** 1  102   74 1004.2 *****  972.5 *** *** *****  0.00 ***** ***** **
944220 ***** 201503010100 050   6 *** *** BKN * * * 18.8 03 ** ** ** ** ** ** ** 2   82   80 1008.0 *****  975.9 *** *** ***** *****  0.00 ***** **
944220 ***** 201503010700 360   1 *** *** BKN * * * 28.1 02 ** ** ** ** ** ** ** 2   94   69 1002.9 *****  970.9 *** *** *****  0.00 ***** ***** **
944220 ***** 201503020100 160   1 *** *** BKN * * * 18.8 03 ** ** ** ** ** ** ** 2   75   71 1008.0 *****  975.9 *** *** ***** *****  1.02 ***** **
944220 ***** 201503020700 ***   0 *** *** BKN * * * 18.8 14 ** ** ** ** ** ** ** 5   80   70 1006.8 *****  974.7 *** *** *****  0.16 ***** ***** **
944220 ***** 201503030100 110   1 *** *** OVC * * * 25.0 02 ** ** ** ** ** ** ** 2   74   67 1012.4 *****  980.1 *** *** ***** *****  0.16 ***** **
944220 ***** 201503030700 110   2 *** *** BKN * * * 18.8 03 ** ** ** ** ** ** ** 2   82   73 1010.3 *****  978.1 *** *** *****  0.00 ***** ***** **
944220 ***** 201503040100 110   3 *** *** BKN * * * 28.1 02 ** ** ** ** ** ** ** 1   76   68 1015.7 *****  983.3 *** *** ***** *****  0.00 ***** **
944220 ***** 201503040700 110   3 *** *** BKN * * * 28.1 03 ** ** ** ** ** ** ** 2   87   70 1012.3 *****  980.0 *** *** *****  0.00 ***** ***** **
944220 ***** 201503050100 130   5 *** *** OVC * * * 25.0 02 ** ** ** ** ** ** ** 2   73   68 1017.2 *****  984.8 *** *** ***** *****  0.00 ***** **
944220 ***** 201503050700 130   3 *** *** OVC * * * 21.9 02 ** ** ** ** ** ** ** 2   75   71 1014.7 *****  982.4 *** *** *****  0.02 ***** ***** **
944220 ***** 201503060100 130   1 *** *** OVC * * * 25.0 02 ** ** ** ** ** ** ** 2   66   65 1015.6 *****  983.2 *** *** ***** *****  0.63 ***** **
944220 ***** 201503060700 110   3 *** *** BKN * * * 25.0 03 ** ** ** ** ** ** ** 2   78   71 1012.2 *****  979.9 *** *** *****  0.00 ***** ***** **
944220 ***** 201503070100 ***   0 *** *** BKN * * * 25.0 03 ** ** ** ** ** ** ** 2   72   67 1013.4 *****  981.1 *** *** ***** *****  0.08 ***** **
944220 ***** 201503070700 050   1 *** *** OVC * * * 21.9 03 ** ** ** ** ** ** ** 2   73   73 1012.4 *****  980.1 *** *** *****  0.00 ***** ***** **
944220 ***** 201503080100 ***   0 *** *** BKN * * * 28.1 02 ** ** ** ** ** ** ** 2   76   71 1014.0 *****  981.7 *** *** ***** *****  0.43 ***** **
944220 ***** 201503080700 050   1 *** *** BKN * * * 28.1 02 ** ** ** ** ** ** ** 2   87   74 1011.6 *****  979.4 *** *** *****  0.00 ***** ***** **
944220 ***** 201503090100 ***   0 *** *** SCT * * * 28.1 02 ** ** ** ** ** ** ** 0   79   74 1013.6 *****  981.3 *** *** ***** *****  0.01 ***** **
944220 ***** 201503090700 160   1 *** *** OVC * * * 18.8 03 ** ** ** ** ** ** ** 1   89   67 1010.7 *****  978.5 *** *** *****  0.00 ***** ***** **
944220 ***** 201503100100 050   1 *** *** *** * * * 28.1 02 ** ** ** ** ** ** ** 1   82   57 1012.6 *****  980.3 *** *** ***** *****  0.00 ***** **
944220 ***** 201503100700 110   1 *** *** *** * * * 28.1 02 ** ** ** ** ** ** ** 0   94   54 1010.1 *****  977.9 *** *** *****  0.00 ***** ***** **
944220 ***** 201503110100 ***   0 *** *** *** * * * 28.1 02 ** ** ** ** ** ** ** 0   82   62 1012.9 *****  980.6 *** *** ***** *****  0.00 ***** **
944220 ***** 201503110700 ***   0 *** *** SCT * * * 28.1 02 ** ** ** ** ** ** ** 0   97   56 1010.2 *****  978.0 *** *** *****  0.00 ***** ***** **
944220 ***** 201503120100 360   0 *** *** OVC * * * 28.1 03 ** ** ** ** ** ** ** 2   85   59 1011.6 *****  979.4 *** *** ***** ***** ***** ***** **
944220 ***** 201503120700 360   0 *** *** OVC * * * 18.8 03 ** ** ** ** ** ** ** 2   94   60 1008.6 *****  976.5 *** *** ***** ***** ***** ***** **
944220 ***** 201503130100 090   2 *** *** BKN * * * 25.0 02 ** ** ** ** ** ** ** 2   84   74 1008.2 *****  976.1 *** *** ***** *****  0.04 ***** **
944220 ***** 201503130700 130  22 *** *** OVC * * * 18.8 03 ** ** ** ** ** ** ** 2   92   73 1004.3 *****  972.3 *** *** ***** ***** ***** ***** **
944220 ***** 201503140100 310  29 *** *** BKN * * * 25.0 03 ** ** ** ** ** ** ** 2   79   76 1008.5 *****  976.4 *** *** ***** *****  0.31 ***** **
944220 ***** 201503140700 340  22 *** *** BKN * * * 25.0 02 ** ** ** ** ** ** ** 2   88   76 1008.2 *****  976.1 *** *** ***** ***** ***** ***** **
944220 ***** 201503150100 270   0 *** 722 SCT * * * 28.1 02 ** ** ** ** ** ** ** 0   75   69 1014.0 *****  981.7 *** *** ***** ***** ***** ***** **
944220 ***** 201503150700 200   2 *** 722 SCT * * * 28.1 02 ** ** ** ** ** ** ** 1   87   70 1010.5 *****  978.3 *** *** ***** ***** ***** ***** **
944220 ***** 201503160100 230   0 *** 722 SCT * * * 28.1 02 ** ** ** ** ** ** ** 0   73   65 1014.4 *****  982.1 *** *** ***** ***** ***** ***** **
944220 ***** 201503160700 310   0 *** 722 CLR * * * 28.1 02 ** ** ** ** ** ** ** 0   84   65 1010.6 *****  978.4 *** *** ***** ***** ***** ***** **
944220 ***** 201503170100 160   0 *** 722 CLR * * * 28.1 02 ** ** ** ** ** ** ** 0   74   67 1011.5 *****  979.3 *** *** ***** ***** ***** ***** **
944220 ***** 201503170700 360   0 *** 722 CLR * * * 28.1 02 ** ** ** ** ** ** ** 0   91   70 1007.1 *****  975.0 *** *** ***** ***** ***** ***** **
944220 ***** 201503180100 270   2 *** *** BKN * * * 28.1 03 ** ** ** ** ** ** ** 1   73   68 1010.6 *****  978.4 *** *** ***** ***** ***** ***** **
944220 ***** 201503180700 310   4 *** 722 CLR * * * 28.1 02 ** ** ** ** ** ** ** 0   87   74 1007.4 *****  975.3 *** *** ***** ***** ***** ***** **
944220 ***** 201503190100 130   2 *** 722 SCT * * * 28.1 02 ** ** ** ** ** ** ** 0   71   66 1014.4 *****  982.1 *** *** ***** ***** ***** ***** **
944220 ***** 201503190700 160   0 *** 722 SCT * * * 28.1 02 ** ** ** ** ** ** ** 0   84   61 1011.4 *****  979.2 *** *** ***** ***** ***** ***** **
944220 ***** 201503200100 130   0 *** 722 SCT * * * 28.1 02 ** ** ** ** ** ** ** 0   79   59 1015.3 *****  982.9 *** *** ***** ***** ***** ***** **
944220 ***** 201503200700 270   2 *** *** BKN * * * 28.1 02 ** ** ** ** ** ** ** 1   95   61 1011.2 *****  979.0 *** *** ***** ***** ***** ***** **
944220 ***** 201503210100 230   0 *** 722 SCT * * * 28.1 02 ** ** ** ** ** ** ** 1   72   65 1016.7 *****  984.3 *** *** ***** ***** ***** ***** **
944220 ***** 201503210700 200   2 *** 722 SCT * * * 28.1 02 ** ** ** ** ** ** ** 0   85   60 1014.3 *****  982.0 *** *** ***** ***** ***** ***** **
944220 ***** 201503220100 130   2 *** 722 SCT * * * 28.1 02 ** ** ** ** ** ** ** 0   68   63 1019.4 *****  986.9 *** *** ***** ***** ***** ***** **
944220 ***** 201503220700 130   4 *** 722 SCT * * * 28.1 02 ** ** ** ** ** ** ** 0   83   57 1015.9 *****  983.5 *** *** ***** ***** ***** ***** **
944220 ***** 201503230100 090  10 *** 722 SCT * * * 28.1 02 ** ** ** ** ** ** ** 0   72   53 1019.6 *****  987.1 *** *** ***** ***** ***** ***** **
944220 ***** 201503230700 160   2 *** 722 SCT * * * 28.1 02 ** ** ** ** ** ** ** 0   83   60 1014.1 *****  981.8 *** *** ***** ***** ***** ***** **
944220 ***** 201503240100 110   2 *** 722 SCT * * * 28.1 03 ** ** ** ** ** ** ** 1   72   58 1015.4 *****  983.0 *** *** ***** ***** ***** ***** **
944220 ***** 201503240700 130   1 *** 722 SCT * * * 28.1 02 ** ** ** ** ** ** ** 1   88   67 1012.2 *****  979.9 *** *** ***** ***** ***** ***** **
944220 ***** 201503250100 130   1 *** 722 SCT * * * 28.1 02 ** ** ** ** ** ** ** 0   71   63 1017.2 *****  984.8 *** *** ***** ***** ***** ***** **
944220 ***** 201503250700 130   2 *** 722 SCT * * * 28.1 02 ** ** ** ** ** ** ** 0   90   69 1013.4 *****  981.1 *** *** ***** ***** ***** ***** **
944220 ***** 201503260100 090   1 *** *** BKN * * * 25.0 03 ** ** ** ** ** ** ** 2   73   70 1018.9 *****  986.4 *** *** ***** *****  0.08 ***** **
944220 ***** 201503260700 090   1 *** *** BKN * * * 25.0 03 ** ** ** ** ** ** ** 2   78   69 1017.2 *****  984.8 *** *** ***** ***** ***** ***** **
944220 ***** 201503270100 360   0 *** *** BKN * * * 25.0 02 ** ** ** ** ** ** ** 2   70   66 1018.3 *****  985.9 *** *** ***** *****  0.07 ***** **
944220 ***** 201503270700 360   0 *** 722 SCT * * * 28.1 02 ** ** ** ** ** ** ** 2   82   67 1014.7 *****  982.4 *** *** ***** ***** ***** ***** **
944220 ***** 201503280100 360   0 *** 722 CLR * * * 28.1 02 ** ** ** ** ** ** ** 0   72   64 1017.5 *****  985.1 *** *** ***** ***** ***** ***** **
944220 ***** 201503280700 230   2 *** 722 SCT * * * 28.1 02 ** ** ** ** ** ** ** 0   86   56 1014.1 *****  981.8 *** *** ***** ***** ***** ***** **
944220 ***** 201503290100 360   0 *** *** BKN * * * 28.1 02 ** ** ** ** ** ** ** 2   73   59 1016.7 *****  984.3 *** *** ***** ***** ***** ***** **
944220 ***** 201503290700 340   1 *** *** BKN * * * 25.0 02 ** ** ** ** ** ** ** 2   88   63 1013.7 *****  981.4 *** *** ***** ***** ***** ***** **
944220 ***** 201503300100 230   0 *** *** OVC * * * 18.8 03 ** ** ** ** ** ** ** 2   70   65 1017.5 *****  985.1 *** *** ***** *****  0.16 ***** **
944220 ***** 201503300700 180   0 *** *** OVC * * * 12.5 80 ** ** ** ** ** ** ** 2   70   65 1016.0 *****  983.6 *** *** ***** ***** ***** ***** **
944220 ***** 201503310100 180   0 *** *** BKN * * * 25.0 02 ** ** ** ** ** ** ** 2   70   67 1016.1 *****  983.7 *** *** ***** *****  0.47 ***** **
944220 ***** 201503310700 200   2 *** *** BKN * * * 28.1 03 ** ** ** ** ** ** ** 2   79   64 1013.5 *****  981.2 *** *** ***** ***** ***** ***** **
944220 ***** 201504010100 130   0 *** 722 SCT * * * 28.1 02 ** ** ** ** ** ** ** 0   72   63 1018.3 *****  985.4 *** *** ***** ***** ***** ***** **
944220 ***** 201504010700 130   3 *** *** BKN * * * 28.1 03 ** ** ** ** ** ** ** 2   82   62 1014.7 *****  981.9 *** *** ***** ***** ***** ***** **
944220 ***** 201504020100 090   0 *** *** BKN * * * 25.0 02 ** ** ** ** ** ** ** 2   69   63 1016.3 *****  983.5 *** *** ***** ***** ***** ***** **
944220 ***** 201504020700 130   1 *** *** OVC * * * 18.8 02 ** ** ** ** ** ** ** 2   77   66 1012.2 *****  979.5 *** *** ***** ***** ***** ***** **
944220 ***** 201504030100 130   0 *** *** BKN * * * 25.0 02 ** ** ** ** ** ** ** 2   70   66 1014.0 *****  981.2 *** *** ***** ***** ***** ***** **
944220 ***** 201504030700 130   1 *** *** BKN * * * 25.0 03 ** ** ** ** ** ** ** 2   80   69 1012.1 *****  979.4 *** *** ***** ***** ***** ***** **
944220 ***** 201504040100 360   0 *** *** BKN * * * 25.0 02 ** ** ** ** ** ** ** 2   71   67 1016.2 *****  983.4 *** *** ***** ***** ***** ***** **
944220 ***** 201504040700 310   2 *** *** BKN * * * 18.8 03 ** ** ** ** ** ** ** 2   80   66 1014.3 *****  981.5 *** *** ***** ***** ***** ***** **
944220 ***** 201504050100 360   0 *** *** BKN * * * 25.0 02 ** ** ** ** ** ** ** 2   76   66 1016.3 *****  983.5 *** *** ***** ***** ***** ***** **
944220 ***** 201504050700 360   0 *** 722 SCT * * * 28.1 02 ** ** ** ** ** ** ** 1   87   65 1013.4 *****  980.7 *** *** ***** ***** ***** ***** **
944220 ***** 201504060100 050   2 *** *** BKN * * * 25.0 02 ** ** ** ** ** ** ** 2   78   62 1016.7 *****  983.9 *** *** ***** ***** ***** ***** **
944220 ***** 201504060700 090   4 *** *** BKN * * * 25.0 03 ** ** ** ** ** ** ** 2   87   65 1013.3 *****  980.6 *** *** ***** ***** ***** ***** **
944220 ***** 201504070100 090   2 *** *** OVC * * * 18.8 03 ** ** ** ** ** ** ** 2   73   58 1017.3 *****  984.4 *** *** ***** ***** ***** ***** **
944220 ***** 201504070700 360   0 *** *** OVC * * * 18.8 03 ** ** ** ** ** ** ** 2   71   62 1016.7 *****  983.9 *** *** ***** ***** ***** ***** **
944220 ***** 201504080100 130   0 *** *** BKN * * * 21.9 03 ** ** ** ** ** ** ** 2   73   61 1016.5 *****  983.7 *** *** ***** ***** ***** ***** **
944220 ***** 201504080700 160   0 *** *** BKN * * * 21.9 03 ** ** ** ** ** ** ** 2   79   61 1014.2 *****  981.4 *** *** ***** ***** ***** ***** **
944220 ***** 201504090100 360   0 *** *** BKN * * * 25.0 02 ** ** ** ** ** ** ** 2   74   63 1014.3 *****  981.5 *** *** ***** ***** ***** ***** **
944220 ***** 201504090700 360   2 *** *** BKN * * * 25.0 03 ** ** ** ** ** ** ** 2   91   69 1010.9 *****  978.2 *** *** ***** ***** ***** ***** **
944220 ***** 201504100100 310   0 *** *** OVC * * * 21.9 02 ** ** ** ** ** ** ** 2   74   66 1014.4 *****  981.6 *** *** ***** ***** ***** ***** **
944220 ***** 201504100700 360   2 *** *** BKN * * * 21.9 02 ** ** ** ** ** ** ** 2   84   73 1011.8 *****  979.1 *** *** ***** ***** ***** ***** **
944220 ***** 201504110100 230   4 *** *** OVC * * * 21.9 02 ** ** ** ** ** ** ** 2   69   66 1015.1 *****  982.3 *** *** ***** ***** ***** ***** **
944220 ***** 201504110700 180   2 *** *** BKN * * * 25.0 02 ** ** ** ** ** ** ** 2   76   62 1012.9 *****  980.2 *** *** ***** ***** ***** ***** **
944220 ***** 201504120100 180   2 *** 722 SCT * * * 28.1 02 ** ** ** ** ** ** ** 0   65   60 1016.5 *****  983.7 *** *** ***** ***** ***** ***** **
944220 ***** 201504120700 180   2 *** *** BKN * * * 28.1 02 ** ** ** ** ** ** ** 1   77   61 1013.3 *****  980.6 *** *** ***** ***** ***** ***** **
944220 ***** 201504130100 160   1 *** 722 SCT * * * 28.1 02 ** ** ** ** ** ** ** 0   80   51 1015.5 *****  982.7 *** *** ***** ***** ***** ***** **
944220 ***** 201504130700 360   0 *** 722 CLR * * * 28.1 02 ** ** ** ** ** ** ** 0   78   57 1011.5 *****  978.8 *** *** ***** ***** ***** ***** **
944220 ***** 201504140100 110   1 *** 722 SCT * * * 28.1 02 ** ** ** ** ** ** ** 0   66   59 1015.2 *****  982.4 *** *** ***** ***** ***** ***** **
944220 ***** 201504140700 160   3 *** 722 CLR * * * 28.1 02 ** ** ** ** ** ** ** 0   79   58 1012.0 *****  979.3 *** *** ***** ***** ***** ***** **
944220 ***** 201504150100 130   6 *** 722 CLR * * * 28.1 02 ** ** ** ** ** ** ** 0   69   58 1018.3 *****  985.4 *** *** ***** ***** ***** ***** **
944220 ***** 201504150700 180   3 *** 722 SCT * * * 28.1 02 ** ** ** ** ** ** ** 0   83   65 1014.8 *****  982.0 *** *** ***** ***** ***** ***** **
944220 ***** 201504160100 130   6 *** 722 SCT * * * 28.1 02 ** ** ** ** ** ** ** 0   64   60 1023.3 *****  990.2 *** *** ***** ***** ***** ***** **
944220 ***** 201504160700 130  11 *** 722 SCT * * * 28.1 02 ** ** ** ** ** ** ** 0   77   72 1019.2 *****  986.3 *** *** ***** ***** ***** ***** **
944220 ***** 201504170100 360   0 *** 722 SCT * * * 28.1 02 ** ** ** ** ** ** ** 0   67   63 1020.7 *****  987.7 *** *** ***** ***** ***** ***** **
944220 ***** 201504170700 180   1 *** *** BKN * * * 25.0 03 ** ** ** ** ** ** ** 2   79   71 1015.8 *****  983.0 *** *** ***** ***** ***** ***** **
944220 ***** 201504180100 090   2 *** 722 SCT * * * 25.0 02 ** ** ** ** ** ** ** 2   71   67 1019.0 *****  986.1 *** *** ***** ***** ***** ***** **
944220 ***** 201504180700 130   2 *** *** BKN * * * 25.0 03 ** ** ** ** ** ** ** 2   81   73 1016.5 *****  983.7 *** *** ***** ***** ***** ***** **
944220 ***** 201504190100 090   1 *** 722 SCT * * * 28.1 02 ** ** ** ** ** ** ** 0   68   62 1021.0 *****  988.0 *** *** ***** ***** ***** ***** **
944220 ***** 201504190700 090   6 *** 722 SCT * * * 28.1 02 ** ** ** ** ** ** ** 0   83   74 1018.0 *****  985.1 *** *** ***** ***** ***** ***** **
944220 ***** 201504200100 090   3 *** 722 CLR * * * 28.1 02 ** ** ** ** ** ** ** 0   71   67 1021.2 *****  988.2 *** *** ***** ***** ***** ***** **
944220 ***** 201504200700 050   3 *** 722 SCT * * * 28.1 02 ** ** ** ** ** ** ** 0   81   74 1017.3 *****  984.4 *** *** ***** ***** ***** ***** **
944220 ***** 201504210100 130   5 *** 722 SCT * * * 28.1 02 ** ** ** ** ** ** ** 0   72   66 1018.9 *****  986.0 *** *** ***** ***** ***** ***** **
944220 ***** 201504210700 050   7 *** 722 SCT * * * 28.1 02 ** ** ** ** ** ** ** 0   78   74 1015.0 *****  982.2 *** *** ***** ***** ***** ***** **
944220 ***** 201504220100 110   1 *** 722 SCT * * * 28.1 02 ** ** ** ** ** ** ** 0   64   59 1018.0 *****  985.1 *** *** ***** ***** ***** ***** **
944220 ***** 201504220700 090   5 *** 722 SCT * * * 28.1 02 ** ** ** ** ** ** ** 0   72   66 1015.2 *****  982.4 *** *** ***** ***** ***** ***** **
944220 ***** 201504230100 070   6 *** 722 CLR * * * 28.1 02 ** ** ** ** ** ** ** 0   64   50 1019.0 *****  986.1 *** *** ***** ***** ***** ***** **
944220 ***** 201504230700 070  13 *** 722 CLR * * * 28.1 02 ** ** ** ** ** ** ** 0   78   71 1015.7 *****  982.9 *** *** ***** ***** ***** ***** **
944220 ***** 201504240100 110   5 *** 722 SCT * * * 28.1 02 ** ** ** ** ** ** ** 0   65   61 1020.7 *****  987.7 *** *** ***** ***** ***** ***** **
944220 ***** 201504240700 110  18 *** 722 SCT * * * 28.1 03 ** ** ** ** ** ** ** 1   79   72 1017.1 *****  984.2 *** *** ***** ***** ***** ***** **
944220 ***** 201504250100 090   3 *** 722 SCT * * * 28.1 02 ** ** ** ** ** ** ** 0   64   50 1019.8 *****  986.9 *** *** ***** ***** ***** ***** **
944220 ***** 201504250700 050   5 *** 722 SCT * * * 28.1 02 ** ** ** ** ** ** ** 0   79   56 1016.6 *****  983.8 *** *** ***** ***** ***** ***** **
944220 ***** 201504270100 360   0 *** 722 CLR * * * 28.1 02 ** ** ** ** ** ** ** 0   68   64 1021.3 *****  988.3 *** *** ***** ***** ***** ***** **
944220 ***** 201504270700 090   2 *** 722 SCT * * * 28.1 02 ** ** ** ** ** ** ** 0   84   75 1018.4 *****  985.5 *** *** ***** ***** ***** ***** **
944220 ***** 201504280100 050  10 *** 722 SCT * * * 28.1 02 ** ** ** ** ** ** ** 0   69   65 1020.4 *****  987.4 *** *** ***** ***** ***** ***** **
944220 ***** 201504280700 050   1 *** 722 SCT * * * 28.1 02 ** ** ** ** ** ** ** 0   82   75 1016.9 *****  984.1 *** *** ***** ***** ***** ***** **
944220 ***** 201504290100 050   2 *** *** BKN * * * 25.0 03 ** ** ** ** ** ** ** 2   73   68 1019.0 *****  986.1 *** *** ***** ***** ***** ***** **
944220 ***** 201504290700 050   3 *** 722 SCT * * * 28.1 02 ** ** ** ** ** ** ** 2   88   82 1015.0 *****  982.2 *** *** ***** ***** ***** ***** **
944220 ***** 201504300100 360   0 *** *** OVC * * * 21.9 03 ** ** ** ** ** ** ** 2   73   68 1015.8 *****  983.0 *** *** ***** ***** ***** ***** **
944220 ***** 201504300700 310   3 *** *** OVC * * * 25.0 03 ** ** ** ** ** ** ** 2   86   81 1013.1 *****  980.4 *** *** ***** ***** ***** ***** **
944220 ***** 201505010100 130   2 *** *** BKN * * * 21.9 03 ** ** ** ** ** ** ** 2   72   70 1015.2 *****  981.9 *** *** ***** ***** ***** ***** **
944220 ***** 201505010700 020  11 *** *** OVC * * * 21.9 03 ** ** ** ** ** ** ** 2   75   74 1013.3 *****  980.0 *** *** ***** ***** ***** ***** **
944220 ***** 201505020100 090   2 *** *** BKN * * * 25.0 02 ** ** ** ** ** ** ** 2   63   63 1014.0 *****  980.7 *** *** ***** *****  0.20 ***** **
944220 ***** 201505020700 160   1 *** *** OVC * * * 21.9 02 ** ** ** ** ** ** ** 2   69   65 1011.8 *****  978.6 *** *** ***** ***** ***** ***** **
944220 ***** 201505030100 290   1 *** 722 CLR * * * 28.1 02 ** ** ** ** ** ** ** 0   68   62 1015.1 *****  981.8 *** *** ***** ***** ***** ***** **
944220 ***** 201505030700 230   7 *** *** BKN * * * 25.0 03 ** ** ** ** ** ** ** 1   76   66 1013.9 *****  980.6 *** *** ***** ***** ***** ***** **
944220 ***** 201505040100 180   7 *** *** BKN * * * 25.0 03 ** ** ** ** ** ** ** 1   61   58 1022.3 *****  988.7 *** *** ***** ***** ***** ***** **
944220 ***** 201505040700 180   8 *** 722 CLR * * * 28.1 02 ** ** ** ** ** ** ** 0   69   58 1021.1 *****  987.6 *** *** ***** ***** ***** ***** **
944220 ***** 201505050100 130   8 *** 722 CLR * * * 28.1 02 ** ** ** ** ** ** ** 0   55   50 1025.7 *****  992.0 *** *** ***** ***** ***** ***** **
944220 ***** 201505050700 130   7 *** 722 CLR * * * 28.1 02 ** ** ** ** ** ** ** 0   68   62 1021.1 *****  987.6 *** *** ***** ***** ***** ***** **
944220 ***** 201505060100 130   2 *** 722 CLR * * * 28.1 02 ** ** ** ** ** ** ** 0   58   51 1025.1 *****  991.4 *** *** ***** ***** ***** ***** **
944220 ***** 201505060700 110   7 *** 722 CLR * * * 28.1 02 ** ** ** ** ** ** ** 0   73   65 1021.1 *****  987.6 *** *** ***** ***** ***** ***** **
944220 ***** 201505070100 130   5 *** 722 CLR * * * 28.1 02 ** ** ** ** ** ** ** 0   63   56 1026.0 *****  992.3 *** *** ***** ***** ***** ***** **
944220 ***** 201505070700 130   3 *** 722 SCT * * * 28.1 02 ** ** ** ** ** ** ** 0   75   67 1021.8 *****  988.2 *** *** ***** ***** ***** ***** **
944220 ***** 201505080100 130   1 *** 722 CLR * * * 28.1 02 ** ** ** ** ** ** ** 0   62   54 1023.7 *****  990.1 *** *** ***** ***** ***** ***** **
944220 ***** 201505080700 090   1 *** 722 CLR * * * 28.1 02 ** ** ** ** ** ** ** 0   77   69 1020.3 *****  986.8 *** *** ***** ***** ***** ***** **
944220 ***** 201505090100 130   3 *** 722 CLR * * * 28.1 02 ** ** ** ** ** ** ** 0   62   57 1024.7 *****  991.0 *** *** ***** ***** ***** ***** **
944220 ***** 201505090700 160   2 *** 722 CLR * * * 28.1 02 ** ** ** ** ** ** ** 0   76   71 1021.7 *****  988.1 *** *** ***** ***** ***** ***** **
944220 ***** 201505100100 090   1 *** 722 CLR * * * 28.1 02 ** ** ** ** ** ** ** 0   62   57 1024.8 *****  991.1 *** *** ***** ***** ***** ***** **
944220 ***** 201505100700 360   0 *** 722 CLR * * * 28.1 02 ** ** ** ** ** ** ** 0   79   74 1021.9 *****  988.3 *** *** ***** ***** ***** ***** **
944220 ***** 201505110100 360   0 *** 722 CLR * * * 28.1 02 ** ** ** ** ** ** ** 0   60   55 1024.5 *****  990.9 *** *** ***** ***** ***** ***** **
944220 ***** 201505110700 130   3 *** 722 SCT * * * 28.1 02 ** ** ** ** ** ** ** 0   79   74 1021.0 *****  987.5 *** *** ***** ***** ***** ***** **
944220 ***** 201505120100 360   0 *** 722 CLR * * * 28.1 02 ** ** ** ** ** ** ** 0   62   54 1024.0 *****  990.4 *** *** ***** ***** ***** ***** **
944220 ***** 201505120700 130   2 *** 722 CLR * * * 28.1 02 ** ** ** ** ** ** ** 0   80   44 1020.9 *****  987.4 *** *** ***** ***** ***** ***** **
944220 ***** 201505130100 090   6 *** 722 CLR * * * 28.1 02 ** ** ** ** ** ** ** 0   65   62 1025.4 *****  991.7 *** *** ***** ***** ***** ***** **
944220 ***** 201505130700 090   5 *** 722 CLR * * * 28.1 02 ** ** ** ** ** ** ** 0   78   74 1021.5 *****  988.0 *** *** ***** ***** ***** ***** **
944220 ***** 201505140100 070  11 *** 722 CLR * * * 28.1 02 ** ** ** ** ** ** ** 0   64   47 1025.4 *****  991.7 *** *** ***** ***** ***** ***** **
944220 ***** 201505140700 090   5 *** 722 CLR * * * 28.1 02 ** ** ** ** ** ** ** 0   80   49 1022.6 *****  989.0 *** *** ***** ***** ***** ***** **
944220 ***** 201505150100 050  11 *** 722 CLR * * * 28.1 02 ** ** ** ** ** ** ** 0   64   40 1024.8 *****  991.1 *** *** ***** ***** ***** ***** **
944220 ***** 201505150700 020   3 *** 722 SCT * * * 28.1 02 ** ** ** ** ** ** ** 0   79   50 1020.4 *****  986.9 *** *** ***** ***** ***** ***** **
944220 ***** 201505160100 050  15 *** *** OVC * * * 25.0 03 ** ** ** ** ** ** ** 2   64   50 1018.0 *****  984.6 *** *** ***** ***** ***** ***** **
944220 ***** 201505160700 050   8 *** *** OVC * * * 21.9 03 ** ** ** ** ** ** ** 2   70   58 1015.6 *****  982.2 *** *** ***** ***** ***** ***** **
944220 ***** 201505170100 360   3 *** *** OVC * * * 21.9 03 ** ** ** ** ** ** ** 2   62   60 1014.4 *****  981.1 *** *** ***** *****  0.02 ***** **
944220 ***** 201505170700 230   5 *** *** BKN * * * 25.0 03 ** ** ** ** ** ** ** 2   66   60 1011.8 *****  978.6 *** *** ***** ***** ***** ***** **
944220 ***** 201505180100 270   3 *** 722 SCT * * * 28.1 02 ** ** ** ** ** ** ** 0   62   55 1017.9 *****  984.5 *** *** ***** ***** ***** ***** **
944220 ***** 201505180700 180   1 *** *** BKN * * * 28.1 03 ** ** ** ** ** ** ** 1   72   56 1016.4 *****  983.0 *** *** ***** ***** ***** ***** **
944220 ***** 201505190100 130   1 *** 722 SCT * * * 28.1 02 ** ** ** ** ** ** ** 0   60   55 1020.1 *****  986.6 *** *** ***** ***** ***** ***** **
944220 ***** 201505190700 180   1 *** *** BKN * * * 28.1 03 ** ** ** ** ** ** ** 1   72   56 1017.8 *****  984.4 *** *** ***** ***** ***** ***** **
944220 ***** 201505200100 130   1 *** 722 SCT * * * 28.1 02 ** ** ** ** ** ** ** 0   59   52 1022.3 *****  988.7 *** *** ***** ***** ***** ***** **
944220 ***** 201505200700 130   2 *** *** BKN * * * 28.1 03 ** ** ** ** ** ** ** 1   73   55 1019.2 *****  985.7 *** *** ***** ***** ***** ***** **
944220 ***** 201505210100 130   5 *** 722 SCT * * * 28.1 02 ** ** ** ** ** ** ** 0   62   54 1020.9 *****  987.4 *** *** ***** ***** ***** ***** **
944220 ***** 201505210700 090   1 *** 722 SCT * * * 28.1 03 ** ** ** ** ** ** ** 0   74   60 1017.2 *****  983.8 *** *** ***** ***** ***** ***** **
944220 ***** 201505220100 360   0 *** *** BKN * * * 25.0 02 ** ** ** ** ** ** ** 2   63   55 1017.1 *****  983.7 *** *** ***** ***** ***** ***** **
944220 ***** 201505220700 310   7 *** *** OVC * * * 21.9 03 ** ** ** ** ** ** ** 2   78   62 1014.6 *****  981.3 *** *** ***** ***** ***** ***** **
944220 ***** 201505230100 180   3 *** 722 CLR * * * 28.1 02 ** ** ** ** ** ** ** 0   61   54 1018.8 *****  985.3 *** *** ***** ***** ***** ***** **
944220 ***** 201505230700 180   5 *** 722 SCT * * * 28.1 02 ** ** ** ** ** ** ** 0   74   58 1016.2 *****  982.8 *** *** ***** ***** ***** ***** **
944220 ***** 201505240100 180   1 *** 722 CLR * * * 28.1 02 ** ** ** ** ** ** ** 0   57   50 1019.2 *****  985.7 *** *** ***** ***** ***** ***** **
944220 ***** 201505240700 230   1 *** 722 CLR * * * 28.1 02 ** ** ** ** ** ** ** 0   75   61 1016.0 *****  982.6 *** *** ***** ***** ***** ***** **
944220 ***** 201505250100 360   0 *** 722 CLR * * * 28.1 02 ** ** ** ** ** ** ** 0   61   58 1019.8 *****  986.3 *** *** ***** ***** ***** ***** **
944220 ***** 201505250700 360   0 *** 722 SCT * * * 28.1 02 ** ** ** ** ** ** ** 0   77   63 1016.9 *****  983.5 *** *** ***** ***** ***** ***** **
944220 ***** 201505260100 360   0 *** 722 SCT * * * 28.1 03 ** ** ** ** ** ** ** 1   60   55 1021.8 *****  988.2 *** *** ***** ***** ***** ***** **
944220 ***** 201505260700 130   5 *** *** BKN * * * 28.1 03 ** ** ** ** ** ** ** 1   75   64 1018.7 *****  985.2 *** *** ***** ***** ***** ***** **
944220 ***** 201505270100 130   1 *** 722 SCT * * * 28.1 02 ** ** ** ** ** ** ** 0   61   54 1020.0 *****  986.5 *** *** ***** ***** ***** ***** **
944220 ***** 201505270700 130   2 *** 722 SCT * * * 28.1 03 ** ** ** ** ** ** ** 1   74   63 1015.6 *****  982.2 *** *** ***** ***** ***** ***** **
944220 ***** 201505280100 130   1 *** 722 SCT * * * 28.1 02 ** ** ** ** ** ** ** 0   59   52 1018.7 *****  985.2 *** *** ***** ***** ***** ***** **
944220 ***** 201505280700 360   0 *** *** BKN * * * 25.0 03 ** ** ** ** ** ** ** 1   75   64 1016.1 *****  982.7 *** *** ***** ***** ***** ***** **
944220 ***** 201505290100 360   0 *** 722 SCT * * * 25.0 03 ** ** ** ** ** ** ** 1   59   56 1020.5 *****  987.0 *** *** ***** ***** ***** ***** **
944220 ***** 201505290700 130   1 *** 722 SCT * * * 28.1 02 ** ** ** ** ** ** ** 0   73   62 1018.6 *****  985.1 *** *** ***** ***** ***** ***** **
944220 ***** 201505300100 360   0 *** 722 SCT * * * 28.1 02 ** ** ** ** ** ** ** 0   60   58 1023.8 *****  990.2 *** *** ***** ***** ***** ***** **
944220 ***** 201505300700 130   3 *** *** BKN * * * 25.0 03 ** ** ** ** ** ** ** 1   73   36 1020.4 *****  986.9 *** *** ***** ***** ***** ***** **
944220 ***** 201505310100 360   0 *** 722 CLR * * * 28.1 02 ** ** ** ** ** ** ** 0   59   49 1022.7 *****  989.1 *** *** ***** ***** ***** ***** **
944220 ***** 201505310700 360   0 *** 722 SCT * * * 28.1 02 ** ** ** ** ** ** ** 0   72   60 1019.1 *****  985.6 *** *** ***** ***** ***** ***** **
944220 ***** 201506010100 050   7 *** 722 CLR * * * 28.1 02 ** ** ** ** ** ** ** 0   58   44 1018.8 *****  984.9 *** *** ***** ***** ***** ***** **
944220 ***** 201506010700 020   7 *** *** BKN * * * 21.9 03 ** ** ** ** ** ** ** 2   71   45 1013.9 *****  980.1 *** *** ***** ***** ***** ***** **
944220 ***** 201506020100 340   3 *** *** BKN * * * 25.0 03 ** ** ** ** ** ** ** 2   65   58 1017.3 *****  983.4 *** *** ***** ***** ***** ***** **
944220 ***** 201506020700 270   3 *** *** BKN * * * 25.0 03 ** ** ** ** ** ** ** 2   72   63 1016.6 *****  982.7 *** *** ***** ***** ***** ***** **
944220 ***** 201506030100 230   2 *** 722 CLR * * * 28.1 02 ** ** ** ** ** ** ** 0   58   53 1022.4 *****  988.3 *** *** ***** *****  0.04 ***** **
944220 ***** 201506030700 180   1 *** 722 CLR * * * 28.1 02 ** ** ** ** ** ** ** 0   73   52 1021.0 *****  987.0 *** *** ***** ***** ***** ***** **
944220 ***** 201506040100 360   0 *** 722 CLR * * * 28.1 02 ** ** ** ** ** ** ** 0   59   52 1023.6 *****  989.5 *** *** ***** ***** ***** ***** **
944220 ***** 201506040700 050   2 *** 722 CLR * * * 28.1 02 ** ** ** ** ** ** ** 0   82   58 1020.7 *****  986.7 *** *** ***** ***** ***** ***** **
944220 ***** 201506050100 360   0 *** 722 CLR * * * 28.1 02 ** ** ** ** ** ** ** 0   65   54 1022.0 *****  987.9 *** *** ***** ***** ***** ***** **
944220 ***** 201506050700 360   1 *** 722 SCT * * * 28.1 02 ** ** ** ** ** ** ** 0   82   55 1018.6 *****  984.7 *** *** ***** ***** ***** ***** **
944220 ***** 201506060100 360   0 *** *** BKN * * * 25.0 03 ** ** ** ** ** ** ** 2   61   53 1022.0 *****  987.9 *** *** ***** ***** ***** ***** **
944220 ***** 201506060700 360   0 *** *** BKN * * * 25.0 01 ** ** ** ** ** ** ** 2   77   56 1019.4 *****  985.4 *** *** ***** ***** ***** ***** **
944220 ***** 201506070100 180   3 *** *** BKN * * * 28.1 02 ** ** ** ** ** ** ** 2   62   57 1023.7 *****  989.6 *** *** ***** ***** ***** ***** **
944220 ***** 201506070700 360   0 *** *** BKN * * * 25.0 02 ** ** ** ** ** ** ** 2   77   59 1020.9 *****  986.9 *** *** ***** ***** ***** ***** **
944220 ***** 201506080100 130   1 *** *** BKN * * * 25.0 02 ** ** ** ** ** ** ** 2   61   54 1023.4 *****  989.3 *** *** ***** ***** ***** ***** **
944220 ***** 201506080700 050   2 *** *** BKN * * * 25.0 02 ** ** ** ** ** ** ** 2   78   59 1020.3 *****  986.3 *** *** ***** ***** ***** ***** **
944220 ***** 201506090100 360   0 *** *** BKN * * * 21.9 02 ** ** ** ** ** ** ** 2   64   56 1023.8 *****  989.7 *** *** ***** ***** ***** ***** **
944220 ***** 201506090700 070   3 *** 722 SCT * * * 25.0 01 ** ** ** ** ** ** ** 1   77   63 1020.8 *****  986.8 *** *** ***** ***** ***** ***** **
944220 ***** 201506100100 090   1 *** 722 SCT * * * 28.1 02 ** ** ** ** ** ** ** 0   66   55 1022.8 *****  988.7 *** *** ***** ***** ***** ***** **
944220 ***** 201506100700 090   1 *** 722 CLR * * * 28.1 02 ** ** ** ** ** ** ** 0   76   60 1019.0 *****  985.0 *** *** ***** ***** ***** ***** **
944220 ***** 201506110100 050   1 *** 722 CLR * * * 28.1 02 ** ** ** ** ** ** ** 0   65   54 1020.6 *****  986.6 *** *** ***** ***** ***** ***** **
944220 ***** 201506110700 310   6 *** 722 CLR * * * 28.1 02 ** ** ** ** ** ** ** 0   81   64 1017.1 *****  983.2 *** *** ***** ***** ***** ***** **
944220 ***** 201506120100 090   3 *** 722 SCT * * * 28.1 03 ** ** ** ** ** ** ** 1   61   59 1019.2 *****  985.2 *** *** ***** ***** ***** ***** **
944220 ***** 201506120700 180   6 *** 722 SCT * * * 28.1 01 ** ** ** ** ** ** ** 1   73   62 1016.3 *****  982.4 *** *** ***** ***** ***** ***** **
944220 ***** 201506130100 130   1 *** 722 CLR * * * 28.1 02 ** ** ** ** ** ** ** 0   59   56 1019.4 *****  985.4 *** *** ***** ***** ***** ***** **
944220 ***** 201506130700 270   1 *** *** BKN * * * 25.0 03 ** ** ** ** ** ** ** 2   73   57 1016.7 *****  982.8 *** *** ***** ***** ***** ***** **
944220 ***** 201506140100 130   2 *** 722 SCT * * * 25.0 01 ** ** ** ** ** ** ** 1   56   53 1019.2 *****  985.2 *** *** ***** ***** ***** ***** **
944220 ***** 201506140700 160   2 *** *** BKN * * * 21.9 03 ** ** ** ** ** ** ** 2   71   55 1016.0 *****  982.1 *** *** ***** ***** ***** ***** **
944220 ***** 201506150100 160   1 *** *** BKN * * * 21.9 03 ** ** ** ** ** ** ** 2   54   51 1018.0 *****  984.1 *** *** ***** ***** ***** ***** **
944220 ***** 201506150700 050   1 *** *** BKN * * * 21.9 03 ** ** ** ** ** ** ** 2   72   56 1015.0 *****  981.2 *** *** ***** ***** ***** ***** **
944220 ***** 201506160100 110   1 *** *** BKN * * * 25.0 02 ** ** ** ** ** ** ** 2   56   51 1016.9 *****  983.0 *** *** ***** ***** ***** ***** **
944220 ***** 201506160700 070   6 *** *** BKN * * * 25.0 03 ** ** ** ** ** ** ** 2   77   64 1013.7 *****  979.9 *** *** ***** ***** ***** ***** **
944220 ***** 201506170100 360   0 *** *** OVC * * * 21.9 03 ** ** ** ** ** ** ** 2   62   57 1015.3 *****  981.5 *** *** ***** ***** ***** ***** **
944220 ***** 201506170700 360   0 *** *** OVC * * * 18.8 51 ** ** ** ** ** ** ** 2   64   63 1012.5 *****  978.8 *** *** *****  0.08 ***** ***** **
944220 ***** 201506180100 050   5 *** *** BKN * * * 25.0 01 ** ** ** ** ** ** ** 2   65   64 1013.4 *****  979.6 *** *** ***** *****  0.79 ***** **
944220 ***** 201506180700 050   9 *** *** OVC * * * 21.9 03 ** ** ** ** ** ** ** 2   66   65 1012.5 *****  978.8 *** *** *****  0.04 ***** ***** **
944220 ***** 201506190100 360   0 *** *** BKN * * * 25.0 01 ** ** ** ** ** ** ** 2   63   63 1017.1 *****  983.2 *** *** ***** *****  0.04 ***** **
944220 ***** 201506190700 310   7 *** *** BKN * * * 25.0 03 ** ** ** ** ** ** ** 2   75   67 1015.2 *****  981.4 *** *** ***** ***** ***** ***** **
944220 ***** 201506200100 340   3 *** *** OVC * * * 21.9 02 ** ** ** ** ** ** ** 2   64   64 1017.7 *****  983.8 *** *** ***** ***** ***** ***** **
944220 ***** 201506200700 360   0 *** *** OVC * * * 21.9 03 ** ** ** ** ** ** ** 2   67   67 1015.4 *****  981.6 *** *** *****  0.04 ***** ***** **
944220 ***** 201506210100 310   7 *** *** OVC * * * 21.9 02 ** ** ** ** ** ** ** 2   62   59 1013.8 *****  980.0 *** *** ***** *****  0.51 ***** **
944220 ***** 201506210700 270   7 *** *** BKN * * * 25.0 02 ** ** ** ** ** ** ** 8   62   61 1014.3 *****  980.5 *** *** *****  0.08 ***** ***** **
944220 ***** 201506220100 180   3 *** 722 SCT * * * 28.1 01 ** ** ** ** ** ** ** 1   53   49 1023.0 *****  988.9 *** *** ***** *****  0.08 ***** **
944220 ***** 201506220700 180   6 *** *** BKN * * * 25.0 03 ** ** ** ** ** ** ** 1   61   45 1021.0 *****  987.0 *** *** ***** ***** ***** ***** **
944220 ***** 201506230100 360   0 *** 722 CLR * * * 28.1 02 ** ** ** ** ** ** ** 0   52   44 1027.2 *****  993.0 *** *** ***** ***** ***** ***** **
944220 ***** 201506230700 090   1 *** 722 CLR * * * 28.1 02 ** ** ** ** ** ** ** 0   59   47 1024.2 *****  990.1 *** *** ***** ***** ***** ***** **
944220 ***** 201506240100 070   1 *** 722 CLR * * * 28.1 02 ** ** ** ** ** ** ** 0   54   46 1027.7 *****  993.5 *** *** ***** ***** ***** ***** **
944220 ***** 201506240700 090   5 *** 722 CLR * * * 28.1 02 ** ** ** ** ** ** ** 0   65   47 1025.0 *****  990.8 *** *** ***** ***** ***** ***** **
944220 ***** 201506250100 050   1 *** 722 CLR * * * 28.1 02 ** ** ** ** ** ** ** 0   55   46 1026.3 *****  992.1 *** *** ***** ***** ***** ***** **
944220 ***** 201506250700 360   0 *** 722 CLR * * * 28.1 02 ** ** ** ** ** ** ** 0   67   44 1022.4 *****  988.3 *** *** ***** ***** ***** ***** **
944220 ***** 201506260100 360   0 *** 722 CLR * * * 28.1 02 ** ** ** ** ** ** ** 0   50   42 1025.2 *****  991.0 *** *** ***** ***** ***** ***** **
944220 ***** 201506260700 070   1 *** 722 CLR * * * 28.1 02 ** ** ** ** ** ** ** 0   70   46 1022.2 *****  988.1 *** *** ***** ***** ***** ***** **
944220 ***** 201506270100 360   0 *** 722 CLR * * * 28.1 02 ** ** ** ** ** ** ** 0   51   45 1026.0 *****  991.8 *** *** ***** ***** ***** ***** **
944220 ***** 201506270700 050   1 *** 722 CLR * * * 28.1 02 ** ** ** ** ** ** ** 0   73   42 1023.4 *****  989.3 *** *** ***** ***** ***** ***** **
944220 ***** 201506280100 360   0 *** 722 SCT * * * 28.1 02 ** ** ** ** ** ** ** 0   52   45 1026.1 *****  991.9 *** *** ***** ***** ***** ***** **
944220 ***** 201506280700 050   2 *** 722 CLR * * * 28.1 02 ** ** ** ** ** ** ** 0   74   41 1023.4 *****  989.3 *** *** ***** ***** ***** ***** **
944220 ***** 201506290100 070   1 *** 722 CLR * * * 28.1 02 ** ** ** ** ** ** ** 0   57   42 1026.1 *****  991.9 *** *** ***** ***** ***** ***** **
944220 ***** 201506290700 050   2 *** 722 CLR * * * 28.1 02 ** ** ** ** ** ** ** 0   75   45 1023.0 *****  988.9 *** *** ***** ***** ***** ***** **
944220 ***** 201506300100 360   0 *** 722 SCT * * * 28.1 02 ** ** ** ** ** ** ** 0   57   38 1025.6 *****  991.4 *** *** ***** ***** ***** ***** **
944220 ***** 201506300700 050   1 *** *** BKN * * * 25.0 03 ** ** ** ** ** ** ** 1   73   47 1022.0 *****  987.9 *** *** ***** ***** ***** ***** **
944220 ***** 201507010100 360   0 *** *** BKN * * * 25.0 03 ** ** ** ** ** ** ** 2   56   47 1024.8 *****  990.5 *** *** ***** ***** ***** ***** **
944220 ***** 201507010700 340   7 *** *** BKN * * * 25.0 03 ** ** ** ** ** ** ** 2   77   47 1021.8 *****  987.6 *** *** ***** ***** ***** ***** **
944220 ***** 201507020100 360   0 *** 722 SCT * * * 28.1 01 ** ** ** ** ** ** ** 1   63   51 1024.2 *****  989.9 *** *** ***** ***** ***** ***** **
944220 ***** 201507020700 360   1 *** *** BKN * * * 25.0 03 ** ** ** ** ** ** ** 2   79   54 1021.0 *****  986.9 *** *** ***** ***** ***** ***** **
944220 ***** 201507030100 360   0 *** 722 CLR * * * 28.1 02 ** ** ** ** ** ** ** 0   55   50 1023.8 *****  989.6 *** *** ***** ***** ***** ***** **
944220 ***** 201507030700 360   0 *** 722 CLR * * * 28.1 02 ** ** ** ** ** ** ** 0   79   54 1021.3 *****  987.1 *** *** ***** ***** ***** ***** **
944220 ***** 201507040100 360   0 *** 722 CLR * * * 28.1 02 ** ** ** ** ** ** ** 0   55   52 1023.4 *****  989.2 *** *** ***** ***** ***** ***** **
944220 ***** 201507040700 360   0 *** 722 CLR * * * 28.1 02 ** ** ** ** ** ** ** 0   77   56 1020.7 *****  986.6 *** *** ***** ***** ***** ***** **
944220 ***** 201507050100 360   0 *** 722 CLR * * * 28.1 02 ** ** ** ** ** ** ** 0   59   56 1023.0 *****  988.8 *** *** ***** ***** ***** ***** **
944220 ***** 201507050700 360   0 *** 722 SCT * * * 28.1 03 ** ** ** ** ** ** ** 0   73   51 1019.7 *****  985.6 *** *** ***** ***** ***** ***** **
944220 ***** 201507060100 360   0 *** 722 CLR * * * 28.1 02 ** ** ** ** ** ** ** 0   55   52 1022.5 *****  988.3 *** *** ***** ***** ***** ***** **
944220 ***** 201507060700 160   1 *** 722 CLR * * * 28.1 02 ** ** ** ** ** ** ** 0   72   53 1019.7 *****  985.6 *** *** ***** ***** ***** ***** **
944220 ***** 201507070100 130   1 *** 722 CLR * * * 28.1 02 ** ** ** ** ** ** ** 0   55   46 1021.1 *****  987.0 *** *** ***** ***** ***** ***** **
944220 ***** 201507070700 230   1 *** 722 SCT * * * 28.1 02 ** ** ** ** ** ** ** 0   73   52 1018.0 *****  984.0 *** *** ***** ***** ***** ***** **
944220 ***** 201507080100 130   5 *** *** OVC * * * 21.9 03 ** ** ** ** ** ** ** 2   55   55 1022.0 *****  987.8 *** *** ***** ***** ***** ***** **
944220 ***** 201507080700 180   8 *** 722 SCT * * * 25.0 01 ** ** ** ** ** ** ** 2   66   51 1019.6 *****  985.5 *** *** ***** ***** ***** ***** **
944220 ***** 201507090100 110  11 *** 722 CLR * * * 28.1 02 ** ** ** ** ** ** ** 0   46   46 1025.2 *****  990.9 *** *** ***** ***** ***** ***** **
944220 ***** 201507090700 160  10 *** 722 CLR * * * 28.1 02 ** ** ** ** ** ** ** 0   61   47 1022.7 *****  988.5 *** *** ***** ***** ***** ***** **
944220 ***** 201507100100 130   1 *** 722 CLR * * * 28.1 02 ** ** ** ** ** ** ** 0   46   42 1027.8 *****  993.4 *** *** ***** ***** ***** ***** **
944220 ***** 201507100700 160   3 *** 722 CLR * * * 28.1 02 ** ** ** ** ** ** ** 0   63   45 1025.0 *****  990.7 *** *** ***** ***** ***** ***** **
944220 ***** 201507110100 090   1 *** 722 CLR * * * 28.1 02 ** ** ** ** ** ** ** 0   49   47 1029.8 *****  995.4 *** *** ***** ***** ***** ***** **
944220 ***** 201507110700 130   2 *** 722 CLR * * * 28.1 02 ** ** ** ** ** ** ** 0   66   50 1026.6 *****  992.3 *** *** ***** ***** ***** ***** **
944220 ***** 201507120100 130   1 *** *** OVC * * * 21.9 03 ** ** ** ** ** ** ** 2   48   44 1028.0 *****  993.6 *** *** ***** ***** ***** ***** **
944220 ***** 201507120700 090   3 *** *** OVC * * * 21.9 03 ** ** ** ** ** ** ** 2   61   47 1024.3 *****  990.0 *** *** ***** ***** ***** ***** **
944220 ***** 201507130100 090   3 *** *** OVC * * * 18.8 03 ** ** ** ** ** ** ** 2   52   52 1027.7 *****  993.3 *** *** ***** *****  0.16 ***** **
944220 ***** 201507130700 090   2 *** *** OVC * * * 18.8 03 ** ** ** ** ** ** ** 8   52   52 1025.0 *****  990.7 *** *** *****  0.16 ***** ***** **
944220 ***** 201507140100 130   3 *** *** OVC * * * 21.9 02 ** ** ** ** ** ** ** 2   53   51 1026.9 *****  992.6 *** *** ***** *****  0.35 ***** **
944220 ***** 201507140700 110   2 *** *** OVC * * * 21.9 02 ** ** ** ** ** ** ** 2   58   55 1024.8 *****  990.5 *** *** ***** ***** ***** ***** **
944220 ***** 201507150100 090   3 *** 722 SCT * * * 28.1 02 ** ** ** ** ** ** ** 0   64   40 ****** ***** ****** *** *** ***** ***** ***** ***** **
944220 ***** 201507150700 050  11 *** 722 SCT * * * 28.1 02 ** ** ** ** ** ** ** 0   67   53 ****** ***** ****** *** *** ***** ***** ***** ***** **
944220 ***** 201507160100 090  11 *** 722 SCT * * * 28.1 02 ** ** ** ** ** ** ** 0   55   48 1025.0 *****  990.7 *** *** ***** ***** ***** ***** **
944220 ***** 201507160700 050   3 *** 722 SCT * * * 28.1 03 ** ** ** ** ** ** ** 0   66   55 1022.0 *****  987.8 *** *** ***** ***** ***** ***** **
944220 ***** 201507170100 050   1 *** *** BKN * * * 21.9 03 ** ** ** ** ** ** ** 2   54   48 1024.4 *****  990.1 *** *** ***** ***** ***** ***** **
944220 ***** 201507170700 360   1 *** 722 SCT * * * 28.1 01 ** ** ** ** ** ** ** 0   71   57 1022.3 *****  988.1 *** *** ***** ***** ***** ***** **
944220 ***** 201507180100 090   2 *** 722 SCT * * * 28.1 02 ** ** ** ** ** ** ** 0   54   46 1024.7 *****  990.4 *** *** ***** ***** ***** ***** **
944220 ***** 201507180700 050   1 *** 722 CLR * * * 28.1 02 ** ** ** ** ** ** ** 0   72   56 1021.8 *****  987.6 *** *** ***** ***** ***** ***** **
944220 ***** 201507190100 360   2 *** 722 SCT * * * 28.1 02 ** ** ** ** ** ** ** 0   57   47 1021.4 *****  987.2 *** *** ***** ***** ***** ***** **
944220 ***** 201507190700 360   1 *** 722 CLR * * * 28.1 02 ** ** ** ** ** ** ** 0   74   41 1016.3 *****  982.3 *** *** ***** ***** ***** ***** **
944220 ***** 201507200100 360   7 *** *** OVC * * * 25.0 03 ** ** ** ** ** ** ** 2   61   51 1015.0 *****  981.1 *** *** ***** ***** ***** ***** **
944220 ***** 201507200700 340  28 *** *** OVC * * * 25.0 03 ** ** ** ** ** ** ** 2   74   54 1010.1 *****  976.3 *** *** ***** ***** ***** ***** **
944220 ***** 201507210100 230   1 *** *** BKN * * * 21.9 01 ** ** ** ** ** ** ** 2   56   56 1017.6 *****  983.6 *** *** ***** *****  1.34 ***** **
944220 ***** 201507210700 200   2 *** *** BKN * * * 25.0 01 ** ** ** ** ** ** ** 1   65   48 1016.5 *****  982.5 *** *** ***** ***** ***** ***** **
944220 ***** 201507220100 360   0 *** *** OVC * * * 21.9 01 ** ** ** ** ** ** ** 2   53   53 1017.5 *****  983.5 *** *** ***** *****  0.02 ***** **
944220 ***** 201507220700 270   2 *** *** BKN * * * 25.0 01 ** ** ** ** ** ** ** 2   63   51 1017.8 *****  983.8 *** *** ***** ***** ***** ***** **
944220 ***** 201507230100 360   0 *** *** BKN * * * 25.0 01 ** ** ** ** ** ** ** 2   54   50 1021.9 *****  987.7 *** *** ***** ***** ***** ***** **
944220 ***** 201507230700 180   1 *** *** BKN * * * 21.9 03 ** ** ** ** ** ** ** 2   64   55 1020.2 *****  986.1 *** *** ***** ***** ***** ***** **
944220 ***** 201507240100 130   3 *** *** BKN * * * 25.0 01 ** ** ** ** ** ** ** 2   54   48 1024.4 *****  990.1 *** *** ***** ***** ***** ***** **
944220 ***** 201507240700 130   3 *** *** BKN * * * 25.0 01 ** ** ** ** ** ** ** 2   64   53 1022.2 *****  988.0 *** *** ***** ***** ***** ***** **
944220 ***** 201507250100 180   3 *** *** BKN * * * 25.0 01 ** ** ** ** ** ** ** 2   50   46 1026.9 *****  992.6 *** *** ***** ***** ***** ***** **
944220 ***** 201507250700 130   8 *** 722 SCT * * * 28.1 01 ** ** ** ** ** ** ** 1   64   52 1025.1 *****  990.8 *** *** ***** ***** ***** ***** **
944220 ***** 201507260100 090   3 *** 722 CLR * * * 28.1 02 ** ** ** ** ** ** ** 0   50   46 1029.5 *****  995.1 *** *** ***** ***** ***** ***** **
944220 ***** 201507260700 110   3 *** 722 CLR * * * 28.1 02 ** ** ** ** ** ** ** 0   66   53 1027.3 *****  992.9 *** *** ***** ***** ***** ***** **
944220 ***** 201507270100 090   3 *** *** BKN * * * 25.0 02 ** ** ** ** ** ** ** 2   55   43 1027.3 *****  992.9 *** *** ***** ***** ***** ***** **
944220 ***** 201507270700 050   3 *** 722 SCT * * * 28.1 01 ** ** ** ** ** ** ** 0   70   56 1023.3 *****  989.1 *** *** ***** ***** ***** ***** **
944220 ***** 201507280100 020   8 *** *** BKN * * * 25.0 03 ** ** ** ** ** ** ** 2   62   50 1021.9 *****  987.7 *** *** ***** ***** ***** ***** **
944220 ***** 201507280700 050  11 *** *** BKN * * * 25.0 03 ** ** ** ** ** ** ** 2   80   63 1018.4 *****  984.3 *** *** ***** ***** ***** ***** **
944220 ***** 201507290100 340   5 *** *** BKN * * * 25.0 01 ** ** ** ** ** ** ** 2   66   63 1021.6 *****  987.4 *** *** ***** *****  0.02 ***** **
944220 ***** 201507290700 290  10 *** *** BKN * * * 21.9 03 ** ** ** ** ** ** ** 2   75   71 1019.2 *****  985.1 *** *** ***** ***** ***** ***** **
944220 ***** 201507300100 050   7 *** *** BKN * * * 25.0 03 ** ** ** ** ** ** ** 2   66   63 1021.1 *****  987.0 *** *** ***** ***** ***** ***** **
944220 ***** 201507300700 360   7 *** *** BKN * * * 25.0 02 ** ** ** ** ** ** ** 2   82   69 1018.3 *****  984.2 *** *** ***** ***** ***** ***** **
944220 ***** 201507310100 360   0 *** *** BKN * * * 28.1 02 ** ** ** ** ** ** ** 2   65   64 1016.6 *****  982.6 *** *** ***** ***** ***** ***** **
944220 ***** 201507310700 310  11 *** *** BKN * * * 21.9 02 ** ** ** ** ** ** ** 6   66   66 1012.8 *****  978.9 *** *** *****  0.08 ***** ***** **
944220 ***** 201508010100 310   7 *** *** BKN * * * 25.0 01 ** ** ** ** ** ** ** 2   58   56 1018.9 *****  985.0 *** *** ***** *****  0.16 ***** **
944220 ***** 201508020100 110  11 *** *** BKN * * * 18.8 02 ** ** ** ** ** ** ** 2   56   55 1026.5 *****  992.3 *** *** ***** *****  0.12 ***** **
944220 ***** 201508030100 090   8 *** 722 SCT * * * 28.1 02 ** ** ** ** ** ** ** 2   54   50 1029.1 *****  994.8 *** *** ***** ***** ***** ***** **
944220 ***** 201508040100 360   0 *** *** BKN * * * 25.0 02 ** ** ** ** ** ** ** 2   55   48 1028.0 *****  993.8 *** *** ***** ***** ***** ***** **
944220 ***** 201508050100 090   7 *** *** BKN * * * 25.0 02 ** ** ** ** ** ** ** 2   55   48 1024.7 *****  990.6 *** *** ***** ***** ***** ***** **
944220 ***** 201508060100 050   3 *** *** OVC * * * 21.9 03 ** ** ** ** ** ** ** 2   57   47 1019.3 *****  985.3 *** *** ***** ***** ***** ***** **
944220 ***** 201508070100 020   5 *** 722 SCT * * * 28.1 02 ** ** ** ** ** ** ** 1   61   58 1016.8 *****  982.9 *** *** ***** ***** ***** ***** **
944220 ***** 201508080100 310   3 *** 722 SCT * * * 28.1 02 ** ** ** ** ** ** ** 0   62   55 1018.9 *****  985.0 *** *** ***** ***** ***** ***** **
944220 ***** 201508090100 130   1 *** 722 CLR * * * 28.1 02 ** ** ** ** ** ** ** 0   49   47 1023.8 *****  989.7 *** *** ***** ***** ***** ***** **
944220 ***** 201508100100 090   2 *** 722 CLR * * * 28.1 02 ** ** ** ** ** ** ** 0   48   44 1025.4 *****  991.2 *** *** ***** ***** ***** ***** **
944220 ***** 201508110100 360   0 *** *** BKN * * * 25.0 03 ** ** ** ** ** ** ** 2   54   54 1028.2 *****  993.9 *** *** ***** ***** ***** ***** **
944220 ***** 201508120100 130   5 *** 722 CLR * * * 28.1 02 ** ** ** ** ** ** ** 0   52   48 1029.0 *****  994.7 *** *** ***** ***** ***** ***** **
944220 ***** 201508130100 160   1 *** 722 CLR * * * 28.1 02 ** ** ** ** ** ** ** 0   52   48 1025.7 *****  991.5 *** *** ***** ***** ***** ***** **
944220 ***** 201508140100 130   6 *** 722 CLR * * * 28.1 02 ** ** ** ** ** ** ** 0   57   47 1022.6 *****  988.5 *** *** ***** ***** ***** ***** **
944220 ***** 201508150100 050   3 *** 722 SCT * * * 28.1 03 ** ** ** ** ** ** ** 1   57   47 1021.1 *****  987.1 *** *** ***** ***** ***** ***** **
944220 ***** 201508170100 360   0 *** *** OVC * * * **** 03 ** ** ** ** ** ** ** 2   66   55 1020.6 *****  986.6 *** *** ***** ***** ***** ***** **
944220 ***** 201508180100 200   5 *** *** *** * * * **** 03 ** ** ** ** ** ** ** 2   65   61 1019.5 *****  985.5 *** *** ***** *****  0.08 ***** **
944220 ***** 201508190100 200   1 *** *** OVC * * * 25.0 03 ** ** ** ** ** ** ** 2   62   55 1018.1 *****  984.2 *** *** ***** *****  0.00 ***** **
944220 ***** 201508200100 290   5 *** *** *** * * * 28.1 01 ** ** ** ** ** ** ** 1   60   55 1018.0 *****  984.1 *** *** ***** *****  0.03 ***** **
944220 ***** 201508210100 230   3 *** 722 SCT * * * 28.1 02 ** ** ** ** ** ** ** 0   55   54 1018.1 *****  984.2 *** *** ***** ***** ***** ***** **
944220 ***** 201508220100 230  14 *** 722 SCT * * * 25.0 03 ** ** ** ** ** ** ** 1   57   54 1019.8 *****  985.8 *** *** ***** ***** ***** ***** **
944220 ***** 201508230100 130   3 *** 722 CLR * * * 28.1 02 ** ** ** ** ** ** ** 0   54   50 1024.9 *****  990.8 *** *** ***** ***** ***** ***** **
944220 ***** 201508240100 090   5 *** 722 CLR * * * 28.1 02 ** ** ** ** ** ** ** 0   58   50 1024.9 *****  990.8 *** *** ***** ***** ***** ***** **
944220 ***** 201508250100 090  13 *** 722 CLR * * * 28.1 02 ** ** ** ** ** ** ** 0   58   50 1023.4 *****  989.3 *** *** ***** ***** ***** ***** **
944220 ***** 201508260100 050  11 *** 722 SCT * * * 28.1 02 ** ** ** ** ** ** ** 0   61   47 1020.1 *****  986.1 *** *** ***** ***** ***** ***** **
944220 ***** 201508270100 050   3 *** 722 SCT * * * 28.1 02 ** ** ** ** ** ** ** 0   63   49 1017.1 *****  983.2 *** *** ***** ***** ***** ***** **
944220 ***** 201508280100 180   7 *** 722 SCT * * * 28.1 02 ** ** ** ** ** ** ** 0   60   58 1017.6 *****  983.7 *** *** ***** ***** ***** ***** **
944220 ***** 201508290100 250   7 *** 722 SCT * * * 28.1 02 ** ** ** ** ** ** ** 0   64   60 1016.8 *****  982.9 *** *** ***** ***** ***** ***** **
944220 ***** 201508300100 180   5 *** *** BKN * * * 25.0 03 ** ** ** ** ** ** ** 2   63   62 1020.6 *****  986.6 *** *** ***** ***** ***** ***** **
944220 ***** 201508310100 180   3 *** 722 SCT * * * 28.1 01 ** ** ** ** ** ** ** 1   59   54 1015.8 *****  982.0 *** *** ***** *****  0.04 ***** **
944220 ***** 201509010100 160  11 *** *** BKN * * * 25.0 02 ** ** ** ** ** ** ** 2   56   51 1021.7 *****  988.0 *** *** ***** ***** ***** ***** **
944220 ***** 201509020100 090   7 *** 722 CLR * * * 28.1 02 ** ** ** ** ** ** ** 0   53   45 1023.7 *****  989.9 *** *** ***** ***** ***** ***** **
944220 ***** 201509030100 130   2 *** 722 CLR * * * 28.1 02 ** ** ** ** ** ** ** 0   54   43 1019.3 *****  985.7 *** *** ***** ***** ***** ***** **
944220 ***** 201509040100 230   3 *** 722 CLR * * * 28.1 02 ** ** ** ** ** ** ** 0   59   52 1019.0 *****  985.4 *** *** ***** ***** ***** ***** **
944220 ***** 201509050100 180   3 *** *** OVC * * * 25.0 03 ** ** ** ** ** ** ** 2   63   61 1021.9 *****  988.2 *** *** ***** ***** ***** ***** **
944220 ***** 201509060100 130   2 *** 722 CLR * * * 28.1 02 ** ** ** ** ** ** ** 0   59   56 1025.2 *****  991.4 *** *** ***** ***** ***** ***** **
944220 ***** 201509070100 090   2 *** 722 CLR * * * 28.1 02 ** ** ** ** ** ** ** 0   64   56 1024.5 *****  990.7 *** *** ***** ***** ***** ***** **
944220 ***** 201509080100 090   7 *** 722 CLR * * * 28.1 02 ** ** ** ** ** ** ** 0   68   59 1020.6 *****  986.9 *** *** ***** ***** ***** ***** **
944220 ***** 201509090100 070   7 *** 722 CLR * * * 28.1 02 ** ** ** ** ** ** ** 0   76   66 1019.9 *****  986.3 *** *** ***** ***** ***** ***** **
944220 ***** 201509100100 050   2 *** 722 CLR * * * 28.1 02 ** ** ** ** ** ** ** 0   75   68 1018.8 *****  985.2 *** *** ***** ***** ***** ***** **
944220 ***** 201509110100 180   3 *** 722 SCT * * * 28.1 02 ** ** ** ** ** ** ** 0   65   62 1021.8 *****  988.1 *** *** ***** ***** ***** ***** **
944220 ***** 201509120100 310   7 *** 722 CLR * * * 28.1 02 ** ** ** ** ** ** ** 0   63   49 1020.1 *****  986.5 *** *** ***** ***** ***** ***** **
944220 ***** 201509130100 180   9 *** 722 SCT * * * 28.1 02 ** ** ** ** ** ** ** 0   56   46 1024.2 *****  990.4 *** *** ***** ***** ***** ***** **
944220 ***** 201509140100 130   6 *** 722 CLR * * * 28.1 02 ** ** ** ** ** ** ** 0   58   42 1025.3 *****  991.5 *** *** ***** ***** ***** ***** **
944220 ***** 201509150100 130   5 *** 722 CLR * * * 28.1 02 ** ** ** ** ** ** ** 0   59   46 1022.4 *****  988.7 *** *** ***** ***** ***** ***** **
944220 ***** 201509160100 130   2 *** 722 CLR * * * 28.1 02 ** ** ** ** ** ** ** 0   63   45 1022.6 *****  988.9 *** *** ***** ***** ***** ***** **
944220 ***** 201509170100 070   3 *** *** BKN * * * 25.0 03 ** ** ** ** ** ** ** 2   74   50 1022.5 *****  988.8 *** *** ***** ***** ***** ***** **
944220 ***** 201509180100 020  10 *** 722 SCT * * * 28.1 02 ** ** ** ** ** ** ** 0   78   53 1021.0 *****  987.3 *** *** ***** ***** ***** ***** **
944220 ***** 201509190100 180  11 *** *** BKN * * * 21.9 03 ** ** ** ** ** ** ** 2   64   56 1022.3 *****  988.6 *** *** ***** ***** ***** ***** **
