  USAF  WBAN YR--MODAHRMN DIR SPD GUS CLG SKC L M H  VSB MW MW MW MW AW AW AW AW W TEMP DEWP    SLP   ALT    STP MAX MIN PCP01 PCP06 PCP24 PCPXX SD
944510 ***** 201501020100 320  17 *** 722 SCT * * * 25.0 00 ** ** ** ** ** ** ** *   94   72 1003.9 *****  955.1 *** *** ***** ***** ***** ***** **
944510 ***** 201501020700 320  24 *** *** BKN * * * 25.0 00 ** ** ** ** ** ** ** *  109   69  998.9 *****  950.4 *** *** *****  0.00 ***** ***** **
944510 ***** 201501040100 140  21 *** 722 SCT * * * 25.0 02 ** ** ** ** ** ** ** 0   91   69 1007.4 *****  958.4 *** *** ***** ***** *****  0.39 **
944510 ***** 201501040700 140  23 *** *** BKN * * * 25.0 02 ** ** ** ** ** ** ** 2  104   74 1003.7 *****  954.9 *** *** *****  0.00 ***** ***** **
944510 ***** 201501050100 050  23 *** *** *** * * * 25.0 02 ** ** ** ** ** ** ** 0   94   68 1007.6 *****  958.6 *** *** ***** *****  0.00 ***** **
944510 ***** 201501050700 140  31 *** 722 SCT * * * 25.0 03 ** ** ** ** ** ** ** 1  105   65 1003.3 *****  954.5 *** *** *****  0.00 ***** ***** **
944510 ***** 201501060100 090  14 *** *** *** * * * 25.0 03 ** ** ** ** ** ** ** *   94   65 1005.1 *****  956.3 *** *** ***** *****  0.00 ***** **
944510 ***** 201501060700 140  21 *** *** BKN * * * 25.0 00 ** ** ** ** ** ** ** *  105   70 1000.0 *****  951.4 *** *** *****  0.00 ***** ***** **
944510 ***** 201501070100 050  24 *** 722 CLR * * * 25.0 00 ** ** ** ** ** ** ** *   93   73 1002.9 *****  954.2 *** *** ***** ***** ***** ***** **
944510 ***** 201501070700 140  25 *** *** BKN * * * 25.0 00 ** ** ** ** ** ** ** *  106   71  997.9 *****  949.4 *** *** *****  0.00 ***** ***** **
944510 ***** 201501080100 140  23 *** *** BKN * * * 25.0 02 ** ** ** ** ** ** ** 2   89   70 1002.8 *****  954.1 *** *** ***** *****  0.00 ***** **
944510 ***** 201501080700 170  30 *** *** BKN * * * 25.0 02 ** ** ** ** ** ** ** 2   99   72  998.8 *****  950.3 *** *** *****  0.00 ***** ***** **
944510 ***** 201501090100 140  30 *** 722 SCT * * * 25.0 02 ** ** ** ** ** ** ** 1   75   55 1003.4 *****  954.6 *** *** ***** *****  0.00 ***** **
944510 ***** 201501100100 140  31 *** *** BKN * * * 25.0 00 ** ** ** ** ** ** ** *   68   46 1007.1 *****  958.2 *** *** ***** *****  0.00 ***** **
944510 ***** 201501100700 140  23 *** *** BKN * * * 25.0 00 ** ** ** ** ** ** ** *   83   45 1004.0 *****  955.2 *** *** *****  0.00 ***** ***** **
944510 ***** 201501110100 140   8 *** *** OVC * * *  6.2 60 ** ** ** ** ** ** ** *   72   52 1007.9 *****  958.9 *** *** ***** ***** ***** ***** **
944510 ***** 201501110700 230  13 *** *** OVC * * *  6.2 00 ** ** ** ** ** ** ** *   70   61 1005.3 *****  956.4 *** *** ***** ***** ***** ***** **
944510 ***** 201501120100 140  24 *** 722 SCT * * * 25.0 00 ** ** ** ** ** ** ** *   82   57 1006.8 *****  957.9 *** *** ***** *****  0.05 ***** **
944510 ***** 201501120700 230  13 *** *** BKN * * * 25.0 00 ** ** ** ** ** ** ** *   96   56 1002.6 *****  953.9 *** *** *****  0.00 ***** ***** **
944510 ***** 201501130100 090  29 *** 722 SCT * * * 25.0 02 ** ** ** ** ** ** ** 0   90   51 1008.2 *****  959.2 *** *** ***** *****  0.00 ***** **
944510 ***** 201501130700 140  25 *** 722 SCT * * * 25.0 02 ** ** ** ** ** ** ** 0  101   51 1004.9 *****  956.1 *** *** *****  0.00 ***** ***** **
944510 ***** 201501140100 050  21 *** 722 SCT * * * 25.0 02 ** ** ** ** ** ** ** 0   92   54 1009.4 *****  960.3 *** *** ***** *****  0.00 ***** **
944510 ***** 201501140700 140  30 *** *** *** * * * 25.0 02 ** ** ** ** ** ** ** 0  104   52 1005.8 *****  956.9 *** *** *****  0.00 ***** ***** **
944510 ***** 201501150100 050   7 *** *** *** * * * 25.0 00 ** ** ** ** ** ** ** *   95   57 1008.6 *****  959.6 *** *** ***** *****  0.00 ***** **
944510 ***** 201501150700 140   8 *** 722 SCT * * * 25.0 02 ** ** ** ** ** ** ** *  106   60 1004.3 *****  955.5 *** *** *****  0.00 ***** ***** **
944510 ***** 201501160100 050  11 *** *** *** * * * 25.0 00 ** ** ** ** ** ** ** *   99   53 1008.4 *****  959.4 *** *** ***** *****  0.00 ***** **
944510 ***** 201501160700 140  16 *** 722 SCT * * * 25.0 00 ** ** ** ** ** ** ** *  110   54 1004.6 *****  955.8 *** *** *****  0.00 ***** ***** **
944510 ***** 201501170100 050  32 *** *** *** * * * 25.0 02 ** ** ** ** ** ** ** 0   96   61 1008.4 *****  959.4 *** *** ***** *****  0.00 ***** **
944510 ***** 201501170700 360   3 *** 722 SCT * * * 25.0 02 ** ** ** ** ** ** ** 0  110   70 1005.0 *****  956.2 *** *** *****  0.00 ***** ***** **
944510 ***** 201501180100 050   9 *** *** *** * * * 25.0 02 ** ** ** ** ** ** ** 0  100   68 1008.4 *****  959.4 *** *** ***** *****  0.00 ***** **
944510 ***** 201501180700 140   2 *** *** BKN * * * 25.0 03 ** ** ** ** ** ** ** 1  107   69 1004.8 *****  956.0 *** *** *****  0.00 ***** ***** **
944510 ***** 201501190100 330  17 *** *** BKN * * * 25.0 02 ** ** ** ** ** ** ** 2  100   70 1008.2 *****  959.2 *** *** ***** *****  0.00 ***** **
944510 ***** 201501190700 230  11 *** *** BKN * * * 25.0 02 ** ** ** ** ** ** ** 2  111   76 1004.3 *****  955.5 *** *** *****  0.00 ***** ***** **
944510 ***** 201501200100 140  24 *** *** BKN * * * 25.0 00 ** ** ** ** ** ** ** *  101   71 1009.4 *****  960.3 *** *** ***** *****  0.00 ***** **
944510 ***** 201501200700 140   7 *** 722 SCT * * * 25.0 00 ** ** ** ** ** ** ** *  112   68 1006.5 *****  957.6 *** *** *****  0.00 ***** ***** **
944510 ***** 201501210100 050  21 *** *** *** * * * 25.0 00 ** ** ** ** ** ** ** *  100   69 1011.7 *****  962.5 *** *** ***** *****  0.00 ***** **
944510 ***** 201501210700 230   6 *** *** *** * * * 25.0 00 ** ** ** ** ** ** ** *  111   80 1007.3 *****  958.3 *** *** *****  0.00 ***** ***** **
944510 ***** 201501220100 090  13 *** 722 SCT * * * 25.0 02 ** ** ** ** ** ** ** 0  105   76 1007.8 *****  958.8 *** *** ***** *****  0.00 ***** **
944510 ***** 201501220700 230  28 *** 722 SCT * * * 25.0 02 ** ** ** ** ** ** ** 1  116   81 1002.9 *****  954.2 *** *** *****  0.00 ***** ***** **
944510 ***** 201501230100 090  21 *** 722 SCT * * * 25.0 00 ** ** ** ** ** ** ** *  100   67 1007.3 *****  958.3 *** *** ***** *****  0.00 ***** **
944510 ***** 201501230700 050   9 *** *** BKN * * * 25.0 02 ** ** ** ** ** ** ** 1  110   71 1002.8 *****  954.1 *** *** ***** ***** ***** ***** **
944510 ***** 201501240100 050  14 *** *** BKN * * * 25.0 00 ** ** ** ** ** ** ** *   95   72 1006.6 *****  957.7 *** *** ***** *****  0.00 ***** **
944510 ***** 201501240700 230  24 *** *** BKN * * * 25.0 00 ** ** ** ** ** ** ** *  108   72 1002.4 *****  953.7 *** *** *****  0.00 ***** ***** **
944510 ***** 201501250100 050  25 *** *** BKN * * * 25.0 00 ** ** ** ** ** ** ** *   93   76 1008.0 *****  959.0 *** *** ***** *****  0.00 ***** **
944510 ***** 201501250700 320  23 *** *** BKN * * * 25.0 13 ** ** ** ** ** ** ** *  104   80 1003.9 *****  955.1 *** *** *****  0.00 ***** ***** **
944510 ***** 201501260100 090  29 *** 722 SCT * * * 25.0 00 ** ** ** ** ** ** ** *   86   71 1008.8 *****  959.8 *** *** ***** *****  0.28 ***** **
944510 ***** 201501260700 050  14 *** *** BKN * * * 25.0 00 ** ** ** ** ** ** ** *   98   74 1004.4 *****  955.6 *** *** *****  0.00 ***** ***** **
944510 ***** 201501270100 050   9 *** *** BKN * * * 25.0 02 ** ** ** ** ** ** ** 2   86   70 1007.1 *****  958.2 *** *** ***** *****  0.00 ***** **
944510 ***** 201501270700 140  24 *** *** BKN * * * 12.5 02 ** ** ** ** ** ** ** 2   98   80 1002.4 *****  953.7 *** *** *****  0.00 ***** ***** **
944510 ***** 201501280100 050  24 *** *** BKN * * * 25.0 02 ** ** ** ** ** ** ** 2   84   71 1006.2 *****  957.3 *** *** ***** *****  0.00 ***** **
944510 ***** 201501280700 140  25 *** *** BKN * * * 25.0 02 ** ** ** ** ** ** ** 2   90   74 1002.7 *****  954.0 *** *** *****  0.00 ***** ***** **
944510 ***** 201501290100 050   5 *** *** BKN * * * 25.0 00 ** ** ** ** ** ** ** 8   89   57 1006.3 *****  957.4 *** *** ***** *****  0.02 ***** **
944510 ***** 201501290700 050  23 *** *** OVC * * * 25.0 00 ** ** ** ** ** ** ** *   90   58 1004.0 *****  955.2 *** *** *****  0.00 ***** ***** **
944510 ***** 201501300100 140   5 *** *** OVC * * * 25.0 00 ** ** ** ** ** ** ** 8   88   63 1007.3 *****  958.3 *** *** ***** *****  0.00 ***** **
944510 ***** 201501300700 140  25 *** *** OVC * * * 25.0 00 ** ** ** ** ** ** ** *   91   59 1004.2 *****  955.4 *** *** *****  0.00 ***** ***** **
944510 ***** 201501310100 140  11 *** *** BKN * * * 25.0 02 ** ** ** ** ** ** ** 2   90   64 1007.8 *****  958.8 *** *** ***** *****  0.00 ***** **
944510 ***** 201501310700 050  21 *** *** BKN * * * 25.0 02 ** ** ** ** ** ** ** 2   95   69 1004.9 *****  956.1 *** *** *****  0.00 ***** ***** **
944510 ***** 201502010100 090  28 *** 722 SCT * * * 25.0 02 ** ** ** ** ** ** ** 2   92   58 1010.0 *****  960.7 *** *** ***** *****  0.00 ***** **
944510 ***** 201502010700 140  24 *** *** BKN * * * 25.0 02 ** ** ** ** ** ** ** 2  100   58 1006.9 *****  957.7 *** *** *****  0.00 ***** ***** **
944510 ***** 201502020100 140  29 *** *** BKN * * * 25.0 02 ** ** ** ** ** ** ** 2   89   59 1011.5 *****  962.1 *** *** ***** *****  0.00 ***** **
944510 ***** 201502020700 140  24 *** *** BKN * * * 25.0 02 ** ** ** ** ** ** ** 2  104   69 1008.0 *****  958.8 *** *** *****  0.00 ***** ***** **
944510 ***** 201502030100 050  23 *** *** BKN * * * 25.0 02 ** ** ** ** ** ** ** 2   92   66 1013.6 *****  964.1 *** *** ***** *****  0.00 ***** **
944510 ***** 201502030700 140  25 *** *** BKN * * * 25.0 00 ** ** ** ** ** ** ** *  105   72 1009.7 *****  960.4 *** *** ***** ***** ***** ***** **
944510 ***** 201502040100 050  13 *** 722 SCT * * * 25.0 02 ** ** ** ** ** ** ** 0   93   48 1012.7 *****  963.2 *** *** ***** *****  0.00 ***** **
944510 ***** 201502040700 050   7 *** 722 SCT * * * 25.0 02 ** ** ** ** ** ** ** 0  104   59 1008.8 *****  959.5 *** *** ***** ***** ***** ***** **
944510 ***** 201502050100 050  20 *** *** BKN * * * 25.0 02 ** ** ** ** ** ** ** 2   92   62 1011.6 *****  962.2 *** *** ***** *****  0.00 ***** **
944510 ***** 201502050700 090   5 *** *** BKN * * * 25.0 02 ** ** ** ** ** ** ** 2  102   55 1007.6 *****  958.4 *** *** *****  0.00 ***** ***** **
944510 ***** 201502060100 050   8 *** 722 SCT * * * 25.0 02 ** ** ** ** ** ** ** 0   95   62 1010.9 *****  961.5 *** *** ***** *****  0.00 ***** **
944510 ***** 201502060700 140   9 *** 722 SCT * * * 25.0 02 ** ** ** ** ** ** ** 0  107   65 1007.4 *****  958.2 *** *** *****  0.00 ***** ***** **
944510 ***** 201502070100 090  11 *** 722 SCT * * * 25.0 00 ** ** ** ** ** ** ** *   95   60 1011.8 *****  962.4 *** *** ***** *****  0.00 ***** **
944510 ***** 201502070700 050   8 *** *** BKN * * * 25.0 00 ** ** ** ** ** ** ** *  109   73 1008.9 *****  959.6 *** *** *****  0.00 ***** ***** **
944510 ***** 201502080100 090  19 *** 722 SCT * * * 25.0 00 ** ** ** ** ** ** ** *   99   57 1014.3 *****  964.8 *** *** ***** ***** ***** ***** **
944510 ***** 201502080700 180  14 *** *** BKN * * * 18.8 00 ** ** ** ** ** ** ** *  108   63 1011.0 *****  961.6 *** *** *****  0.00 ***** ***** **
944510 ***** 201502090100 090  14 *** 722 CLR * * * 25.0 00 ** ** ** ** ** ** ** *  101   73 1014.4 *****  964.9 *** *** ***** ***** ***** ***** **
944510 ***** 201502090700 140   7 *** *** BKN * * * 25.0 00 ** ** ** ** ** ** ** *  109   73 1010.4 *****  961.1 *** *** *****  0.00 ***** ***** **
944510 ***** 201502100100 050  20 *** 722 SCT * * * 25.0 02 ** ** ** ** ** ** ** 0  104   80 1013.6 *****  964.1 *** *** ***** *****  0.00 ***** **
944510 ***** 201502100700 090  18 *** *** BKN * * * 25.0 03 ** ** ** ** ** ** ** 1  109   83 1010.0 *****  960.7 *** *** *****  0.00 ***** ***** **
944510 ***** 201502110100 050  17 *** *** *** * * * 25.0 02 ** ** ** ** ** ** ** 0  103   80 1011.6 *****  962.2 *** *** ***** *****  0.00 ***** **
944510 ***** 201502110700 140   8 *** 722 SCT * * * 25.0 02 ** ** ** ** ** ** ** 1  113   85 1007.5 *****  958.3 *** *** *****  0.00 ***** ***** **
944510 ***** 201502120100 050  11 *** 722 CLR * * * 25.0 00 ** ** ** ** ** ** ** *  103   83 1009.5 *****  960.2 *** *** ***** ***** ***** ***** **
944510 ***** 201502120700 090  13 *** 722 SCT * * * 25.0 00 ** ** ** ** ** ** ** *  112   89 1005.3 *****  956.2 *** *** ***** ***** ***** ***** **
944510 ***** 201502130100 360  20 *** *** *** * * * 25.0 00 ** ** ** ** ** ** ** *  100   85 1007.9 *****  958.7 *** *** ***** *****  0.00 ***** **
944510 ***** 201502130700 090  13 *** *** *** * * * 25.0 00 ** ** ** ** ** ** ** *  110   90 1003.3 *****  954.3 *** *** *****  0.00 ***** ***** **
944510 ***** 201502140100 360  20 *** *** *** * * * 25.0 02 ** ** ** ** ** ** ** 0  102   89 1008.2 *****  959.0 *** *** ***** *****  0.00 ***** **
944510 ***** 201502140700 330  24 *** *** BKN * * * 25.0 03 ** ** ** ** ** ** ** 1  106 **** 1005.2 *****  956.1 *** *** *****  0.00 ***** ***** **
944510 ***** 201502150100 140  24 *** *** *** * * * 25.0 02 ** ** ** ** ** ** ** 0   91   85 1011.3 *****  961.9 *** *** ***** *****  0.00 ***** **
944510 ***** 201502150700 140  20 *** 722 SCT * * * 25.0 02 ** ** ** ** ** ** ** 0  102   92 1008.3 *****  959.1 *** *** *****  0.00 ***** ***** **
944510 ***** 201502160100 140  24 *** 722 SCT * * * 25.0 02 ** ** ** ** ** ** ** 0   86   48 1011.9 *****  962.5 *** *** ***** *****  0.00 ***** **
944510 ***** 201502160700 140  25 *** 722 SCT * * * 25.0 02 ** ** ** ** ** ** ** 0  103   53 1007.6 *****  958.4 *** *** *****  0.00 ***** ***** **
944510 ***** 201502170100 090  24 *** 722 SCT * * * 25.0 00 ** ** ** ** ** ** ** *   96   61 1009.6 *****  960.3 *** *** ***** ***** ***** ***** **
944510 ***** 201502170700 270   6 *** *** BKN * * * 25.0 00 ** ** ** ** ** ** ** *  107   63 1005.6 *****  956.5 *** *** ***** ***** ***** ***** **
944510 ***** 201502180100 050  32 *** *** BKN * * * 25.0 00 ** ** ** ** ** ** ** *   95   72 1010.1 *****  960.8 *** *** ***** *****  0.00 ***** **
944510 ***** 201502180700 140   9 *** *** BKN * * * 25.0 00 ** ** ** ** ** ** ** *  103   70 1006.3 *****  957.2 *** *** ***** ***** ***** ***** **
944510 ***** 201502190100 050  13 *** *** *** * * * 25.0 02 ** ** ** ** ** ** ** *   98   64 1006.1 *****  957.0 *** *** ***** *****  0.00 ***** **
944510 ***** 201502190700 230  21 *** *** BKN * * * 25.0 02 ** ** ** ** ** ** ** *  109   51 1005.2 *****  956.1 *** *** *****  0.00 ***** ***** **
944510 ***** 201502200100 050  11 *** *** *** * * * 25.0 02 ** ** ** ** ** ** ** 0   98   61 1007.6 *****  958.4 *** *** ***** *****  0.00 ***** **
944510 ***** 201502200700 140  25 *** 722 SCT * * * 25.0 02 ** ** ** ** ** ** ** 1  109   57 1003.2 *****  954.2 *** *** *****  0.00 ***** ***** **
944510 ***** 201502210100 050   5 *** *** BKN * * * 25.0 02 ** ** ** ** ** ** ** 1   99 **** 1005.2 *****  956.1 *** *** ***** ***** ***** ***** **
944510 ***** 201502210700 270   5 *** *** BKN * * * 25.0 02 ** ** ** ** ** ** ** 2  110 **** 1001.1 *****  952.2 *** *** *****  0.00 ***** ***** **
944510 ***** 201502220100 090  17 *** 722 SCT * * * 25.0 02 ** ** ** ** ** ** ** 0   97   65 1003.4 *****  954.4 *** *** ***** ***** ***** ***** **
944510 ***** 201502220700 230  19 *** *** OVC * * * 25.0 02 ** ** ** ** ** ** ** 1  108 **** 1000.4 *****  951.5 *** *** ***** ***** ***** ***** **
944510 ***** 201502230100 050   9 *** *** BKN * * * 25.0 02 ** ** ** ** ** ** ** 1   91   76 1010.9 *****  961.5 *** *** ***** *****  0.02 ***** **
944510 ***** 201502230700 140  23 *** *** BKN * * * 25.0 00 ** ** ** ** ** ** ** *   98   65 1007.4 *****  958.2 *** *** *****  0.00 ***** ***** **
944510 ***** 201502240100 050  21 *** *** OVC * * * 12.5 60 ** ** ** ** ** ** ** 6   71   69 1012.7 *****  963.2 *** *** ***** *****  0.05 ***** **
944510 ***** 201502240700 050  24 *** *** OVC * * * 18.8 01 ** ** ** ** ** ** ** 6   85   66 1008.3 *****  959.1 *** *** *****  0.00 ***** ***** **
944510 ***** 201502250100 050  11 *** *** BKN * * * 25.0 02 ** ** ** ** ** ** ** 2   81   67 1009.8 *****  960.5 *** *** ***** *****  0.02 ***** **
944510 ***** 201502250700 050  17 *** *** OVC * * * 25.0 60 ** ** ** ** ** ** ** 1   98   71 1005.1 *****  956.0 *** *** ***** ***** ***** ***** **
944510 ***** 201502260100 320  13 *** *** BKN * * * 25.0 00 ** ** ** ** ** ** ** *   83   74 1008.4 *****  959.2 *** *** ***** *****  0.08 ***** **
944510 ***** 201502260700 180   9 *** *** BKN * * * 25.0 00 ** ** ** ** ** ** ** *  101   67 1002.1 *****  953.2 *** *** *****  0.00 ***** ***** **
944510 ***** 201502270100 050   7 *** 722 SCT * * * 25.0 00 ** ** ** ** ** ** ** *   88   74 1006.2 *****  957.1 *** *** ***** *****  0.03 ***** **
944510 ***** 201502270700 320  13 *** *** BKN * * * 25.0 00 ** ** ** ** ** ** ** *  100   74 1001.9 *****  953.0 *** *** *****  0.00 ***** ***** **
944510 ***** 201502280100 230   5 *** *** BKN * * * 25.0 02 ** ** ** ** ** ** ** 2   86   74 1009.1 *****  959.8 *** *** ***** *****  0.10 ***** **
944510 ***** 201502280700 140   9 *** *** BKN * * * 18.8 60 ** ** ** ** ** ** ** 2   96   75 1005.3 *****  956.2 *** *** ***** ***** ***** ***** **
944510 ***** 201503010100 180   6 *** *** OVC * * * 12.5 02 ** ** ** ** ** ** ** 2   74   70 1012.0 *****  962.1 *** *** ***** *****  0.55 ***** **
944510 ***** 201503010700 050  14 *** *** BKN * * * 25.0 01 ** ** ** ** ** ** ** 2   83   74 1006.4 *****  956.8 *** *** *****  0.12 ***** ***** **
944510 ***** 201503020100 140  20 *** *** OVC * * * 25.0 02 ** ** ** ** ** ** ** 2   74   69 1009.9 *****  960.1 *** *** ***** *****  0.10 ***** **
944510 ***** 201503020700 140   5 *** *** BKN * * * 25.0 02 ** ** ** ** ** ** ** 5   84   72 1004.8 *****  955.2 *** *** *****  0.00 ***** ***** **
944510 ***** 201503030100 140  25 *** *** OVC * * * 25.0 00 ** ** ** ** ** ** ** *   72   67 1013.0 *****  963.0 *** *** ***** *****  0.69 ***** **
944510 ***** 201503030700 140  24 *** *** OVC * * * 25.0 00 ** ** ** ** ** ** ** *   82   73 1010.8 *****  960.9 *** *** *****  0.00 ***** ***** **
944510 ***** 201503040100 140  17 *** *** OVC * * * 25.0 00 ** ** ** ** ** ** ** *   71   65 1015.8 *****  965.7 *** *** ***** *****  0.04 ***** **
944510 ***** 201503040700 140  24 *** *** BKN * * * 25.0 00 ** ** ** ** ** ** ** *   81   69 1012.6 *****  962.7 *** *** *****  0.00 ***** ***** **
944510 ***** 201503050100 140  31 *** *** OVC * * * 25.0 02 ** ** ** ** ** ** ** 2   70   62 1016.6 *****  966.5 *** *** ***** *****  0.00 ***** **
944510 ***** 201503050700 140  23 *** *** BKN * * * 25.0 01 ** ** ** ** ** ** ** 2   86   68 1013.2 *****  963.2 *** *** *****  0.00 ***** ***** **
944510 ***** 201503060100 140  13 *** *** BKN * * * 25.0 02 ** ** ** ** ** ** ** 2   72   65 1015.2 *****  965.1 *** *** ***** *****  0.00 ***** **
944510 ***** 201503060700 140  21 *** *** BKN * * * 25.0 02 ** ** ** ** ** ** ** 8   78   70 1012.2 *****  962.3 *** *** *****  0.04 ***** ***** **
944510 ***** 201503070100 140  14 *** *** BKN * * * 25.0 00 ** ** ** ** ** ** ** *   69   66 1014.4 *****  964.4 *** *** ***** *****  0.05 ***** **
944510 ***** 201503080100 140   9 *** *** BKN * * * 25.0 00 ** ** ** ** ** ** ** *   77   68 1014.7 *****  964.7 *** *** ***** *****  0.00 ***** **
944510 ***** 201503080700 140  25 *** *** BKN * * * 25.0 00 ** ** ** ** ** ** ** *   88   72 1011.1 *****  961.2 *** *** *****  0.00 ***** ***** **
944510 ***** 201503090100 140  14 *** *** BKN * * * 25.0 00 ** ** ** ** ** ** ** *   80   62 1014.1 *****  964.1 *** *** ***** *****  0.00 ***** **
944510 ***** 201503090700 180   7 *** 722 SCT * * * 25.0 00 ** ** ** ** ** ** ** *   89   70 1009.9 *****  960.1 *** *** *****  0.00 ***** ***** **
944510 ***** 201503100100 140  28 *** *** *** * * * 25.0 02 ** ** ** ** ** ** ** 0   83   62 1013.1 *****  963.1 *** *** ***** *****  0.00 ***** **
944510 ***** 201503100700 140   6 *** *** *** * * * 25.0 02 ** ** ** ** ** ** ** 0   95   53 1008.3 *****  958.6 *** *** *****  0.00 ***** ***** **
944510 ***** 201503110100 090  20 *** *** *** * * * 25.0 02 ** ** ** ** ** ** ** 0   88   60 1012.7 *****  962.8 *** *** ***** *****  0.00 ***** **
944510 ***** 201503110700 140  14 *** *** BKN * * * 25.0 03 ** ** ** ** ** ** ** 1  100   53 1008.6 *****  958.9 *** *** *****  0.00 ***** ***** **
944510 ***** 201503120100 050  31 *** *** BKN * * * 25.0 02 ** ** ** ** ** ** ** *   91   52 1013.3 *****  963.3 *** *** ***** *****  0.00 ***** **
944510 ***** 201503120700 050   5 *** *** BKN * * * 25.0 02 ** ** ** ** ** ** ** *   99   61 1009.0 *****  959.2 *** *** *****  0.00 ***** ***** **
944510 ***** 201503130100 050  25 *** 722 SCT * * * 25.0 02 ** ** ** ** ** ** ** *   89   53 1013.9 *****  963.9 *** *** ***** ***** ***** ***** **
944510 ***** 201503130700 050  13 *** 722 SCT * * * 25.0 02 ** ** ** ** ** ** ** *  100   67 1009.3 *****  959.5 *** *** *****  0.00 ***** ***** **
944510 ***** 201503140100 050   7 *** *** *** * * * 25.0 02 ** ** ** ** ** ** ** 0   90   62 1013.3 *****  963.3 *** *** ***** *****  0.00 ***** **
944510 ***** 201503140700 050   7 *** 722 SCT * * * 25.0 02 ** ** ** ** ** ** ** 0  102   57 1008.9 *****  959.1 *** *** *****  0.00 ***** ***** **
944510 ***** 201503150100 270   5 *** *** BKN * * * 25.0 02 ** ** ** ** ** ** ** 2   89   74 1011.7 *****  961.8 *** *** ***** *****  0.00 ***** **
944510 ***** 201503150700 320   5 *** *** BKN * * * 25.0 02 ** ** ** ** ** ** ** 2  101   73 1007.0 *****  957.3 *** *** *****  0.00 ***** ***** **
944510 ***** 201503160100 140  11 *** *** *** * * * 25.0 02 ** ** ** ** ** ** ** 0   90   71 1010.5 *****  960.7 *** *** ***** *****  0.00 ***** **
944510 ***** 201503160700 230   9 *** *** BKN * * * 25.0 01 ** ** ** ** ** ** ** 5   96   71 1006.5 *****  956.9 *** *** *****  0.00 ***** ***** **
944510 ***** 201503170100 140  11 *** *** *** * * * 25.0 02 ** ** ** ** ** ** ** 0   85   67 1009.7 *****  959.9 *** *** ***** *****  0.00 ***** **
944510 ***** 201503170700 230  20 *** *** *** * * * 25.0 02 ** ** ** ** ** ** ** 0   97   63 1005.6 *****  956.0 *** *** *****  0.00 ***** ***** **
944510 ***** 201503180100 140   9 *** 722 CLR * * * 25.0 02 ** ** ** ** ** ** ** 0   89   65 1008.2 *****  958.5 *** *** ***** ***** ***** ***** **
944510 ***** 201503180700 320  23 *** *** BKN * * * 25.0 02 ** ** ** ** ** ** ** *  102   69 1004.4 *****  954.9 *** *** *****  0.00 ***** ***** **
944510 ***** 201503190700 320   7 *** 722 SCT * * * 25.0 02 ** ** ** ** ** ** ** 1  101   60 1007.9 *****  958.2 *** *** *****  0.00 ***** ***** **
944510 ***** 201503200100 090  14 *** 722 SCT * * * 25.0 00 ** ** ** ** ** ** ** *   91   66 1015.1 *****  965.0 *** *** ***** ***** *****  0.00 **
944510 ***** 201503200700 050   7 *** *** BKN * * * 25.0 02 ** ** ** ** ** ** ** *  102   61 1010.9 *****  961.0 *** *** ***** ***** ***** ***** **
944510 ***** 201503210100 050  14 *** 722 SCT * * * 25.0 02 ** ** ** ** ** ** ** *   91   69 1014.2 *****  964.2 *** *** ***** *****  0.00 ***** **
944510 ***** 201503210700 320   5 *** *** BKN * * * 25.0 02 ** ** ** ** ** ** ** *  101   69 1009.9 *****  960.1 *** *** *****  0.00 ***** ***** **
944510 ***** 201503220100 070  10 *** *** BKN * * * 25.0 02 ** ** ** ** ** ** ** *   84   72 1014.9 *****  964.8 *** *** ***** *****  0.06 ***** **
944510 ***** 201503220700 230  11 *** *** BKN * * * 25.0 02 ** ** ** ** ** ** ** *   95   67 1012.0 *****  962.1 *** *** *****  0.00 ***** ***** **
944510 ***** 201503230700 140  32 *** 722 SCT * * * 25.0 02 ** ** ** ** ** ** ** *   80   63 1016.1 *****  966.0 *** *** ***** *****  0.00 ***** **
944510 ***** 201503240100 140  13 *** *** OVC * * * 25.0 02 ** ** ** ** ** ** ** 2   67   54 1019.7 *****  969.4 *** *** ***** ***** *****  0.00 **
944510 ***** 201503240700 050  29 *** *** BKN * * * 18.8 02 ** ** ** ** ** ** ** 2   79   66 1014.3 *****  964.3 *** *** *****  0.00 ***** ***** **
944510 ***** 201503250100 140  11 *** *** BKN * * * 25.0 01 ** ** ** ** ** ** ** 2   68   53 1020.0 *****  969.7 *** *** ***** *****  0.04 ***** **
944510 ***** 201503250700 140  14 *** 722 SCT * * * 25.0 02 ** ** ** ** ** ** ** 1   82   67 1016.5 *****  966.4 *** *** *****  0.00 ***** ***** **
944510 ***** 201503260100 140  25 *** *** OVC * * * 25.0 00 ** ** ** ** ** ** ** *   73   62 1021.2 *****  970.8 *** *** ***** ***** ***** ***** **
944510 ***** 201503260700 140  13 *** *** OVC * * * 25.0 00 ** ** ** ** ** ** ** *   86   70 1017.2 *****  967.0 *** *** ***** ***** ***** ***** **
944510 ***** 201503270100 140  16 *** *** OVC * * * 18.8 00 ** ** ** ** ** ** ** *   73   64 1019.6 *****  969.3 *** *** ***** ***** ***** ***** **
944510 ***** 201503270700 180  30 *** *** OVC * * * 18.8 00 ** ** ** ** ** ** ** *   72   65 1017.4 *****  967.2 *** *** ***** ***** ***** ***** **
944510 ***** 201503280100 050   5 *** *** BKN * * * 18.8 60 ** ** ** ** ** ** ** 2   67   66 1017.7 *****  967.5 *** *** ***** *****  0.30 ***** **
944510 ***** 201503280700 230  11 *** *** OVC * * * 18.8 03 ** ** ** ** ** ** ** 6   81   74 1014.2 *****  964.2 *** *** *****  0.00 ***** ***** **
944510 ***** 201503290100 140   9 *** 722 SCT * * * 25.0 02 ** ** ** ** ** ** ** 1   79   68 1018.0 *****  967.8 *** *** ***** *****  0.01 ***** **
944510 ***** 201503290700 140   8 *** *** BKN * * * 25.0 02 ** ** ** ** ** ** ** 1   91   77 1014.5 *****  964.5 *** *** *****  0.00 ***** ***** **
944510 ***** 201503300100 050   7 *** *** BKN * * * 12.5 02 ** ** ** ** ** ** ** 2   81   70 1017.5 *****  967.3 *** *** ***** *****  0.00 ***** **
944510 ***** 201503300700 050   5 *** *** OVC * * * 25.0 02 ** ** ** ** ** ** ** 2   91   77 1013.6 *****  963.6 *** *** *****  0.00 ***** ***** **
944510 ***** 201503310100 140   4 *** *** OVC * * * 25.0 00 ** ** ** ** ** ** ** *   73   70 1016.3 *****  966.2 *** *** ***** ***** ***** ***** **
944510 ***** 201503310700 090   5 *** *** OVC * * * 25.0 00 ** ** ** ** ** ** ** *   85   75 1013.5 *****  963.5 *** *** ***** ***** ***** ***** **
944510 ***** 201504010100 140  13 *** *** BKN * * * 25.0 02 ** ** ** ** ** ** ** 2   75   71 1017.4 *****  966.6 *** *** ***** *****  0.13 ***** **
944510 ***** 201504010700 090  11 *** *** BKN * * * 18.8 00 ** ** ** ** ** ** ** *   83   75 1014.0 *****  963.4 *** *** ***** ***** ***** ***** **
944510 ***** 201504020100 090  14 *** *** OVC * * * 18.8 02 ** ** ** ** ** ** ** 2   70   64 1017.3 *****  966.5 *** *** ***** *****  0.08 ***** **
944510 ***** 201504020700 050  13 *** *** OVC * * * 25.0 02 ** ** ** ** ** ** ** 2   76   65 1013.9 *****  963.3 *** *** *****  0.00 ***** ***** **
944510 ***** 201504030100 090   8 *** *** OVC * * * 25.0 02 ** ** ** ** ** ** ** 2   71   62 1016.2 *****  965.5 *** *** ***** *****  0.00 ***** **
944510 ***** 201504030700 140  10 *** *** BKN * * * 25.0 02 ** ** ** ** ** ** ** 2   84   62 1012.8 *****  962.2 *** *** *****  0.00 ***** ***** **
944510 ***** 201504040100 090  17 *** *** BKN * * * 25.0 00 ** ** ** ** ** ** ** *   80   62 1016.3 *****  965.6 *** *** ***** ***** ***** ***** **
944510 ***** 201504040700 180   7 *** *** BKN * * * 25.0 00 ** ** ** ** ** ** ** *   90   61 1012.6 *****  962.0 *** *** *****  0.00 ***** ***** **
944510 ***** 201504050100 140  25 *** *** BKN * * * 25.0 00 ** ** ** ** ** ** ** *   78   55 1017.0 *****  966.2 *** *** ***** ***** ***** ***** **
944510 ***** 201504050700 140  29 *** *** BKN * * * 25.0 00 ** ** ** ** ** ** ** *   86   59 1014.0 *****  963.4 *** *** ***** ***** ***** ***** **
944510 ***** 201504060100 140  25 *** 722 SCT * * * 12.5 02 ** ** ** ** ** ** ** *   73   56 1020.2 *****  969.3 *** *** ***** ***** ***** ***** **
944510 ***** 201504060700 140  27 *** *** BKN * * * 25.0 00 ** ** ** ** ** ** ** *   80   58 1016.3 *****  965.6 *** *** ***** ***** ***** ***** **
944510 ***** 201504070100 050  25 *** *** BKN * * * 25.0 02 ** ** ** ** ** ** ** 2   68   55 1025.2 *****  974.0 *** *** ***** *****  0.00 ***** **
944510 ***** 201504070700 090  25 *** *** BKN * * * 25.0 02 ** ** ** ** ** ** ** 2   78   61 1017.0 *****  966.2 *** *** *****  0.00 ***** ***** **
944510 ***** 201504080100 090  18 *** *** BKN * * * 25.0 02 ** ** ** ** ** ** ** 2   74   58 1019.2 *****  968.3 *** *** ***** ***** ***** ***** **
944510 ***** 201504090100 050   2 *** *** BKN * * * 25.0 00 ** ** ** ** ** ** ** *   77   61 1017.6 *****  966.8 *** *** ***** *****  0.00 ***** **
944510 ***** 201504090700 050   3 *** *** BKN * * * 25.0 00 ** ** ** ** ** ** ** *   88   69 1013.8 *****  963.2 *** *** *****  0.00 ***** ***** **
944510 ***** 201504100100 050  19 *** *** BKN * * * 12.5 02 ** ** ** ** ** ** ** 2   79   64 1017.3 *****  966.5 *** *** ***** ***** ***** ***** **
944510 ***** 201504100700 050   5 *** 722 SCT * * * 25.0 02 ** ** ** ** ** ** ** 1   94   75 1013.1 *****  962.5 *** *** *****  0.00 ***** ***** **
944510 ***** 201504110100 360   4 *** 722 SCT * * * 25.0 00 ** ** ** ** ** ** ** *   84   71 1014.0 *****  963.4 *** *** ***** ***** ***** ***** **
944510 ***** 201504110700 050   2 *** *** BKN * * * 25.0 00 ** ** ** ** ** ** ** *   95   79 1009.7 *****  959.3 *** *** *****  0.00 ***** ***** **
944510 ***** 201504120100 180   5 *** *** BKN * * * 25.0 02 ** ** ** ** ** ** ** 2   78   73 1012.9 *****  962.3 *** *** ***** *****  0.00 ***** **
944510 ***** 201504120700 180   3 *** *** OVC * * * 25.0 02 ** ** ** ** ** ** ** 2   83   78 1009.7 *****  959.3 *** *** ***** ***** ***** ***** **
944510 ***** 201504130100 140   5 *** *** BKN * * * 25.0 01 ** ** ** ** ** ** ** 2   65 **** 1013.5 *****  962.9 *** *** ***** *****  0.50 ***** **
944510 ***** 201504130700 140   1 *** 722 SCT * * * 25.0 02 ** ** ** ** ** ** ** 6   76   65 1009.3 *****  958.9 *** *** *****  0.00 ***** ***** **
944510 ***** 201504140100 090   8 *** *** OVC * * * 25.0 00 ** ** ** ** ** ** ** *   75   55 1012.9 *****  962.3 *** *** ***** *****  0.00 ***** **
944510 ***** 201504140700 180   1 *** *** OVC * * * 25.0 00 ** ** ** ** ** ** ** *   85   64 1009.4 *****  959.0 *** *** *****  0.00 ***** ***** **
944510 ***** 201504150100 050   7 *** 722 SCT * * * 25.0 00 ** ** ** ** ** ** ** *   78   62 1014.9 *****  964.2 *** *** ***** *****  0.00 ***** **
944510 ***** 201504150700 270  11 *** *** OVC * * * 25.0 00 ** ** ** ** ** ** ** *   90   61 1011.7 *****  961.2 *** *** ***** ***** ***** ***** **
944510 ***** 201504160100 140  25 *** *** OVC * * * 25.0 02 ** ** ** ** ** ** ** 0   65   62 1021.3 *****  970.3 *** *** ***** *****  0.11 ***** **
944510 ***** 201504160700 180  25 *** *** BKN * * * 25.0 01 ** ** ** ** ** ** ** 2   72   64 1019.1 *****  968.2 *** *** *****  0.01 ***** ***** **
944510 ***** 201504170100 140  25 *** *** OVC * * * 25.0 02 ** ** ** ** ** ** ** 2   61   59 1022.3 *****  971.3 *** *** ***** *****  0.01 ***** **
944510 ***** 201504170700 090  13 *** *** BKN * * * 25.0 02 ** ** ** ** ** ** ** 2   74   59 1017.5 *****  966.7 *** *** *****  0.00 ***** ***** **
944510 ***** 201504180100 090  13 *** *** BKN * * * 25.0 00 ** ** ** ** ** ** ** *   65   50 1021.3 *****  970.3 *** *** ***** ***** ***** ***** **
944510 ***** 201504180700 140  20 *** *** OVC * * * 25.0 00 ** ** ** ** ** ** ** *   75   47 1018.7 *****  967.8 *** *** *****  0.00 ***** ***** **
944510 ***** 201504190100 090  28 *** *** OVC * * * 25.0 02 ** ** ** ** ** ** ** 0   65   55 1024.0 *****  972.9 *** *** ***** ***** ***** ***** **
944510 ***** 201504190700 090  11 *** *** BKN * * * 25.0 00 ** ** ** ** ** ** ** *   75   58 1022.0 *****  971.0 *** *** ***** ***** ***** ***** **
944510 ***** 201504200100 090  23 *** *** BKN * * * 25.0 00 ** ** ** ** ** ** ** *   67   55 1024.1 *****  973.0 *** *** ***** *****  0.00 ***** **
944510 ***** 201504200700 090  20 *** *** OVC * * * 25.0 00 ** ** ** ** ** ** ** *   73   58 1019.8 *****  968.9 *** *** *****  0.00 ***** ***** **
944510 ***** 201504210100 090   9 *** *** OVC * * * 25.0 02 ** ** ** ** ** ** ** 2   60   53 1021.8 *****  970.8 *** *** ***** *****  0.02 ***** **
944510 ***** 201504210700 050   1 *** *** OVC * * * 25.0 03 ** ** ** ** ** ** ** 5   60   47 1019.1 *****  968.2 *** *** *****  0.01 ***** ***** **
944510 ***** 201504220100 140  17 *** *** OVC * * * 18.8 02 ** ** ** ** ** ** ** 2   52   46 1020.2 *****  969.3 *** *** ***** *****  0.32 ***** **
944510 ***** 201504220700 090  18 *** *** OVC * * * 25.0 51 ** ** ** ** ** ** ** 8   54   52 1018.1 *****  967.3 *** *** *****  0.24 ***** ***** **
944510 ***** 201504230100 090   3 *** *** OVC * * * 25.0 02 ** ** ** ** ** ** ** *   60   53 1019.4 *****  968.5 *** *** ***** *****  0.24 ***** **
944510 ***** 201504230700 090   8 *** *** OVC * * * 25.0 00 ** ** ** ** ** ** ** *   69   51 1016.8 *****  966.0 *** *** *****  0.00 ***** ***** **
944510 ***** 201504240100 090  18 *** *** *** * * * 25.0 00 ** ** ** ** ** ** ** *   60   51 1021.0 *****  970.0 *** *** ***** *****  0.00 ***** **
944510 ***** 201504240700 140  13 *** *** *** * * * 25.0 00 ** ** ** ** ** ** ** *   73   51 1018.6 *****  967.7 *** *** *****  0.00 ***** ***** **
944510 ***** 201504250100 090  13 *** *** *** * * * 25.0 02 ** ** ** ** ** ** ** 0   59   46 1023.1 *****  972.0 *** *** ***** *****  0.00 ***** **
944510 ***** 201504250700 090   7 *** 722 CLR * * * 25.0 02 ** ** ** ** ** ** ** 0   70   44 1019.6 *****  968.7 *** *** ***** ***** ***** ***** **
944510 ***** 201504260100 090  19 *** 722 CLR * * * 25.0 02 ** ** ** ** ** ** ** 0   63   43 1023.5 *****  972.4 *** *** ***** ***** ***** ***** **
944510 ***** 201504270100 090  13 *** *** *** * * * 25.0 02 ** ** ** ** ** ** ** 0   64   47 1023.4 *****  972.3 *** *** ***** *****  0.00 ***** **
944510 ***** 201504270700 140   7 *** *** *** * * * 25.0 02 ** ** ** ** ** ** ** 0   76   47 1020.0 *****  969.1 *** *** *****  0.00 ***** ***** **
944510 ***** 201504280100 090   7 *** 722 CLR * * * 25.0 00 ** ** ** ** ** ** ** *   66   48 1023.3 *****  972.2 *** *** ***** ***** ***** ***** **
944510 ***** 201504280700 140   7 *** *** *** * * * 25.0 00 ** ** ** ** ** ** ** *   77   54 1018.1 *****  967.3 *** *** *****  0.00 ***** ***** **
944510 ***** 201504290100 090   7 *** 722 SCT * * * 25.0 00 ** ** ** ** ** ** ** *   68   51 1022.3 *****  971.3 *** *** ***** ***** ***** ***** **
944510 ***** 201504290700 090   5 *** 722 SCT * * * 25.0 00 ** ** ** ** ** ** ** *   78   58 1017.8 *****  967.0 *** *** *****  0.00 ***** ***** **
944510 ***** 201504300100 050   5 *** 722 SCT * * * 25.0 02 ** ** ** ** ** ** ** 0   67   54 1020.2 *****  969.3 *** *** ***** *****  0.00 ***** **
944510 ***** 201504300700 090   3 *** 722 SCT * * * 25.0 02 ** ** ** ** ** ** ** 1   81   61 1016.3 *****  965.6 *** *** *****  0.00 ***** ***** **
944510 ***** 201505010100 050   1 *** *** OVC * * * 25.0 00 ** ** ** ** ** ** ** *   68   54 1018.7 *****  966.9 *** *** ***** *****  0.00 ***** **
944510 ***** 201505010700 320   1 *** *** OVC * * * 25.0 00 ** ** ** ** ** ** ** *   79   55 1015.0 *****  963.4 *** *** ***** ***** ***** ***** **
944510 ***** 201505020100 140   1 *** *** OVC * * * 25.0 00 ** ** ** ** ** ** ** *   69   40 1017.6 *****  965.9 *** *** ***** ***** ***** ***** **
944510 ***** 201505020700 050   7 *** *** BKN * * * 25.0 00 ** ** ** ** ** ** ** *   77   46 1013.5 *****  962.0 *** *** *****  0.00 ***** ***** **
944510 ***** 201505030100 320  13 *** *** BKN * * * 18.8 00 ** ** ** ** ** ** ** *   76   69 1014.1 *****  962.6 *** *** ***** *****  0.00 ***** **
944510 ***** 201505030700 270   5 *** 722 SCT * * * 25.0 00 ** ** ** ** ** ** ** *   84   64 1011.0 *****  959.6 *** *** *****  0.00 ***** ***** **
944510 ***** 201505040100 230  13 *** *** OVC * * * 25.0 00 ** ** ** ** ** ** ** *   69   51 1018.5 *****  966.7 *** *** ***** *****  0.00 ***** **
944510 ***** 201505040700 180  13 *** *** *** * * * 25.0 00 ** ** ** ** ** ** ** *   76   46 1016.9 *****  965.2 *** *** *****  0.00 ***** ***** **
944510 ***** 201505050100 140  25 *** *** *** * * * 25.0 02 ** ** ** ** ** ** ** 0   56   38 1024.4 *****  972.3 *** *** ***** *****  0.00 ***** **
944510 ***** 201505050700 330  13 *** *** *** * * * 25.0 02 ** ** ** ** ** ** ** 0   69 **** 1019.7 *****  967.9 *** *** *****  0.00 ***** ***** **
944510 ***** 201505060100 090  19 *** 722 CLR * * * 25.0 02 ** ** ** ** ** ** ** 0   63   50 1025.1 *****  973.0 *** *** ***** ***** ***** ***** **
944510 ***** 201505060700 090   8 *** 722 SCT * * * 25.0 02 ** ** ** ** ** ** ** 0   72   52 1021.3 *****  969.4 *** *** *****  0.00 ***** ***** **
944510 ***** 201505070100 090  19 *** *** BKN * * * 15.6 02 ** ** ** ** ** ** ** 1   62   57 1026.5 *****  974.3 *** *** ***** ***** ***** ***** **
944510 ***** 201505070700 090  16 *** 722 SCT * * * 25.0 02 ** ** ** ** ** ** ** 0   74   54 1022.5 *****  970.5 *** *** *****  0.00 ***** ***** **
944510 ***** 201505080100 090   5 *** 722 CLR * * * 25.0 02 ** ** ** ** ** ** ** 0   68   51 1023.2 *****  971.2 *** *** ***** ***** ***** ***** **
944510 ***** 201505080700 140   8 *** 722 SCT * * * 25.0 02 ** ** ** ** ** ** ** 0   80 **** 1019.3 *****  967.5 *** *** ***** ***** ***** ***** **
944510 ***** 201505090100 090   5 *** *** *** * * * 25.0 02 ** ** ** ** ** ** ** 0   67   51 1023.7 *****  971.7 *** *** ***** *****  0.00 ***** **
944510 ***** 201505090700 090  11 *** *** *** * * * 25.0 02 ** ** ** ** ** ** ** 0   77   61 1021.1 *****  969.2 *** *** *****  0.00 ***** ***** **
944510 ***** 201505100100 090  18 *** *** *** * * * 25.0 02 ** ** ** ** ** ** ** 0   61   54 1025.6 *****  973.5 *** *** ***** *****  0.00 ***** **
944510 ***** 201505100700 140   5 *** *** *** * * * 25.0 02 ** ** ** ** ** ** ** 0   76   55 1022.4 *****  970.4 *** *** *****  0.00 ***** ***** **
944510 ***** 201505110100 090   7 *** *** *** * * * 12.5 02 ** ** ** ** ** ** ** 0   66   55 1025.5 *****  973.4 *** *** ***** *****  0.00 ***** **
944510 ***** 201505110700 090   5 *** *** *** * * * 25.0 02 ** ** ** ** ** ** ** 0   78   57 1021.1 *****  969.2 *** *** *****  0.00 ***** ***** **
944510 ***** 201505120100 090  13 *** *** *** * * * 25.0 02 ** ** ** ** ** ** ** 0   65 **** 1025.1 *****  973.0 *** *** ***** *****  0.00 ***** **
944510 ***** 201505120700 090   5 *** 722 SCT * * * 25.0 02 ** ** ** ** ** ** ** 0   75   59 1022.3 *****  970.3 *** *** *****  0.00 ***** ***** **
944510 ***** 201505130100 090  23 *** *** *** * * * 25.0 02 ** ** ** ** ** ** ** 0   62 **** 1028.5 *****  976.2 *** *** ***** *****  0.00 ***** **
944510 ***** 201505130700 090  13 *** *** *** * * * 25.0 02 ** ** ** ** ** ** ** 0   72   51 1024.6 *****  972.5 *** *** *****  0.00 ***** ***** **
944510 ***** 201505140100 090  14 *** 722 CLR * * * 25.0 02 ** ** ** ** ** ** ** 0   61   35 1030.5 *****  978.1 *** *** ***** ***** ***** ***** **
944510 ***** 201505140700 090  13 *** 722 CLR * * * 25.0 02 ** ** ** ** ** ** ** 0   72   38 1026.4 *****  974.2 *** *** ***** ***** ***** ***** **
944510 ***** 201505150100 090  19 *** *** *** * * * **** 00 ** ** ** ** ** ** ** *   59   38 1029.9 *****  977.6 *** *** ***** ***** ***** ***** **
944510 ***** 201505150700 090  15 *** *** *** * * * 25.0 00 ** ** ** ** ** ** ** *   70   44 1025.2 *****  973.1 *** *** *****  0.00 ***** ***** **
944510 ***** 201505160100 050  23 *** *** *** * * * 25.0 02 ** ** ** ** ** ** ** 0   59   42 1024.3 *****  972.2 *** *** ***** *****  0.00 ***** **
944510 ***** 201505160700 050   3 *** *** OVC * * * 25.0 02 ** ** ** ** ** ** ** 1   67   46 1019.9 *****  968.1 *** *** *****  0.00 ***** ***** **
944510 ***** 201505170100 050   5 *** *** OVC * * * 25.0 02 ** ** ** ** ** ** ** 1   58   40 1018.4 *****  966.6 *** *** ***** ***** ***** ***** **
944510 ***** 201505170700 360   1 *** *** OVC * * * 25.0 02 ** ** ** ** ** ** ** 1   68   48 1015.9 *****  964.3 *** *** ***** ***** ***** ***** **
944510 ***** 201505180100 360   1 *** *** OVC * * * 25.0 02 ** ** ** ** ** ** ** 1   62   52 1018.1 *****  966.4 *** *** ***** ***** ***** ***** **
944510 ***** 201505180700 320   7 *** 722 SCT * * * 25.0 02 ** ** ** ** ** ** ** 0   76   57 1015.3 *****  963.7 *** *** *****  0.00 ***** ***** **
944510 ***** 201505190100 140   5 *** *** OVC * * * 25.0 02 ** ** ** ** ** ** ** 2   63   53 1018.9 *****  967.1 *** *** ***** ***** ***** ***** **
944510 ***** 201505190700 090   1 *** *** OVC * * * 25.0 02 ** ** ** ** ** ** ** 2   73   59 1016.6 *****  964.9 *** *** *****  0.00 ***** ***** **
944510 ***** 201505200100 090  14 *** 722 SCT * * * 25.0 02 ** ** ** ** ** ** ** 1   60   49 1023.3 *****  971.3 *** *** ***** *****  0.00 ***** **
944510 ***** 201505200700 090   9 *** 722 SCT * * * 25.0 02 ** ** ** ** ** ** ** 1   71   47 1021.1 *****  969.2 *** *** *****  0.00 ***** ***** **
944510 ***** 201505210100 090  13 *** *** *** * * * 25.0 00 ** ** ** ** ** ** ** *   58   38 1026.0 *****  973.9 *** *** ***** ***** ***** ***** **
944510 ***** 201505210700 090  13 *** 722 CLR * * * 25.0 00 ** ** ** ** ** ** ** *   71   45 1021.6 *****  969.7 *** *** ***** ***** ***** ***** **
944510 ***** 201505220100 090   1 *** *** BKN * * * 25.0 00 ** ** ** ** ** ** ** *   60   49 1023.4 *****  971.4 *** *** ***** *****  0.04 ***** **
944510 ***** 201505220700 320   1 *** *** OVC * * * 18.8 00 ** ** ** ** ** ** ** *   71   62 1018.9 *****  967.1 *** *** ***** ***** ***** ***** **
944510 ***** 201505230100 050   3 *** *** OVC * * * 12.5 50 ** ** ** ** ** ** ** 2   57   56 1020.0 *****  968.2 *** *** ***** *****  0.39 ***** **
944510 ***** 201505230700 360   1 *** *** OVC * * * 18.8 00 ** ** ** ** ** ** ** 2   57   54 1018.4 *****  966.6 *** *** *****  0.43 ***** ***** **
944510 ***** 201505240100 360   3 *** *** OVC * * * 25.0 02 ** ** ** ** ** ** ** 2   57   54 1020.3 *****  968.4 *** *** ***** *****  0.46 ***** **
944510 ***** 201505240700 050   3 *** *** OVC * * * 25.0 02 ** ** ** ** ** ** ** 2   60   57 1019.0 *****  967.2 *** *** *****  0.00 ***** ***** **
944510 ***** 201505250100 050   1 *** *** OVC * * * 18.8 00 ** ** ** ** ** ** ** *   59   57 1022.7 *****  970.7 *** *** ***** *****  0.08 ***** **
944510 ***** 201505250700 360   1 *** *** OVC * * *  1.9 60 ** ** ** ** ** ** ** *   64   62 1020.0 *****  968.2 *** *** *****  0.08 ***** ***** **
944510 ***** 201505260100 050   1 *** *** OVC * * * 18.8 00 ** ** ** ** ** ** ** *   56   56 1023.2 *****  971.2 *** *** ***** *****  0.63 ***** **
944510 ***** 201505260700 050   1 *** *** OVC * * *  8.1 00 ** ** ** ** ** ** ** *   58   58 1021.0 *****  969.1 *** *** *****  0.63 ***** ***** **
944510 ***** 201505270100 090   1 *** *** OVC * * * 25.0 00 ** ** ** ** ** ** ** *   62   58 1020.3 *****  968.4 *** *** ***** *****  0.71 ***** **
944510 ***** 201505270700 090   1 *** *** OVC * * * 25.0 00 ** ** ** ** ** ** ** *   66   61 1017.1 *****  965.4 *** *** *****  0.00 ***** ***** **
944510 ***** 201505280100 090   1 *** *** OVC * * * 25.0 02 ** ** ** ** ** ** ** 2   62   59 1018.6 *****  966.8 *** *** ***** *****  0.06 ***** **
944510 ***** 201505280700 090   1 *** *** OVC * * * 18.8 00 ** ** ** ** ** ** ** 2   61   61 1016.9 *****  965.2 *** *** *****  0.20 ***** ***** **
944510 ***** 201505290100 090   7 *** *** OVC * * * 18.8 00 ** ** ** ** ** ** ** *   60   57 1021.1 *****  969.2 *** *** ***** *****  0.24 ***** **
944510 ***** 201505290700 140   7 *** *** OVC * * * 25.0 00 ** ** ** ** ** ** ** *   62   58 1019.3 *****  967.5 *** *** *****  0.00 ***** ***** **
944510 ***** 201505300100 140   7 *** *** OVC * * * 25.0 00 ** ** ** ** ** ** ** *   57   52 1023.8 *****  971.8 *** *** ***** *****  0.04 ***** **
944510 ***** 201505300700 090   5 *** *** BKN * * * 25.0 00 ** ** ** ** ** ** ** *   65   49 1021.1 *****  969.2 *** *** *****  0.00 ***** ***** **
944510 ***** 201505310100 140   7 *** 722 SCT * * * 25.0 00 ** ** ** ** ** ** ** *   57   47 1023.4 *****  971.4 *** *** ***** ***** ***** ***** **
944510 ***** 201505310700 090   8 *** 722 SCT * * * 25.0 00 ** ** ** ** ** ** ** *   64   49 1019.6 *****  967.8 *** *** *****  0.00 ***** ***** **
944510 ***** 201506010100 090   8 *** 722 SCT * * * 25.0 00 ** ** ** ** ** ** ** *   56   51 1021.8 *****  969.1 *** *** ***** *****  0.00 ***** **
944510 ***** 201506010700 050   8 *** *** *** * * * 25.0 00 ** ** ** ** ** ** ** *   71 **** 1017.4 *****  965.0 *** *** *****  0.00 ***** ***** **
944510 ***** 201506020100 ***   0 *** *** BKN * * * 18.8 02 ** ** ** ** ** ** ** 2   59   47 1018.1 *****  965.6 *** *** ***** *****  0.00 ***** **
944510 ***** 201506020700 270   5 *** *** BKN * * * 18.8 02 ** ** ** ** ** ** ** 2   71 **** 1016.3 *****  963.9 *** *** *****  0.00 ***** ***** **
944510 ***** 201506030100 230   1 *** *** *** * * * 25.0 02 ** ** ** ** ** ** ** 0   65   65 1022.8 *****  970.1 *** *** ***** *****  0.00 ***** **
944510 ***** 201506040100 140   1 *** 722 CLR * * * 25.0 00 ** ** ** ** ** ** ** *   64   62 1026.2 *****  973.3 *** *** ***** ***** ***** ***** **
944510 ***** 201506040700 090   2 *** 722 CLR * * * 25.0 00 ** ** ** ** ** ** ** *   76   75 1022.7 *****  970.0 *** *** ***** ***** ***** ***** **
944510 ***** 201506050100 050   1 *** *** *** * * * 25.0 00 ** ** ** ** ** ** ** *   65   64 1024.8 *****  972.0 *** *** ***** *****  0.00 ***** **
944510 ***** 201506050700 090   1 *** 722 SCT * * * 25.0 00 ** ** ** ** ** ** ** *   80   45 1020.5 *****  967.9 *** *** ***** ***** ***** ***** **
944510 ***** 201506060100 360   2 *** 722 CLR * * * 25.0 02 ** ** ** ** ** ** ** 0   68   46 1024.0 *****  971.2 *** *** ***** ***** ***** ***** **
944510 ***** 201506060700 050   1 *** 722 SCT * * * 25.0 03 ** ** ** ** ** ** ** 0   78   48 1020.1 *****  967.5 *** *** *****  0.00 ***** ***** **
944510 ***** 201506070100 090   1 *** *** *** * * * 25.0 02 ** ** ** ** ** ** ** 0   67   48 1023.9 *****  971.1 *** *** ***** *****  0.00 ***** **
944510 ***** 201506070700 090   5 *** 722 SCT * * * 25.0 02 ** ** ** ** ** ** ** 0   80   42 1021.3 *****  968.7 *** *** *****  0.00 ***** ***** **
944510 ***** 201506080100 140   1 *** *** BKN * * * 25.0 02 ** ** ** ** ** ** ** 2   62   48 1025.0 *****  972.2 *** *** ***** ***** ***** ***** **
944510 ***** 201506080700 090   9 *** *** OVC * * * 25.0 03 ** ** ** ** ** ** ** 2   75   37 1021.5 *****  968.8 *** *** ***** ***** ***** ***** **
944510 ***** 201506090100 090  13 *** 722 SCT * * * 25.0 00 ** ** ** ** ** ** ** *   64   46 1026.2 *****  973.3 *** *** ***** ***** ***** ***** **
944510 ***** 201506090700 090  13 *** *** *** * * * 25.0 00 ** ** ** ** ** ** ** *   74   41 1022.6 *****  969.9 *** *** *****  0.00 ***** ***** **
944510 ***** 201506100100 090  13 *** *** BKN * * * 25.0 00 ** ** ** ** ** ** ** *   58   49 1025.7 *****  972.8 *** *** ***** *****  0.00 ***** **
944510 ***** 201506100700 090   9 *** *** BKN * * * 25.0 00 ** ** ** ** ** ** ** *   69   45 1022.4 *****  969.7 *** *** *****  0.00 ***** ***** **
944510 ***** 201506110100 090   3 *** *** *** * * * 25.0 02 ** ** ** ** ** ** ** 0   61   48 1024.2 *****  971.4 *** *** ***** *****  0.00 ***** **
944510 ***** 201506120100 050   1 *** 722 CLR * * * 25.0 00 ** ** ** ** ** ** ** *   64   53 1020.7 *****  968.1 *** *** ***** ***** ***** ***** **
944510 ***** 201506120700 360   0 *** 722 CLR * * * 25.0 00 ** ** ** ** ** ** ** *   79   48 1016.3 *****  963.9 *** *** ***** ***** ***** ***** **
944510 ***** 201506130100 360   0 *** 722 SCT * * * 25.0 00 ** ** ** ** ** ** ** *   66   49 1019.2 *****  966.7 *** *** ***** ***** ***** ***** **
944510 ***** 201506130700 ***   0 *** 722 SCT * * * 25.0 00 ** ** ** ** ** ** ** *   79   47 1015.3 *****  963.0 *** *** *****  0.00 ***** ***** **
944510 ***** 201506140100 320   3 *** 722 SCT * * * 25.0 00 ** ** ** ** ** ** ** *   65   51 1017.9 *****  965.4 *** *** ***** *****  0.00 ***** **
944510 ***** 201506140700 270   3 *** 722 SCT * * * 25.0 00 ** ** ** ** ** ** ** *   78   43 1014.5 *****  962.2 *** *** ***** ***** ***** ***** **
944510 ***** 201506150100 090   1 *** 722 SCT * * * 25.0 00 ** ** ** ** ** ** ** *   60   48 1018.7 *****  966.2 *** *** ***** ***** ***** ***** **
944510 ***** 201506150700 140   1 *** 722 SCT * * * 25.0 00 ** ** ** ** ** ** ** *   78   48 1014.9 *****  962.6 *** *** ***** ***** ***** ***** **
944510 ***** 201506160100 090   6 *** *** *** * * * 25.0 02 ** ** ** ** ** ** ** 0   59   46 1021.7 *****  969.0 *** *** ***** *****  0.00 ***** **
944510 ***** 201506160700 140   7 *** 722 SCT * * * 12.5 02 ** ** ** ** ** ** ** 0   71   43 1018.2 *****  965.7 *** *** *****  0.00 ***** ***** **
944510 ***** 201506170100 090   5 *** 722 SCT * * * 25.0 02 ** ** ** ** ** ** ** 0   57   40 1021.3 *****  968.7 *** *** ***** ***** ***** ***** **
944510 ***** 201506170700 090   2 *** *** OVC * * * 25.0 03 ** ** ** ** ** ** ** 1   71   45 1018.2 *****  965.7 *** *** *****  0.00 ***** ***** **
944510 ***** 201506180100 090   7 *** *** OVC * * * 25.0 00 ** ** ** ** ** ** ** *   60   45 1019.0 *****  966.5 *** *** ***** ***** ***** ***** **
944510 ***** 201506180700 090   5 *** 722 SCT * * * 25.0 00 ** ** ** ** ** ** ** *   76   45 1017.1 *****  964.7 *** *** ***** ***** ***** ***** **
944510 ***** 201506190100 360   5 *** 722 SCT * * * 25.0 00 ** ** ** ** ** ** ** *   66   45 1020.3 *****  967.7 *** *** ***** ***** ***** ***** **
944510 ***** 201506190700 360   3 *** *** BKN * * * 25.0 00 ** ** ** ** ** ** ** *   81   81 1017.1 *****  964.7 *** *** ***** ***** ***** ***** **
944510 ***** 201506200100 360   1 *** 722 SCT * * * 25.0 02 ** ** ** ** ** ** ** 0   73   53 1019.8 *****  967.2 *** *** ***** *****  0.00 ***** **
944510 ***** 201506200700 330   2 *** *** *** * * * 25.0 02 ** ** ** ** ** ** ** 0   84   50 1015.2 *****  962.9 *** *** *****  0.00 ***** ***** **
944510 ***** 201506210100 330  13 *** 722 SCT * * * 25.0 02 ** ** ** ** ** ** ** 0   71   48 1016.6 *****  964.2 *** *** ***** ***** ***** ***** **
944510 ***** 201506210700 320  13 *** *** BKN * * * 25.0 03 ** ** ** ** ** ** ** 1   82   53 1013.1 *****  960.9 *** *** *****  0.00 ***** ***** **
944510 ***** 201506220100 230   6 *** 722 SCT * * * 25.0 02 ** ** ** ** ** ** ** 0   59   46 1019.7 *****  967.1 *** *** ***** *****  0.00 ***** **
944510 ***** 201506220700 270   5 *** *** *** * * * 25.0 02 ** ** ** ** ** ** ** 0   65   33 1017.8 *****  965.3 *** *** *****  0.00 ***** ***** **
944510 ***** 201506230100 180   5 *** 722 CLR * * * 25.0 00 ** ** ** ** ** ** ** *   53   45 1026.0 *****  973.1 *** *** ***** ***** ***** ***** **
944510 ***** 201506230700 140   3 *** 722 SCT * * * 25.0 00 ** ** ** ** ** ** ** *   64   47 1024.3 *****  971.5 *** *** ***** ***** ***** ***** **
944510 ***** 201506240100 090  13 *** 722 CLR * * * 25.0 00 ** ** ** ** ** ** ** *   54   46 1030.5 *****  977.4 *** *** ***** ***** ***** ***** **
944510 ***** 201506240700 140   5 *** 722 CLR * * * 25.0 00 ** ** ** ** ** ** ** *   65   43 1026.7 *****  973.8 *** *** ***** ***** ***** ***** **
944510 ***** 201506250100 050  11 *** 722 CLR * * * 25.0 02 ** ** ** ** ** ** ** 0   56   40 1029.5 *****  976.4 *** *** ***** ***** ***** ***** **
944510 ***** 201506250700 360   2 *** *** *** * * * 25.0 02 ** ** ** ** ** ** ** 0   69   42 1024.8 *****  972.0 *** *** *****  0.00 ***** ***** **
944510 ***** 201506260100 050   3 *** 722 SCT * * * 25.0 02 ** ** ** ** ** ** ** 0   59   42 1028.1 *****  975.1 *** *** ***** ***** ***** ***** **
944510 ***** 201506260700 050   1 *** 722 SCT * * * 25.0 03 ** ** ** ** ** ** ** 0   71   45 1023.7 *****  970.9 *** *** *****  0.00 ***** ***** **
944510 ***** 201506270100 090   1 *** 722 CLR * * * 25.0 02 ** ** ** ** ** ** ** 0   58   38 1027.8 *****  974.8 *** *** ***** ***** ***** ***** **
944510 ***** 201506270700 090   1 *** 722 CLR * * * 25.0 02 ** ** ** ** ** ** ** 0   72   28 1024.0 *****  971.2 *** *** ***** ***** ***** ***** **
944510 ***** 201506280100 140   1 *** *** *** * * * 25.0 00 ** ** ** ** ** ** ** *   58   29 1027.6 *****  974.6 *** *** ***** *****  0.00 ***** **
944510 ***** 201506280700 180   5 *** *** *** * * * 25.0 00 ** ** ** ** ** ** ** *   70    6 1024.3 *****  971.5 *** *** *****  0.00 ***** ***** **
944510 ***** 201506290100 090   1 *** *** *** * * * 25.0 02 ** ** ** ** ** ** ** 0   55   35 1027.8 *****  974.8 *** *** ***** *****  0.00 ***** **
944510 ***** 201506290700 090   7 *** 722 CLR * * * 25.0 00 ** ** ** ** ** ** ** *   68   22 1024.4 *****  971.6 *** *** ***** ***** ***** ***** **
944510 ***** 201506300100 140   1 *** *** *** * * * 25.0 02 ** ** ** ** ** ** ** 0   56   35 1027.4 *****  974.4 *** *** ***** *****  0.00 ***** **
944510 ***** 201506300700 050   1 *** *** *** * * * 25.0 02 ** ** ** ** ** ** ** 0   75   45 1023.1 *****  970.4 *** *** *****  0.00 ***** ***** **
944510 ***** 201507010100 090   1 *** *** *** * * * 25.0 02 ** ** ** ** ** ** ** 0   60   45 1027.6 *****  974.5 *** *** ***** *****  0.00 ***** **
944510 ***** 201507010700 090   1 *** *** *** * * * 25.0 02 ** ** ** ** ** ** ** 0   75   43 1023.8 *****  970.9 *** *** *****  0.00 ***** ***** **
944510 ***** 201507020100 090   1 *** 722 CLR * * * 25.0 00 ** ** ** ** ** ** ** *   62   44 1027.1 *****  974.1 *** *** ***** ***** ***** ***** **
944510 ***** 201507020700 140   1 *** *** *** * * * 25.0 00 ** ** ** ** ** ** ** *   76   44 1022.8 *****  970.0 *** *** *****  0.00 ***** ***** **
944510 ***** 201507030100 090   1 *** 722 CLR * * * 25.0 00 ** ** ** ** ** ** ** *   63   33 1024.6 *****  971.7 *** *** ***** ***** ***** ***** **
944510 ***** 201507030700 180   1 *** 722 CLR * * * 25.0 00 ** ** ** ** ** ** ** *   74   41 1020.4 *****  967.7 *** *** ***** ***** ***** ***** **
944510 ***** 201507040100 360   0 *** 722 CLR * * * 25.0 00 ** ** ** ** ** ** ** 0   64   42 1023.7 *****  970.8 *** *** ***** ***** ***** ***** **
944510 ***** 201507040700 140   1 *** *** *** * * * 25.0 00 ** ** ** ** ** ** ** *   76   44 1020.4 *****  967.7 *** *** *****  0.00 ***** ***** **
944510 ***** 201507050100 360   0 *** 722 CLR * * * 25.0 00 ** ** ** ** ** ** ** *   65   46 1022.4 *****  969.6 *** *** ***** ***** ***** ***** **
944510 ***** 201507050700 230   1 *** 722 CLR * * * 25.0 00 ** ** ** ** ** ** ** *   75   45 1019.0 *****  966.4 *** *** ***** ***** ***** ***** **
944510 ***** 201507060100 360   7 *** *** *** * * * 25.0 00 ** ** ** ** ** ** ** *   65   48 1021.3 *****  968.6 *** *** ***** *****  0.00 ***** **
944510 ***** 201507060700 050   5 *** 722 SCT * * * 25.0 00 ** ** ** ** ** ** ** *   76   50 1018.2 *****  965.6 *** *** *****  0.00 ***** ***** **
944510 ***** 201507070100 140   1 *** 722 SCT * * * 25.0 00 ** ** ** ** ** ** ** *   60   46 1021.0 *****  968.3 *** *** ***** *****  0.00 ***** **
944510 ***** 201507070700 090   2 *** 722 SCT * * * 25.0 00 ** ** ** ** ** ** ** *   74   48 1017.0 *****  964.5 *** *** *****  0.00 ***** ***** **
944510 ***** 201507080100 ***   0 *** *** BKN * * * 25.0 00 ** ** ** ** ** ** ** *   65   47 1018.9 *****  966.3 *** *** ***** *****  0.00 ***** **
944510 ***** 201507080700 360   1 *** *** BKN * * * 25.0 00 ** ** ** ** ** ** ** *   74   35 1014.8 *****  962.4 *** *** *****  0.00 ***** ***** **
944510 ***** 201507090100 180   7 *** *** *** * * * 25.0 02 ** ** ** ** ** ** ** 0   51   39 1022.9 *****  970.1 *** *** ***** *****  0.00 ***** **
944510 ***** 201507090700 180  13 *** *** *** * * * 25.0 02 ** ** ** ** ** ** ** 0   62   39 1020.0 *****  967.3 *** *** *****  0.00 ***** ***** **
944510 ***** 201507100100 180   7 *** *** *** * * * 25.0 02 ** ** ** ** ** ** ** *   52   40 1026.3 *****  973.3 *** *** ***** *****  0.00 ***** **
944510 ***** 201507100700 140   2 *** 722 CLR * * * 25.0 02 ** ** ** ** ** ** ** *   59   40 1023.6 *****  970.7 *** *** ***** ***** ***** ***** **
944510 ***** 201507110100 140   8 *** *** *** * * * 25.0 00 ** ** ** ** ** ** ** *   53   39 1029.6 *****  976.4 *** *** ***** *****  0.00 ***** **
944510 ***** 201507110700 140   5 *** *** *** * * * 25.0 00 ** ** ** ** ** ** ** *   63   35 1026.7 *****  973.7 *** *** *****  0.00 ***** ***** **
944510 ***** 201507120100 090   7 *** *** *** * * * 25.0 00 ** ** ** ** ** ** ** *   51   36 1031.1 *****  977.9 *** *** ***** *****  0.00 ***** **
944510 ***** 201507120700 090   7 *** 722 SCT * * * 25.0 00 ** ** ** ** ** ** ** *   62   35 1026.2 *****  973.2 *** *** ***** ***** ***** ***** **
944510 ***** 201507130100 090   7 *** *** BKN * * * 25.0 00 ** ** ** ** ** ** ** *   52   38 1030.2 *****  977.0 *** *** ***** *****  0.00 ***** **
944510 ***** 201507130700 140   6 *** *** OVC * * * 25.0 00 ** ** ** ** ** ** ** *   64   37 1026.3 *****  973.3 *** *** *****  0.00 ***** ***** **
944510 ***** 201507140100 110   7 *** *** OVC * * * 25.0 02 ** ** ** ** ** ** ** *   56   43 1028.7 *****  975.6 *** *** ***** *****  0.00 ***** **
944510 ***** 201507140700 140   8 *** *** OVC * * * 25.0 02 ** ** ** ** ** ** ** *   62   43 1025.3 *****  972.4 *** *** *****  0.00 ***** ***** **
944510 ***** 201507150100 090   9 *** *** *** * * * 25.0 02 ** ** ** ** ** ** ** *   53   45 1028.5 *****  975.4 *** *** ***** *****  0.00 ***** **
944510 ***** 201507150700 140   7 *** 722 SCT * * * 25.0 02 ** ** ** ** ** ** ** *   63   49 1025.1 *****  972.2 *** *** *****  0.00 ***** ***** **
944510 ***** 201507160100 090   5 *** *** *** * * * 25.0 00 ** ** ** ** ** ** ** *   51   39 1028.5 *****  975.4 *** *** ***** *****  0.00 ***** **
944510 ***** 201507160700 090   2 *** 722 CLR * * * 25.0 00 ** ** ** ** ** ** ** *   64   29 1024.1 *****  971.2 *** *** ***** ***** ***** ***** **
944510 ***** 201507170100 090   2 *** 722 CLR * * * 25.0 00 ** ** ** ** ** ** ** *   52   35 1027.0 *****  974.0 *** *** ***** ***** ***** ***** **
944510 ***** 201507170700 090   3 *** 722 CLR * * * 25.0 00 ** ** ** ** ** ** ** *   66   26 1023.3 *****  970.5 *** *** ***** ***** ***** ***** **
944510 ***** 201507180100 090   1 *** 722 CLR * * * 25.0 02 ** ** ** ** ** ** ** 0   56   34 1027.1 *****  974.1 *** *** ***** ***** ***** ***** **
944510 ***** 201507180700 090   5 *** *** *** * * * 25.0 02 ** ** ** ** ** ** ** 0   67   29 1024.0 *****  971.1 *** *** *****  0.00 ***** ***** **
944510 ***** 201507190100 040   3 *** *** *** * * * 25.0 02 ** ** ** ** ** ** ** 0   58   30 1025.7 *****  972.7 *** *** ***** *****  0.00 ***** **
944510 ***** 201507190700 090   2 *** *** *** * * * 25.0 02 ** ** ** ** ** ** ** 0   68   21 1020.8 *****  968.1 *** *** *****  0.00 ***** ***** **
944510 ***** 201507200100 050   1 *** 722 SCT * * * 25.0 00 ** ** ** ** ** ** ** *   54   29 1021.1 *****  968.4 *** *** ***** ***** ***** ***** **
944510 ***** 201507200700 320  13 *** *** BKN * * * 25.0 00 ** ** ** ** ** ** ** *   73   34 1015.9 *****  963.4 *** *** ***** ***** ***** ***** **
944510 ***** 201507210100 230   1 *** *** OVC * * * 18.8 20 ** ** ** ** ** ** ** 5   54   51 1016.7 *****  964.2 *** *** ***** *****  0.08 ***** **
944510 ***** 201507210700 270   1 *** *** OVC * * * 25.0 00 ** ** ** ** ** ** ** *   59   54 1016.5 *****  964.0 *** *** *****  0.02 ***** ***** **
944510 ***** 201507220100 320   1 *** *** OVC * * * 25.0 00 ** ** ** ** ** ** ** *   55   51 1021.3 *****  968.6 *** *** ***** *****  0.02 ***** **
944510 ***** 201507220700 050   1 *** *** OVC * * * 25.0 00 ** ** ** ** ** ** ** *   59   55 1017.8 *****  965.2 *** *** *****  0.00 ***** ***** **
944510 ***** 201507230100 270   1 *** *** OVC * * * 25.0 00 ** ** ** ** ** ** ** *   59   57 1020.0 *****  967.3 *** *** ***** *****  0.04 ***** **
944510 ***** 201507230700 230   1 *** *** OVC * * * 25.0 00 ** ** ** ** ** ** ** *   64   60 1018.4 *****  965.8 *** *** ***** ***** ***** ***** **
944510 ***** 201507240100 180   1 *** *** *** * * * 25.0 00 ** ** ** ** ** ** ** *   56   42 1025.4 *****  972.5 *** *** ***** ***** ***** ***** **
944510 ***** 201507240700 140   2 *** *** OVC * * * 25.0 00 ** ** ** ** ** ** ** *   62   36 1022.2 *****  969.4 *** *** ***** ***** ***** ***** **
944510 ***** 201507250100 090   2 *** *** *** * * * **** 00 ** ** ** ** ** ** ** * **** **** 1025.2 *****  972.3 *** *** ***** ***** ***** ***** **
944510 ***** 201507250700 140   1 *** *** OVC * * * 25.0 00 ** ** ** ** ** ** ** *   59   38 1024.0 *****  971.1 *** *** ***** ***** ***** ***** **
944510 ***** 201507260100 140   5 *** *** *** * * * 25.0 00 ** ** ** ** ** ** ** *   56   36 1029.1 *****  976.0 *** *** ***** ***** ***** ***** **
944510 ***** 201507260700 090   2 *** 722 CLR * * * 25.0 00 ** ** ** ** ** ** ** *   68   32 1026.8 *****  973.8 *** *** ***** ***** ***** ***** **
944510 ***** 201507270100 090   7 *** *** *** * * * 25.0 00 ** ** ** ** ** ** ** *   58   39 1031.8 *****  978.5 *** *** ***** ***** ***** ***** **
944510 ***** 201507270700 090   2 *** 722 SCT * * * 25.0 00 ** ** ** ** ** ** ** *   69   36 1027.6 *****  974.5 *** *** ***** ***** ***** ***** **
944510 ***** 201507280100 050   5 *** *** *** * * * 25.0 02 ** ** ** ** ** ** ** 0   57   38 1029.2 *****  976.1 *** *** ***** ***** *****  0.00 **
944510 ***** 201507280700 050   6 *** 722 CLR * * * 25.0 02 ** ** ** ** ** ** ** *   76   51 1022.7 *****  969.9 *** *** ***** ***** ***** ***** **
944510 ***** 201507290100 360   2 *** 722 CLR * * * 25.0 02 ** ** ** ** ** ** ** *   65   50 1024.6 *****  971.7 *** *** ***** ***** ***** ***** **
944510 ***** 201507290700 270   1 *** 722 CLR * * * 25.0 02 ** ** ** ** ** ** ** *   83   48 1020.9 *****  968.2 *** *** ***** ***** ***** ***** **
944510 ***** 201507300100 270   1 *** 722 CLR * * * 25.0 02 ** ** ** ** ** ** ** 0   71   49 1022.9 *****  970.1 *** *** ***** ***** ***** ***** **
944510 ***** 201507300700 360   1 *** 722 CLR * * * 25.0 02 ** ** ** ** ** ** ** 0   84   49 1019.6 *****  967.0 *** *** ***** ***** ***** ***** **
944510 ***** 201507310100 360   2 *** *** *** * * * 25.0 02 ** ** ** ** ** ** ** 0   73   37 1019.0 *****  966.4 *** *** ***** *****  0.00 ***** **
944510 ***** 201507310700 320   5 *** 722 CLR * * * 25.0 02 ** ** ** ** ** ** ** 0   85   38 1013.9 *****  961.5 *** *** ***** ***** ***** ***** **
944510 ***** 201508010100 140   1 *** 722 CLR * * * 25.0 00 ** ** ** ** ** ** ** *   67   58 1018.0 *****  965.8 *** *** ***** ***** ***** ***** **
944510 ***** 201508020100 090   9 *** *** OVC * * * 25.0 00 ** ** ** ** ** ** ** *   55   52 1025.9 *****  973.3 *** *** ***** *****  0.00 ***** **
944510 ***** 201508030100 090  20 *** *** *** * * * 25.0 00 ** ** ** ** ** ** ** *   55   42 1030.9 *****  978.0 *** *** ***** *****  0.00 ***** **
944510 ***** 201508040100 090  13 *** *** *** * * * 25.0 00 ** ** ** ** ** ** ** *   56   43 1029.8 *****  977.0 *** *** ***** *****  0.00 ***** **
944510 ***** 201508050100 090   2 *** *** *** * * * 25.0 02 ** ** ** ** ** ** ** *   56   38 1027.2 *****  974.5 *** *** ***** *****  0.00 ***** **
944510 ***** 201508060100 090   7 *** *** *** * * * 25.0 02 ** ** ** ** ** ** ** *   60   39 1023.7 *****  971.2 *** *** ***** *****  0.00 ***** **
944510 ***** 201508070100 360   2 *** *** *** * * * 25.0 02 ** ** ** ** ** ** ** 0   59   27 1020.6 *****  968.3 *** *** ***** *****  0.00 ***** **
944510 ***** 201508080100 270   1 *** 722 CLR * * * 25.0 00 ** ** ** ** ** ** ** *   63   32 1018.2 *****  966.0 *** *** ***** ***** ***** ***** **
944510 ***** 201508090100 140   8 *** 722 CLR * * * 25.0 00 ** ** ** ** ** ** ** *   59   41 1021.5 *****  969.1 *** *** ***** ***** ***** ***** **
944510 ***** 201508100100 140   3 *** *** *** * * * 25.0 02 ** ** ** ** ** ** ** *   54   30 1023.5 *****  971.0 *** *** ***** *****  0.00 ***** **
944510 ***** 201508110100 230  13 *** *** *** * * * 25.0 00 ** ** ** ** ** ** ** *   61   47 1025.0 *****  972.4 *** *** ***** *****  0.00 ***** **
944510 ***** 201508120100 090  13 *** *** *** * * * 25.0 00 ** ** ** ** ** ** ** *   56   41 1028.3 *****  975.6 *** *** ***** *****  0.00 ***** **
944510 ***** 201508130100 090   8 *** 722 CLR * * * 25.0 00 ** ** ** ** ** ** ** *   61   44 1026.7 *****  974.0 *** *** ***** ***** ***** ***** **
944510 ***** 201508140100 050   7 *** 722 CLR * * * 25.0 02 ** ** ** ** ** ** ** *   67   47 1025.1 *****  972.5 *** *** ***** ***** ***** ***** **
944510 ***** 201508150100 360   7 *** 722 CLR * * * 25.0 02 ** ** ** ** ** ** ** 0   69   45 1025.5 *****  972.9 *** *** ***** ***** ***** ***** **
944510 ***** 201508170100 360   2 *** 722 CLR * * * 25.0 00 ** ** ** ** ** ** ** *   72   49 1024.2 *****  971.7 *** *** ***** ***** ***** ***** **
944510 ***** 201508180100 360   3 *** 722 CLR * * * 25.0 00 ** ** ** ** ** ** ** *   80   57 1019.1 *****  966.8 *** *** ***** ***** ***** ***** **
944510 ***** 201508190100 230   1 *** *** OVC * * * 25.0 00 ** ** ** ** ** ** ** *   72   64 1017.1 *****  964.9 *** *** ***** *****  0.00 ***** **
944510 ***** 201508200100 270   3 *** 722 CLR * * * 25.0 02 ** ** ** ** ** ** ** 0   69   58 1014.7 *****  962.7 *** *** ***** ***** ***** ***** **
944510 ***** 201508210100 180   1 *** *** *** * * * 25.0 00 ** ** ** ** ** ** ** *   64   50 1017.3 *****  965.1 *** *** ***** *****  0.00 ***** **
944510 ***** 201508220100 220   6 *** *** *** * * * 25.0 02 ** ** ** ** ** ** ** 0   64   54 1017.0 *****  964.8 *** *** ***** *****  0.00 ***** **
944510 ***** 201508230100 180   5 *** 722 CLR * * * 25.0 02 ** ** ** ** ** ** ** 0   59   47 1023.1 *****  970.6 *** *** ***** ***** ***** ***** **
944510 ***** 201508240100 090   7 *** 722 SCT * * * 25.0 02 ** ** ** ** ** ** ** *   61   51 1025.2 *****  972.6 *** *** ***** ***** ***** ***** **
944510 ***** 201508250100 140   5 *** 722 CLR * * * 25.0 02 ** ** ** ** ** ** ** 0   59   52 1024.3 *****  971.8 *** *** ***** ***** ***** ***** **
944510 ***** 201508260100 180   2 *** 722 CLR * * * 25.0 00 ** ** ** ** ** ** ** *   62   50 1022.9 *****  970.4 *** *** ***** ***** ***** ***** **
944510 ***** 201508270100 360   0 *** 722 CLR * * * 25.0 00 ** ** ** ** ** ** ** *   67   54 1021.1 *****  968.7 *** *** ***** ***** ***** ***** **
944510 ***** 201508280100 050   2 *** 722 CLR * * * 25.0 02 ** ** ** ** ** ** ** *   71   57 1019.4 *****  967.1 *** *** ***** ***** ***** ***** **
944510 ***** 201508290100 360   2 *** 722 CLR * * * 25.0 00 ** ** ** ** ** ** ** *   75   59 1017.3 *****  965.1 *** *** ***** ***** ***** ***** **
944510 ***** 201508300100 230   2 *** 722 CLR * * * 25.0 00 ** ** ** ** ** ** ** *   73   62 1017.5 *****  965.3 *** *** ***** ***** ***** ***** **
944510 ***** 201508310100 180   3 *** 722 CLR * * * 25.0 02 ** ** ** ** ** ** ** 0   74   64 1017.0 *****  964.8 *** *** ***** ***** ***** ***** **
944510 ***** 201509010100 230   5 *** *** *** * * * 25.0 02 ** ** ** ** ** ** ** 0   62   54 1016.2 *****  964.9 *** *** ***** *****  0.00 ***** **
944510 ***** 201509020100 090  20 *** *** *** * * * 25.0 02 ** ** ** ** ** ** ** 0   54   48 1022.5 *****  970.8 *** *** ***** *****  0.00 ***** **
944510 ***** 201509030100 090   7 *** 722 CLR * * * 25.0 02 ** ** ** ** ** ** ** 0   65   55 1022.6 *****  970.9 *** *** ***** ***** ***** ***** **
944510 ***** 201509040100 050   5 *** *** *** * * * 25.0 00 ** ** ** ** ** ** ** *   70   60 1020.8 *****  969.2 *** *** ***** *****  0.00 ***** **
944510 ***** 201509050100 180   2 *** 722 CLR * * * 25.0 00 ** ** ** ** ** ** ** *   75   62 1017.0 *****  965.6 *** *** ***** ***** ***** ***** **
944510 ***** 201509060100 090   8 *** *** BKN * * * 25.0 00 ** ** ** ** ** ** ** *   67   61 1022.7 *****  971.0 *** *** ***** ***** ***** ***** **
944510 ***** 201509070100 140  14 *** 722 CLR * * * 25.0 00 ** ** ** ** ** ** ** *   64   57 1025.6 *****  973.8 *** *** ***** ***** ***** ***** **
944510 ***** 201509090100 040   7 *** *** *** * * * 25.0 02 ** ** ** ** ** ** ** 0   75   62 1024.0 *****  972.3 *** *** ***** ***** *****  0.00 **
944510 ***** 201509100100 040   5 *** *** *** * * * 25.0 02 ** ** ** ** ** ** ** 0   79   68 1023.2 *****  971.5 *** *** ***** *****  0.00 ***** **
944510 ***** 201509110100 320   3 *** 722 CLR * * * 25.0 02 ** ** ** ** ** ** ** 0   85   49 1020.2 *****  968.7 *** *** ***** ***** ***** ***** **
944510 ***** 201509120100 320   3 *** *** *** * * * 25.0 02 ** ** ** ** ** ** ** *   85   59 1017.7 *****  966.3 *** *** ***** *****  0.00 ***** **
944510 ***** 201509130100 180   3 *** 722 SCT * * * 25.0 00 ** ** ** ** ** ** ** *   66   57 1019.2 *****  967.7 *** *** ***** *****  0.00 ***** **
944510 ***** 201509140100 140   8 *** *** *** * * * 25.0 00 ** ** ** ** ** ** ** *   62   47 1022.6 *****  970.9 *** *** ***** *****  0.00 ***** **
944510 ***** 201509150100 140  13 *** 722 CLR * * * 25.0 00 ** ** ** ** ** ** ** *   66   31 1021.7 *****  970.1 *** *** ***** ***** ***** ***** **
944510 ***** 201509160100 090   8 *** 722 CLR * * * 25.0 00 ** ** ** ** ** ** ** *   68   40 1023.6 *****  971.9 *** *** ***** ***** ***** ***** **
944510 ***** 201509160700 360   2 *** *** BKN * * * 12.5 03 ** ** ** ** ** ** ** *   90   47 1061.7 ***** 1008.1 *** *** ***** ***** ***** ***** **
944510 ***** 201509170100 090   8 *** 722 CLR * * * 25.0 00 ** ** ** ** ** ** ** *   70   28 1025.1 *****  973.3 *** *** ***** ***** ***** ***** **
944510 ***** 201509180100 090   5 *** 722 CLR * * * 25.0 02 ** ** ** ** ** ** ** 0   74 **** 1023.7 *****  972.0 *** *** ***** ***** ***** ***** **
944510 ***** 201509190100 090   5 *** 722 CLR * * * 12.5 00 ** ** ** ** ** ** ** *   79   43 1028.9 *****  976.9 *** *** ***** ***** ***** ***** **
