  USAF  WBAN YR--MODAHRMN DIR SPD GUS CLG SKC L M H  VSB MW MW MW MW AW AW AW AW W TEMP DEWP    SLP   ALT    STP MAX MIN PCP01 PCP06 PCP24 PCPXX SD
944770 ***** 201501010400 360   2 *** *** SCT * * * 28.1 02 ** ** ** ** ** ** ** 0  105   41 1003.9 *****  968.2 *** *** ***** *****  0.00 ***** **
944770 ***** 201501012200 020   8 *** *** SCT * * * 28.1 02 ** ** ** ** ** ** ** 0   92   30 1007.6 *****  971.8 *** *** ***** ***** *****  0.00 **
944770 ***** 201501012230 020   8 *** *** SCT * * * 28.1 02 ** ** ** ** ** ** ** 0   92   30 1007.6 *****  971.8 *** *** ***** ***** ***** ***** **
944770 ***** 201501020400 360   5 *** *** SCT * * * 28.1 02 ** ** ** ** ** ** ** 0  109   35 1004.4 *****  968.7 *** *** *****  0.00 ***** ***** **
944770 ***** 201501022200 340   6 *** *** SCT * * * 28.1 03 ** ** ** ** ** ** ** 0   92   40 1005.5 *****  969.7 *** *** ***** *****  0.00 ***** **
944770 ***** 201501022230 340   6 *** *** SCT * * * 28.1 03 ** ** ** ** ** ** ** 0   92   40 1005.5 *****  969.7 *** *** ***** ***** ***** ***** **
944770 ***** 201501030400 230   9 *** *** SCT * * * 28.1 02 ** ** ** ** ** ** ** 0  105   52 1005.3 *****  969.6 *** *** *****  0.00 ***** ***** **
944770 ***** 201501032200 160   9 *** *** SCT * * * 28.1 03 ** ** ** ** ** ** ** 2   79   55 1010.7 *****  974.8 *** *** ***** *****  0.00 ***** **
944770 ***** 201501032230 160   9 *** *** SCT * * * 28.1 03 ** ** ** ** ** ** ** 2   79   55 1010.7 *****  974.8 *** *** ***** ***** ***** ***** **
944770 ***** 201501040400 110  10 *** *** BKN * * * 28.1 03 ** ** ** ** ** ** ** 2   96   55 1008.1 *****  972.3 *** *** *****  0.00 ***** ***** **
944770 ***** 201501042200 070  10 *** *** BKN * * * 28.1 03 ** ** ** ** ** ** ** 2   82   67 1010.5 *****  974.6 *** *** ***** *****  0.00 ***** **
944770 ***** 201501042230 070  10 *** *** BKN * * * 28.1 03 ** ** ** ** ** ** ** 2   82   67 1010.5 *****  974.6 *** *** ***** ***** ***** ***** **
944770 ***** 201501050400 110  10 *** *** OVC * * * 28.1 03 ** ** ** ** ** ** ** 2   95   67 1007.8 *****  972.0 *** *** *****  0.00 ***** ***** **
944770 ***** 201501052200 050   7 *** *** SCT * * * 28.1 02 ** ** ** ** ** ** ** 0   86   66 1009.2 *****  973.3 *** *** ***** *****  0.00 ***** **
944770 ***** 201501052230 050   7 *** *** SCT * * * 28.1 02 ** ** ** ** ** ** ** 0   86   66 1009.2 *****  973.3 *** *** ***** ***** ***** ***** **
944770 ***** 201501060400 070  18 *** *** BKN * * * 28.1 03 ** ** ** ** ** ** ** 2  100   56 1006.1 *****  970.3 *** *** *****  0.00 ***** ***** **
944770 ***** 201501062200 070  10 *** *** BKN * * * 25.0 03 ** ** ** ** ** ** ** 2   85   62 1007.7 *****  971.9 *** *** ***** *****  0.00 ***** **
944770 ***** 201501062230 070  10 *** *** BKN * * * 25.0 03 ** ** ** ** ** ** ** 2   85   62 1007.7 *****  971.9 *** *** ***** ***** ***** ***** **
944770 ***** 201501070400 020  13 *** *** OVC * * * 25.0 03 ** ** ** ** ** ** ** 2   93   63 1005.3 *****  969.6 *** *** *****  0.00 ***** ***** **
944770 ***** 201501072200 050   6 *** *** OVC * * * 25.0 03 ** ** ** ** ** ** ** 2   77   70 1006.4 *****  970.6 *** *** ***** *****  0.00 ***** **
944770 ***** 201501072230 050   6 ***  10 OVC * * * 25.0 03 ** ** ** ** ** ** ** 2   77   70 1006.4 *****  970.6 *** *** ***** ***** ***** ***** **
944770 ***** 201501080400 070  11 *** *** OVC * * * 25.0 03 ** ** ** ** ** ** ** 2   89   68 1002.5 *****  966.9 *** *** *****  0.00 ***** ***** **
944770 ***** 201501082200 110   5 *** *** OVC * * *  3.1 50 ** ** ** ** ** ** ** 5   72   70 1001.1 *****  965.5 *** *** ***** *****  0.26 ***** **
944770 ***** 201501082230 110   5 ***  10 OVC * * *  3.1 50 ** ** ** ** ** ** ** 5   72   70 1001.1 *****  965.5 *** *** ***** *****  0.26 ***** **
944770 ***** 201501090400 130  11 *** *** OVC * * * 18.8 03 ** ** ** ** ** ** ** 2   81   68  998.7 *****  963.2 *** *** *****  0.00 ***** ***** **
944770 ***** 201501092200 200  11 *** *** OVC * * *  3.1 50 ** ** ** ** ** ** ** 5   62   60 1003.0 *****  967.3 *** *** ***** *****  0.15 ***** **
944770 ***** 201501092230 200  11 *** *** OVC * * *  3.1 50 ** ** ** ** ** ** ** 5   62   60 1003.0 *****  967.3 *** *** ***** *****  0.15 ***** **
944770 ***** 201501100400 180  16 *** *** OVC * * *  9.4 03 ** ** ** ** ** ** ** 2   66   62 1003.9 *****  968.2 *** *** *****  0.00 ***** ***** **
944770 ***** 201501102200 200   6 *** *** OVC * * *  3.1 50 ** ** ** ** ** ** ** 5   63   61 1007.2 *****  971.4 *** *** ***** *****  0.16 ***** **
944770 ***** 201501102230 200   6 *** *** OVC * * *  3.1 50 ** ** ** ** ** ** ** 5   63   61 1007.2 *****  971.4 *** *** ***** *****  0.16 ***** **
944770 ***** 201501110400 200   9 *** *** OVC * * * 18.8 03 ** ** ** ** ** ** ** 2   71   64 1006.2 *****  970.4 *** *** *****  0.00 ***** ***** **
944770 ***** 201501112200 ***   0 *** *** BKN * * * 21.9 03 ** ** ** ** ** ** ** 2   72   67 1006.8 *****  971.0 *** *** ***** *****  0.00T***** **
944770 ***** 201501112230 360   0 *** *** BKN * * * 21.9 03 ** ** ** ** ** ** ** 2   72   67 1006.8 *****  971.0 *** *** ***** ***** ***** ***** **
944770 ***** 201501120400 200   2 *** *** BKN * * * 25.0 03 ** ** ** ** ** ** ** 2   88   64 1004.5 *****  968.8 *** *** *****  0.00 ***** ***** **
944770 ***** 201501122200 180   5 *** *** *** * * * 28.1 02 ** ** ** ** ** ** ** 0   76   60 1009.6 *****  973.7 *** *** ***** *****  0.00 ***** **
944770 ***** 201501122230 180   5 *** 722 CLR * * * 28.1 02 ** ** ** ** ** ** ** 0   76   60 1009.6 *****  973.7 *** *** ***** ***** ***** ***** **
944770 ***** 201501130400 200   5 *** *** *** * * * 28.1 02 ** ** ** ** ** ** ** 0   90   50 1007.6 *****  971.8 *** *** *****  0.00 ***** ***** **
944770 ***** 201501132200 160   6 *** *** *** * * * 28.1 02 ** ** ** ** ** ** ** 0   73   55 1011.7 *****  975.7 *** *** ***** *****  0.00 ***** **
944770 ***** 201501132230 160   6 *** 722 CLR * * * 28.1 02 ** ** ** ** ** ** ** 0   73   55 1011.7 *****  975.7 *** *** ***** ***** ***** ***** **
944770 ***** 201501140400 130   9 *** *** *** * * * 28.1 02 ** ** ** ** ** ** ** 0   89   44 1009.9 *****  974.0 *** *** *****  0.00 ***** ***** **
944770 ***** 201501142200 130   8 *** *** *** * * * 28.1 02 ** ** ** ** ** ** ** 0   73   51 1012.5 *****  976.5 *** *** ***** *****  0.00 ***** **
944770 ***** 201501142230 130   8 *** 722 CLR * * * 28.1 02 ** ** ** ** ** ** ** 0   73   51 1012.5 *****  976.5 *** *** ***** ***** ***** ***** **
944770 ***** 201501150400 340   3 *** *** *** * * * 28.1 02 ** ** ** ** ** ** ** 0   91   49 1008.9 *****  973.0 *** *** *****  0.00 ***** ***** **
944770 ***** 201501152200 050   5 *** *** *** * * * 28.1 02 ** ** ** ** ** ** ** 0   81   49 1011.7 *****  975.7 *** *** ***** *****  0.00 ***** **
944770 ***** 201501152230 050   5 *** 722 CLR * * * 28.1 02 ** ** ** ** ** ** ** 0   81   49 1011.7 *****  975.7 *** *** ***** ***** ***** ***** **
944770 ***** 201501160400 090   9 *** *** *** * * * 28.1 02 ** ** ** ** ** ** ** 0  100   45 1008.8 *****  972.9 *** *** *****  0.00 ***** ***** **
944770 ***** 201501162200 160   9 *** *** *** * * * 28.1 02 ** ** ** ** ** ** ** 0   79   49 1012.4 *****  976.4 *** *** ***** *****  0.00 ***** **
944770 ***** 201501162230 160   9 *** 722 CLR * * * 28.1 02 ** ** ** ** ** ** ** 0   79   49 1012.4 *****  976.4 *** *** ***** ***** ***** ***** **
944770 ***** 201501170400 310   1 *** *** *** * * * 28.1 02 ** ** ** ** ** ** ** 0  101   49 1009.8 *****  973.9 *** *** *****  0.00 ***** ***** **
944770 ***** 201501172200 130   9 *** *** *** * * * 28.1 02 ** ** ** ** ** ** ** 0   82   49 1013.6 *****  977.6 *** *** ***** *****  0.00 ***** **
944770 ***** 201501172230 130   9 *** 722 CLR * * * 28.1 02 ** ** ** ** ** ** ** 0   82   49 1013.6 *****  977.6 *** *** ***** ***** ***** ***** **
944770 ***** 201501180400 ***   0 *** *** *** * * * 28.1 02 ** ** ** ** ** ** ** 0  100   50 1009.9 *****  974.0 *** *** *****  0.00 ***** ***** **
944770 ***** 201501180430 360   0 *** 722 CLR * * * 28.1 02 ** ** ** ** ** ** ** 0  100   50 1009.9 *****  974.0 *** *** ***** ***** ***** ***** **
944770 ***** 201501182200 050  10 *** *** SCT * * * 28.1 02 ** ** ** ** ** ** ** 0   86   51 1009.4 *****  973.5 *** *** ***** *****  0.00 ***** **
944770 ***** 201501182230 050  10 *** *** SCT * * * 28.1 02 ** ** ** ** ** ** ** 0   86   51 1009.4 *****  973.5 *** *** ***** ***** ***** ***** **
944770 ***** 201501190400 020   6 *** *** SCT * * * 28.1 03 ** ** ** ** ** ** ** 1  105   49 1006.2 *****  970.4 *** *** *****  0.00 ***** ***** **
944770 ***** 201501192200 200  10 *** *** BKN * * * 28.1 03 ** ** ** ** ** ** ** 2   88   44 1006.7 *****  970.9 *** *** ***** *****  0.00 ***** **
944770 ***** 201501192230 200  10 *** *** BKN * * * 28.1 03 ** ** ** ** ** ** ** 2   88   44 1006.7 *****  970.9 *** *** ***** ***** ***** ***** **
944770 ***** 201501200400 230   8 *** *** OVC * * * 25.0 03 ** ** ** ** ** ** ** 2  100   42 1005.8 *****  970.0 *** *** *****  0.00 ***** ***** **
944770 ***** 201501202200 230   7 *** *** SCT * * * 28.1 02 ** ** ** ** ** ** ** 0   71   57 1010.1 *****  974.2 *** *** ***** *****  0.00 ***** **
944770 ***** 201501202230 230   7 *** *** SCT * * * 28.1 02 ** ** ** ** ** ** ** 0   71   57 1010.1 *****  974.2 *** *** ***** ***** ***** ***** **
944770 ***** 201501210400 200  11 *** *** *** * * * 28.1 02 ** ** ** ** ** ** ** 0   88   45 1008.8 *****  972.9 *** *** *****  0.00 ***** ***** **
944770 ***** 201501212200 160   9 *** *** *** * * * 28.1 02 ** ** ** ** ** ** ** 0   74   51 1009.2 *****  973.3 *** *** ***** *****  0.00 ***** **
944770 ***** 201501212230 160   9 *** 722 CLR * * * 28.1 02 ** ** ** ** ** ** ** 0   74   51 1009.2 *****  973.3 *** *** ***** ***** ***** ***** **
944770 ***** 201501220400 ***   0 *** *** *** * * * 28.1 02 ** ** ** ** ** ** ** 0   94   55 1005.6 *****  969.8 *** *** *****  0.00 ***** ***** **
944770 ***** 201501222200 160   2 *** *** *** * * * 28.1 02 ** ** ** ** ** ** ** 0   85   53 1007.5 *****  971.7 *** *** ***** *****  0.00 ***** **
944770 ***** 201501222230 160   2 *** 722 CLR * * * 28.1 02 ** ** ** ** ** ** ** 0   85   53 1007.5 *****  971.7 *** *** ***** ***** ***** ***** **
944770 ***** 201501230400 130   3 *** *** *** * * * 28.1 02 ** ** ** ** ** ** ** 0  102   52 1004.3 *****  968.6 *** *** *****  0.00 ***** ***** **
944770 ***** 201501232200 160  11 *** *** SCT * * * 28.1 02 ** ** ** ** ** ** ** 0   76   50 1008.1 *****  972.3 *** *** ***** *****  0.00 ***** **
944770 ***** 201501232230 160  11 *** *** SCT * * * 28.1 02 ** ** ** ** ** ** ** 0   76   50 1008.1 *****  972.3 *** *** ***** ***** ***** ***** **
944770 ***** 201501240400 200   3 *** *** SCT * * * 28.1 03 ** ** ** ** ** ** ** 0   95   52 1006.7 *****  970.9 *** *** *****  0.00 ***** ***** **
944770 ***** 201501242200 160   8 *** *** *** * * * 28.1 02 ** ** ** ** ** ** ** 0   72   53 1012.7 *****  976.7 *** *** ***** *****  0.00 ***** **
944770 ***** 201501242230 160   8 *** 722 CLR * * * 28.1 02 ** ** ** ** ** ** ** 0   72   53 1012.7 *****  976.7 *** *** ***** ***** ***** ***** **
944770 ***** 201501250400 160  10 *** *** SCT * * * 28.1 02 ** ** ** ** ** ** ** 0   89   49 1010.4 *****  974.5 *** *** *****  0.00 ***** ***** **
944770 ***** 201501252200 160   6 *** *** BKN * * * 28.1 03 ** ** ** ** ** ** ** 2   68   45 1014.2 *****  978.1 *** *** ***** *****  0.00 ***** **
944770 ***** 201501252230 160   6 *** *** BKN * * * 28.1 03 ** ** ** ** ** ** ** 2   68   45 1014.2 *****  978.1 *** *** ***** ***** ***** ***** **
944770 ***** 201501260400 180   7 *** *** SCT * * * 28.1 02 ** ** ** ** ** ** ** 0   88   46 1011.3 *****  975.3 *** *** *****  0.00 ***** ***** **
944770 ***** 201501262200 130   5 *** *** SCT * * * 28.1 02 ** ** ** ** ** ** ** 0   71   44 1012.9 *****  976.9 *** *** ***** *****  0.00 ***** **
944770 ***** 201501262230 130   5 *** *** SCT * * * 28.1 02 ** ** ** ** ** ** ** 0   71   44 1012.9 *****  976.9 *** *** ***** ***** ***** ***** **
944770 ***** 201501270400 ***   0 *** *** SCT * * * 28.1 02 ** ** ** ** ** ** ** 0   86   45 1010.1 *****  974.2 *** *** *****  0.00 ***** ***** **
944770 ***** 201501272200 130   7 *** *** SCT * * * 28.1 02 ** ** ** ** ** ** ** 0   72   41 1012.1 *****  976.1 *** *** ***** *****  0.00 ***** **
944770 ***** 201501272230 130   7 *** *** SCT * * * 28.1 02 ** ** ** ** ** ** ** 0   72   41 1012.1 *****  976.1 *** *** ***** ***** ***** ***** **
944770 ***** 201501280400 110   7 *** *** *** * * * 28.1 02 ** ** ** ** ** ** ** 0   87   44 1009.4 *****  973.5 *** *** *****  0.00 ***** ***** **
944770 ***** 201501282200 090   5 *** *** SCT * * * 28.1 02 ** ** ** ** ** ** ** 0   76   40 1011.6 *****  975.6 *** *** ***** *****  0.00 ***** **
944770 ***** 201501282230 090   5 *** *** SCT * * * 28.1 02 ** ** ** ** ** ** ** 0   76   40 1011.6 *****  975.6 *** *** ***** ***** ***** ***** **
944770 ***** 201501290400 130   2 *** *** SCT * * * 28.1 02 ** ** ** ** ** ** ** 0   92   41 1009.5 *****  973.6 *** *** *****  0.00 ***** ***** **
944770 ***** 201501292200 ***   0 *** *** SCT * * * 28.1 02 ** ** ** ** ** ** ** 0   77   43 1010.5 *****  974.6 *** *** ***** *****  0.00 ***** **
944770 ***** 201501292230 360   0 *** *** SCT * * * 28.1 02 ** ** ** ** ** ** ** 0   77   43 1010.5 *****  974.6 *** *** ***** ***** ***** ***** **
944770 ***** 201501300400 200   5 *** *** SCT * * * 28.1 02 ** ** ** ** ** ** ** 0   95   42 1008.0 *****  972.2 *** *** *****  0.00 ***** ***** **
944770 ***** 201501302200 050   6 *** *** SCT * * * 28.1 02 ** ** ** ** ** ** ** 0   85   49 1009.4 *****  973.5 *** *** ***** *****  0.00 ***** **
944770 ***** 201501302230 050   6 *** *** SCT * * * 28.1 02 ** ** ** ** ** ** ** 0   85   49 1009.4 *****  973.5 *** *** ***** ***** ***** ***** **
944770 ***** 201501310400 110   6 *** *** SCT * * * 28.1 02 ** ** ** ** ** ** ** 0   99   47 1007.7 *****  971.9 *** *** *****  0.00 ***** ***** **
944770 ***** 201501312200 130   5 *** *** SCT * * * 28.1 02 ** ** ** ** ** ** ** 0   79   41 1012.1 *****  976.0 *** *** ***** *****  0.00 ***** **
944770 ***** 201501312230 130   5 *** *** SCT * * * 28.1 02 ** ** ** ** ** ** ** 0   79   41 1012.1 *****  976.0 *** *** ***** ***** ***** ***** **
944770 ***** 201502010400 160   9 *** *** SCT * * * 28.1 02 ** ** ** ** ** ** ** 0   94   46 1011.0 *****  974.9 *** *** *****  0.00 ***** ***** **
944770 ***** 201502012200 130  10 *** *** *** * * * 28.1 02 ** ** ** ** ** ** ** 0   71   49 1017.6 *****  981.3 *** *** ***** *****  0.00 ***** **
944770 ***** 201502020400 110   7 *** *** *** * * * 28.1 02 ** ** ** ** ** ** ** 0   86   34 1015.7 *****  979.5 *** *** *****  0.00 ***** ***** **
944770 ***** 201502022200 130   5 *** *** *** * * * 28.1 02 ** ** ** ** ** ** ** 0   72   41 1018.2 *****  981.9 *** *** ***** *****  0.00 ***** **
944770 ***** 201502022230 130   5 *** 722 CLR * * * 28.1 02 ** ** ** ** ** ** ** 0   72   41 1018.2 *****  981.9 *** *** ***** ***** ***** ***** **
944770 ***** 201502030400 110  10 *** *** *** * * * 28.1 02 ** ** ** ** ** ** ** 0   90   35 1015.3 *****  979.1 *** *** *****  0.00 ***** ***** **
944770 ***** 201502032200 130   7 *** *** *** * * * 28.1 02 ** ** ** ** ** ** ** 0   75   35 1016.1 *****  979.9 *** *** ***** *****  0.00 ***** **
944770 ***** 201502032230 130   7 *** 722 CLR * * * 28.1 02 ** ** ** ** ** ** ** 0   75   35 1016.1 *****  979.9 *** *** ***** ***** ***** ***** **
944770 ***** 201502040400 130   7 *** *** *** * * * 28.1 02 ** ** ** ** ** ** ** 0   93   38 1013.2 *****  977.1 *** *** *****  0.00 ***** ***** **
944770 ***** 201502092200 130   3 *** *** SCT * * * 28.1 02 ** ** ** ** ** ** ** 0   88   47 1016.9 *****  980.6 *** *** ***** ***** *****  0.00 **
944770 ***** 201502092230 130   3 *** *** SCT * * * 28.1 02 ** ** ** ** ** ** ** 0   88   47 1016.9 *****  980.6 *** *** ***** ***** ***** ***** **
944770 ***** 201502100400 160   6 *** *** SCT * * * 28.1 03 ** ** ** ** ** ** ** 2  107   47 1013.9 *****  977.7 *** *** *****  0.00 ***** ***** **
944770 ***** 201502102200 130   3 *** *** SCT * * * 28.1 02 ** ** ** ** ** ** ** 0   85   38 1015.4 *****  979.2 *** *** ***** *****  0.00 ***** **
944770 ***** 201502102230 130   3 *** *** SCT * * * 28.1 02 ** ** ** ** ** ** ** 0   85   38 1015.4 *****  979.2 *** *** ***** ***** ***** ***** **
944770 ***** 201502110400 160   9 *** *** SCT * * * 28.1 02 ** ** ** ** ** ** ** 0  103   44 1011.8 *****  975.7 *** *** *****  0.00 ***** ***** **
944770 ***** 201502112200 110   3 *** *** *** * * * 28.1 02 ** ** ** ** ** ** ** 0   81   37 1014.6 *****  978.4 *** *** ***** *****  0.00 ***** **
944770 ***** 201502112230 110   3 *** 722 CLR * * * 28.1 02 ** ** ** ** ** ** ** 0   81   37 1014.6 *****  978.4 *** *** ***** ***** ***** ***** **
944770 ***** 201502120400 070   3 *** *** SCT * * * 28.1 02 ** ** ** ** ** ** ** 0  103   43 1011.4 *****  975.3 *** *** *****  0.00 ***** ***** **
944770 ***** 201502122200 050   6 *** *** SCT * * * 28.1 02 ** ** ** ** ** ** ** 0   86   48 1013.1 *****  977.0 *** *** ***** *****  0.00 ***** **
944770 ***** 201502122230 050   6 *** *** SCT * * * 28.1 02 ** ** ** ** ** ** ** 0   86   48 1013.1 *****  977.0 *** *** ***** ***** ***** ***** **
944770 ***** 201502130400 050   6 *** *** SCT * * * 28.1 03 ** ** ** ** ** ** ** 2  104   49 1011.0 *****  974.9 *** *** *****  0.00 ***** ***** **
944770 ***** 201502132200 020   5 *** *** *** * * * 28.1 02 ** ** ** ** ** ** ** 0   90   51 1013.9 *****  977.7 *** *** ***** *****  0.00 ***** **
944770 ***** 201502132230 020   5 *** 722 CLR * * * 28.1 02 ** ** ** ** ** ** ** 0   90   51 1013.9 *****  977.7 *** *** ***** ***** ***** ***** **
944770 ***** 201502140400 360   2 *** *** *** * * * 28.1 02 ** ** ** ** ** ** ** 0  105   54 1010.7 *****  974.6 *** *** *****  0.00 ***** ***** **
944770 ***** 201502142200 360   6 *** *** *** * * * 28.1 02 ** ** ** ** ** ** ** 0   90   53 1012.7 *****  976.6 *** *** ***** *****  0.00 ***** **
944770 ***** 201502142230 360   6 *** 722 CLR * * * 28.1 02 ** ** ** ** ** ** ** 0   90   53 1012.7 *****  976.6 *** *** ***** ***** ***** ***** **
944770 ***** 201502150400 130   1 *** *** SCT * * * 28.1 02 ** ** ** ** ** ** ** 0  105   53 1010.8 *****  974.7 *** *** *****  0.00 ***** ***** **
944770 ***** 201502152200 180  10 *** *** SCT * * * 28.1 02 ** ** ** ** ** ** ** 0   76   48 1014.8 *****  978.6 *** *** ***** *****  0.00 ***** **
944770 ***** 201502152230 180  10 *** *** SCT * * * 28.1 02 ** ** ** ** ** ** ** 0   76   48 1014.8 *****  978.6 *** *** ***** ***** ***** ***** **
944770 ***** 201502160400 090   5 *** *** BKN * * * 28.1 03 ** ** ** ** ** ** ** 2   98   51 1012.9 *****  976.8 *** *** *****  0.00 ***** ***** **
944770 ***** 201502162200 130   3 *** *** OVC * * * 25.0 03 ** ** ** ** ** ** ** 2   82   52 1014.3 *****  978.1 *** *** ***** *****  0.00 ***** **
944770 ***** 201502162230 130   3 *** *** OVC * * * 25.0 03 ** ** ** ** ** ** ** 2   82   52 1014.3 *****  978.1 *** *** ***** ***** ***** ***** **
944770 ***** 201502170400 250   6 *** *** SCT * * * 28.1 03 ** ** ** ** ** ** ** 1  100   56 1010.8 *****  974.7 *** *** *****  0.00 ***** ***** **
944770 ***** 201502172200 130   9 *** *** SCT * * * 28.1 03 ** ** ** ** ** ** ** 1   80   44 1013.5 *****  977.3 *** *** ***** *****  0.00 ***** **
944770 ***** 201502172230 130   9 *** *** SCT * * * 28.1 03 ** ** ** ** ** ** ** 1   80   44 1013.5 *****  977.3 *** *** ***** ***** ***** ***** **
944770 ***** 201502180400 130   3 *** *** SCT * * * 28.1 02 ** ** ** ** ** ** ** 0   98   39 1010.1 *****  974.1 *** *** *****  0.00 ***** ***** **
944770 ***** 201502182200 130   2 *** *** SCT * * * 28.1 02 ** ** ** ** ** ** ** 0   77   41 1010.9 *****  974.8 *** *** ***** *****  0.00 ***** **
944770 ***** 201502182230 130   2 *** *** SCT * * * 28.1 02 ** ** ** ** ** ** ** 0   77   41 1010.9 *****  974.8 *** *** ***** ***** ***** ***** **
944770 ***** 201502190400 200   5 *** *** SCT * * * 28.1 02 ** ** ** ** ** ** ** 0  100   44 1007.9 *****  971.9 *** *** *****  0.00 ***** ***** **
944770 ***** 201502192200 020   6 *** *** SCT * * * 28.1 02 ** ** ** ** ** ** ** 0   85   49 1009.5 *****  973.5 *** *** ***** *****  0.00 ***** **
944770 ***** 201502200400 110   6 *** *** SCT * * * 28.1 02 ** ** ** ** ** ** ** 0  100   49 1007.6 *****  971.7 *** *** *****  0.00 ***** ***** **
944770 ***** 201502202200 050   8 *** *** *** * * * 28.1 02 ** ** ** ** ** ** ** 0   85   57 1008.2 *****  972.2 *** *** ***** *****  0.00 ***** **
944770 ***** 201502202230 050   8 *** 722 CLR * * * 28.1 02 ** ** ** ** ** ** ** 0   85   57 1008.2 *****  972.2 *** *** ***** ***** ***** ***** **
944770 ***** 201502210400 020   6 *** *** SCT * * * 28.1 02 ** ** ** ** ** ** ** 0  100   54 1005.9 *****  970.0 *** *** *****  0.00 ***** ***** **
944770 ***** 201502212200 050   6 *** *** BKN * * * 28.1 03 ** ** ** ** ** ** ** 2   88   59 1008.5 *****  972.5 *** *** ***** *****  0.00 ***** **
944770 ***** 201502212230 050   6 *** *** BKN * * * 28.1 03 ** ** ** ** ** ** ** 2   88   59 1008.5 *****  972.5 *** *** ***** ***** ***** ***** **
944770 ***** 201502220400 360   2 *** *** OVC * * * 28.1 03 ** ** ** ** ** ** ** 2   97   56 1007.1 *****  971.2 *** *** *****  0.00 ***** ***** **
944770 ***** 201502222200 200  11 *** *** BKN * * * 25.0 03 ** ** ** ** ** ** ** 2   80   58 1012.3 *****  976.2 *** *** ***** *****  0.00 ***** **
944770 ***** 201502222230 200  11 *** *** BKN * * * 25.0 03 ** ** ** ** ** ** ** 2   80   58 1012.3 *****  976.2 *** *** ***** ***** ***** ***** **
944770 ***** 201502230400 180  15 *** *** BKN * * * 28.1 03 ** ** ** ** ** ** ** 2   89   52 1012.1 *****  976.0 *** *** *****  0.00 ***** ***** **
944770 ***** 201502232200 180   6 *** *** OVC * * * 28.1 03 ** ** ** ** ** ** ** 2   73   54 1015.7 *****  979.5 *** *** ***** *****  0.00 ***** **
944770 ***** 201502232230 180   6 ***  10 OVC * * * 28.1 03 ** ** ** ** ** ** ** 2   73   54 1015.7 *****  979.5 *** *** ***** ***** ***** ***** **
944770 ***** 201502240400 160   3 *** *** BKN * * * 28.1 03 ** ** ** ** ** ** ** 2   75   57 1014.3 *****  978.1 *** *** *****  0.00 ***** ***** **
944770 ***** 201502242200 160   3 *** *** SCT * * * 28.1 02 ** ** ** ** ** ** ** 0   72   39 1013.2 *****  977.1 *** *** ***** *****  0.00 ***** **
944770 ***** 201502242230 160   3 *** *** SCT * * * 28.1 02 ** ** ** ** ** ** ** 0   72   39 1013.2 *****  977.1 *** *** ***** ***** ***** ***** **
944770 ***** 201502250400 090   2 *** *** BKN * * * 28.1 03 ** ** ** ** ** ** ** 2   96   47 1010.1 *****  974.1 *** *** *****  0.00 ***** ***** **
944770 ***** 201502252200 ***   0 *** *** SCT * * * 28.1 02 ** ** ** ** ** ** ** 0   73   35 1009.6 *****  973.6 *** *** ***** *****  0.00 ***** **
944770 ***** 201502252230 360   0 *** *** SCT * * * 28.1 02 ** ** ** ** ** ** ** 0   73   35 1009.6 *****  973.6 *** *** ***** ***** ***** ***** **
944770 ***** 201502260400 360   3 *** *** SCT * * * 28.1 02 ** ** ** ** ** ** ** 0   99   38 1006.6 *****  970.7 *** *** *****  0.00 ***** ***** **
944770 ***** 201502262200 020   6 *** *** BKN * * * 25.0 03 ** ** ** ** ** ** ** 2   83   40 1007.9 *****  971.9 *** *** ***** *****  0.00 ***** **
944770 ***** 201502262230 020   6 ***  10 BKN * * * 25.0 03 ** ** ** ** ** ** ** 2   83   40 1007.9 *****  971.9 *** *** ***** ***** ***** ***** **
944770 ***** 201502270400 310   5 *** *** SCT * * * 28.1 03 ** ** ** ** ** ** ** 1  101   44 1004.4 *****  968.6 *** *** *****  0.00 ***** ***** **
944770 ***** 201502272200 ***   0 *** *** SCT * * * 28.1 03 ** ** ** ** ** ** ** 2   84   42 1005.8 *****  969.9 *** *** ***** *****  0.00 ***** **
944770 ***** 201502272230 360   0 *** *** SCT * * * 28.1 03 ** ** ** ** ** ** ** 2   84   42 1005.8 *****  969.9 *** *** ***** ***** ***** ***** **
944770 ***** 201502280400 230   3 *** *** BKN * * * 28.1 03 ** ** ** ** ** ** ** 2  104   44 1004.9 *****  969.1 *** *** *****  0.00 ***** ***** **
944770 ***** 201502282200 180  11 *** *** SCT * * * 28.1 02 ** ** ** ** ** ** ** 1   70   56 1013.0 *****  976.5 *** *** ***** *****  0.00 ***** **
944770 ***** 201502282230 180  11 *** *** SCT * * * 28.1 02 ** ** ** ** ** ** ** 1   70   56 1013.0 *****  976.5 *** *** ***** ***** ***** ***** **
944770 ***** 201503010400 130  11 *** *** SCT * * * 28.1 03 ** ** ** ** ** ** ** 1   87   55 1010.8 *****  974.3 *** *** *****  0.00 ***** ***** **
944770 ***** 201503012200 090   5 *** *** SCT * * * 28.1 02 ** ** ** ** ** ** ** 0   77   40 1009.9 *****  973.5 *** *** ***** *****  0.00 ***** **
944770 ***** 201503012230 090   5 *** *** SCT * * * 28.1 02 ** ** ** ** ** ** ** 0   77   40 1009.9 *****  973.5 *** *** ***** ***** ***** ***** **
944770 ***** 201503020400 360   6 *** *** SCT * * * 28.1 02 ** ** ** ** ** ** ** 0  100   54 1007.2 *****  970.9 *** *** *****  0.00 ***** ***** **
944770 ***** 201503022200 180   8 *** *** BKN * * * 25.0 03 ** ** ** ** ** ** ** 2   78   47 1012.9 *****  976.4 *** *** ***** *****  0.00 ***** **
944770 ***** 201503022230 180   8 *** *** BKN * * * 25.0 03 ** ** ** ** ** ** ** 2   78   47 1012.9 *****  976.4 *** *** ***** ***** ***** ***** **
944770 ***** 201503030400 130  11 *** *** SCT * * * 28.1 03 ** ** ** ** ** ** ** 1   96   47 1011.1 *****  974.6 *** *** *****  0.00 ***** ***** **
944770 ***** 201503032200 160   6 *** *** SCT * * * 28.1 02 ** ** ** ** ** ** ** 0   78   55 1015.8 *****  979.2 *** *** ***** *****  0.00 ***** **
944770 ***** 201503032230 160   6 *** *** SCT * * * 28.1 02 ** ** ** ** ** ** ** 0   78   55 1015.8 *****  979.2 *** *** ***** ***** ***** ***** **
944770 ***** 201503040400 130   5 *** *** SCT * * * 28.1 02 ** ** ** ** ** ** ** 0   95   53 1013.3 *****  976.8 *** *** *****  0.00 ***** ***** **
944770 ***** 201503042200 160  11 *** *** SCT * * * 28.1 02 ** ** ** ** ** ** ** 0   68   49 1019.6 *****  982.8 *** *** ***** *****  0.00 ***** **
944770 ***** 201503042230 160  11 *** *** SCT * * * 28.1 02 ** ** ** ** ** ** ** 0   68   49 1019.6 *****  982.8 *** *** ***** ***** ***** ***** **
944770 ***** 201503050400 090   3 *** *** SCT * * * 28.1 02 ** ** ** ** ** ** ** 0   84   47 1017.4 *****  980.7 *** *** *****  0.00 ***** ***** **
944770 ***** 201503052200 110   8 *** *** SCT * * * 28.1 03 ** ** ** ** ** ** ** 1   70   42 1018.1 *****  981.4 *** *** ***** *****  0.00 ***** **
944770 ***** 201503052230 110   8 *** *** SCT * * * 28.1 03 ** ** ** ** ** ** ** 1   70   42 1018.1 *****  981.4 *** *** ***** ***** ***** ***** **
944770 ***** 201503060400 110   6 *** *** BKN * * * 28.1 03 ** ** ** ** ** ** ** 2   84   44 1014.5 *****  977.9 *** *** *****  0.00 ***** ***** **
944770 ***** 201503062200 130   3 *** *** BKN * * * 25.0 03 ** ** ** ** ** ** ** 2   70   29 1015.2 *****  978.6 *** *** ***** *****  0.00 ***** **
944770 ***** 201503062230 130   3 *** *** BKN * * * 25.0 03 ** ** ** ** ** ** ** 2   70   29 1015.2 *****  978.6 *** *** ***** ***** ***** ***** **
944770 ***** 201503070400 160   3 *** *** OVC * * * 25.0 03 ** ** ** ** ** ** ** 2   81   43 1013.0 *****  976.5 *** *** *****  0.00 ***** ***** **
944770 ***** 201503072200 180   2 *** *** SCT * * * 28.1 02 ** ** ** ** ** ** ** 0   71   42 1014.4 *****  977.8 *** *** ***** *****  0.00 ***** **
944770 ***** 201503072230 180   2 *** *** SCT * * * 28.1 02 ** ** ** ** ** ** ** 0   71   42 1014.4 *****  977.8 *** *** ***** ***** ***** ***** **
944770 ***** 201503080400 230   6 *** *** *** * * * 28.1 02 ** ** ** ** ** ** ** 0   90   49 1011.6 *****  975.1 *** *** *****  0.00 ***** ***** **
944770 ***** 201503082200 180   3 *** *** SCT * * * 28.1 02 ** ** ** ** ** ** ** 0   70   46 1015.0 *****  978.4 *** *** ***** *****  0.00 ***** **
944770 ***** 201503090400 180   1 *** *** SCT * * * 28.1 02 ** ** ** ** ** ** ** 0   87   49 1012.5 *****  976.0 *** *** *****  0.00 ***** ***** **
944770 ***** 201503092200 160   3 *** *** *** * * * 28.1 02 ** ** ** ** ** ** ** 0   68   47 1015.7 *****  979.1 *** *** ***** *****  0.00 ***** **
944770 ***** 201503092230 160   3 *** 722 CLR * * * 28.1 02 ** ** ** ** ** ** ** 0   68   47 1015.7 *****  979.1 *** *** ***** ***** ***** ***** **
944770 ***** 201503100400 160   5 *** *** *** * * * 28.1 02 ** ** ** ** ** ** ** 0   89   51 1012.5 *****  976.0 *** *** *****  0.00 ***** ***** **
944770 ***** 201503102200 160   7 *** *** *** * * * 28.1 02 ** ** ** ** ** ** ** 0   71   46 1016.0 *****  979.4 *** *** ***** *****  0.00 ***** **
944770 ***** 201503110400 180  14 *** *** *** * * * 28.1 02 ** ** ** ** ** ** ** 0   93   45 1013.7 *****  977.1 *** *** *****  0.00 ***** ***** **
944770 ***** 201503112200 180   3 *** *** *** * * * 28.1 02 ** ** ** ** ** ** ** 0   68   43 1018.5 *****  981.8 *** *** ***** *****  0.00 ***** **
944770 ***** 201503112230 180   3 *** 722 CLR * * * 28.1 02 ** ** ** ** ** ** ** 0   68   43 1018.5 *****  981.8 *** *** ***** ***** ***** ***** **
944770 ***** 201503120400 160   5 *** *** *** * * * 28.1 02 ** ** ** ** ** ** ** 0   89   42 1015.4 *****  978.8 *** *** *****  0.00 ***** ***** **
944770 ***** 201503120430 160   3 *** 722 CLR * * * 28.1 02 ** ** ** ** ** ** ** 0   88   40 1015.4 *****  978.8 *** *** ***** ***** ***** ***** **
944770 ***** 201503122200 180   5 *** *** *** * * * 28.1 02 ** ** ** ** ** ** ** 0   67   43 1018.0 *****  981.3 *** *** ***** *****  0.00 ***** **
944770 ***** 201503122230 180   5 *** 722 CLR * * * 28.1 02 ** ** ** ** ** ** ** 0   67   42 1018.0 *****  981.3 *** *** ***** ***** ***** ***** **
944770 ***** 201503130400 130   3 *** *** *** * * * 28.1 02 ** ** ** ** ** ** ** 0   90   48 1014.7 *****  978.1 *** *** *****  0.00 ***** ***** **
944770 ***** 201503130430 130   3 *** 722 CLR * * * 28.1 02 ** ** ** ** ** ** ** 0   89   47 1014.7 *****  978.1 *** *** ***** ***** ***** ***** **
944770 ***** 201503132200 ***   0 *** *** *** * * * 28.1 02 ** ** ** ** ** ** ** 0   69   46 1016.9 *****  980.2 *** *** ***** *****  0.00 ***** **
944770 ***** 201503132230 360   0 *** 722 CLR * * * 28.1 02 ** ** ** ** ** ** ** 0   69   45 1016.9 *****  980.2 *** *** ***** ***** ***** ***** **
944770 ***** 201503140400 110   3 *** *** *** * * * 28.1 02 ** ** ** ** ** ** ** 0   94   44 1013.5 *****  976.9 *** *** *****  0.00 ***** ***** **
944770 ***** 201503140430 110   3 *** 722 CLR * * * 28.1 02 ** ** ** ** ** ** ** 0   93   43 1013.5 *****  976.9 *** *** ***** ***** ***** ***** **
944770 ***** 201503142200 090   3 *** *** *** * * * 28.1 02 ** ** ** ** ** ** ** 0   73   36 1014.5 *****  977.9 *** *** ***** *****  0.00 ***** **
944770 ***** 201503142230 090   3 *** 722 CLR * * * 28.1 02 ** ** ** ** ** ** ** 0   73   36 1014.5 *****  977.9 *** *** ***** ***** ***** ***** **
944770 ***** 201503150400 110   9 *** *** SCT * * * 28.1 02 ** ** ** ** ** ** ** 0   97   41 1010.9 *****  974.4 *** *** *****  0.00 ***** ***** **
944770 ***** 201503150430 110   8 *** *** SCT * * * 28.1 02 ** ** ** ** ** ** ** 0   95   40 1010.9 *****  974.4 *** *** ***** ***** ***** ***** **
944770 ***** 201503152200 360   3 *** *** SCT * * * 28.1 02 ** ** ** ** ** ** ** 0   76   35 1010.3 *****  973.9 *** *** ***** *****  0.00 ***** **
944770 ***** 201503152230 360   3 *** *** SCT * * * 28.1 02 ** ** ** ** ** ** ** 0   76   35 1010.3 *****  973.9 *** *** ***** ***** ***** ***** **
944770 ***** 201503160400 340   8 *** *** SCT * * * 28.1 02 ** ** ** ** ** ** ** 0  103   28 1006.2 *****  969.9 *** *** *****  0.00 ***** ***** **
944770 ***** 201503160430 340   7 *** *** SCT * * * 28.1 02 ** ** ** ** ** ** ** 0  103   28 1006.2 *****  969.9 *** *** ***** ***** ***** ***** **
944770 ***** 201503162200 180   2 *** *** BKN * * * 25.0 03 ** ** ** ** ** ** ** 2   83   49 1005.9 *****  969.6 *** *** ***** *****  0.00 ***** **
944770 ***** 201503162230 180   2 *** *** BKN * * * 25.0 03 ** ** ** ** ** ** ** 2   83   49 1005.9 *****  969.6 *** *** ***** ***** ***** ***** **
944770 ***** 201503170400 230   3 *** *** SCT * * * 28.1 02 ** ** ** ** ** ** ** 0  103   56 1003.7 *****  967.5 *** *** *****  0.00 ***** ***** **
944770 ***** 201503170430 230   3 *** *** SCT * * * 28.1 02 ** ** ** ** ** ** ** 0  102   55 1003.7 *****  967.5 *** *** ***** ***** ***** ***** **
944770 ***** 201503220400 340   7 *** *** SCT * * * 28.1 02 ** ** ** ** ** ** ** 0   96   47 1012.4 *****  975.9 *** *** ***** ***** *****  0.00 **
944770 ***** 201503220430 340   6 *** *** SCT * * * 28.1 02 ** ** ** ** ** ** ** 0   96   46 1012.4 *****  975.9 *** *** ***** ***** ***** ***** **
944770 ***** 201503222200 200  13 *** *** BKN * * * 25.0 03 ** ** ** ** ** ** ** 2   67   58 1017.9 *****  981.2 *** *** ***** ***** *****  0.00 **
944770 ***** 201503222230 200  13 *** *** BKN * * * 25.0 03 ** ** ** ** ** ** ** 2   67   58 1017.9 *****  981.2 *** *** ***** ***** ***** ***** **
944770 ***** 201503230400 180  16 *** *** SCT * * * 28.1 02 ** ** ** ** ** ** ** 0   81   55 1016.4 *****  979.7 *** *** *****  0.00 ***** ***** **
944770 ***** 201503230430 180  16 *** *** SCT * * * 28.1 02 ** ** ** ** ** ** ** 0   79   54 1016.4 *****  979.7 *** *** ***** ***** ***** ***** **
944770 ***** 201503232200 180   8 *** *** SCT * * * 28.1 02 ** ** ** ** ** ** ** 0   60   39 1021.5 *****  984.7 *** *** ***** *****  0.00 ***** **
944770 ***** 201503232230 180   8 *** *** SCT * * * 28.1 02 ** ** ** ** ** ** ** 0   60   39 1021.5 *****  984.7 *** *** ***** ***** ***** ***** **
944770 ***** 201503240400 160  10 *** *** SCT * * * 28.1 02 ** ** ** ** ** ** ** 0   74   39 1018.6 *****  981.9 *** *** *****  0.00 ***** ***** **
944770 ***** 201503240430 160  10 *** *** SCT * * * 28.1 02 ** ** ** ** ** ** ** 0   72   38 1018.6 *****  981.9 *** *** ***** ***** ***** ***** **
944770 ***** 201503242200 ***   0 *** *** BKN * * * 25.0 02 ** ** ** ** ** ** ** 0   63   35 1021.0 *****  984.2 *** *** ***** *****  0.00 ***** **
944770 ***** 201503242230 360   0 ***  10 BKN * * * 25.0 02 ** ** ** ** ** ** ** 0   63   35 1021.0 *****  984.2 *** *** ***** ***** ***** ***** **
944770 ***** 201503250400 160   9 *** *** SCT * * * 28.1 03 ** ** ** ** ** ** ** 0   79   37 1019.4 *****  982.6 *** *** *****  0.00 ***** ***** **
944770 ***** 201503250430 160   9 *** *** SCT * * * 28.1 03 ** ** ** ** ** ** ** 0   78   37 1019.4 *****  982.6 *** *** ***** ***** ***** ***** **
944770 ***** 201503252200 160   3 *** *** SCT * * * 28.1 02 ** ** ** ** ** ** ** 0   64   44 1025.7 *****  988.7 *** *** ***** *****  0.00 ***** **
944770 ***** 201503252230 160   3 *** *** SCT * * * 28.1 02 ** ** ** ** ** ** ** 0   63   42 1025.7 *****  988.7 *** *** ***** ***** ***** ***** **
944770 ***** 201503260400 160   6 *** *** SCT * * * 28.1 02 ** ** ** ** ** ** ** 0   76   48 1023.9 *****  987.0 *** *** *****  0.00 ***** ***** **
944770 ***** 201503260430 160   6 *** *** SCT * * * 28.1 02 ** ** ** ** ** ** ** 0   74   48 1023.9 *****  987.0 *** *** ***** ***** ***** ***** **
944770 ***** 201503262200 110   6 *** *** SCT * * * 28.1 02 ** ** ** ** ** ** ** 0   60   36 1025.7 *****  988.7 *** *** ***** *****  0.00 ***** **
944770 ***** 201503262230 110   6 *** *** SCT * * * 28.1 02 ** ** ** ** ** ** ** 0   60   36 1025.7 *****  988.7 *** *** ***** ***** ***** ***** **
944770 ***** 201503270400 090   5 *** *** SCT * * * 28.1 02 ** ** ** ** ** ** ** 0   77   37 1022.0 *****  985.1 *** *** *****  0.00 ***** ***** **
944770 ***** 201503270430 090   5 *** *** SCT * * * 28.1 02 ** ** ** ** ** ** ** 0   76   37 1022.0 *****  985.1 *** *** ***** ***** ***** ***** **
944770 ***** 201503272200 070   3 *** *** SCT * * * 28.1 02 ** ** ** ** ** ** ** 0   61   35 1021.8 *****  984.9 *** *** ***** *****  0.00 ***** **
944770 ***** 201503272230 070   3 *** *** SCT * * * 28.1 02 ** ** ** ** ** ** ** 0   61   35 1021.8 *****  984.9 *** *** ***** ***** ***** ***** **
944770 ***** 201503280400 050   6 *** *** BKN * * * 28.1 03 ** ** ** ** ** ** ** 2   81   38 1018.5 *****  981.8 *** *** *****  0.00 ***** ***** **
944770 ***** 201503280430 050   6 *** *** BKN * * * 28.1 03 ** ** ** ** ** ** ** 2   80   37 1018.5 *****  981.8 *** *** ***** ***** ***** ***** **
944770 ***** 201503282200 050   2 *** *** BKN * * * 25.0 03 ** ** ** ** ** ** ** 2   68   49 1021.0 *****  984.2 *** *** ***** *****  0.03 ***** **
944770 ***** 201503282230 050   2 ***  10 BKN * * * 25.0 03 ** ** ** ** ** ** ** 2   68   49 1021.0 *****  984.2 *** *** ***** *****  0.03 ***** **
944770 ***** 201503292200 360   2 *** *** SCT * * * 28.1 02 ** ** ** ** ** ** ** 0   64   40 1022.1 *****  985.2 *** *** ***** *****  0.00 ***** **
944770 ***** 201503292230 360   2 *** *** SCT * * * 28.1 02 ** ** ** ** ** ** ** 0   64   40 1022.1 *****  985.2 *** *** ***** ***** ***** ***** **
944770 ***** 201504152300 160   8 *** *** BKN * * * 28.1 03 ** ** ** ** ** ** ** 2   77   51 1018.3 *****  981.0 *** *** ***** ***** *****  0.00 **
944770 ***** 201504152330 160   8 *** *** BKN * * * 28.1 03 ** ** ** ** ** ** ** 2   77   51 1018.3 *****  981.0 *** *** ***** ***** ***** ***** **
944770 ***** 201504160500 200   5 *** *** OVC * * * 25.0 03 ** ** ** ** ** ** ** 2   78   55 1017.7 *****  980.4 *** *** *****  0.00 ***** ***** **
944770 ***** 201504160530 200   5 *** *** OVC * * * 25.0 03 ** ** ** ** ** ** ** 2   78   55 1017.7 *****  980.4 *** *** ***** ***** ***** ***** **
944770 ***** 201504162300 180   5 *** *** OVC * * * 25.0 03 ** ** ** ** ** ** ** 2   63   58 1020.3 *****  982.9 *** *** ***** *****  0.00 ***** **
944770 ***** 201504162330 180   5 ***  10 OVC * * * 25.0 03 ** ** ** ** ** ** ** 2   63   58 1020.3 *****  982.9 *** *** ***** ***** ***** ***** **
944770 ***** 201504170500 200   5 *** *** BKN * * * 25.0 03 ** ** ** ** ** ** ** 2   70   56 1017.0 *****  979.8 *** *** *****  0.00 ***** ***** **
944770 ***** 201504170530 200   5 ***  10 BKN * * * 25.0 03 ** ** ** ** ** ** ** 2   70   56 1017.0 *****  979.8 *** *** ***** ***** ***** ***** **
944770 ***** 201504172300 130   6 *** *** SCT * * * 28.1 02 ** ** ** ** ** ** ** 0   60   52 1022.1 *****  984.7 *** *** ***** *****  0.00 ***** **
944770 ***** 201504172330 130   6 *** *** SCT * * * 28.1 02 ** ** ** ** ** ** ** 0   60   52 1022.1 *****  984.7 *** *** ***** ***** ***** ***** **
944770 ***** 201504180500 180   7 *** *** SCT * * * 28.1 02 ** ** ** ** ** ** ** 0   74   46 1019.8 *****  982.5 *** *** *****  0.00 ***** ***** **
944770 ***** 201504180530 180   7 *** *** SCT * * * 28.1 02 ** ** ** ** ** ** ** 0   74   46 1019.8 *****  982.5 *** *** ***** ***** ***** ***** **
944770 ***** 201504182300 130  11 *** *** BKN * * * 25.0 03 ** ** ** ** ** ** ** 2   59   48 1027.9 *****  990.3 *** *** ***** *****  0.00 ***** **
944770 ***** 201504182330 130  11 ***  10 BKN * * * 25.0 03 ** ** ** ** ** ** ** 2   59   48 1027.9 *****  990.3 *** *** ***** ***** ***** ***** **
944770 ***** 201504190500 160  14 *** *** SCT * * * 28.1 03 ** ** ** ** ** ** ** 1   71   45 1026.3 *****  988.7 *** *** *****  0.00 ***** ***** **
944770 ***** 201504190530 160  14 *** *** SCT * * * 28.1 03 ** ** ** ** ** ** ** 1   71   45 1026.3 *****  988.7 *** *** ***** ***** ***** ***** **
944770 ***** 201504192300 110   8 *** *** SCT * * * 28.1 02 ** ** ** ** ** ** ** 0   55   36 1032.3 *****  994.5 *** *** ***** *****  0.00 ***** **
944770 ***** 201504192330 110   8 *** *** SCT * * * 28.1 02 ** ** ** ** ** ** ** 0   55   36 1032.3 *****  994.5 *** *** ***** ***** ***** ***** **
944770 ***** 201504200500 110  11 *** *** SCT * * * 28.1 02 ** ** ** ** ** ** ** 0   67   24 1027.7 *****  990.1 *** *** *****  0.00 ***** ***** **
944770 ***** 201504200530 110  11 *** *** SCT * * * 28.1 02 ** ** ** ** ** ** ** 0   67   24 1027.7 *****  990.1 *** *** ***** ***** ***** ***** **
944770 ***** 201504202300 070   3 *** *** SCT * * * 28.1 02 ** ** ** ** ** ** ** 0   54   32 1029.6 *****  991.9 *** *** ***** *****  0.00 ***** **
944770 ***** 201504202330 070   3 *** *** SCT * * * 28.1 02 ** ** ** ** ** ** ** 0   54   32 1029.6 *****  991.9 *** *** ***** ***** ***** ***** **
944770 ***** 201504210500 090   6 *** *** BKN * * * 25.0 03 ** ** ** ** ** ** ** 2   68   31 1024.3 *****  986.8 *** *** *****  0.00 ***** ***** **
944770 ***** 201504210530 090   6 *** *** BKN * * * 25.0 03 ** ** ** ** ** ** ** 2   68   31 1024.3 *****  986.8 *** *** ***** ***** ***** ***** **
944770 ***** 201504212300 110   3 *** *** BKN * * * 25.0 03 ** ** ** ** ** ** ** 2   58   31 1023.8 *****  986.3 *** *** ***** *****  0.00 ***** **
944770 ***** 201504212330 110   3 *** *** BKN * * * 25.0 03 ** ** ** ** ** ** ** 2   58   31 1023.8 *****  986.3 *** *** ***** ***** ***** ***** **
944770 ***** 201504220500 110   3 *** *** BKN * * * 25.0 03 ** ** ** ** ** ** ** 2   72   33 1019.2 *****  981.9 *** *** *****  0.00 ***** ***** **
944770 ***** 201504220530 110   3 *** *** BKN * * * 25.0 03 ** ** ** ** ** ** ** 2   72   33 1019.2 *****  981.9 *** *** ***** ***** ***** ***** **
944770 ***** 201504222300 ***   0 *** *** OVC * * * 25.0 03 ** ** ** ** ** ** ** 2   61   33 1019.2 *****  981.9 *** *** ***** *****  0.00 ***** **
944770 ***** 201504222330 360   0 ***  10 OVC * * * 25.0 03 ** ** ** ** ** ** ** 2   61   33 1019.2 *****  981.9 *** *** ***** ***** ***** ***** **
944770 ***** 201504230500 200   3 *** *** BKN * * * 28.1 03 ** ** ** ** ** ** ** 2   74   34 1015.0 *****  977.8 *** *** *****  0.00 ***** ***** **
944770 ***** 201504230530 200   3 *** *** BKN * * * 28.1 03 ** ** ** ** ** ** ** 2   74   34 1015.0 *****  977.8 *** *** ***** ***** ***** ***** **
944770 ***** 201504232300 200   2 *** *** *** * * * 28.1 02 ** ** ** ** ** ** ** 0   61   41 1017.1 *****  979.9 *** *** ***** *****  0.00 ***** **
944770 ***** 201504232330 200   2 *** 722 CLR * * * 28.1 02 ** ** ** ** ** ** ** 0   61   41 1017.1 *****  979.9 *** *** ***** ***** ***** ***** **
944770 ***** 201504240500 230   6 *** *** SCT * * * 28.1 02 ** ** ** ** ** ** ** 0   74   46 1015.0 *****  977.8 *** *** *****  0.00 ***** ***** **
944770 ***** 201504240530 230   6 *** *** SCT * * * 28.1 02 ** ** ** ** ** ** ** 0   74   46 1015.0 *****  977.8 *** *** ***** ***** ***** ***** **
944770 ***** 201504242300 200   6 *** *** *** * * * 28.1 02 ** ** ** ** ** ** ** 0   55   44 1022.4 *****  985.0 *** *** ***** *****  0.00 ***** **
944770 ***** 201504242330 200   6 *** 722 CLR * * * 28.1 02 ** ** ** ** ** ** ** 0   55   44 1022.4 *****  985.0 *** *** ***** ***** ***** ***** **
944770 ***** 201504250500 200   5 *** *** *** * * * 28.1 02 ** ** ** ** ** ** ** 0   67   42 1019.3 *****  982.0 *** *** *****  0.00 ***** ***** **
944770 ***** 201504250530 200   5 *** 722 CLR * * * 28.1 02 ** ** ** ** ** ** ** 0   67   42 1019.3 *****  982.0 *** *** ***** ***** ***** ***** **
944770 ***** 201504260500 130   3 *** *** SCT * * * 28.1 02 ** ** ** ** ** ** ** 0   70   41 1022.2 *****  984.8 *** *** ***** *****  0.00 ***** **
944770 ***** 201504260530 130   3 *** *** SCT * * * 28.1 02 ** ** ** ** ** ** ** 0   70   41 1022.2 *****  984.8 *** *** ***** ***** ***** ***** **
944770 ***** 201504262300 160   6 *** *** SCT * * * 28.1 02 ** ** ** ** ** ** ** 0   55   41 1026.9 *****  989.3 *** *** ***** ***** *****  0.00 **
944770 ***** 201504262330 160   6 *** *** SCT * * * 28.1 02 ** ** ** ** ** ** ** 0   55   41 1026.9 *****  989.3 *** *** ***** ***** ***** ***** **
944770 ***** 201504270500 130  10 *** *** SCT * * * 28.1 03 ** ** ** ** ** ** ** 1   68   40 1023.8 *****  986.3 *** *** *****  0.00 ***** ***** **
944770 ***** 201504270530 130  10 *** *** SCT * * * 28.1 03 ** ** ** ** ** ** ** 1   68   40 1023.8 *****  986.3 *** *** ***** ***** ***** ***** **
944770 ***** 201504272300 160   3 *** *** *** * * * 28.1 02 ** ** ** ** ** ** ** 0   55   36 1028.2 *****  990.6 *** *** ***** *****  0.00 ***** **
944770 ***** 201504272330 160   3 *** 722 CLR * * * 28.1 02 ** ** ** ** ** ** ** 0   55   36 1028.2 *****  990.6 *** *** ***** ***** ***** ***** **
944770 ***** 201504280500 130   3 *** *** SCT * * * 28.1 02 ** ** ** ** ** ** ** 0   66   29 1023.6 *****  986.1 *** *** *****  0.00 ***** ***** **
944770 ***** 201504280530 130   3 *** *** SCT * * * 28.1 02 ** ** ** ** ** ** ** 0   66   29 1023.6 *****  986.1 *** *** ***** ***** ***** ***** **
944770 ***** 201504282300 130   2 *** *** SCT * * * 28.1 02 ** ** ** ** ** ** ** 0   53   34 1027.5 *****  989.9 *** *** ***** *****  0.00 ***** **
944770 ***** 201504282330 130   2 *** *** SCT * * * 28.1 02 ** ** ** ** ** ** ** 0   53   34 1027.5 *****  989.9 *** *** ***** ***** ***** ***** **
944770 ***** 201504290500 110   7 *** *** SCT * * * 28.1 02 ** ** ** ** ** ** ** 0   66   25 1023.6 *****  986.1 *** *** *****  0.00 ***** ***** **
944770 ***** 201504290530 110   7 *** *** SCT * * * 28.1 02 ** ** ** ** ** ** ** 0   66   25 1023.6 *****  986.1 *** *** ***** ***** ***** ***** **
944770 ***** 201504292300 110   3 *** *** *** * * * 28.1 02 ** ** ** ** ** ** ** 0   52   22 1025.4 *****  987.9 *** *** ***** *****  0.00 ***** **
944770 ***** 201504292330 110   3 *** 722 CLR * * * 28.1 02 ** ** ** ** ** ** ** 0   52   22 1025.4 *****  987.9 *** *** ***** ***** ***** ***** **
944770 ***** 201504300500 110   2 *** *** SCT * * * 28.1 02 ** ** ** ** ** ** ** 0   67   25 1021.6 *****  984.2 *** *** *****  0.00 ***** ***** **
944770 ***** 201504300530 110   2 *** *** SCT * * * 28.1 02 ** ** ** ** ** ** ** 0   67   25 1021.6 *****  984.2 *** *** ***** ***** ***** ***** **
944770 ***** 201504302300 110   7 *** *** SCT * * * 28.1 02 ** ** ** ** ** ** ** 0   58   23 1022.6 *****  984.6 *** *** ***** *****  0.00 ***** **
944770 ***** 201504302330 110   7 *** *** SCT * * * 28.1 02 ** ** ** ** ** ** ** 0   58   23 1022.6 *****  984.6 *** *** ***** ***** ***** ***** **
944770 ***** 201505010500 360   1 *** *** OVC * * * 28.1 02 ** ** ** ** ** ** ** 2   73   27 1019.0 *****  981.1 *** *** *****  0.00 ***** ***** **
944770 ***** 201505010530 360   1 *** *** OVC * * * 28.1 02 ** ** ** ** ** ** ** 2   73   27 1019.0 *****  981.1 *** *** ***** ***** ***** ***** **
944770 ***** 201505050500 230   5 *** *** *** * * * 28.1 02 ** ** ** ** ** ** ** 0   69   29 1018.0 *****  980.1 *** *** ***** ***** *****  0.00 **
944770 ***** 201505050530 230   5 *** 722 CLR * * * 28.1 02 ** ** ** ** ** ** ** 0   69   29 1018.0 *****  980.1 *** *** ***** ***** ***** ***** **
944770 ***** 201505052300 200   3 *** *** *** * * * 28.1 02 ** ** ** ** ** ** ** 0   55   42 1026.2 *****  988.0 *** *** ***** ***** *****  0.00 **
944770 ***** 201505052330 200   3 *** 722 CLR * * * 28.1 02 ** ** ** ** ** ** ** 0   55   42 1026.2 *****  988.0 *** *** ***** ***** ***** ***** **
944770 ***** 201505060500 180   3 *** *** *** * * * 28.1 02 ** ** ** ** ** ** ** 0   68   39 1023.4 *****  985.3 *** *** *****  0.00 ***** ***** **
944770 ***** 201505060530 180   3 *** 722 CLR * * * 28.1 02 ** ** ** ** ** ** ** 0   68   39 1023.4 *****  985.3 *** *** ***** ***** ***** ***** **
944770 ***** 201505062300 160   1 *** *** *** * * * 28.1 02 ** ** ** ** ** ** ** 0   54   40 1029.2 *****  990.9 *** *** ***** *****  0.00 ***** **
944770 ***** 201505062330 160   1 *** 722 CLR * * * 28.1 02 ** ** ** ** ** ** ** 0   54   40 1029.2 *****  990.9 *** *** ***** ***** ***** ***** **
944770 ***** 201505070500 130   9 *** *** SCT * * * 28.1 02 ** ** ** ** ** ** ** 0   70   43 1025.9 *****  987.7 *** *** *****  0.00 ***** ***** **
944770 ***** 201505070530 130   9 *** *** SCT * * * 28.1 02 ** ** ** ** ** ** ** 0   70   43 1025.9 *****  987.7 *** *** ***** ***** ***** ***** **
944770 ***** 201505072300 130   3 *** *** *** * * * 28.1 02 ** ** ** ** ** ** ** 0   55   38 1027.1 *****  988.9 *** *** ***** *****  0.00 ***** **
944770 ***** 201505080500 110   8 *** *** SCT * * * 28.1 02 ** ** ** ** ** ** ** 0   68   41 1022.7 *****  984.7 *** *** *****  0.00 ***** ***** **
944770 ***** 201505080530 110   8 *** *** SCT * * * 28.1 02 ** ** ** ** ** ** ** 0   68   41 1022.7 *****  984.7 *** *** ***** ***** ***** ***** **
944770 ***** 201505120500 160   7 *** *** BKN * * * 28.1 03 ** ** ** ** ** ** ** 2   71   47 1022.4 *****  984.4 *** *** ***** ***** *****  0.00 **
944770 ***** 201505120530 160   7 ***  10 BKN * * * 28.1 03 ** ** ** ** ** ** ** 2   71   47 1022.4 *****  984.4 *** *** ***** ***** ***** ***** **
944770 ***** 201505122300 130  15 *** *** SCT * * * 28.1 03 ** ** ** ** ** ** ** 0   53   37 1033.0 *****  994.6 *** *** ***** ***** *****  0.00 **
944770 ***** 201505122330 130  15 *** *** SCT * * * 28.1 03 ** ** ** ** ** ** ** 0   53   37 1033.0 *****  994.6 *** *** ***** ***** ***** ***** **
944770 ***** 201505130500 130   9 *** *** *** * * * 28.1 02 ** ** ** ** ** ** ** 0   62   26 1032.2 *****  993.8 *** *** *****  0.00 ***** ***** **
944770 ***** 201505130530 130   9 *** 722 CLR * * * 28.1 02 ** ** ** ** ** ** ** 0   62   26 1032.2 *****  993.8 *** *** ***** ***** ***** ***** **
944770 ***** 201505132300 130   1 *** *** *** * * * 28.1 02 ** ** ** ** ** ** ** 0   46   33 1036.9 *****  998.3 *** *** ***** *****  0.00 ***** **
944770 ***** 201505132330 130   1 *** 722 CLR * * * 28.1 02 ** ** ** ** ** ** ** 0   46   33 1036.9 *****  998.3 *** *** ***** ***** ***** ***** **
944770 ***** 201505140500 110   9 *** *** *** * * * 28.1 02 ** ** ** ** ** ** ** 0   62   33 1033.4 *****  995.0 *** *** *****  0.00 ***** ***** **
944770 ***** 201505140530 110   9 *** 722 CLR * * * 28.1 02 ** ** ** ** ** ** ** 0   62   33 1033.4 *****  995.0 *** *** ***** ***** ***** ***** **
944770 ***** 201505142300 110   6 *** *** *** * * * 28.1 02 ** ** ** ** ** ** ** 0   48   33 1035.0 *****  996.5 *** *** ***** *****  0.00 ***** **
944770 ***** 201505142330 110   6 *** 722 CLR * * * 28.1 02 ** ** ** ** ** ** ** 0   48   33 1035.0 *****  996.5 *** *** ***** ***** ***** ***** **
944770 ***** 201505150500 110  11 *** *** *** * * * 28.1 02 ** ** ** ** ** ** ** 0   63   33 1030.5 *****  992.2 *** *** *****  0.00 ***** ***** **
944770 ***** 201505150530 110  11 *** 722 CLR * * * 28.1 02 ** ** ** ** ** ** ** 0   63   33 1030.5 *****  992.2 *** *** ***** ***** ***** ***** **
944770 ***** 201505152300 110   7 *** *** *** * * * 28.1 02 ** ** ** ** ** ** ** 0   49   35 1030.1 *****  991.8 *** *** ***** *****  0.00 ***** **
944770 ***** 201505152330 110   7 *** 722 CLR * * * 28.1 02 ** ** ** ** ** ** ** 0   49   35 1030.1 *****  991.8 *** *** ***** ***** ***** ***** **
944770 ***** 201505160500 110  10 *** *** *** * * * 28.1 02 ** ** ** ** ** ** ** 0   64   32 1025.8 *****  987.6 *** *** *****  0.00 ***** ***** **
944770 ***** 201505160530 110  10 *** 722 CLR * * * 28.1 02 ** ** ** ** ** ** ** 0   64   32 1025.8 *****  987.6 *** *** ***** ***** ***** ***** **
944770 ***** 201505162300 130   1 *** *** SCT * * * 28.1 02 ** ** ** ** ** ** ** 0   49   35 1025.9 *****  987.7 *** *** ***** *****  0.00 ***** **
944770 ***** 201505162330 130   1 *** *** SCT * * * 28.1 02 ** ** ** ** ** ** ** 0   49   35 1025.9 *****  987.7 *** *** ***** ***** ***** ***** **
944770 ***** 201505170500 070   7 *** *** SCT * * * 28.1 03 ** ** ** ** ** ** ** 1   73   34 1021.5 *****  983.5 *** *** *****  0.00 ***** ***** **
944770 ***** 201505170530 070   7 *** *** SCT * * * 28.1 03 ** ** ** ** ** ** ** 1   73   34 1021.5 *****  983.5 *** *** ***** ***** ***** ***** **
944770 ***** 201505172300 360   7 *** *** BKN * * * 25.0 03 ** ** ** ** ** ** ** 2   62   51 1020.6 *****  982.6 *** *** ***** *****  0.00 ***** **
944770 ***** 201505172330 360   7 *** *** BKN * * * 25.0 03 ** ** ** ** ** ** ** 2   62   51 1020.6 *****  982.6 *** *** ***** ***** ***** ***** **
944770 ***** 201505180500 360   5 *** *** BKN * * * 28.1 03 ** ** ** ** ** ** ** 2   78   50 1016.1 *****  978.3 *** *** *****  0.00 ***** ***** **
944770 ***** 201505180530 360   5 *** *** BKN * * * 28.1 03 ** ** ** ** ** ** ** 2   78   50 1016.1 *****  978.3 *** *** ***** ***** ***** ***** **
944770 ***** 201505182300 230   1 *** *** SCT * * * 25.0 03 ** ** ** ** ** ** ** 1   60   41 1017.6 *****  979.7 *** *** ***** *****  0.00 ***** **
944770 ***** 201505182330 230   1 *** *** SCT * * * 25.0 03 ** ** ** ** ** ** ** 1   60   41 1017.6 *****  979.7 *** *** ***** ***** ***** ***** **
944770 ***** 201505190500 270   3 *** *** SCT * * * 28.1 02 ** ** ** ** ** ** ** 0   79   42 1015.4 *****  977.6 *** *** *****  0.00 ***** ***** **
944770 ***** 201505190530 270   3 *** *** SCT * * * 28.1 02 ** ** ** ** ** ** ** 0   79   42 1015.4 *****  977.6 *** *** ***** ***** ***** ***** **
944770 ***** 201505192300 200  11 *** *** SCT * * * 25.0 03 ** ** ** ** ** ** ** 0   60   48 1022.1 *****  984.1 *** *** ***** *****  0.00 ***** **
944770 ***** 201505192330 200  11 *** *** SCT * * * 25.0 03 ** ** ** ** ** ** ** 0   60   48 1022.1 *****  984.1 *** *** ***** ***** ***** ***** **
944770 ***** 201505200500 180   8 *** *** BKN * * * 21.9 03 ** ** ** ** ** ** ** 2   67   49 1020.9 *****  982.9 *** *** *****  0.00 ***** ***** **
944770 ***** 201505200530 180   8 ***  10 BKN * * * 21.9 03 ** ** ** ** ** ** ** 2   67   49 1020.9 *****  982.9 *** *** ***** ***** ***** ***** **
944770 ***** 201505202300 180   8 *** *** *** * * * 28.1 02 ** ** ** ** ** ** ** 0   46   42 1029.6 *****  991.3 *** *** ***** *****  0.00 ***** **
944770 ***** 201505202330 180   8 *** 722 CLR * * * 28.1 02 ** ** ** ** ** ** ** 0   46   42 1029.6 *****  991.3 *** *** ***** ***** ***** ***** **
944770 ***** 201505210500 160   7 *** *** *** * * * 28.1 02 ** ** ** ** ** ** ** 0   62   33 1027.4 *****  989.2 *** *** *****  0.00 ***** ***** **
944770 ***** 201505210530 160   7 *** 722 CLR * * * 28.1 02 ** ** ** ** ** ** ** 0   62   33 1027.4 *****  989.2 *** *** ***** ***** ***** ***** **
944770 ***** 201505212300 ***   0 *** *** SCT * * * 28.1 03 ** ** ** ** ** ** ** 1   43   33 1031.2 *****  992.8 *** *** ***** *****  0.00 ***** **
944770 ***** 201505212330 360   0 *** *** SCT * * * 28.1 03 ** ** ** ** ** ** ** 1   43   33 1031.2 *****  992.8 *** *** ***** ***** ***** ***** **
944770 ***** 201505220500 110   6 *** *** BKN * * * 25.0 03 ** ** ** ** ** ** ** 2   61   38 1027.1 *****  988.9 *** *** *****  0.00 ***** ***** **
944770 ***** 201505220530 110   6 *** *** BKN * * * 25.0 03 ** ** ** ** ** ** ** 2   61   38 1027.1 *****  988.9 *** *** ***** ***** ***** ***** **
944770 ***** 201505222300 110   2 *** *** SCT * * * 28.1 02 ** ** ** ** ** ** ** 0   47   34 1027.2 *****  989.0 *** *** ***** *****  0.00 ***** **
944770 ***** 201505222330 110   2 *** *** SCT * * * 28.1 02 ** ** ** ** ** ** ** 0   47   34 1027.2 *****  989.0 *** *** ***** ***** ***** ***** **
944770 ***** 201505230500 020   5 *** *** BKN * * * 25.0 03 ** ** ** ** ** ** ** 2   65   37 1024.0 *****  985.9 *** *** *****  0.00 ***** ***** **
944770 ***** 201505230530 020   5 *** *** BKN * * * 25.0 03 ** ** ** ** ** ** ** 2   65   37 1024.0 *****  985.9 *** *** ***** ***** ***** ***** **
944770 ***** 201505232300 020   3 *** *** BKN * * * 25.0 03 ** ** ** ** ** ** ** 2   54   40 1024.5 *****  986.4 *** *** ***** *****  0.00 ***** **
944770 ***** 201505232330 020   3 *** *** BKN * * * 25.0 03 ** ** ** ** ** ** ** 2   54   40 1024.5 *****  986.4 *** *** ***** ***** ***** ***** **
944770 ***** 201505240500 020   3 *** *** BKN * * * 25.0 03 ** ** ** ** ** ** ** 2   68   24 1022.4 *****  984.4 *** *** *****  0.00 ***** ***** **
944770 ***** 201505240530 020   3 ***  10 BKN * * * 25.0 03 ** ** ** ** ** ** ** 2   68   24 1022.4 *****  984.4 *** *** ***** ***** ***** ***** **
944770 ***** 201505242300 ***   0 *** *** OVC * * * 25.0 03 ** ** ** ** ** ** ** 2   57   41 1025.7 *****  987.5 *** *** ***** *****  0.00 ***** **
944770 ***** 201505242330 360   0 ***  10 OVC * * * 25.0 03 ** ** ** ** ** ** ** 2   57   41 1025.7 *****  987.5 *** *** ***** ***** ***** ***** **
944770 ***** 201505250500 360   3 *** *** OVC * * * 25.0 03 ** ** ** ** ** ** ** 2   68   43 1022.7 *****  984.7 *** *** *****  0.00 ***** ***** **
944770 ***** 201505250530 360   3 ***  10 OVC * * * 25.0 03 ** ** ** ** ** ** ** 2   68   43 1022.7 *****  984.7 *** *** ***** ***** ***** ***** **
944770 ***** 201505252300 ***   0 *** *** BKN * * * 25.0 03 ** ** ** ** ** ** ** 2   60   50 1024.8 *****  986.7 *** *** ***** *****  0.00 ***** **
944770 ***** 201505252330 360   0 ***  10 BKN * * * 25.0 03 ** ** ** ** ** ** ** 2   60   50 1024.8 *****  986.7 *** *** ***** ***** ***** ***** **
944770 ***** 201505260500 310   8 *** *** BKN * * * 25.0 03 ** ** ** ** ** ** ** 2   77   45 1020.4 *****  982.4 *** *** *****  0.00 ***** ***** **
944770 ***** 201505260530 310   8 *** *** BKN * * * 25.0 03 ** ** ** ** ** ** ** 2   77   45 1020.4 *****  982.4 *** *** ***** ***** ***** ***** **
944770 ***** 201505262300 ***   0 *** *** BKN * * * 25.0 03 ** ** ** ** ** ** ** 2   62   51 1022.6 *****  984.6 *** *** ***** *****  0.00 ***** **
944770 ***** 201505262330 360   0 *** *** BKN * * * 25.0 03 ** ** ** ** ** ** ** 2   62   51 1022.6 *****  984.6 *** *** ***** ***** ***** ***** **
944770 ***** 201505270500 110   5 *** *** BKN * * * 25.0 03 ** ** ** ** ** ** ** 2   78   51 1018.3 *****  980.4 *** *** *****  0.00 ***** ***** **
944770 ***** 201505270530 110   5 *** *** BKN * * * 25.0 03 ** ** ** ** ** ** ** 2   78   51 1018.3 *****  980.4 *** *** ***** ***** ***** ***** **
944770 ***** 201505272300 090   3 *** *** OVC * * * 25.0 03 ** ** ** ** ** ** ** 2   62   57 1021.1 *****  983.1 *** *** ***** *****  0.00 ***** **
944770 ***** 201505272330 090   3 *** *** OVC * * * 25.0 03 ** ** ** ** ** ** ** 2   62   57 1021.1 *****  983.1 *** *** ***** ***** ***** ***** **
944770 ***** 201505280500 130   1 *** *** OVC * * * 25.0 03 ** ** ** ** ** ** ** 2   71   55 1018.8 *****  980.9 *** *** *****  0.00 ***** ***** **
944770 ***** 201505280530 130   1 *** *** OVC * * * 25.0 03 ** ** ** ** ** ** ** 2   71   55 1018.8 *****  980.9 *** *** ***** ***** ***** ***** **
944770 ***** 201505282300 110   1 *** *** OVC * * * 25.0 03 ** ** ** ** ** ** ** 2   61   58 1022.2 *****  984.2 *** *** ***** *****  0.02 ***** **
944770 ***** 201505282330 110   1 ***  10 OVC * * * 25.0 03 ** ** ** ** ** ** ** 2   61   58 1022.2 *****  984.2 *** *** ***** *****  0.02 ***** **
944770 ***** 201505290500 130   3 *** *** OVC * * * 12.5 03 ** ** ** ** ** ** ** 2   63   59 1020.5 *****  982.5 *** *** *****  0.00 ***** ***** **
944770 ***** 201505290530 130   3 ***  10 OVC * * * 12.5 03 ** ** ** ** ** ** ** 2   63   59 1020.5 *****  982.5 *** *** ***** ***** ***** ***** **
944770 ***** 201505292300 090   5 *** *** OVC * * *  1.2 52 ** ** ** ** ** ** ** 5   59   57 1022.2 *****  984.2 *** *** ***** *****  0.80 ***** **
944770 ***** 201505292330 090   5 ***  10 OVC * * *  1.2 52 ** ** ** ** ** ** ** 5   59   57 1022.2 *****  984.2 *** *** ***** *****  0.79 ***** **
944770 ***** 201505300500 ***   0 *** *** OVC * * *  1.9 51 ** ** ** ** ** ** ** 5   61   59 1019.5 *****  981.6 *** *** *****  0.31 ***** ***** **
944770 ***** 201505300530 360   0 ***  10 OVC * * *  1.9 51 ** ** ** ** ** ** ** 5   61   59 1019.5 *****  981.6 *** *** *****  0.31 ***** ***** **
944770 ***** 201505302300 200   6 *** *** BKN * * * 18.8 03 ** ** ** ** ** ** ** 2   54   50 1023.8 *****  985.7 *** *** ***** *****  0.69 ***** **
944770 ***** 201505302330 200   6 ***  10 BKN * * * 18.8 03 ** ** ** ** ** ** ** 2   54   50 1023.8 *****  985.7 *** *** ***** *****  0.71 ***** **
944770 ***** 201505310500 180   6 *** *** BKN * * * 18.8 03 ** ** ** ** ** ** ** 2   60   41 1022.3 *****  984.3 *** *** *****  0.00 ***** ***** **
944770 ***** 201505310530 180   6 ***  10 BKN * * * 18.8 03 ** ** ** ** ** ** ** 2   60   41 1022.3 *****  984.3 *** *** ***** ***** ***** ***** **
944770 ***** 201505312300 ***   0 *** *** SCT * * * 28.1 02 ** ** ** ** ** ** ** 0   48   46 1027.0 *****  988.3 *** *** ***** *****  0.00 ***** **
944770 ***** 201505312330 360   0 *** *** SCT * * * 28.1 02 ** ** ** ** ** ** ** 0   48   46 1027.0 *****  988.3 *** *** ***** ***** ***** ***** **
944770 ***** 201506010500 110   8 *** *** SCT * * * 28.1 03 ** ** ** ** ** ** ** 0   63   43 1024.3 *****  985.7 *** *** *****  0.00 ***** ***** **
944770 ***** 201506010530 110   8 *** *** SCT * * * 28.1 03 ** ** ** ** ** ** ** 0   63   43 1024.3 *****  985.7 *** *** ***** ***** ***** ***** **
944770 ***** 201506012300 070   6 *** *** BKN * * * 25.0 03 ** ** ** ** ** ** ** 2   51   45 1026.4 *****  987.7 *** *** ***** *****  0.00 ***** **
944770 ***** 201506012330 070   6 *** *** BKN * * * 25.0 03 ** ** ** ** ** ** ** 2   51   45 1026.4 *****  987.7 *** *** ***** ***** ***** ***** **
944770 ***** 201506020500 020  10 *** *** BKN * * * 25.0 03 ** ** ** ** ** ** ** 2   63   45 1022.5 *****  984.0 *** *** *****  0.00 ***** ***** **
944770 ***** 201506020530 020  10 *** *** BKN * * * 25.0 03 ** ** ** ** ** ** ** 2   63   45 1022.5 *****  984.0 *** *** ***** ***** ***** ***** **
944770 ***** 201506022300 020  13 *** *** SCT * * * 25.0 03 ** ** ** ** ** ** ** 1   55   38 1022.3 *****  983.8 *** *** ***** *****  0.00 ***** **
944770 ***** 201506030500 360   3 *** *** SCT * * * 28.1 02 ** ** ** ** ** ** ** 0   70   43 1019.4 *****  981.0 *** *** *****  0.00 ***** ***** **
944770 ***** 201506030530 360   3 *** *** SCT * * * 28.1 02 ** ** ** ** ** ** ** 0   70   43 1019.4 *****  981.0 *** *** ***** ***** ***** ***** **
944770 ***** 201506032300 ***   0 *** *** *** * * * 28.1 02 ** ** ** ** ** ** ** 0   55   44 1025.3 *****  986.7 *** *** ***** *****  0.00 ***** **
944770 ***** 201506040500 160   2 *** *** *** * * * 28.1 02 ** ** ** ** ** ** ** 0   73   44 1023.6 *****  985.0 *** *** *****  0.00 ***** ***** **
944770 ***** 201506040530 160   2 *** 722 CLR * * * 28.1 02 ** ** ** ** ** ** ** 0   73   44 1023.6 *****  985.0 *** *** ***** ***** ***** ***** **
944770 ***** 201506042300 ***   0 *** *** *** * * * 28.1 02 ** ** ** ** ** ** ** 0   53   49 1028.3 *****  989.6 *** *** ***** *****  0.00 ***** **
944770 ***** 201506042330 360   0 *** 722 CLR * * * 28.1 02 ** ** ** ** ** ** ** 0   53   49 1028.3 *****  989.6 *** *** ***** ***** ***** ***** **
944770 ***** 201506050500 110   6 *** *** *** * * * 28.1 02 ** ** ** ** ** ** ** 0   72   49 1026.3 *****  987.6 *** *** *****  0.00 ***** ***** **
944770 ***** 201506050530 110   6 *** 722 CLR * * * 28.1 02 ** ** ** ** ** ** ** 0   72   49 1026.3 *****  987.6 *** *** ***** ***** ***** ***** **
944770 ***** 201506052300 110   5 *** *** SCT * * * 28.1 02 ** ** ** ** ** ** ** 0   54   46 1028.9 *****  990.1 *** *** ***** *****  0.00 ***** **
944770 ***** 201506052330 110   5 *** *** SCT * * * 28.1 02 ** ** ** ** ** ** ** 0   54   46 1028.9 *****  990.1 *** *** ***** ***** ***** ***** **
944770 ***** 201506060500 070   3 *** *** BKN * * * 25.0 03 ** ** ** ** ** ** ** 2   66   38 1024.8 *****  986.2 *** *** *****  0.00 ***** ***** **
944770 ***** 201506060530 070   3 *** *** BKN * * * 25.0 03 ** ** ** ** ** ** ** 2   66   38 1024.8 *****  986.2 *** *** ***** ***** ***** ***** **
944770 ***** 201506062300 360   5 *** *** BKN * * * 28.1 03 ** ** ** ** ** ** ** 2   50   42 1026.4 *****  987.7 *** *** ***** *****  0.00 ***** **
944770 ***** 201506062330 360   5 *** *** BKN * * * 28.1 03 ** ** ** ** ** ** ** 2   50   42 1026.4 *****  987.7 *** *** ***** ***** ***** ***** **
944770 ***** 201506070500 340   3 *** *** BKN * * * 25.0 03 ** ** ** ** ** ** ** 2   67   43 1023.2 *****  984.7 *** *** *****  0.00 ***** ***** **
944770 ***** 201506070530 340   3 *** *** BKN * * * 25.0 03 ** ** ** ** ** ** ** 2   67   43 1023.2 *****  984.7 *** *** ***** ***** ***** ***** **
944770 ***** 201506080500 160   2 *** *** *** * * * 28.1 02 ** ** ** ** ** ** ** 0   70   31 1022.6 *****  984.1 *** *** ***** *****  0.00 ***** **
944770 ***** 201506080530 160   2 *** 722 CLR * * * 28.1 02 ** ** ** ** ** ** ** 0   70   31 1022.6 *****  984.1 *** *** ***** ***** ***** ***** **
944770 ***** 201506082300 ***   0 *** *** SCT * * * 28.1 03 ** ** ** ** ** ** ** 0   50   42 1027.7 *****  989.0 *** *** ***** ***** *****  0.00 **
944770 ***** 201506090500 160   9 *** *** OVC * * * 25.0 03 ** ** ** ** ** ** ** 2   65   47 1026.4 *****  987.7 *** *** *****  0.00 ***** ***** **
944770 ***** 201506090530 160   9 *** *** OVC * * * 25.0 03 ** ** ** ** ** ** ** 2   65   47 1026.4 *****  987.7 *** *** ***** ***** ***** ***** **
944770 ***** 201506092300 110   8 *** *** OVC * * * 18.8 03 ** ** ** ** ** ** ** 2   56   49 1029.9 *****  991.1 *** *** ***** *****  0.00 ***** **
944770 ***** 201506092330 110   8 ***  10 OVC * * * 18.8 03 ** ** ** ** ** ** ** 2   56   49 1029.9 *****  991.1 *** *** ***** ***** ***** ***** **
944770 ***** 201506100500 130   6 *** *** OVC * * * 18.8 03 ** ** ** ** ** ** ** 2   59   46 1028.2 *****  989.5 *** *** *****  0.00 ***** ***** **
944770 ***** 201506100530 130   6 ***  10 OVC * * * 18.8 03 ** ** ** ** ** ** ** 2   59   46 1028.2 *****  989.5 *** *** ***** ***** ***** ***** **
944770 ***** 201506102300 110   3 *** *** OVC * * * 25.0 03 ** ** ** ** ** ** ** 2   50   38 1029.6 *****  990.8 *** *** ***** *****  0.00 ***** **
944770 ***** 201506102330 110   3 *** *** OVC * * * 25.0 03 ** ** ** ** ** ** ** 2   50   38 1029.6 *****  990.8 *** *** ***** ***** ***** ***** **
944770 ***** 201506110500 110   6 *** *** BKN * * * 25.0 03 ** ** ** ** ** ** ** 2   62   40 1025.9 *****  987.3 *** *** *****  0.00 ***** ***** **
944770 ***** 201506110530 110   6 *** *** BKN * * * 25.0 03 ** ** ** ** ** ** ** 2   62   40 1025.9 *****  987.3 *** *** ***** ***** ***** ***** **
944770 ***** 201506112300 090   1 *** *** *** * * * 28.1 02 ** ** ** ** ** ** ** 0   47   40 1025.5 *****  986.9 *** *** ***** *****  0.00 ***** **
944770 ***** 201506112330 090   1 *** 722 CLR * * * 28.1 02 ** ** ** ** ** ** ** 0   47   40 1025.5 *****  986.9 *** *** ***** ***** ***** ***** **
944770 ***** 201506120500 050   1 *** *** SCT * * * 28.1 02 ** ** ** ** ** ** ** 0   69   44 1021.7 *****  983.2 *** *** *****  0.00 ***** ***** **
944770 ***** 201506120530 050   1 *** *** SCT * * * 28.1 02 ** ** ** ** ** ** ** 0   69   44 1021.7 *****  983.2 *** *** ***** ***** ***** ***** **
944770 ***** 201506122300 ***   0 *** *** SCT * * * 28.1 03 ** ** ** ** ** ** ** 1   50   44 1022.2 *****  983.7 *** *** ***** *****  0.00 ***** **
944770 ***** 201506122330 360   0 *** *** SCT * * * 28.1 03 ** ** ** ** ** ** ** 1   50   44 1022.2 *****  983.7 *** *** ***** ***** ***** ***** **
944770 ***** 201506130500 090   2 *** *** SCT * * * 28.1 02 ** ** ** ** ** ** ** 0   73   45 1018.2 *****  979.8 *** *** *****  0.00 ***** ***** **
944770 ***** 201506130530 090   2 *** *** SCT * * * 28.1 02 ** ** ** ** ** ** ** 0   73   45 1018.2 *****  979.8 *** *** ***** ***** ***** ***** **
944770 ***** 201506132300 070   6 *** *** OVC * * *  6.2 03 ** ** ** ** ** ** ** 2   58   57 1020.6 *****  982.2 *** *** ***** *****  0.00 ***** **
944770 ***** 201506142300 360  10 *** *** SCT * * * 28.1 02 ** ** ** ** ** ** ** 0   60   55 1019.0 *****  980.6 *** *** ***** *****  0.00 ***** **
944770 ***** 201506142330 360  10 *** *** SCT * * * 28.1 02 ** ** ** ** ** ** ** 0   60   55 1019.0 *****  980.6 *** *** ***** ***** ***** ***** **
944770 ***** 201506150500 230   3 *** *** BKN * * * 25.0 03 ** ** ** ** ** ** ** 2   68   55 1016.9 *****  978.6 *** *** *****  0.00 ***** ***** **
944770 ***** 201506150530 230   3 *** *** BKN * * * 25.0 03 ** ** ** ** ** ** ** 2   68   55 1016.9 *****  978.6 *** *** ***** ***** ***** ***** **
944770 ***** 201506152300 ***   0 *** *** SCT * * * 28.1 02 ** ** ** ** ** ** ** 0   55   54 1019.4 *****  981.0 *** *** ***** *****  0.02 ***** **
944770 ***** 201506152330 360   0 *** *** SCT * * * 28.1 02 ** ** ** ** ** ** ** 0   55   54 1019.4 *****  981.0 *** *** ***** *****  0.02 ***** **
944770 ***** 201506160500 200   3 *** *** BKN * * * 25.0 03 ** ** ** ** ** ** ** 1   68   40 1017.4 *****  979.1 *** *** *****  0.00 ***** ***** **
944770 ***** 201506160530 200   3 ***  10 BKN * * * 25.0 03 ** ** ** ** ** ** ** 1   68   40 1017.4 *****  979.1 *** *** ***** ***** ***** ***** **
944770 ***** 201506162300 200   3 *** *** BKN * * * 18.8 03 ** ** ** ** ** ** ** 1   52   49 1022.1 *****  983.6 *** *** ***** *****  0.00 ***** **
944770 ***** 201506162330 200   3 ***  10 BKN * * * 18.8 03 ** ** ** ** ** ** ** 1   52   49 1022.1 *****  983.6 *** *** ***** ***** ***** ***** **
944770 ***** 201506170500 ***   0 *** *** SCT * * * 28.1 03 ** ** ** ** ** ** ** 1   62   48 1020.6 *****  982.2 *** *** *****  0.00 ***** ***** **
944770 ***** 201506170530 360   0 *** *** SCT * * * 28.1 03 ** ** ** ** ** ** ** 1   62   48 1020.6 *****  982.2 *** *** ***** ***** ***** ***** **
944770 ***** 201506172300 200   3 *** *** SCT * * * 28.1 02 ** ** ** ** ** ** ** 0   49   47 1024.0 *****  985.4 *** *** ***** *****  0.00 ***** **
944770 ***** 201506172330 200   3 *** *** SCT * * * 28.1 02 ** ** ** ** ** ** ** 0   49   47 1024.0 *****  985.4 *** *** ***** ***** ***** ***** **
944770 ***** 201506180500 230   2 *** *** SCT * * * 28.1 02 ** ** ** ** ** ** ** 0   63   40 1021.7 *****  983.2 *** *** *****  0.00 ***** ***** **
944770 ***** 201506180530 230   2 *** *** SCT * * * 28.1 02 ** ** ** ** ** ** ** 0   63   40 1021.7 *****  983.2 *** *** ***** ***** ***** ***** **
944770 ***** 201506182300 ***   0 *** *** BKN * * * 25.0 03 ** ** ** ** ** ** ** 2   45   42 1026.2 *****  987.5 *** *** ***** *****  0.00 ***** **
944770 ***** 201506182330 360   0 ***  10 BKN * * * 25.0 03 ** ** ** ** ** ** ** 2   45   42 1026.2 *****  987.5 *** *** ***** ***** ***** ***** **
944770 ***** 201506190500 110   3 *** *** SCT * * * 28.1 02 ** ** ** ** ** ** ** 0   62   43 1023.5 *****  984.9 *** *** *****  0.00 ***** ***** **
944770 ***** 201506190530 110   3 *** *** SCT * * * 28.1 02 ** ** ** ** ** ** ** 0   62   43 1023.5 *****  984.9 *** *** ***** ***** ***** ***** **
944770 ***** 201506192300 110   8 *** *** *** * * * 28.1 02 ** ** ** ** ** ** ** 0   51   44 1026.4 *****  987.7 *** *** ***** *****  0.00 ***** **
944770 ***** 201506192330 110   8 *** 722 CLR * * * 28.1 02 ** ** ** ** ** ** ** 0   51   44 1026.4 *****  987.7 *** *** ***** ***** ***** ***** **
944770 ***** 201506200500 020   9 *** *** *** * * * 28.1 02 ** ** ** ** ** ** ** 0   64   43 1022.4 *****  983.9 *** *** *****  0.00 ***** ***** **
944770 ***** 201506200530 020   9 *** 722 CLR * * * 28.1 02 ** ** ** ** ** ** ** 0   64   43 1022.4 *****  983.9 *** *** ***** ***** ***** ***** **
944770 ***** 201506202300 020   8 *** *** *** * * * 28.1 02 ** ** ** ** ** ** ** 0   50   38 1023.8 *****  985.2 *** *** ***** *****  0.00 ***** **
944770 ***** 201506202330 020   8 *** 722 CLR * * * 28.1 02 ** ** ** ** ** ** ** 0   50   38 1023.8 *****  985.2 *** *** ***** ***** ***** ***** **
944770 ***** 201506210500 360  11 *** *** SCT * * * 28.1 02 ** ** ** ** ** ** ** 0   67   36 1019.4 *****  981.0 *** *** *****  0.00 ***** ***** **
944770 ***** 201506210530 360  11 *** *** SCT * * * 28.1 02 ** ** ** ** ** ** ** 0   67   36 1019.4 *****  981.0 *** *** ***** ***** ***** ***** **
944770 ***** 201506212300 020   5 *** *** *** * * * 28.1 02 ** ** ** ** ** ** ** 0   55   34 1018.9 *****  980.5 *** *** ***** *****  0.00 ***** **
944770 ***** 201506212330 020   5 *** 722 CLR * * * 28.1 02 ** ** ** ** ** ** ** 0   55   34 1018.9 *****  980.5 *** *** ***** ***** ***** ***** **
944770 ***** 201506220500 310  11 *** *** SCT * * * 28.1 02 ** ** ** ** ** ** ** 0   76   36 1014.8 *****  976.6 *** *** *****  0.00 ***** ***** **
944770 ***** 201506220530 310  11 *** *** SCT * * * 28.1 02 ** ** ** ** ** ** ** 0   76   36 1014.8 *****  976.6 *** *** ***** ***** ***** ***** **
944770 ***** 201506222300 200   5 *** *** BKN * * * 28.1 03 ** ** ** ** ** ** ** 2   59   43 1020.1 *****  981.7 *** *** ***** *****  0.00 ***** **
944770 ***** 201506222330 200   5 *** *** BKN * * * 28.1 03 ** ** ** ** ** ** ** 2   59   43 1020.1 *****  981.7 *** *** ***** ***** ***** ***** **
944770 ***** 201506230500 250   3 *** *** SCT * * * 28.1 02 ** ** ** ** ** ** ** 0   68   29 1018.7 *****  980.3 *** *** *****  0.00 ***** ***** **
944770 ***** 201506230530 250   3 *** *** SCT * * * 28.1 02 ** ** ** ** ** ** ** 0   68   29 1018.7 *****  980.3 *** *** ***** ***** ***** ***** **
944770 ***** 201506232300 180   8 *** *** BKN * * * 25.0 03 ** ** ** ** ** ** ** 2   50   45 1029.1 *****  990.3 *** *** ***** *****  0.02 ***** **
944770 ***** 201506232330 180   8 ***  10 BKN * * * 25.0 03 ** ** ** ** ** ** ** 2   50   45 1029.1 *****  990.3 *** *** ***** *****  0.02 ***** **
944770 ***** 201506240500 160   3 *** *** SCT * * * 28.1 02 ** ** ** ** ** ** ** 0   60   38 1028.8 *****  990.0 *** *** *****  0.00 ***** ***** **
944770 ***** 201506240530 160   3 *** *** SCT * * * 28.1 02 ** ** ** ** ** ** ** 0   60   38 1028.8 *****  990.0 *** *** ***** ***** ***** ***** **
944770 ***** 201506242300 180   2 *** *** *** * * * 28.1 02 ** ** ** ** ** ** ** 0   44   42 1032.9 *****  994.0 *** *** ***** *****  0.00 ***** **
944770 ***** 201506242330 180   2 *** 722 CLR * * * 28.1 02 ** ** ** ** ** ** ** 0   44   42 1032.9 *****  994.0 *** *** ***** ***** ***** ***** **
944770 ***** 201506250500 110   7 *** *** *** * * * 28.1 02 ** ** ** ** ** ** ** 0   63   40 1030.0 *****  991.2 *** *** *****  0.00 ***** ***** **
944770 ***** 201506250530 110   7 *** 722 CLR * * * 28.1 02 ** ** ** ** ** ** ** 0   63   40 1030.0 *****  991.2 *** *** ***** ***** ***** ***** **
944770 ***** 201506252300 110   3 *** *** *** * * * 28.1 02 ** ** ** ** ** ** ** 0   47   41 1033.7 *****  994.8 *** *** ***** *****  0.00 ***** **
944770 ***** 201506252330 110   3 *** 722 CLR * * * 28.1 02 ** ** ** ** ** ** ** 0   47   41 1033.7 *****  994.8 *** *** ***** ***** ***** ***** **
944770 ***** 201506260500 050   8 *** *** *** * * * 28.1 02 ** ** ** ** ** ** ** 0   62   35 1029.8 *****  991.0 *** *** *****  0.00 ***** ***** **
944770 ***** 201506260530 050   8 *** 722 CLR * * * 28.1 02 ** ** ** ** ** ** ** 0   62   35 1029.8 *****  991.0 *** *** ***** ***** ***** ***** **
944770 ***** 201506262300 ***   0 *** *** *** * * * 28.1 02 ** ** ** ** ** ** ** 0   41   36 1032.3 *****  993.4 *** *** ***** *****  0.00 ***** **
944770 ***** 201506262330 360   0 *** 722 CLR * * * 28.1 02 ** ** ** ** ** ** ** 0   41   36 1032.3 *****  993.4 *** *** ***** ***** ***** ***** **
944770 ***** 201506270500 090   8 *** *** *** * * * 28.1 02 ** ** ** ** ** ** ** 0   63   26 1028.4 *****  989.7 *** *** *****  0.00 ***** ***** **
944770 ***** 201506270530 090   8 *** 722 CLR * * * 28.1 02 ** ** ** ** ** ** ** 0   63   26 1028.4 *****  989.7 *** *** ***** ***** ***** ***** **
944770 ***** 201506272300 ***   0 *** *** *** * * * 28.1 02 ** ** ** ** ** ** ** 0   49   40 1030.5 *****  991.7 *** *** ***** *****  0.00 ***** **
944770 ***** 201506272330 360   0 *** 722 CLR * * * 28.1 02 ** ** ** ** ** ** ** 0   49   40 1030.5 *****  991.7 *** *** ***** ***** ***** ***** **
944770 ***** 201506280500 070   3 *** *** BKN * * * 25.0 03 ** ** ** ** ** ** ** 2   66   44 1027.1 *****  988.4 *** *** *****  0.00 ***** ***** **
944770 ***** 201506280530 070   3 ***  10 BKN * * * 25.0 03 ** ** ** ** ** ** ** 2   66   44 1027.1 *****  988.4 *** *** ***** ***** ***** ***** **
944770 ***** 201506282300 130   1 *** *** BKN * * * 25.0 03 ** ** ** ** ** ** ** 2   52   43 1029.1 *****  990.3 *** *** ***** *****  0.00 ***** **
944770 ***** 201506282330 130   1 *** *** BKN * * * 25.0 03 ** ** ** ** ** ** ** 2   52   43 1029.1 *****  990.3 *** *** ***** ***** ***** ***** **
944770 ***** 201506290500 130   3 *** *** BKN * * * 28.1 03 ** ** ** ** ** ** ** 2   68   46 1025.3 *****  986.7 *** *** *****  0.00 ***** ***** **
944770 ***** 201506290530 130   3 *** *** BKN * * * 28.1 03 ** ** ** ** ** ** ** 2   68   46 1025.3 *****  986.7 *** *** ***** ***** ***** ***** **
944770 ***** 201506292300 130   3 *** *** OVC * * * 25.0 03 ** ** ** ** ** ** ** 2   51   49 1030.0 *****  991.2 *** *** ***** *****  0.00 ***** **
944770 ***** 201506292330 130   3 ***  10 OVC * * * 25.0 03 ** ** ** ** ** ** ** 2   51   49 1030.0 *****  991.2 *** *** ***** ***** ***** ***** **
944770 ***** 201506300500 110   3 *** *** SCT * * * 28.1 02 ** ** ** ** ** ** ** 0   66   42 1027.0 *****  988.3 *** *** *****  0.00 ***** ***** **
944770 ***** 201506300530 110   3 *** *** SCT * * * 28.1 02 ** ** ** ** ** ** ** 0   66   42 1027.0 *****  988.3 *** *** ***** ***** ***** ***** **
944770 ***** 201506302300 110   3 *** *** *** * * * 28.1 02 ** ** ** ** ** ** ** 0   49   42 1030.9 *****  992.0 *** *** ***** *****  0.00 ***** **
944770 ***** 201506302330 110   3 *** 722 CLR * * * 28.1 02 ** ** ** ** ** ** ** 0   49   42 1030.9 *****  992.0 *** *** ***** ***** ***** ***** **
944770 ***** 201507010500 130   2 *** *** *** * * * 28.1 02 ** ** ** ** ** ** ** 0   65   40 1027.6 *****  988.8 *** *** *****  0.00 ***** ***** **
944770 ***** 201507010530 130   2 *** 722 CLR * * * 28.1 02 ** ** ** ** ** ** ** 0   65   40 1027.6 *****  988.8 *** *** ***** ***** ***** ***** **
944770 ***** 201507012300 290   1 *** *** *** * * * 28.1 02 ** ** ** ** ** ** ** 0   48   34 1029.9 *****  991.0 *** *** ***** *****  0.00 ***** **
944770 ***** 201507012330 290   1 *** 722 CLR * * * 28.1 02 ** ** ** ** ** ** ** 0   48   34 1029.9 *****  991.0 *** *** ***** ***** ***** ***** **
944770 ***** 201507130500 200   6 *** *** SCT * * * 28.1 02 ** ** ** ** ** ** ** 0   59   40 1027.3 *****  988.5 *** *** ***** ***** *****  0.00 **
944770 ***** 201507130530 200   6 *** *** SCT * * * 28.1 02 ** ** ** ** ** ** ** 0   59   40 1027.3 *****  988.5 *** *** ***** ***** ***** ***** **
944770 ***** 201507132300 180   2 *** *** OVC * * * 25.0 03 ** ** ** ** ** ** ** 2   51   40 1027.5 *****  988.7 *** *** ***** ***** *****  0.00 **
944770 ***** 201507132330 180   2 ***  10 OVC * * * 25.0 03 ** ** ** ** ** ** ** 2   51   40 1027.5 *****  988.7 *** *** ***** ***** ***** ***** **
944770 ***** 201507140500 180   5 *** *** BKN * * * 25.0 03 ** ** ** ** ** ** ** 2   61   40 1023.8 *****  985.2 *** *** *****  0.00 ***** ***** **
944770 ***** 201507140530 180   5 *** *** BKN * * * 25.0 03 ** ** ** ** ** ** ** 2   61   40 1023.8 *****  985.2 *** *** ***** ***** ***** ***** **
944770 ***** 201507142300 180   9 *** *** BKN * * * 25.0 03 ** ** ** ** ** ** ** 2   48   45 1027.4 *****  988.6 *** *** ***** *****  0.03 ***** **
944770 ***** 201507142330 180   9 ***  10 BKN * * * 25.0 03 ** ** ** ** ** ** ** 2   48   45 1027.4 *****  988.6 *** *** ***** *****  0.03 ***** **
944770 ***** 201507150500 160   7 *** *** BKN * * * 25.0 03 ** ** ** ** ** ** ** 2   55   40 1025.3 *****  986.6 *** *** *****  0.00 ***** ***** **
944770 ***** 201507150530 160   7 ***  10 BKN * * * 25.0 03 ** ** ** ** ** ** ** 2   55   40 1025.3 *****  986.6 *** *** ***** ***** ***** ***** **
944770 ***** 201507152300 200   2 *** *** *** * * * 28.1 02 ** ** ** ** ** ** ** 0   43   39 1028.9 *****  990.1 *** *** ***** *****  0.00 ***** **
944770 ***** 201507152330 200   2 *** 722 CLR * * * 28.1 02 ** ** ** ** ** ** ** 0   43   39 1028.9 *****  990.1 *** *** ***** ***** ***** ***** **
944770 ***** 201507160500 130  10 *** *** SCT * * * 28.1 02 ** ** ** ** ** ** ** 0   60   36 1026.1 *****  987.4 *** *** *****  0.00 ***** ***** **
944770 ***** 201507160530 130  10 *** *** SCT * * * 28.1 02 ** ** ** ** ** ** ** 0   60   36 1026.1 *****  987.4 *** *** ***** ***** ***** ***** **
944770 ***** 201507162300 ***   0 *** *** *** * * * 28.1 02 ** ** ** ** ** ** ** 0   39   33 1030.6 *****  991.7 *** *** ***** *****  0.00 ***** **
944770 ***** 201507162330 360   0 *** 722 CLR * * * 28.1 02 ** ** ** ** ** ** ** 0   39   33 1030.6 *****  991.7 *** *** ***** ***** ***** ***** **
944770 ***** 201507170500 110   2 *** *** SCT * * * 28.1 02 ** ** ** ** ** ** ** 0   58   37 1027.8 *****  989.0 *** *** *****  0.00 ***** ***** **
944770 ***** 201507170530 110   2 *** *** SCT * * * 28.1 02 ** ** ** ** ** ** ** 0   58   37 1027.8 *****  989.0 *** *** ***** ***** ***** ***** **
944770 ***** 201507172300 ***   0 *** *** *** * * * 28.1 02 ** ** ** ** ** ** ** 0   40   34 1031.2 *****  992.3 *** *** ***** *****  0.00 ***** **
944770 ***** 201507172330 360   0 *** 722 CLR * * * 28.1 02 ** ** ** ** ** ** ** 0   40   34 1031.2 *****  992.3 *** *** ***** ***** ***** ***** **
944770 ***** 201507180500 ***   0 *** *** *** * * * 28.1 02 ** ** ** ** ** ** ** 0   58   35 1028.1 *****  989.3 *** *** *****  0.00 ***** ***** **
944770 ***** 201507180530 360   0 *** 722 CLR * * * 28.1 02 ** ** ** ** ** ** ** 0   58   35 1028.1 *****  989.3 *** *** ***** ***** ***** ***** **
944770 ***** 201507182300 110   3 *** *** *** * * * 28.1 02 ** ** ** ** ** ** ** 0   44   34 1031.0 *****  992.1 *** *** ***** *****  0.00 ***** **
944770 ***** 201507182330 110   3 *** 722 CLR * * * 28.1 02 ** ** ** ** ** ** ** 0   44   34 1031.0 *****  992.1 *** *** ***** ***** ***** ***** **
944770 ***** 201507192300 050   7 *** *** *** * * * 28.1 02 ** ** ** ** ** ** ** 0   45   32 1027.4 *****  988.6 *** *** ***** *****  0.00 ***** **
944770 ***** 201507192330 050   7 *** 722 CLR * * * 28.1 02 ** ** ** ** ** ** ** 0   45   32 1027.4 *****  988.6 *** *** ***** ***** ***** ***** **
944770 ***** 201507200500 020   5 *** *** *** * * * 28.1 02 ** ** ** ** ** ** ** 0   63   28 1023.3 *****  984.7 *** *** *****  0.00 ***** ***** **
944770 ***** 201507200530 020   5 *** 722 CLR * * * 28.1 02 ** ** ** ** ** ** ** 0   63   28 1023.3 *****  984.7 *** *** ***** ***** ***** ***** **
944770 ***** 201507202300 360   8 *** *** BKN * * * 25.0 03 ** ** ** ** ** ** ** 2   51   28 1021.0 *****  982.5 *** *** ***** *****  0.00 ***** **
944770 ***** 201507202330 360   8 ***  10 BKN * * * 25.0 03 ** ** ** ** ** ** ** 2   51   28 1021.0 *****  982.5 *** *** ***** ***** ***** ***** **
944770 ***** 201507210500 340  13 *** *** BKN * * * 25.0 03 ** ** ** ** ** ** ** 2   70   19 1017.3 *****  978.9 *** *** *****  0.00 ***** ***** **
944770 ***** 201507210530 340  13 *** *** BKN * * * 25.0 03 ** ** ** ** ** ** ** 2   70   19 1017.3 *****  978.9 *** *** ***** ***** ***** ***** **
944770 ***** 201507212300 180   6 *** *** SCT * * * 28.1 02 ** ** ** ** ** ** ** 0   51   42 1023.2 *****  984.6 *** *** ***** *****  0.00 ***** **
944770 ***** 201507212330 180   6 *** *** SCT * * * 28.1 02 ** ** ** ** ** ** ** 0   51   42 1023.2 *****  984.6 *** *** ***** ***** ***** ***** **
944770 ***** 201507220500 110   3 *** *** SCT * * * 25.0 03 ** ** ** ** ** ** ** 2   66   38 1021.1 *****  982.6 *** *** *****  0.00 ***** ***** **
944770 ***** 201507220530 110   3 *** *** SCT * * * 25.0 03 ** ** ** ** ** ** ** 2   66   38 1021.1 *****  982.6 *** *** ***** ***** ***** ***** **
944770 ***** 201507222300 110   1 *** *** OVC * * * 25.0 03 ** ** ** ** ** ** ** 2   51   47 1020.6 *****  982.1 *** *** ***** *****  0.06 ***** **
944770 ***** 201507222330 110   1 *** *** OVC * * * 25.0 03 ** ** ** ** ** ** ** 2   51   47 1020.6 *****  982.1 *** *** ***** *****  0.04 ***** **
944770 ***** 201507230500 360   7 *** *** OVC * * * 25.0 03 ** ** ** ** ** ** ** 2   60   43 1017.1 *****  978.7 *** *** *****  0.00 ***** ***** **
944770 ***** 201507230530 360   7 ***  10 OVC * * * 25.0 03 ** ** ** ** ** ** ** 2   60   43 1017.1 *****  978.7 *** *** ***** ***** ***** ***** **
944770 ***** 201507232300 ***   0 *** *** BKN * * * 25.0 03 ** ** ** ** ** ** ** 2   51   49 1021.7 *****  983.2 *** *** ***** *****  0.09 ***** **
944770 ***** 201507232330 360   0 *** *** BKN * * * 25.0 03 ** ** ** ** ** ** ** 2   51   49 1021.7 *****  983.2 *** *** ***** *****  0.08 ***** **
944770 ***** 201507240500 180   1 *** *** BKN * * * 25.0 03 ** ** ** ** ** ** ** 2   65   50 1020.2 *****  981.7 *** *** *****  0.00 ***** ***** **
944770 ***** 201507240530 180   1 ***  10 BKN * * * 25.0 03 ** ** ** ** ** ** ** 2   65   50 1020.2 *****  981.7 *** *** ***** ***** ***** ***** **
944770 ***** 201507242300 ***   0 *** *** OVC * * * 25.0 03 ** ** ** ** ** ** ** 2   51   47 1025.0 *****  986.3 *** *** ***** *****  0.00 ***** **
944770 ***** 201507242330 360   0 *** *** OVC * * * 25.0 03 ** ** ** ** ** ** ** 2   51   47 1025.0 *****  986.3 *** *** ***** ***** ***** ***** **
944770 ***** 201507250500 340   3 *** *** OVC * * * 25.0 03 ** ** ** ** ** ** ** 2   60   40 1023.2 *****  984.6 *** *** *****  0.00 ***** ***** **
944770 ***** 201507250530 340   3 *** *** OVC * * * 25.0 03 ** ** ** ** ** ** ** 2   60   40 1023.2 *****  984.6 *** *** ***** ***** ***** ***** **
944770 ***** 201507252300 ***   0 *** *** OVC * * * 25.0 03 ** ** ** ** ** ** ** 2   53   43 1028.4 *****  989.6 *** *** ***** *****  0.00 ***** **
944770 ***** 201507252330 360   0 *** *** OVC * * * 25.0 03 ** ** ** ** ** ** ** 2   53   43 1028.4 *****  989.6 *** *** ***** ***** ***** ***** **
944770 ***** 201507260500 180   2 *** *** OVC * * * 25.0 03 ** ** ** ** ** ** ** 2   62   38 1027.2 *****  988.4 *** *** *****  0.00 ***** ***** **
944770 ***** 201507260530 180   2 *** *** OVC * * * 25.0 03 ** ** ** ** ** ** ** 2   62   38 1027.2 *****  988.4 *** *** ***** ***** ***** ***** **
944770 ***** 201507262300 ***   0 *** *** BKN * * * 28.1 03 ** ** ** ** ** ** ** 2   43   41 1035.4 *****  996.3 *** *** ***** *****  0.00 ***** **
944770 ***** 201507270500 110   1 *** *** *** * * * 28.1 02 ** ** ** ** ** ** ** 0   61   38 1032.3 *****  993.4 *** *** *****  0.00 ***** ***** **
944770 ***** 201507270530 110   1 *** 722 CLR * * * 28.1 02 ** ** ** ** ** ** ** 0   61   38 1032.3 *****  993.4 *** *** ***** ***** ***** ***** **
944770 ***** 201507272300 110   2 *** *** *** * * * 28.1 02 ** ** ** ** ** ** ** 0   44   34 1036.0 *****  996.9 *** *** ***** *****  0.00 ***** **
944770 ***** 201507272330 110   2 *** 722 CLR * * * 28.1 02 ** ** ** ** ** ** ** 0   44   34 1036.0 *****  996.9 *** *** ***** ***** ***** ***** **
944770 ***** 201507280500 020  10 *** *** SCT * * * 28.1 02 ** ** ** ** ** ** ** 0   61   32 1030.7 *****  991.8 *** *** *****  0.00 ***** ***** **
944770 ***** 201507280530 020  10 *** *** SCT * * * 28.1 02 ** ** ** ** ** ** ** 0   61   32 1030.7 *****  991.8 *** *** ***** ***** ***** ***** **
944770 ***** 201507282300 360   8 *** *** SCT * * * 28.1 02 ** ** ** ** ** ** ** 0   49   28 1030.2 *****  991.3 *** *** ***** *****  0.00 ***** **
944770 ***** 201507282330 360   8 *** *** SCT * * * 28.1 02 ** ** ** ** ** ** ** 0   49   28 1030.2 *****  991.3 *** *** ***** ***** ***** ***** **
944770 ***** 201507290500 360   5 *** *** SCT * * * 28.1 02 ** ** ** ** ** ** ** 0   66   27 1025.4 *****  986.7 *** *** *****  0.00 ***** ***** **
944770 ***** 201507290530 360   5 *** *** SCT * * * 28.1 02 ** ** ** ** ** ** ** 0   66   27 1025.4 *****  986.7 *** *** ***** ***** ***** ***** **
944770 ***** 201507292300 360   7 *** *** SCT * * * 28.1 02 ** ** ** ** ** ** ** 0   55   29 1025.6 *****  986.9 *** *** ***** *****  0.00 ***** **
944770 ***** 201507292330 360   7 *** *** SCT * * * 28.1 02 ** ** ** ** ** ** ** 0   55   29 1025.6 *****  986.9 *** *** ***** ***** ***** ***** **
944770 ***** 201507300500 ***   0 *** *** SCT * * * 28.1 02 ** ** ** ** ** ** ** 0   78   35 1021.1 *****  982.6 *** *** *****  0.00 ***** ***** **
944770 ***** 201507300530 360   0 *** *** SCT * * * 28.1 02 ** ** ** ** ** ** ** 0   78   35 1021.1 *****  982.6 *** *** ***** ***** ***** ***** **
944770 ***** 201507302300 310   2 *** *** SCT * * * 28.1 02 ** ** ** ** ** ** ** 0   61   29 1021.3 *****  982.8 *** *** ***** *****  0.00 ***** **
944770 ***** 201507302330 310   2 *** *** SCT * * * 28.1 02 ** ** ** ** ** ** ** 0   61   29 1021.3 *****  982.8 *** *** ***** ***** ***** ***** **
944770 ***** 201507310500 360   5 *** *** *** * * * 28.1 02 ** ** ** ** ** ** ** 0   85   48 1017.1 *****  978.7 *** *** *****  0.00 ***** ***** **
944770 ***** 201507310530 360   5 *** 722 CLR * * * 28.1 02 ** ** ** ** ** ** ** 0   85   48 1017.1 *****  978.7 *** *** ***** ***** ***** ***** **
