  USAF  WBAN YR--MODAHRMN DIR SPD GUS CLG SKC L M H  VSB MW MW MW MW AW AW AW AW W TEMP DEWP    SLP   ALT    STP MAX MIN PCP01 PCP06 PCP24 PCPXX SD
946880 ***** 201501012200 360  28 *** *** SCT * * * 31.2 02 ** ** ** ** ** ** ** 0   89   85 1011.4 *****  999.9 *** *** ***** *****  0.00 ***** **
946880 ***** 201501012230 360  28 *** *** SCT * * * 31.2 02 ** ** ** ** ** ** ** 0   89   85 1011.4 *****  999.9 *** *** ***** ***** ***** ***** **
946880 ***** 201501022200 050  34 *** *** OVC * * * 28.1 03 ** ** ** ** ** ** ** 2   97   93 1007.4 *****  995.9 *** *** ***** *****  0.00 ***** **
946880 ***** 201501022230 050  34 ***  20 OVC * * * 28.1 03 ** ** ** ** ** ** ** 2   97   93 1007.4 *****  995.9 *** *** ***** ***** ***** ***** **
946880 ***** 201501032200 180  15 *** *** *** * * * 31.2 01 ** ** ** ** ** ** ** 9   66   63 1016.4 ***** 1004.8 *** *** ***** *****  0.12 ***** **
946880 ***** 201501042200 090  10 *** *** SCT * * * 31.2 02 ** ** ** ** ** ** ** 0   76   70 1017.2 ***** 1005.6 *** *** ***** *****  0.00 ***** **
946880 ***** 201501042230 090  10 *** *** SCT * * * 31.2 02 ** ** ** ** ** ** ** 0   76   70 1017.2 ***** 1005.6 *** *** ***** ***** ***** ***** **
946880 ***** 201501052200 090  13 *** *** SCT * * * 31.2 02 ** ** ** ** ** ** ** 0   83   81 1016.9 ***** 1005.3 *** *** ***** *****  0.00 ***** **
946880 ***** 201501062200 340   3 *** *** *** * * * 31.2 02 ** ** ** ** ** ** ** 0   94   91 1012.8 ***** 1001.3 *** *** ***** *****  0.00 ***** **
946880 ***** 201501072200 310   3 *** *** OVC * * * 25.0 03 ** ** ** ** ** ** ** 9   78   74 1008.7 *****  997.2 *** *** ***** *****  0.18 ***** **
946880 ***** 201501072230 310   3 *** *** OVC * * * 25.0 03 ** ** ** ** ** ** ** 9   78   74 1008.7 *****  997.2 *** *** ***** *****  0.18 ***** **
946880 ***** 201501082200 130   3 *** *** OVC * * * 18.8 02 ** ** ** ** ** ** ** 5   66   65 1009.5 *****  998.0 *** *** ***** *****  0.28 ***** **
