  USAF  WBAN YR--MODAHRMN DIR SPD GUS CLG SKC L M H  VSB MW MW MW MW AW AW AW AW W TEMP DEWP    SLP   ALT    STP MAX MIN PCP01 PCP06 PCP24 PCPXX SD
948440 ***** 201501010400 180  10 *** *** BKN * * * 18.8 02 ** ** ** ** ** ** ** 1   91   42 ****** ***** ****** *** *** *****  0.00 ***** ***** **
948440 ***** 201501012200 020   8 *** *** *** * * * 31.2 02 ** ** ** ** ** ** ** 0   85   43 ****** ***** ****** *** *** ***** *****  0.00 ***** **
948440 ***** 201501020400 290   2 *** *** SCT * * * 31.2 02 ** ** ** ** ** ** ** 0  104   39 ****** ***** ****** *** *** *****  0.00 ***** ***** **
948440 ***** 201501022200 020  14 *** *** BKN * * * 31.2 03 ** ** ** ** ** ** ** 1   88   56 ****** ***** ****** *** *** ***** *****  0.00 ***** **
948440 ***** 201501030400 360  17 *** *** BKN * * * 31.2 02 ** ** ** ** ** ** ** 1  105   52 ****** ***** ****** *** *** *****  0.00 ***** ***** **
948440 ***** 201501032200 180  10 *** *** BKN * * * 18.8 02 ** ** ** ** ** ** ** 6   71   64 ****** ***** ****** *** *** ***** *****  0.11 ***** **
948440 ***** 201501040400 160   6 *** *** BKN * * * 12.5 02 ** ** ** ** ** ** ** 2   86   63 ****** ***** ****** *** *** *****  0.00 ***** ***** **
948440 ***** 201501042200 160  14 *** *** SCT * * * 31.2 02 ** ** ** ** ** ** ** 0   73   51 ****** ***** ****** *** *** ***** *****  0.00 ***** **
948440 ***** 201501050400 110   6 *** *** BKN * * * 31.2 02 ** ** ** ** ** ** ** 1   91   58 ****** ***** ****** *** *** *****  0.00 ***** ***** **
948440 ***** 201501052200 130  14 *** *** SCT * * * 31.2 02 ** ** ** ** ** ** ** 0   68   56 ****** ***** ****** *** *** ***** ***** ***** ***** **
948440 ***** 201501060400 130   6 ***  20 BKN * * * 18.8 02 ** ** ** ** ** ** ** 1   99   58 ****** ***** ****** *** *** ***** ***** ***** ***** **
948440 ***** 201501062200 110   6 *** *** BKN * * * 18.8 02 ** ** ** ** ** ** ** 2   79   63 ****** ***** ****** *** *** ***** ***** ***** ***** **
948440 ***** 201501070400 090   2 ***  33 BKN * * * 31.2 02 ** ** ** ** ** ** ** 1  104   58 ****** ***** ****** *** *** ***** ***** ***** ***** **
948440 ***** 201501072200 290  14 *** *** BKN * * * 18.8 02 ** ** ** ** ** ** ** 2   88   60 ****** ***** ****** *** *** ***** *****  0.00 ***** **
948440 ***** 201501080400 250  10 *** *** SCT * * * 31.2 02 ** ** ** ** ** ** ** 1   90   62 ****** ***** ****** *** *** *****  0.00 ***** ***** **
948440 ***** 201501082200 ***   0 *** *** BKN * * * 12.5 02 ** ** ** ** ** ** ** 6   74   70 ****** ***** ****** *** *** ***** *****  0.13 ***** **
948440 ***** 201501090400 020  10 ***  20 OVC * * * 12.5 02 ** ** ** ** ** ** ** 2   80   68 ****** ***** ****** *** *** ***** ***** ***** ***** **
948440 ***** 201501092200 130   2 *** *** OVC * * *  6.2 61 ** ** ** ** ** ** ** 8   61   61 ****** ***** ****** *** *** ***** *****  0.21 ***** **
948440 ***** 201501100400 130  14 *** *** OVC * * *  6.2 50 ** ** ** ** ** ** ** 6   65   63 ****** ***** ****** *** *** *****  0.16 ***** ***** **
948440 ***** 201501102200 130  14 *** *** BKN * * * 12.5 03 ** ** ** ** ** ** ** 5   70   63 ****** ***** ****** *** *** ***** *****  0.17 ***** **
948440 ***** 201501110400 070  17 *** *** BKN * * * 12.5 02 ** ** ** ** ** ** ** 2   82   66 ****** ***** ****** *** *** *****  0.00 ***** ***** **
948440 ***** 201501112200 070  17 *** *** SCT * * * 31.2 02 ** ** ** ** ** ** ** 1   75   62 ****** ***** ****** *** *** ***** ***** ***** ***** **
948440 ***** 201501120400 050  21 *** *** BKN * * * 18.8 02 ** ** ** ** ** ** ** 1   91   64 ****** ***** ****** *** *** *****  0.00 ***** ***** **
948440 ***** 201501122200 050  17 ***  10 OVC * * *  6.2 03 ** ** ** ** ** ** ** 6   69   66 ****** ***** ****** *** *** ***** *****  0.06 ***** **
948440 ***** 201501130400 250   6 *** *** BKN * * * 31.2 03 ** ** ** ** ** ** ** 8   79   73 ****** ***** ****** *** *** *****  0.31 ***** ***** **
948440 ***** 201501132200 200  21 *** *** BKN * * * 12.5 03 ** ** ** ** ** ** ** 5   69   63 ****** ***** ****** *** *** ***** *****  0.33 ***** **
948440 ***** 201501140400 200  14 *** *** BKN * * * 18.8 02 ** ** ** ** ** ** ** 2   81   61 ****** ***** ****** *** *** *****  0.00 ***** ***** **
948440 ***** 201501152200 360   6 *** *** *** * * * 31.2 02 ** ** ** ** ** ** ** 0   66   54 ****** ***** ****** *** *** ***** *****  0.00 ***** **
948440 ***** 201501160400 270   6 *** *** *** * * * 31.2 02 ** ** ** ** ** ** ** 0   85   52 ****** ***** ****** *** *** *****  0.00 ***** ***** **
948440 ***** 201501162200 230   5 *** *** SCT * * * 31.2 02 ** ** ** ** ** ** ** 0   64   57 ****** ***** ****** *** *** ***** *****  0.00 ***** **
948440 ***** 201501170400 230   6 *** *** *** * * * 31.2 02 ** ** ** ** ** ** ** 0   80   51 ****** ***** ****** *** *** *****  0.00 ***** ***** **
948440 ***** 201501172200 200   2 *** *** BKN * * * 15.6 02 ** ** ** ** ** ** ** 2   60   51 ****** ***** ****** *** *** ***** ***** ***** ***** **
948440 ***** 201501180400 200  14 *** *** BKN * * * 31.2 02 ** ** ** ** ** ** ** 2   77   47 ****** ***** ****** *** *** *****  0.00 ***** ***** **
948440 ***** 201501182200 180  10 *** *** BKN * * * 18.8 02 ** ** ** ** ** ** ** 2   56   47 ****** ***** ****** *** *** ***** *****  0.00 ***** **
948440 ***** 201501190400 110   6 *** *** BKN * * * 18.8 02 ** ** ** ** ** ** ** 1   82   48 ****** ***** ****** *** *** *****  0.00 ***** ***** **
948440 ***** 201501192200 050  14 *** *** OVC * * * 12.5 02 ** ** ** ** ** ** ** 2   69   58 ****** ***** ****** *** *** ***** *****  0.00 ***** **
948440 ***** 201501200400 050   8 *** *** BKN * * * 18.8 02 ** ** ** ** ** ** ** 2   83   58 ****** ***** ****** *** *** *****  0.00 ***** ***** **
948440 ***** 201501202200 070   8 *** *** BKN * * * 18.8 02 ** ** ** ** ** ** ** 2   73   65 ****** ***** ****** *** *** ***** ***** ***** ***** **
948440 ***** 201501210400 130   6 *** *** SCT * * * 31.2 02 ** ** ** ** ** ** ** 1   93   61 ****** ***** ****** *** *** *****  0.00 ***** ***** **
948440 ***** 201501212200 050   2 *** *** *** * * * 31.2 02 ** ** ** ** ** ** ** 1   81   67 ****** ***** ****** *** *** ***** *****  0.00 ***** **
948440 ***** 201501220400 360   6 *** *** BKN * * * 31.2 02 ** ** ** ** ** ** ** 1   97   65 ****** ***** ****** *** *** *****  0.00 ***** ***** **
948440 ***** 201501222200 230   2 *** *** SCT * * * 31.2 02 ** ** ** ** ** ** ** 1   82   64 ****** ***** ****** *** *** ***** *****  0.00 ***** **
948440 ***** 201501230400 250  14 *** *** SCT * * * 31.2 02 ** ** ** ** ** ** ** 0   96   60 ****** ***** ****** *** *** *****  0.00 ***** ***** **
948440 ***** 201501232200 270   6 *** *** BKN * * * 31.2 03 ** ** ** ** ** ** ** 1   67   56 ****** ***** ****** *** *** ***** *****  0.00 ***** **
948440 ***** 201501240400 290  10 *** *** SCT * * * 31.2 02 ** ** ** ** ** ** ** 0   91   60 ****** ***** ****** *** *** *****  0.00 ***** ***** **
948440 ***** 201501242200 250  10 *** *** SCT * * * 31.2 02 ** ** ** ** ** ** ** 0   64   54 ****** ***** ****** *** *** ***** *****  0.00 ***** **
948440 ***** 201501250400 270  17 *** *** SCT * * * 31.2 02 ** ** ** ** ** ** ** 0   76   45 ****** ***** ****** *** *** *****  0.00 ***** ***** **
948440 ***** 201501252200 200   8 *** *** *** * * * 31.2 02 ** ** ** ** ** ** ** 0   61   47 ****** ***** ****** *** *** ***** *****  0.00 ***** **
948440 ***** 201501260400 200  14 *** *** *** * * * 31.2 02 ** ** ** ** ** ** ** 0   73   45 ****** ***** ****** *** *** *****  0.00 ***** ***** **
948440 ***** 201501262200 200  14 *** *** *** * * * 31.2 02 ** ** ** ** ** ** ** 0   58   48 ****** ***** ****** *** *** ***** *****  0.00 ***** **
948440 ***** 201501270400 200  17 *** *** *** * * * 31.2 02 ** ** ** ** ** ** ** 0   80   53 ****** ***** ****** *** *** *****  0.00 ***** ***** **
948440 ***** 201501272200 160  14 *** *** SCT * * * 31.2 02 ** ** ** ** ** ** ** 0   62   51 ****** ***** ****** *** *** ***** *****  0.00 ***** **
948440 ***** 201501280400 160  21 *** *** SCT * * * 31.2 02 ** ** ** ** ** ** ** 0   82   59 ****** ***** ****** *** *** ***** ***** ***** ***** **
948440 ***** 201501292200 160  17 *** *** SCT * * * 31.2 02 ** ** ** ** ** ** ** 0   61   46 ****** ***** ****** *** *** ***** ***** ***** ***** **
948440 ***** 201501300400 250  17 *** *** SCT * * * 31.2 02 ** ** ** ** ** ** ** 0   76   42 ****** ***** ****** *** *** ***** ***** ***** ***** **
948440 ***** 201501302200 130  14 *** *** *** * * * 31.2 02 ** ** ** ** ** ** ** 0   62   49 ****** ***** ****** *** *** ***** *****  0.00 ***** **
948440 ***** 201501310400 180   6 *** *** SCT * * * 31.2 02 ** ** ** ** ** ** ** 0   79   46 ****** ***** ****** *** *** *****  0.00 ***** ***** **
948440 ***** 201501312200 200   8 *** *** *** * * * 31.2 02 ** ** ** ** ** ** ** 0   62   47 ****** ***** ****** *** *** ***** *****  0.00 ***** **
948440 ***** 201502010400 200  10 *** *** SCT * * * 31.2 02 ** ** ** ** ** ** ** 0   79   47 ****** ***** ****** *** *** ***** ***** ***** ***** **
948440 ***** 201502020400 180   8 *** *** *** * * * 31.2 02 ** ** ** ** ** ** ** 0   82   47 ****** ***** ****** *** *** *****  0.00 ***** ***** **
948440 ***** 201502022200 160  14 *** *** *** * * * 31.2 02 ** ** ** ** ** ** ** 0   61   53 ****** ***** ****** *** *** ***** *****  0.00 ***** **
948440 ***** 201502030400 200   2 *** *** SCT * * * 31.2 02 ** ** ** ** ** ** ** 0   85   55 ****** ***** ****** *** *** *****  0.00 ***** ***** **
948440 ***** 201502040400 160  17 *** *** BKN * * * 12.5 02 ** ** ** ** ** ** ** 2   76   49 ****** ***** ****** *** *** *****  0.00 ***** ***** **
948440 ***** 201502042200 110  10 *** *** *** * * * 31.2 02 ** ** ** ** ** ** ** 0   63   55 ****** ***** ****** *** *** ***** *****  0.00 ***** **
948440 ***** 201502050400 110  14 *** *** SCT * * * 31.2 02 ** ** ** ** ** ** ** 0   90   55 ****** ***** ****** *** *** *****  0.00 ***** ***** **
948440 ***** 201502052200 050  10 *** *** *** * * * 31.2 02 ** ** ** ** ** ** ** 0   78   59 ****** ***** ****** *** *** ***** *****  0.00 ***** **
948440 ***** 201502060400 050   2 *** *** SCT * * * 25.0 02 ** ** ** ** ** ** ** 2   94   57 ****** ***** ****** *** *** *****  0.00 ***** ***** **
948440 ***** 201502062200 360   6 *** *** BKN * * * 12.5 03 ** ** ** ** ** ** ** 1   81   52 ****** ***** ****** *** *** ***** *****  0.00 ***** **
948440 ***** 201502070400 180   6 *** *** BKN * * * 12.5 03 ** ** ** ** ** ** ** 5   88   57 ****** ***** ****** *** *** *****  0.00 ***** ***** **
948440 ***** 201502072200 020   6 *** *** *** * * * 31.2 02 ** ** ** ** ** ** ** 0   84   56 ****** ***** ****** *** *** ***** *****  0.00 ***** **
948440 ***** 201502080400 270   6 *** *** *** * * * 31.2 02 ** ** ** ** ** ** ** 0   98   55 ****** ***** ****** *** *** *****  0.00 ***** ***** **
948440 ***** 201502082200 180  14 *** *** *** * * * 31.2 02 ** ** ** ** ** ** ** 0   62   49 ****** ***** ****** *** *** ***** *****  0.00 ***** **
948440 ***** 201502090400 250   6 *** *** *** * * * 31.2 02 ** ** ** ** ** ** ** 0   87   50 ****** ***** ****** *** *** *****  0.00 ***** ***** **
948440 ***** 201502092200 110   6 *** 722 CLR * * * 31.2 02 ** ** ** ** ** ** ** 0   66   59 ****** ***** ****** *** *** ***** ***** ***** ***** **
948440 ***** 201502100400 360   2 *** *** *** * * * 31.2 02 ** ** ** ** ** ** ** 0   93   53 ****** ***** ****** *** *** *****  0.00 ***** ***** **
948440 ***** 201502102200 070  10 *** *** SCT * * * 31.2 02 ** ** ** ** ** ** ** 0   81   64 ****** ***** ****** *** *** ***** *****  0.00 ***** **
948440 ***** 201502110400 200   2 *** *** BKN * * * 31.2 03 ** ** ** ** ** ** ** 0  100   61 ****** ***** ****** *** *** *****  0.00 ***** ***** **
948440 ***** 201502112200 130  14 *** *** BKN * * * 18.8 02 ** ** ** ** ** ** ** 2   69   58 ****** ***** ****** *** *** ***** *****  0.00 ***** **
948440 ***** 201502122200 020  17 *** *** BKN * * * 31.2 02 ** ** ** ** ** ** ** 2   76   64 ****** ***** ****** *** *** ***** *****  0.00 ***** **
948440 ***** 201502130400 070   6 *** *** BKN * * * 12.5 03 ** ** ** ** ** ** ** 2   95   63 ****** ***** ****** *** *** *****  0.00 ***** ***** **
948440 ***** 201502132200 200   2 *** *** BKN * * * 25.0 01 ** ** ** ** ** ** ** 2   75   66 ****** ***** ****** *** *** ***** *****  0.01 ***** **
948440 ***** 201502140400 200  14 *** *** SCT * * * 31.2 02 ** ** ** ** ** ** ** 0   94   58 ****** ***** ****** *** *** *****  0.00 ***** ***** **
948440 ***** 201502142200 090   2 *** *** *** * * * 31.2 02 ** ** ** ** ** ** ** 0   75   64 ****** ***** ****** *** *** ***** *****  0.00 ***** **
948440 ***** 201502150400 270   2 *** *** SCT * * * 31.2 02 ** ** ** ** ** ** ** 0  101   57 ****** ***** ****** *** *** *****  0.00 ***** ***** **
948440 ***** 201502160400 250  10 *** *** SCT * * * 31.2 02 ** ** ** ** ** ** ** 1   93   53 ****** ***** ****** *** *** *****  0.00 ***** ***** **
948440 ***** 201502162200 230  14 *** *** SCT * * * 31.2 02 ** ** ** ** ** ** ** 0   66   55 ****** ***** ****** *** *** ***** ***** ***** ***** **
948440 ***** 201502170400 250   8 *** *** BKN * * * 12.5 02 ** ** ** ** ** ** ** 1   85   52 ****** ***** ****** *** *** *****  0.00 ***** ***** **
948440 ***** 201502172200 130  14 *** *** BKN * * * 12.5 02 ** ** ** ** ** ** ** 2   68   55 ****** ***** ****** *** *** ***** *****  0.00 ***** **
948440 ***** 201502180400 110   8 *** *** SCT * * * 18.8 02 ** ** ** ** ** ** ** 1   86   56 ****** ***** ****** *** *** *****  0.00 ***** ***** **
948440 ***** 201502182200 130   6 *** *** SCT * * * 31.2 02 ** ** ** ** ** ** ** 0   66   58 ****** ***** ****** *** *** ***** *****  0.00 ***** **
948440 ***** 201502190400 090   2 *** *** SCT * * * 31.2 02 ** ** ** ** ** ** ** 0   91   50 ****** ***** ****** *** *** *****  0.00 ***** ***** **
948440 ***** 201502192200 310   2 *** *** *** * * * 31.2 02 ** ** ** ** ** ** ** 0   80   59 ****** ***** ****** *** *** ***** *****  0.00 ***** **
948440 ***** 201502200400 090   6 ***  20 BKN * * * 12.5 02 ** ** ** ** ** ** ** 1   96   67 ****** ***** ****** *** *** ***** ***** ***** ***** **
948440 ***** 201502202200 050   2 *** *** SCT * * * 31.2 02 ** ** ** ** ** ** ** 0   81   58 ****** ***** ****** *** *** ***** ***** ***** ***** **
948440 ***** 201502210400 290  10 *** *** SCT * * * 31.2 02 ** ** ** ** ** ** ** 0   97   53 ****** ***** ****** *** *** *****  0.00 ***** ***** **
948440 ***** 201502212200 050   6 *** *** SCT * * * 31.2 02 ** ** ** ** ** ** ** 0   82   63 ****** ***** ****** *** *** ***** ***** ***** ***** **
948440 ***** 201502220400 090   6 *** *** SCT * * * 31.2 02 ** ** ** ** ** ** ** 0   99   70 ****** ***** ****** *** *** *****  0.00 ***** ***** **
948440 ***** 201502222200 050  14 *** *** BKN * * * 12.5 02 ** ** ** ** ** ** ** 2   83   61 ****** ***** ****** *** *** ***** *****  0.00 ***** **
948440 ***** 201502230400 310   6 *** *** SCT * * * 31.2 02 ** ** ** ** ** ** ** 1   99   62 ****** ***** ****** *** *** *****  0.00 ***** ***** **
948440 ***** 201502240400 200   6 *** *** SCT * * * 31.2 02 ** ** ** ** ** ** ** 0   81   51 ****** ***** ****** *** *** *****  0.00 ***** ***** **
948440 ***** 201502252200 200   8 *** *** BKN * * * 12.5 02 ** ** ** ** ** ** ** 2   70   56 ****** ***** ****** *** *** ***** *****  0.00 ***** **
948440 ***** 201502260400 270   6 *** *** SCT * * * 31.2 02 ** ** ** ** ** ** ** 0   89   49 ****** ***** ****** *** *** *****  0.00 ***** ***** **
948440 ***** 201502262200 130   8 *** *** *** * * * 31.2 02 ** ** ** ** ** ** ** 0   65   55 ****** ***** ****** *** *** ***** *****  0.00 ***** **
948440 ***** 201502270400 250   2 *** *** SCT * * * 31.2 02 ** ** ** ** ** ** ** 0   88   45 ****** ***** ****** *** *** *****  0.00 ***** ***** **
948440 ***** 201502272200 050   2 *** *** OVC * * * 12.5 03 ** ** ** ** ** ** ** 1   75   53 ****** ***** ****** *** *** ***** *****  0.00 ***** **
948440 ***** 201502282200 200  10 *** 722 CLR * * * 31.2 02 ** ** ** ** ** ** ** 8   65   51 ****** ***** ****** *** *** ***** *****  0.02 ***** **
948440 ***** 201503010400 180   8 *** *** SCT * * * 31.2 02 ** ** ** ** ** ** ** 0   77   44 ****** ***** ****** *** *** *****  0.00 ***** ***** **
948440 ***** 201503012200 130  10 *** *** BKN * * * 31.2 02 ** ** ** ** ** ** ** 1   58   49 ****** ***** ****** *** *** ***** *****  0.00 ***** **
948440 ***** 201503020400 180   6 *** *** BKN * * * 12.5 03 ** ** ** ** ** ** ** 2   82   45 ****** ***** ****** *** *** *****  0.00 ***** ***** **
948440 ***** 201503022200 160   2 *** *** BKN * * * 12.5 02 ** ** ** ** ** ** ** 2   68   47 ****** ***** ****** *** *** ***** *****  0.00 ***** **
948440 ***** 201503030400 270   6 *** *** SCT * * * 31.2 02 ** ** ** ** ** ** ** 1   86   42 ****** ***** ****** *** *** *****  0.00 ***** ***** **
948440 ***** 201503032200 160   8 *** *** BKN * * * 12.5 02 ** ** ** ** ** ** ** 1   60   51 ****** ***** ****** *** *** ***** *****  0.00 ***** **
948440 ***** 201503040400 270   6 *** *** SCT * * * 31.2 02 ** ** ** ** ** ** ** 0   81   37 ****** ***** ****** *** *** ***** ***** ***** ***** **
948440 ***** 201503050400 180   8 *** *** SCT * * * 31.2 02 ** ** ** ** ** ** ** 0   72   35 ****** ***** ****** *** *** *****  0.00 ***** ***** **
948440 ***** 201503052200 270   6 *** *** BKN * * * 31.2 02 ** ** ** ** ** ** ** 1   53   45 ****** ***** ****** *** *** ***** *****  0.00 ***** **
948440 ***** 201503060400 200  17 ***  20 BKN * * * 25.0 02 ** ** ** ** ** ** ** 1   76   50 ****** ***** ****** *** *** ***** ***** ***** ***** **
948440 ***** 201503062200 250   2 *** *** BKN * * * 12.5 02 ** ** ** ** ** ** ** 2   58   51 ****** ***** ****** *** *** ***** *****  0.00 ***** **
948440 ***** 201503070400 230   6 *** *** BKN * * * 12.5 02 ** ** ** ** ** ** ** 2   72   54 ****** ***** ****** *** *** ***** ***** ***** ***** **
948440 ***** 201503072200 ***   0 *** *** *** * * * 31.2 02 ** ** ** ** ** ** ** 0   63   53 ****** ***** ****** *** *** ***** *****  0.00 ***** **
948440 ***** 201503080400 270   8 *** *** SCT * * * 31.2 02 ** ** ** ** ** ** ** 0   73   57 ****** ***** ****** *** *** *****  0.00 ***** ***** **
948440 ***** 201503082200 230   2 *** *** *** * * * 31.2 02 ** ** ** ** ** ** ** 0   63   53 ****** ***** ****** *** *** ***** *****  0.00 ***** **
948440 ***** 201503090400 270   8 *** *** BKN * * * 18.8 02 ** ** ** ** ** ** ** 1   81   54 ****** ***** ****** *** *** *****  0.00 ***** ***** **
948440 ***** 201503092200 130   8 *** *** *** * * * 31.2 02 ** ** ** ** ** ** ** 0   56   50 ****** ***** ****** *** *** ***** *****  0.00 ***** **
948440 ***** 201503100400 270   8 *** *** SCT * * * 31.2 02 ** ** ** ** ** ** ** 0   83   50 ****** ***** ****** *** *** *****  0.00 ***** ***** **
948440 ***** 201503102200 230   2 *** *** SCT * * * 31.2 02 ** ** ** ** ** ** ** 0   59   43 ****** ***** ****** *** *** ***** ***** ***** ***** **
948440 ***** 201503110400 250  10 *** *** SCT * * * 31.2 02 ** ** ** ** ** ** ** 0   87   46 ****** ***** ****** *** *** ***** ***** ***** ***** **
948440 ***** 201503112200 180  16 *** 722 CLR * * * 31.2 02 ** ** ** ** ** ** ** 0   63   52 ****** ***** ****** *** *** ***** ***** ***** ***** **
948440 ***** 201503120400 180   4 *** *** SCT * * * 31.2 02 ** ** ** ** ** ** ** 0   76   41 ****** ***** ****** *** *** ***** ***** ***** ***** **
948440 ***** 201503122200 180   8 *** 722 CLR * * * 31.2 02 ** ** ** ** ** ** ** 0   54   43 ****** ***** ****** *** *** ***** ***** ***** ***** **
948440 ***** 201503130400 160  16 *** 722 CLR * * * 31.2 02 ** ** ** ** ** ** ** 0   77   38 ****** ***** ****** *** *** ***** ***** ***** ***** **
948440 ***** 201503132200 110   1 *** 722 CLR * * * 31.2 02 ** ** ** ** ** ** ** 0   58   47 ****** ***** ****** *** *** ***** ***** ***** ***** **
948440 ***** 201503140400 270   6 *** *** SCT * * * 25.0 02 ** ** ** ** ** ** ** 0   85   40 ****** ***** ****** *** *** ***** ***** ***** ***** **
948440 ***** 201503152200 110   4 *** *** BKN * * * 25.0 02 ** ** ** ** ** ** ** 1   55   48 ****** ***** ****** *** *** ***** ***** ***** ***** **
948440 ***** 201503160400 020   7 *** *** BKN * * * 18.8 02 ** ** ** ** ** ** ** 2   81   47 ****** ***** ****** *** *** ***** ***** ***** ***** **
948440 ***** 201503162200 070   2 ***  20 OVC * * * 12.5 02 ** ** ** ** ** ** ** 2   67   44 ****** ***** ****** *** *** ***** ***** ***** ***** **
948440 ***** 201503170400 020  14 ***  20 BKN * * * 12.5 02 ** ** ** ** ** ** ** 2   82   56 ****** ***** ****** *** *** ***** ***** ***** ***** **
948440 ***** 201503172200 250   2 *** *** SCT * * * 12.5 02 ** ** ** ** ** ** ** 5   62   60 ****** ***** ****** *** *** ***** *****  0.17 ***** **
948440 ***** 201503180400 200  10 ***  20 BKN * * * 12.5 02 ** ** ** ** ** ** ** 2   75   57 ****** ***** ****** *** *** ***** ***** ***** ***** **
948440 ***** 201503182200 020  13 *** *** SCT * * * 31.2 02 ** ** ** ** ** ** ** 1   69   53 ****** ***** ****** *** *** ***** ***** ***** ***** **
948440 ***** 201503190400 340  17 ***  20 BKN * * * 18.8 02 ** ** ** ** ** ** ** 1   98   50 ****** ***** ****** *** *** ***** ***** ***** ***** **
948440 ***** 201503192200 200   8 *** 722 CLR * * * 31.2 02 ** ** ** ** ** ** ** 0   58   48 ****** ***** ****** *** *** ***** ***** ***** ***** **
948440 ***** 201503200400 250  14 *** *** SCT * * * 31.2 02 ** ** ** ** ** ** ** 0   71   37 ****** ***** ****** *** *** ***** ***** ***** ***** **
948440 ***** 201503202200 180   4 *** 722 CLR * * * 31.2 02 ** ** ** ** ** ** ** 0   53   42 ****** ***** ****** *** *** ***** ***** ***** ***** **
948440 ***** 201503210400 180   7 *** 722 CLR * * * 31.2 02 ** ** ** ** ** ** ** 0   75   50 ****** ***** ****** *** *** ***** ***** ***** ***** **
948440 ***** 201503212200 090   2 *** 722 CLR * * * 31.2 02 ** ** ** ** ** ** ** 0   62   49 ****** ***** ****** *** *** ***** ***** ***** ***** **
948440 ***** 201503220400 070   2 *** *** SCT * * * 31.2 03 ** ** ** ** ** ** ** 0   85   52 ****** ***** ****** *** *** ***** ***** ***** ***** **
948440 ***** 201503222200 360   4 ***  20 BKN * * * 12.5 02 ** ** ** ** ** ** ** 2   67   54 ****** ***** ****** *** *** ***** ***** ***** ***** **
948440 ***** 201503230400 270  10 *** *** OVC * * * 12.5 02 ** ** ** ** ** ** ** 2   78   60 ****** ***** ****** *** *** ***** ***** ***** ***** **
948440 ***** 201503232200 180  10 *** *** SCT * * * 31.2 02 ** ** ** ** ** ** ** 1   56   47 ****** ***** ****** *** *** ***** ***** ***** ***** **
948440 ***** 201503240400 200  14 *** *** SCT * * * 31.2 02 ** ** ** ** ** ** ** 0   68   39 ****** ***** ****** *** *** ***** ***** ***** ***** **
948440 ***** 201503250400 270   6 *** *** SCT * * * 31.2 02 ** ** ** ** ** ** ** 0   69   39 ****** ***** ****** *** *** ***** ***** ***** ***** **
948440 ***** 201503252200 270  10 *** 722 CLR * * * 31.2 02 ** ** ** ** ** ** ** 0   52   43 ****** ***** ****** *** *** ***** ***** ***** ***** **
948440 ***** 201503260400 270  17 ***  33 BKN * * * 31.2 03 ** ** ** ** ** ** ** 1   66   35 ****** ***** ****** *** *** ***** ***** ***** ***** **
948440 ***** 201503270400 270   4 ***  33 BKN * * * 31.2 02 ** ** ** ** ** ** ** 1   66   44 ****** ***** ****** *** *** ***** ***** ***** ***** **
948440 ***** 201503272200 180   4 *** *** SCT * * * 31.2 02 ** ** ** ** ** ** ** 0   54   44 ****** ***** ****** *** *** ***** ***** ***** ***** **
948440 ***** 201503282200 360   0 *** *** SCT * * * 31.2 02 ** ** ** ** ** ** ** 0   56   46 ****** ***** ****** *** *** ***** ***** ***** ***** **
948440 ***** 201503292200 160   2 *** *** SCT * * * 31.2 02 ** ** ** ** ** ** ** 1   51   43 ****** ***** ****** *** *** ***** ***** ***** ***** **
948440 ***** 201503300400 270   1 *** *** SCT * * * 31.2 02 ** ** ** ** ** ** ** 0   82   44 ****** ***** ****** *** *** ***** ***** ***** ***** **
948440 ***** 201503302200 180   6 *** 722 CLR * * * 31.2 02 ** ** ** ** ** ** ** 0   57   49 ****** ***** ****** *** *** ***** ***** ***** ***** **
948440 ***** 201503310400 360   0 *** 722 CLR * * * 31.2 02 ** ** ** ** ** ** ** 0   85   49 ****** ***** ****** *** *** ***** ***** ***** ***** **
948440 ***** 201504010400 360  10 *** *** BKN * * * 18.8 03 ** ** ** ** ** ** ** 2   87   50 ****** ***** ****** *** *** ***** ***** ***** ***** **
948440 ***** 201504012200 200  12 *** *** BKN * * * 18.8 02 ** ** ** ** ** ** ** 2   56   45 ****** ***** ****** *** *** ***** ***** ***** ***** **
948440 ***** 201504020400 200   8 *** *** SCT * * * 31.2 01 ** ** ** ** ** ** ** 1   72   38 ****** ***** ****** *** *** ***** ***** ***** ***** **
948440 ***** 201504022200 180   8 *** *** SCT * * * 31.2 02 ** ** ** ** ** ** ** 0   51   40 ****** ***** ****** *** *** ***** ***** ***** ***** **
948440 ***** 201504030400 200   8 *** *** SCT * * * 31.2 02 ** ** ** ** ** ** ** 0   71   42 ****** ***** ****** *** *** ***** ***** ***** ***** **
948440 ***** 201504032200 160   2 *** *** BKN * * * 12.5 02 ** ** ** ** ** ** ** 1   55   45 ****** ***** ****** *** *** ***** ***** ***** ***** **
948440 ***** 201504040400 270   2 *** *** SCT * * * 31.2 02 ** ** ** ** ** ** ** 0   77   42 ****** ***** ****** *** *** ***** ***** ***** ***** **
948440 ***** 201504042300 310   2 *** *** BKN * * * 18.8 03 ** ** ** ** ** ** ** 1   61   40 ****** ***** ****** *** *** ***** ***** ***** ***** **
948440 ***** 201504050500 270   2 *** *** BKN * * * 31.2 02 ** ** ** ** ** ** ** 1   76   43 ****** ***** ****** *** *** ***** ***** ***** ***** **
948440 ***** 201504052300 180   1 ***  49 BKN * * * 25.0 02 ** ** ** ** ** ** ** 2   56   48 ****** ***** ****** *** *** ***** ***** ***** ***** **
948440 ***** 201504060500 270  16 ***  33 BKN * * * 12.5 02 ** ** ** ** ** ** ** 2   59   47 ****** ***** ****** *** *** ***** ***** ***** ***** **
948440 ***** 201504072300 250   7 *** *** SCT * * * 31.2 02 ** ** ** ** ** ** ** 0   53   46 ****** ***** ****** *** *** ***** *****  0.04 ***** **
948440 ***** 201504082300 180   9 *** *** SCT * * * 31.2 02 ** ** ** ** ** ** ** 0   57   45 ****** ***** ****** *** *** ***** ***** ***** ***** **
948440 ***** 201504090500 130  10 *** *** SCT * * * 25.0 02 ** ** ** ** ** ** ** 1   69   44 ****** ***** ****** *** *** ***** ***** ***** ***** **
948440 ***** 201504112300 130   4 *** *** BKN * * * 12.5 03 ** ** ** ** ** ** ** 1   59   47 ****** ***** ****** *** *** ***** ***** ***** ***** **
948440 ***** 201504120500 160   4 *** *** BKN * * * 12.5 02 ** ** ** ** ** ** ** 2   74   49 ****** ***** ****** *** *** ***** ***** ***** ***** **
948440 ***** 201504130500 340   2 *** *** BKN * * * 18.8 02 ** ** ** ** ** ** ** 2   77   49 ****** ***** ****** *** *** ***** ***** ***** ***** **
948440 ***** 201504140500 020   6 *** *** BKN * * * 31.2 02 ** ** ** ** ** ** ** 1   84   46 ****** ***** ****** *** *** ***** ***** ***** ***** **
948440 ***** 201504150500 270   6 *** *** SCT * * * 31.2 02 ** ** ** ** ** ** ** 1   88   52 ****** ***** ****** *** *** ***** ***** ***** ***** **
948440 ***** 201504152300 230   6 *** *** SCT * * * 25.0 02 ** ** ** ** ** ** ** 0   59   55 ****** ***** ****** *** *** ***** ***** ***** ***** **
948440 ***** 201504160500 180   8 ***  20 BKN * * * 12.5 02 ** ** ** ** ** ** ** 1   70   51 ****** ***** ****** *** *** ***** ***** ***** ***** **
948440 ***** 201504162300 130   2 ***  20 OVC * * *  3.1 51 ** ** ** ** ** ** ** 5   55   54 ****** ***** ****** *** *** ***** *****  0.12 ***** **
948440 ***** 201504170500 090   2 *** *** OVC * * *  0.3 61 ** ** ** ** ** ** ** 6   57   56 ****** ***** ****** *** *** *****  0.31 ***** ***** **
948440 ***** 201504172300 250   6 ***  20 OVC * * *  6.2 03 ** ** ** ** ** ** ** 6   58   55 ****** ***** ****** *** *** ***** *****  0.47 ***** **
948440 ***** 201504180500 270   6 *** *** SCT * * * 31.2 02 ** ** ** ** ** ** ** 1   67   51 ****** ***** ****** *** *** ***** ***** ***** ***** **
948440 ***** 201504182300 230  10 *** 722 CLR * * * 31.2 02 ** ** ** ** ** ** ** 0   53   44 ****** ***** ****** *** *** ***** ***** ***** ***** **
948440 ***** 201504190500 200  17 *** *** SCT * * * 31.2 03 ** ** ** ** ** ** ** 1   61   46 ****** ***** ****** *** *** ***** ***** ***** ***** **
948440 ***** 201504192300 180  14 *** 722 CLR * * * 31.2 02 ** ** ** ** ** ** ** 5   52   42 ****** ***** ****** *** *** ***** *****  0.01 ***** **
948440 ***** 201504200500 160  21 *** *** SCT * * * 31.2 02 ** ** ** ** ** ** ** 0   63   56 ****** ***** ****** *** *** ***** ***** ***** ***** **
948440 ***** 201504202300 160  14 *** 722 CLR * * * 31.2 02 ** ** ** ** ** ** ** 0   50   42 ****** ***** ****** *** *** ***** ***** ***** ***** **
948440 ***** 201504210500 160  17 *** 722 CLR * * * 31.2 02 ** ** ** ** ** ** ** 0   68   61 ****** ***** ****** *** *** ***** ***** ***** ***** **
948440 ***** 201504220500 130   6 *** *** SCT * * * 31.2 02 ** ** ** ** ** ** ** 0   73   65 ****** ***** ****** *** *** ***** ***** ***** ***** **
948440 ***** 201504230500 230   2 *** *** BKN * * * 12.5 03 ** ** ** ** ** ** ** 1   73   55 ****** ***** ****** *** *** ***** ***** ***** ***** **
948440 ***** 201504240500 290   6 ***  33 BKN * * * 12.5 02 ** ** ** ** ** ** ** 2   68   53 ****** ***** ****** *** *** ***** ***** ***** ***** **
948440 ***** 201504242300 200   2 *** *** BKN * * * 12.5 03 ** ** ** ** ** ** ** 6   52   49 ****** ***** ****** *** *** ***** *****  0.16 ***** **
948440 ***** 201504250500 250   6 *** *** BKN * * * 12.5 02 ** ** ** ** ** ** ** 2   59   49 ****** ***** ****** *** *** ***** ***** ***** ***** **
948440 ***** 201504252300 230   2 *** *** SCT * * * 31.2 02 ** ** ** ** ** ** ** 8   49   47 ****** ***** ****** *** *** ***** *****  0.01 ***** **
948440 ***** 201504260500 200   8 ***  20 BKN * * * 12.5 02 ** ** ** ** ** ** ** 2   61   46 ****** ***** ****** *** *** ***** ***** ***** ***** **
948440 ***** 201504262300 230   8 *** *** SCT * * * 31.2 02 ** ** ** ** ** ** ** 1   50   47 ****** ***** ****** *** *** ***** ***** ***** ***** **
948440 ***** 201504270500 200   6 ***  33 BKN * * * 12.5 02 ** ** ** ** ** ** ** 1   61   45 ****** ***** ****** *** *** ***** ***** ***** ***** **
948440 ***** 201504272300 200   6 *** 722 CLR * * * 31.2 02 ** ** ** ** ** ** ** 0   49   47 ****** ***** ****** *** *** ***** ***** ***** ***** **
948440 ***** 201504280500 180  10 *** *** SCT * * * 25.0 02 ** ** ** ** ** ** ** 0   64   38 ****** ***** ****** *** *** ***** ***** ***** ***** **
948440 ***** 201504282300 130   8 ***  20 BKN * * * 12.5 02 ** ** ** ** ** ** ** 2   47   43 ****** ***** ****** *** *** ***** ***** ***** ***** **
948440 ***** 201504290500 110   8 *** *** SCT * * * 18.8 02 ** ** ** ** ** ** ** 1   65   41 ****** ***** ****** *** *** ***** ***** ***** ***** **
948440 ***** 201504292300 110  14 *** *** SCT * * * 31.2 02 ** ** ** ** ** ** ** 0   54   46 ****** ***** ****** *** *** ***** ***** ***** ***** **
948440 ***** 201504300500 110   6 *** *** SCT * * * 31.2 02 ** ** ** ** ** ** ** 0   71   44 ****** ***** ****** *** *** ***** ***** ***** ***** **
948440 ***** 201505010500 050  10 *** *** SCT * * * 31.2 02 ** ** ** ** ** ** ** 0   73   47 ****** ***** ****** *** *** ***** ***** ***** ***** **
948440 ***** 201505022300 230   2 *** *** SCT * * * 31.2 02 ** ** ** ** ** ** ** 0   55   51 ****** ***** ****** *** *** ***** ***** ***** ***** **
948440 ***** 201505030500 230   2 *** 722 CLR * * * 31.2 02 ** ** ** ** ** ** ** 0   69   47 ****** ***** ****** *** *** ***** ***** ***** ***** **
948440 ***** 201505040500 050   6 *** 722 CLR * * * 31.2 02 ** ** ** ** ** ** ** 0   72   46 ****** ***** ****** *** *** ***** ***** ***** ***** **
948440 ***** 201505042300 290  17 ***  20 BKN * * * 12.5 03 ** ** ** ** ** ** ** 1   63   43 ****** ***** ****** *** *** ***** ***** ***** ***** **
948440 ***** 201505050500 270  14 ***  20 BKN * * * 31.2 02 ** ** ** ** ** ** ** 2   62   37 ****** ***** ****** *** *** ***** ***** ***** ***** **
948440 ***** 201505060500 270   8 ***  49 BKN * * * 12.5 02 ** ** ** ** ** ** ** 2   64   42 ****** ***** ****** *** *** ***** ***** ***** ***** **
948440 ***** 201505062300 270  10 *** *** SCT * * * 31.2 02 ** ** ** ** ** ** ** 5   52   46 ****** ***** ****** *** *** ***** *****  0.02 ***** **
948440 ***** 201505070500 250  17 *** *** SCT * * * 12.5 02 ** ** ** ** ** ** ** 1   59   40 ****** ***** ****** *** *** ***** ***** ***** ***** **
948440 ***** 201505072300 310   6 ***  10 BKN * * * 12.5 02 ** ** ** ** ** ** ** 2   47 **** ****** ***** ****** *** *** ***** ***** ***** ***** **
948440 ***** 201505080500 250  10 ***  10 OVC * * * 12.5 02 ** ** ** ** ** ** ** 2   61 **** ****** ***** ****** *** *** ***** ***** ***** ***** **
948440 ***** 201505082300 310   8 ***  33 BKN * * * 12.5 02 ** ** ** ** ** ** ** 8   55 **** ****** ***** ****** *** *** ***** *****  0.01 ***** **
948440 ***** 201505092300 270  14 ***  20 OVC * * *  6.2 03 ** ** ** ** ** ** ** 8   56 **** ****** ***** ****** *** *** ***** *****  0.04 ***** **
948440 ***** 201505100500 270  11 ***  20 OVC * * *  6.2 02 ** ** ** ** ** ** ** 8   60 **** ****** ***** ****** *** *** *****  0.28 ***** ***** **
948440 ***** 201505112300 310  14 ***  10 BKN * * * 12.5 02 ** ** ** ** ** ** ** 2   56 **** ****** ***** ****** *** *** ***** ***** ***** ***** **
948440 ***** 201505120500 250  21 ***  20 BKN * * *  6.2 02 ** ** ** ** ** ** ** 2   60 **** ****** ***** ****** *** *** *****  0.01 ***** ***** **
948440 ***** 201505122300 250  10 *** 722 CLR * * * 31.2 02 ** ** ** ** ** ** ** 0   41 **** ****** ***** ****** *** *** ***** *****  0.01 ***** **
948440 ***** 201505130500 250  17 *** *** SCT * * * 31.2 02 ** ** ** ** ** ** ** 0   55 **** ****** ***** ****** *** *** ***** ***** ***** ***** **
948440 ***** 201505132300 250   8 *** *** SCT * * * 31.2 02 ** ** ** ** ** ** ** 0   46 **** ****** ***** ****** *** *** ***** ***** ***** ***** **
948440 ***** 201505140500 200  14 ***  20 BKN * * * 12.5 02 ** ** ** ** ** ** ** 2   60 **** ****** ***** ****** *** *** ***** ***** ***** ***** **
948440 ***** 201505142300 230   2 *** 722 CLR * * * 31.2 02 ** ** ** ** ** ** ** 0   45 **** ****** ***** ****** *** *** ***** ***** ***** ***** **
948440 ***** 201505150500 180  10 *** *** SCT * * * 31.2 02 ** ** ** ** ** ** ** 0   64   46 ****** ***** ****** *** *** ***** ***** ***** ***** **
948440 ***** 201505152300 090   2 *** 722 CLR * * * 31.2 02 ** ** ** ** ** ** ** 0   46   42 ****** ***** ****** *** *** ***** ***** ***** ***** **
948440 ***** 201505162300 180   2 *** 722 CLR * * * 31.2 02 ** ** ** ** ** ** ** 0   49   45 ****** ***** ****** *** *** ***** ***** ***** ***** **
948440 ***** 201505170500 020   6 *** *** SCT * * * 31.2 02 ** ** ** ** ** ** ** 0   68   45 ****** ***** ****** *** *** ***** ***** ***** ***** **
948440 ***** 201505180500 360   6 *** *** BKN * * * 12.5 03 ** ** ** ** ** ** ** 1   69   45 ****** ***** ****** *** *** ***** ***** ***** ***** **
948440 ***** 201505192300 340  10 *** *** SCT * * * 25.0 03 ** ** ** ** ** ** ** 5   54   53 ****** ***** ****** *** *** ***** *****  0.24 ***** **
948440 ***** 201505200500 250  17 ***  20 BKN * * * 12.5 02 ** ** ** ** ** ** ** 1   62   49 ****** ***** ****** *** *** ***** ***** ***** ***** **
948440 ***** 201505202300 200  10 *** *** BKN * * * 18.8 02 ** ** ** ** ** ** ** 5   51   46 ****** ***** ****** *** *** ***** *****  0.08 ***** **
948440 ***** 201505210500 200  10 ***  20 BKN * * * 12.5 02 ** ** ** ** ** ** ** 2   58   46 ****** ***** ****** *** *** ***** ***** ***** ***** **
948440 ***** 201505212300 180  17 *** 722 CLR * * * 31.2 02 ** ** ** ** ** ** ** 0   52   46 ****** ***** ****** *** *** ***** ***** ***** ***** **
948440 ***** 201505220500 180  10 *** 722 CLR * * * 31.2 02 ** ** ** ** ** ** ** 0   63   42 ****** ***** ****** *** *** ***** ***** ***** ***** **
948440 ***** 201505222300 130   6 *** *** SCT * * * 31.2 02 ** ** ** ** ** ** ** 0   45   41 ****** ***** ****** *** *** ***** ***** ***** ***** **
948440 ***** 201505230500 090   2 *** *** SCT * * * 31.2 02 ** ** ** ** ** ** ** 0   60   43 ****** ***** ****** *** *** ***** ***** ***** ***** **
948440 ***** 201505240500 310   2 *** *** BKN * * * 18.8 03 ** ** ** ** ** ** ** 1   61   44 ****** ***** ****** *** *** ***** ***** ***** ***** **
948440 ***** 201505242300 020   2 ***  10 BKN * * * 12.5 11 ** ** ** ** ** ** ** 4   45   44 ****** ***** ****** *** *** ***** ***** ***** ***** **
948440 ***** 201505250500 070   6 *** *** SCT * * * 31.2 01 ** ** ** ** ** ** ** 1   62   46 ****** ***** ****** *** *** ***** ***** ***** ***** **
948440 ***** 201505252300 130   2 ***  10 BKN * * * 12.5 11 ** ** ** ** ** ** ** 4   44   44 ****** ***** ****** *** *** ***** ***** ***** ***** **
948440 ***** 201505260500 070   2 ***  20 BKN * * * 12.5 02 ** ** ** ** ** ** ** 2   59   47 ****** ***** ****** *** *** ***** ***** ***** ***** **
948440 ***** 201505272300 340   6 *** *** BKN * * * 12.5 02 ** ** ** ** ** ** ** 2   55   51 ****** ***** ****** *** *** ***** ***** ***** ***** **
948440 ***** 201505280500 340   8 *** *** BKN * * * 12.5 02 ** ** ** ** ** ** ** 2   63   57 ****** ***** ****** *** *** ***** ***** ***** ***** **
948440 ***** 201505282300 310   2 *** *** SCT * * *  0.2 42 ** ** ** ** ** ** ** 4   46   46 ****** ***** ****** *** *** ***** ***** ***** ***** **
948440 ***** 201505290500 270   2 ***  20 BKN * * * 12.5 02 ** ** ** ** ** ** ** 4   60   43 ****** ***** ****** *** *** ***** ***** ***** ***** **
948440 ***** 201505292300 340   6 ***  49 BKN * * * 12.5 02 ** ** ** ** ** ** ** 2   52   45 ****** ***** ****** *** *** ***** ***** ***** ***** **
948440 ***** 201505300500 270   8 *** *** SCT * * * 18.8 02 ** ** ** ** ** ** ** 1   62   40 ****** ***** ****** *** *** ***** ***** ***** ***** **
948440 ***** 201505302300 310   2 *** *** SCT * * * 31.2 02 ** ** ** ** ** ** ** 1   53   46 ****** ***** ****** *** *** ***** ***** ***** ***** **
948440 ***** 201505310500 290  17 ***  20 BKN * * * 12.5 03 ** ** ** ** ** ** ** 5   60   44 ****** ***** ****** *** *** ***** ***** ***** ***** **
948440 ***** 201506010500 180   8 *** *** SCT * * * 31.2 03 ** ** ** ** ** ** ** 0   52   34 ****** ***** ****** *** *** ***** ***** ***** ***** **
948440 ***** 201506012300 230   2 *** *** BKN * * * 25.0 02 ** ** ** ** ** ** ** 1   39   36 ****** ***** ****** *** *** ***** ***** ***** ***** **
948440 ***** 201506022300 230   2 ***  20 OVC * * * 12.5 02 ** ** ** ** ** ** ** 2   47   42 ****** ***** ****** *** *** ***** ***** ***** ***** **
948440 ***** 201506030500 160   2 ***  20 BKN * * * 12.5 02 ** ** ** ** ** ** ** 2   52   39 ****** ***** ****** *** *** ***** ***** ***** ***** **
948440 ***** 201506032300 020   6 *** *** BKN * * * 25.0 02 ** ** ** ** ** ** ** 2   44   36 ****** ***** ****** *** *** ***** ***** ***** ***** **
948440 ***** 201506040500 290   6 ***  10 OVC * * *  1.2 63 ** ** ** ** ** ** ** 6   49   45 ****** ***** ****** *** *** *****  0.12 ***** ***** **
948440 ***** 201506050500 130   8 ***  20 BKN * * * 12.5 02 ** ** ** ** ** ** ** 2   52   46 ****** ***** ****** *** *** ***** ***** ***** ***** **
948440 ***** 201506052300 090   2 *** *** SCT * * * 31.2 02 ** ** ** ** ** ** ** 0   48   46 ****** ***** ****** *** *** ***** ***** ***** ***** **
948440 ***** 201506062300 360   2 *** *** BKN * * * 31.2 03 ** ** ** ** ** ** ** 1   47   44 ****** ***** ****** *** *** ***** ***** ***** ***** **
948440 ***** 201506070500 360   6 *** *** OVC * * * 12.5 02 ** ** ** ** ** ** ** 2   59   47 ****** ***** ****** *** *** ***** ***** ***** ***** **
948440 ***** 201506072300 310   6 *** *** SCT * * * 31.2 02 ** ** ** ** ** ** ** 0   47   42 ****** ***** ****** *** *** ***** ***** ***** ***** **
948440 ***** 201506080500 340   6 *** *** SCT * * * 31.2 02 ** ** ** ** ** ** ** 0   65   47 ****** ***** ****** *** *** ***** ***** ***** ***** **
948440 ***** 201506090500 200   8 *** *** SCT * * * 31.2 02 ** ** ** ** ** ** ** 0   57   40 ****** ***** ****** *** *** ***** ***** ***** ***** **
948440 ***** 201506100500 130  10 *** *** SCT * * * 31.2 02 ** ** ** ** ** ** ** 0   55   40 ****** ***** ****** *** *** ***** ***** ***** ***** **
948440 ***** 201506102300 130   6 *** 722 CLR * * * 31.2 02 ** ** ** ** ** ** ** 0   40   37 ****** ***** ****** *** *** ***** ***** ***** ***** **
948440 ***** 201506110500 130   2 *** 722 CLR * * * 31.2 02 ** ** ** ** ** ** ** 0   61   46 ****** ***** ****** *** *** ***** ***** ***** ***** **
948440 ***** 201506112300 130   6 *** *** BKN * * * 18.8 02 ** ** ** ** ** ** ** 1   39   39 ****** ***** ****** *** *** ***** ***** ***** ***** **
948440 ***** 201506120500 020   2 *** *** SCT * * * 31.2 02 ** ** ** ** ** ** ** 0   65   47 ****** ***** ****** *** *** ***** ***** ***** ***** **
948440 ***** 201506130500 130   6 *** *** BKN * * * 31.2 02 ** ** ** ** ** ** ** 1   59   46 ****** ***** ****** *** *** ***** ***** ***** ***** **
948440 ***** 201506132300 130   2 *** *** SCT * * * 31.2 02 ** ** ** ** ** ** ** 0   43   41 ****** ***** ****** *** *** ***** ***** ***** ***** **
948440 ***** 201506142300 090   2 ***  20 OVC * * *  6.2 03 ** ** ** ** ** ** ** 5   52   48 ****** ***** ****** *** *** ***** *****  0.01 ***** **
948440 ***** 201506150500 090   6 *** *** OVC * * *  6.2 61 ** ** ** ** ** ** ** 6   53   51 ****** ***** ****** *** *** *****  0.31 ***** ***** **
948440 ***** 201506152300 070   2 *** *** *** * * *  0.0 51 ** ** ** ** ** ** ** 6   54   54 ****** ***** ****** *** *** ***** *****  0.91 ***** **
948440 ***** 201506160500 340   2 ***  20 BKN * * * 12.5 02 ** ** ** ** ** ** ** 5   59   53 ****** ***** ****** *** *** ***** ***** ***** ***** **
948440 ***** 201506162300 230   2 ***   3 BKN * * *  0.1 42 ** ** ** ** ** ** ** 4   50   50 ****** ***** ****** *** *** ***** ***** ***** ***** **
948440 ***** 201506170500 270   6 ***  20 OVC * * * 12.5 03 ** ** ** ** ** ** ** 2   58   53 ****** ***** ****** *** *** ***** ***** ***** ***** **
948440 ***** 201506172300 180   2 ***  10 OVC * * *  1.2 63 ** ** ** ** ** ** ** 6   51   50 ****** ***** ****** *** *** ***** *****  0.08 ***** **
948440 ***** 201506180500 180   6 ***  20 BKN * * * 18.8 03 ** ** ** ** ** ** ** 6   55   49 ****** ***** ****** *** *** *****  0.24 ***** ***** **
948440 ***** 201506182300 200   8 *** 722 CLR * * * 31.2 02 ** ** ** ** ** ** ** 0   45   39 ****** ***** ****** *** *** ***** *****  0.24 ***** **
948440 ***** 201506190500 180  10 ***  20 BKN * * * 12.5 02 ** ** ** ** ** ** ** 1   53   40 ****** ***** ****** *** *** ***** ***** ***** ***** **
948440 ***** 201506192300 180   6 *** 722 CLR * * * 31.2 02 ** ** ** ** ** ** ** 0   41   37 ****** ***** ****** *** *** ***** ***** ***** ***** **
948440 ***** 201506202300 090   2 *** 722 CLR * * *  0.2 42 ** ** ** ** ** ** ** 0   34   32 ****** ***** ****** *** *** ***** ***** ***** ***** **
948440 ***** 201506210500 020  10 *** *** SCT * * * 25.0 02 ** ** ** ** ** ** ** 0   53   38 ****** ***** ****** *** *** ***** ***** ***** ***** **
948440 ***** 201506212300 050   2 *** *** BKN * * * 18.8 02 ** ** ** ** ** ** ** 2   39   37 ****** ***** ****** *** *** ***** ***** ***** ***** **
948440 ***** 201506220500 050   8 ***  20 BKN * * * 12.5 02 ** ** ** ** ** ** ** 2   56   42 ****** ***** ****** *** *** ***** ***** ***** ***** **
948440 ***** 201506222300 050  10 *** *** SCT * * * 31.2 02 ** ** ** ** ** ** ** 0   49   43 ****** ***** ****** *** *** ***** ***** ***** ***** **
948440 ***** 201506230500 360  14 *** *** SCT * * * 18.8 02 ** ** ** ** ** ** ** 0   64   48 ****** ***** ****** *** *** ***** ***** ***** ***** **
948440 ***** 201506232300 310   2 *** *** BKN * * * 12.5 02 ** ** ** ** ** ** ** 2   48   45 ****** ***** ****** *** *** ***** ***** ***** ***** **
948440 ***** 201506240500 250   6 *** *** BKN * * * 18.8 02 ** ** ** ** ** ** ** 2   59   47 ****** ***** ****** *** *** ***** ***** ***** ***** **
948440 ***** 201506242300 230  10 ***  10 OVC * * *  6.2 03 ** ** ** ** ** ** ** 5   48   43 ****** ***** ****** *** *** ***** *****  0.01 ***** **
948440 ***** 201506250500 230   6 *** *** SCT * * * 31.2 02 ** ** ** ** ** ** ** 1   56   42 ****** ***** ****** *** *** ***** ***** ***** ***** **
948440 ***** 201506252300 360   0 ***  20 BKN * * * 12.5 02 ** ** ** ** ** ** ** 2   48   40 ****** ***** ****** *** *** ***** ***** ***** ***** **
948440 ***** 201506260200 270   2 *** *** SCT * * * 31.2 01 ** ** ** ** ** ** ** 1   58   43 ****** ***** ****** *** *** ***** ***** ***** ***** **
948440 ***** 201506260500 270   2 *** *** SCT * * * 31.2 01 ** ** ** ** ** ** ** 1   58   43 ****** ***** ****** *** *** ***** ***** ***** ***** **
948440 ***** 201506262300 250   2 ***  49 OVC * * *  6.2 02 ** ** ** ** ** ** ** 1   45   42 ****** ***** ****** *** *** ***** ***** ***** ***** **
948440 ***** 201506270500 270   2 *** *** BKN * * * 12.5 02 ** ** ** ** ** ** ** 2   54   42 ****** ***** ****** *** *** ***** ***** ***** ***** **
948440 ***** 201506272300 230   2 ***  33 BKN * * * 12.5 02 ** ** ** ** ** ** ** 2   42   40 ****** ***** ****** *** *** ***** ***** ***** ***** **
948440 ***** 201506280500 250   6 *** *** SCT * * * 18.8 02 ** ** ** ** ** ** ** 1   57   44 ****** ***** ****** *** *** ***** ***** ***** ***** **
948440 ***** 201506282300 130   2 ***  20 BKN * * * 12.5 02 ** ** ** ** ** ** ** 2   44   41 ****** ***** ****** *** *** ***** ***** ***** ***** **
948440 ***** 201506290500 180   2 ***  33 BKN * * * 31.2 02 ** ** ** ** ** ** ** 2   55   43 ****** ***** ****** *** *** ***** ***** ***** ***** **
948440 ***** 201506292300 130   2 *** *** SCT * * *  0.3 42 ** ** ** ** ** ** ** 4   36   36 ****** ***** ****** *** *** ***** ***** ***** ***** **
948440 ***** 201506300500 200   6 ***  20 BKN * * * 12.5 02 ** ** ** ** ** ** ** 2   52   38 ****** ***** ****** *** *** ***** ***** ***** ***** **
948440 ***** 201506302300 230   2 *** *** BKN * * * 18.8 02 ** ** ** ** ** ** ** 2   36   34 ****** ***** ****** *** *** ***** ***** ***** ***** **
948440 ***** 201507010500 270   2 ***  10 BKN * * * 12.5 02 ** ** ** ** ** ** ** 2   55   36 ****** ***** ****** *** *** ***** ***** ***** ***** **
948440 ***** 201507012300 270  10 ***  10 BKN * * * 12.5 02 ** ** ** ** ** ** ** 2   48   44 ****** ***** ****** *** *** ***** ***** ***** ***** **
948440 ***** 201507020500 200   8 *** *** SCT * * * 31.2 02 ** ** ** ** ** ** ** 0   55   32 ****** ***** ****** *** *** ***** ***** ***** ***** **
948440 ***** 201507022300 200   2 *** 722 CLR * * * 31.2 02 ** ** ** ** ** ** ** 0   34   33 ****** ***** ****** *** *** ***** ***** ***** ***** **
948440 ***** 201507030500 160   2 *** *** BKN * * * 12.5 02 ** ** ** ** ** ** ** 1   53   36 ****** ***** ****** *** *** ***** ***** ***** ***** **
948440 ***** 201507032300 270   2 *** *** SCT * * * 31.2 02 ** ** ** ** ** ** ** 0   37   34 ****** ***** ****** *** *** ***** ***** ***** ***** **
948440 ***** 201507042300 340   2 *** *** BKN * * * 31.2 02 ** ** ** ** ** ** ** 1   43   37 ****** ***** ****** *** *** ***** ***** ***** ***** **
948440 ***** 201507050500 340   6 *** 722 CLR * * * 31.2 02 ** ** ** ** ** ** ** 0   55   37 ****** ***** ****** *** *** ***** ***** ***** ***** **
948440 ***** 201507052300 020   2 ***  20 BKN * * * 12.5 02 ** ** ** ** ** ** ** 1   42   37 ****** ***** ****** *** *** ***** ***** ***** ***** **
948440 ***** 201507060500 360   6 ***  20 BKN * * *  6.2 03 ** ** ** ** ** ** ** 5   53   43 ****** ***** ****** *** *** ***** ***** ***** ***** **
948440 ***** 201507062300 360   0 *** *** *** * * *  0.0 45 ** ** ** ** ** ** ** 4   37   36 ****** ***** ****** *** *** ***** *****  0.08 ***** **
948440 ***** 201507070500 250   2 *** *** SCT * * * 31.2 02 ** ** ** ** ** ** ** 4   51   47 ****** ***** ****** *** *** ***** ***** ***** ***** **
948440 ***** 201507072300 250   2 ***  20 BKN * * *  0.3 42 ** ** ** ** ** ** ** 5   38   37 ****** ***** ****** *** *** ***** *****  0.01 ***** **
948440 ***** 201507080500 050   2 *** *** SCT * * * 18.8 02 ** ** ** ** ** ** ** 1   59   45 ****** ***** ****** *** *** ***** ***** ***** ***** **
948440 ***** 201507082300 050   6 ***  20 OVC * * * 12.5 02 ** ** ** ** ** ** ** 2   48   44 ****** ***** ****** *** *** ***** ***** ***** ***** **
948440 ***** 201507090500 020   6 ***  20 BKN * * * 12.5 02 ** ** ** ** ** ** ** 2   57   44 ****** ***** ****** *** *** ***** ***** ***** ***** **
948440 ***** 201507092300 360   0 ***  10 OVC * * *  3.1 50 ** ** ** ** ** ** ** 2   45   43 ****** ***** ****** *** *** ***** ***** ***** ***** **
948440 ***** 201507100500 360  17 ***  20 BKN * * * 12.5 02 ** ** ** ** ** ** ** 2   62   40 ****** ***** ****** *** *** ***** ***** ***** ***** **
948440 ***** 201507102300 340   6 *** *** BKN * * * 31.2 02 ** ** ** ** ** ** ** 8   51   43 ****** ***** ****** *** *** ***** *****  0.04 ***** **
948440 ***** 201507110500 340   6 ***  10 OVC * * *  6.2 50 ** ** ** ** ** ** ** 6   45   43 ****** ***** ****** *** *** *****  0.24 ***** ***** **
948440 ***** 201507112300 200  14 ***  20 OVC * * *  6.2 02 ** ** ** ** ** ** ** 8   43   40 ****** ***** ****** *** *** ***** *****  0.39 ***** **
948440 ***** 201507120500 230   6 ***  20 OVC * * *  6.2 51 ** ** ** ** ** ** ** 5   50   45 ****** ***** ****** *** *** *****  0.03 ***** ***** **
948440 ***** 201507122300 250  10 *** *** SCT * * * 25.0 02 ** ** ** ** ** ** ** 1   45   40 ****** ***** ****** *** *** ***** *****  0.20 ***** **
948440 ***** 201507130500 250  10 ***  20 OVC * * *  6.2 02 ** ** ** ** ** ** ** 2   53   46 ****** ***** ****** *** *** ***** ***** ***** ***** **
948440 ***** 201507132300 270   2 ***  10 OVC * * *  6.2 02 ** ** ** ** ** ** ** 5   44   36 ****** ***** ****** *** *** ***** *****  0.01 ***** **
948440 ***** 201507140500 360  17 ***  10 OVC * * *  6.2 50 ** ** ** ** ** ** ** 2   49   43 ****** ***** ****** *** *** *****  0.02 ***** ***** **
948440 ***** 201507142300 360   0 ***  10 BKN * * *  0.5 42 ** ** ** ** ** ** ** 6   36   36 ****** ***** ****** *** *** ***** *****  0.20 ***** **
948440 ***** 201507150500 180   6 ***  20 BKN * * * 18.8 02 ** ** ** ** ** ** ** 8   46   36 ****** ***** ****** *** *** *****  0.01 ***** ***** **
948440 ***** 201507152300 180   8 ***  33 BKN * * * 18.8 02 ** ** ** ** ** ** ** 2   46   38 ****** ***** ****** *** *** ***** *****  0.01 ***** **
948440 ***** 201507160500 200  10 *** *** SCT * * * 31.2 01 ** ** ** ** ** ** ** 0   55   40 ****** ***** ****** *** *** ***** ***** ***** ***** **
948440 ***** 201507162300 250  10 ***  20 BKN * * * 12.5 02 ** ** ** ** ** ** ** 1   43   41 ****** ***** ****** *** *** ***** ***** ***** ***** **
948440 ***** 201507182300 160   2 *** 722 CLR * * * 31.2 02 ** ** ** ** ** ** ** 0   36   33 ****** ***** ****** *** *** ***** ***** ***** ***** **
948440 ***** 201507190500 020   2 ***  20 BKN * * * 18.8 02 ** ** ** ** ** ** ** 1   54   38 ****** ***** ****** *** *** ***** ***** ***** ***** **
948440 ***** 201507192300 070   6 *** *** SCT * * * 25.0 02 ** ** ** ** ** ** ** 0   41   38 ****** ***** ****** *** *** ***** ***** ***** ***** **
948440 ***** 201507200500 020  10 ***  20 BKN * * * 12.5 02 ** ** ** ** ** ** ** 1   57   39 ****** ***** ****** *** *** ***** ***** ***** ***** **
948440 ***** 201507202300 020   8 *** *** BKN * * * 25.0 02 ** ** ** ** ** ** ** 2   46   42 ****** ***** ****** *** *** ***** ***** ***** ***** **
948440 ***** 201507210500 020   8 *** *** OVC * * * 12.5 02 ** ** ** ** ** ** ** 2   60   46 ****** ***** ****** *** *** ***** ***** ***** ***** **
948440 ***** 201507212300 360   8 ***  10 OVC * * * 12.5 02 ** ** ** ** ** ** ** 5   54   49 ****** ***** ****** *** *** ***** *****  0.02 ***** **
948440 ***** 201507220500 290   2 ***  20 OVC * * * 12.5 02 ** ** ** ** ** ** ** 2   59   45 ****** ***** ****** *** *** ***** ***** ***** ***** **
948440 ***** 201507230500 050   2 ***  20 BKN * * * 25.0 03 ** ** ** ** ** ** ** 4   54   47 ****** ***** ****** *** *** ***** ***** ***** ***** **
948440 ***** 201507232300 020   2 *** *** BKN * * * 25.0 03 ** ** ** ** ** ** ** 2   50   49 ****** ***** ****** *** *** ***** ***** ***** ***** **
948440 ***** 201507240500 310   5 ***  20 BKN * * * 31.2 03 ** ** ** ** ** ** ** 2   60   46 ****** ***** ****** *** *** ***** ***** ***** ***** **
948440 ***** 201507242300 310   2 *** 722 CLR * * * 25.0 02 ** ** ** ** ** ** ** 2   45   43 ****** ***** ****** *** *** ***** ***** ***** ***** **
948440 ***** 201507250500 310   5 ***  20 BKN * * * 31.2 03 ** ** ** ** ** ** ** 2   58    5 ****** ***** ****** *** *** ***** ***** ***** ***** **
948440 ***** 201507252300 310   2 *** 722 CLR * * * 25.0 02 ** ** ** ** ** ** ** 0   46   43 ****** ***** ****** *** *** ***** *****  0.04 ***** **
948440 ***** 201507260500 230   5 *** *** SCT * * * 31.2 03 ** ** ** ** ** ** ** 0   51   37 ****** ***** ****** *** *** ***** ***** ***** ***** **
948440 ***** 201507262300 270   2 *** 722 CLR * * * 25.0 02 ** ** ** ** ** ** ** 0   36   35 ****** ***** ****** *** *** ***** ***** ***** ***** **
948440 ***** 201507270500 270   5 ***  20 BKN * * * 31.2 03 ** ** ** ** ** ** ** 2   54   40 ****** ***** ****** *** *** ***** ***** ***** ***** **
948440 ***** 201507280500 200   2 ***  20 BKN * * * 31.2 03 ** ** ** ** ** ** ** 2   54   44 ****** ***** ****** *** *** ***** ***** ***** ***** **
948440 ***** 201507282300 360   0 *** *** *** * * *  0.3 45 ** ** ** ** ** ** ** 4   34   34 ****** ***** ****** *** *** ***** ***** ***** ***** **
948440 ***** 201507290500 290   2 *** *** OVC * * * 31.2 03 ** ** ** ** ** ** ** 2   53   39 ****** ***** ****** *** *** ***** ***** ***** ***** **
948440 ***** 201507300500 360   5 *** *** BKN * * * 31.2 03 ** ** ** ** ** ** ** 2   55   40 ****** ***** ****** *** *** ***** ***** ***** ***** **
948440 ***** 201507302300 230   2 *** 722 CLR * * * 31.2 02 ** ** ** ** ** ** ** 0   42   39 ****** ***** ****** *** *** ***** *****  0.01 ***** **
948440 ***** 201507310500 360   8 *** *** SCT * * * 31.2 02 ** ** ** ** ** ** ** 0   54   35 ****** ***** ****** *** *** ***** ***** ***** ***** **
948440 ***** 201507312300 310  10 *** *** OVC * * *  3.1 50 ** ** ** ** ** ** ** 8   55   53 ****** ***** ****** *** *** ***** *****  0.12 ***** **
948440 ***** 201508010500 230   6 *** *** OVC * * *  6.2 80 ** ** ** ** ** ** ** 8   53   49 ****** ***** ****** *** *** *****  0.31 ***** ***** **
948440 ***** 201508012300 270   2 *** *** BKN * * * 31.2 01 ** ** ** ** ** ** ** 8   44   41 ****** ***** ****** *** *** ***** *****  0.43 ***** **
948440 ***** 201508020500 290   8 ***  49 BKN * * * 12.5 03 ** ** ** ** ** ** ** 1   55   43 ****** ***** ****** *** *** ***** ***** ***** ***** **
948440 ***** 201508022300 290   8 *** *** SCT * * * 31.2 02 ** ** ** ** ** ** ** 5   49   45 ****** ***** ****** *** *** ***** *****  0.01 ***** **
948440 ***** 201508030500 270   6 ***  20 BKN * * * 18.8 02 ** ** ** ** ** ** ** 2   51   39 ****** ***** ****** *** *** ***** ***** ***** ***** **
948440 ***** 201508032300 270   2 *** 722 CLR * * * 31.2 02 ** ** ** ** ** ** ** 8   43   38 ****** ***** ****** *** *** ***** *****  0.01 ***** **
948440 ***** 201508040500 270   6 ***  49 OVC * * * 12.5 03 ** ** ** ** ** ** ** 1   50   38 ****** ***** ****** *** *** ***** ***** ***** ***** **
948440 ***** 201508042300 270  10 ***  10 OVC * * *  6.2 02 ** ** ** ** ** ** ** 5   48   45 ****** ***** ****** *** *** ***** *****  0.03 ***** **
948440 ***** 201508050500 250  10 *** *** BKN * * * 18.8 03 ** ** ** ** ** ** ** 8   55   39 ****** ***** ****** *** *** *****  0.01 ***** ***** **
948440 ***** 201508052300 270   6 *** *** *** * * *  0.2 43 ** ** ** ** ** ** ** 4   39   39 ****** ***** ****** *** *** ***** *****  0.01 ***** **
948440 ***** 201508060500 250   6 ***  10 BKN * * * 12.5 02 ** ** ** ** ** ** ** 2   55   45 ****** ***** ****** *** *** ***** ***** ***** ***** **
948440 ***** 201508062300 250   8 ***  10 OVC * * *  6.2 02 ** ** ** ** ** ** ** 2   48   46 ****** ***** ****** *** *** ***** ***** ***** ***** **
948440 ***** 201508070500 200   8 ***  20 BKN * * * 12.5 02 ** ** ** ** ** ** ** 5   56   45 ****** ***** ****** *** *** ***** ***** ***** ***** **
948440 ***** 201508072300 270   2 ***  49 OVC * * * 12.5 02 ** ** ** ** ** ** ** 2   49   47 ****** ***** ****** *** *** ***** ***** ***** ***** **
948440 ***** 201508080500 270   2 ***  10 BKN * * * 12.5 02 ** ** ** ** ** ** ** 2   57   44 ****** ***** ****** *** *** ***** ***** ***** ***** **
948440 ***** 201508082300 360   2 ***  49 OVC * * * 12.5 02 ** ** ** ** ** ** ** 2   50   42 ****** ***** ****** *** *** ***** ***** ***** ***** **
948440 ***** 201508092300 310   2 *** 722 CLR * * * 31.2 02 ** ** ** ** ** ** ** 0   51   37 ****** ***** ****** *** *** ***** ***** ***** ***** **
948440 ***** 201508100500 270   8 ***  33 BKN * * * 31.2 03 ** ** ** ** ** ** ** 1   60   43 ****** ***** ****** *** *** ***** ***** ***** ***** **
948440 ***** 201508110500 340  14 *** *** BKN * * * 31.2 03 ** ** ** ** ** ** ** 1   61   37 ****** ***** ****** *** *** ***** ***** ***** ***** **
948440 ***** 201508120500 250  14 ***  20 OVC * * *  6.2 02 ** ** ** ** ** ** ** 2   51   47 ****** ***** ****** *** *** *****  0.04 ***** ***** **
948440 ***** 201508122300 270   6 ***  10 BKN * * * 12.5 02 ** ** ** ** ** ** ** 8   46   43 ****** ***** ****** *** *** ***** *****  0.08 ***** **
948440 ***** 201508130500 270   2 ***  33 BKN * * * 18.8 02 ** ** ** ** ** ** ** 2   57   44 ****** ***** ****** *** *** ***** ***** ***** ***** **
948440 ***** 201508132300 270   2 ***  10 BKN * * *  6.2 02 ** ** ** ** ** ** ** 5   51   50 ****** ***** ****** *** *** ***** *****  0.01 ***** **
948440 ***** 201508140500 230   2 ***  33 BKN * * * 12.5 02 ** ** ** ** ** ** ** 2   59   50 ****** ***** ****** *** *** *****  0.01 ***** ***** **
948440 ***** 201508142300 200   2 ***  20 OVC * * *  6.2 02 ** ** ** ** ** ** ** 8   52   50 ****** ***** ****** *** *** ***** *****  0.02 ***** **
948440 ***** 201508150500 230   6 *** *** SCT * * * 25.0 02 ** ** ** ** ** ** ** 1   61   47 ****** ***** ****** *** *** ***** ***** ***** ***** **
948440 ***** 201508152300 290   2 ***  20 OVC * * *  6.2 02 ** ** ** ** ** ** ** 2   51   47 ****** ***** ****** *** *** ***** ***** ***** ***** **
948440 ***** 201508162300 270  10 ***   3 OVC * * *  6.2 02 ** ** ** ** ** ** ** 5   49   48 ****** ***** ****** *** *** ***** ***** ***** ***** **
948440 ***** 201508170500 230  14 ***  20 BKN * * * 12.5 02 ** ** ** ** ** ** ** 2   55   40 ****** ***** ****** *** *** ***** ***** ***** ***** **
948440 ***** 201508180500 180   2 ***  49 OVC * * * 12.5 02 ** ** ** ** ** ** ** 1   51   36 ****** ***** ****** *** *** ***** ***** ***** ***** **
948440 ***** 201508182300 360   0 *** 722 CLR * * * 31.2 02 ** ** ** ** ** ** ** 0   45   36 ****** ***** ****** *** *** ***** ***** ***** ***** **
948440 ***** 201508190500 360   2 *** *** SCT * * * 31.2 02 ** ** ** ** ** ** ** 0   57   38 ****** ***** ****** *** *** ***** ***** ***** ***** **
948440 ***** 201508192300 050   8 ***  10 BKN * * * 12.5 02 ** ** ** ** ** ** ** 2   49   39 ****** ***** ****** *** *** ***** ***** ***** ***** **
948440 ***** 201508200500 020  10 *** *** SCT * * * 31.2 02 ** ** ** ** ** ** ** 0   67   41 ****** ***** ****** *** *** ***** ***** ***** ***** **
948440 ***** 201508202300 050  17 ***  10 OVC * * *  6.2 02 ** ** ** ** ** ** ** 2   56   39 ****** ***** ****** *** *** ***** ***** ***** ***** **
948440 ***** 201508210500 020  10 ***  10 OVC * * *  6.2 50 ** ** ** ** ** ** ** 2   62   42 ****** ***** ****** *** *** ***** ***** ***** ***** **
948440 ***** 201508212300 250   6 *** *** SCT * * * 31.2 02 ** ** ** ** ** ** ** 0   54   46 ****** ***** ****** *** *** ***** ***** ***** ***** **
948440 ***** 201508222300 180   2 *** *** BKN * * * 12.5 02 ** ** ** ** ** ** ** 5   52   48 ****** ***** ****** *** *** ***** *****  0.01 ***** **
948440 ***** 201508230500 180   2 ***  20 BKN * * * 12.5 02 ** ** ** ** ** ** ** 2   63   49 ****** ***** ****** *** *** ***** ***** ***** ***** **
948440 ***** 201508232300 160  17 *** *** OVC * * *  6.2 02 ** ** ** ** ** ** ** 2   48   41 ****** ***** ****** *** *** ***** ***** ***** ***** **
948440 ***** 201508240500 180  21 ***  20 OVC * * *  6.2 02 ** ** ** ** ** ** ** 2   59   39 ****** ***** ****** *** *** ***** ***** ***** ***** **
948440 ***** 201508242300 160   8 *** *** BKN * * * 18.8 02 ** ** ** ** ** ** ** 2   53   44 ****** ***** ****** *** *** ***** ***** ***** ***** **
948440 ***** 201508252300 130   6 *** *** SCT * * * 31.2 02 ** ** ** ** ** ** ** 8   54   48 ****** ***** ****** *** *** ***** *****  0.02 ***** **
948440 ***** 201508260500 270   2 *** *** OVC * * *  6.2 02 ** ** ** ** ** ** ** 1   60   48 ****** ***** ****** *** *** ***** ***** ***** ***** **
948440 ***** 201508262300 230   2 ***  10 BKN * * * 18.8 02 ** ** ** ** ** ** ** 2   49   48 ****** ***** ****** *** *** ***** ***** ***** ***** **
948440 ***** 201508270500 200   2 ***  33 BKN * * * 12.5 80 ** ** ** ** ** ** ** 1   57   48 ****** ***** ****** *** *** *****  0.02 ***** ***** **
948440 ***** 201508272300 200   6 *** 722 CLR * * * 31.2 02 ** ** ** ** ** ** ** 8   50   44 ****** ***** ****** *** *** ***** *****  0.24 ***** **
948440 ***** 201508280500 180  10 *** *** SCT * * * 12.5 02 ** ** ** ** ** ** ** 0   57   40 ****** ***** ****** *** *** ***** ***** ***** ***** **
948440 ***** 201508282300 160   8 *** 722 CLR * * * 31.2 02 ** ** ** ** ** ** ** 0   47   33 ****** ***** ****** *** *** ***** ***** ***** ***** **
948440 ***** 201508292300 160   6 ***  20 OVC * * *  6.2 02 ** ** ** ** ** ** ** 2   50   38 ****** ***** ****** *** *** ***** ***** ***** ***** **
948440 ***** 201508300500 180  10 *** *** SCT * * * 18.8 02 ** ** ** ** ** ** ** 1   55   40 ****** ***** ****** *** *** ***** ***** ***** ***** **
948440 ***** 201508302300 180   6 *** 722 CLR * * * 31.2 02 ** ** ** ** ** ** ** 0   44   38 ****** ***** ****** *** *** ***** ***** ***** ***** **
948440 ***** 201508310500 230  10 *** 722 CLR * * * 31.2 02 ** ** ** ** ** ** ** 0   57   37 ****** ***** ****** *** *** ***** ***** ***** ***** **
948440 ***** 201508312300 130   2 *** 722 CLR * * * 31.2 02 ** ** ** ** ** ** ** 0   47   40 ****** ***** ****** *** *** ***** ***** ***** ***** **
948440 ***** 201509010500 360   6 *** *** SCT * * * 31.2 03 ** ** ** ** ** ** ** 0   66   37 ****** ***** ****** *** *** ***** ***** ***** ***** **
948440 ***** 201509020500 070   2 *** *** OVC * * *  0.6 63 ** ** ** ** ** ** ** 6   54   53 ****** ***** ****** *** *** *****  0.08 ***** ***** **
948440 ***** 201509022300 180   2 *** *** SCT * * * 31.2 03 ** ** ** ** ** ** ** 6   55   49 ****** ***** ****** *** *** ***** *****  0.55 ***** **
948440 ***** 201509030500 200  14 ***  20 OVC * * *  6.2 02 ** ** ** ** ** ** ** 2   62   46 ****** ***** ****** *** *** ***** ***** ***** ***** **
948440 ***** 201509032300 200   8 *** 722 CLR * * * 31.2 02 ** ** ** ** ** ** ** 0   48   39 ****** ***** ****** *** *** ***** ***** ***** ***** **
948440 ***** 201509050500 250   6 *** *** SCT * * * 31.2 02 ** ** ** ** ** ** ** 0   60   43 ****** ***** ****** *** *** ***** ***** ***** ***** **
948440 ***** 201509052300 050   2 *** *** OVC * * * 12.5 02 ** ** ** ** ** ** ** 1   48   44 ****** ***** ****** *** *** ***** ***** ***** ***** **
948440 ***** 201509060500 020   8 *** *** SCT * * * 31.2 01 ** ** ** ** ** ** ** 1   63   45 ****** ***** ****** *** *** ***** ***** ***** ***** **
948440 ***** 201509062300 250  10 *** 722 CLR * * * 31.2 02 ** ** ** ** ** ** ** 6   49   43 ****** ***** ****** *** *** ***** *****  0.31 ***** **
948440 ***** 201509072300 250   8 ***  10 BKN * * * 18.8 01 ** ** ** ** ** ** ** 2   53   50 ****** ***** ****** *** *** ***** *****  0.02 ***** **
948440 ***** 201509080500 230   8 *** *** SCT * * * 31.2 02 ** ** ** ** ** ** ** 0   64   46 ****** ***** ****** *** *** ***** ***** ***** ***** **
948440 ***** 201509082300 230  10 ***  20 BKN * * *  6.2 02 ** ** ** ** ** ** ** 2   52   48 ****** ***** ****** *** *** ***** ***** ***** ***** **
948440 ***** 201509090500 200   2 ***  33 BKN * * * 18.8 02 ** ** ** ** ** ** ** 2   62   49 ****** ***** ****** *** *** ***** ***** ***** ***** **
948440 ***** 201509092300 180  14 *** *** SCT * * * 31.2 02 ** ** ** ** ** ** ** 0   53   44 ****** ***** ****** *** *** ***** ***** ***** ***** **
948440 ***** 201509102300 020  10 *** 722 CLR * * * 31.2 02 ** ** ** ** ** ** ** 0   54   44 ****** ***** ****** *** *** ***** ***** ***** ***** **
948440 ***** 201509110500 360   8 *** *** SCT * * * 31.2 02 ** ** ** ** ** ** ** 0   67   47 ****** ***** ****** *** *** ***** ***** ***** ***** **
948440 ***** 201509112300 020   6 *** *** BKN * * * 31.2 03 ** ** ** ** ** ** ** 1   57   47 ****** ***** ****** *** *** ***** ***** ***** ***** **
948440 ***** 201509122300 020   6 *** 722 CLR * * * 31.2 02 ** ** ** ** ** ** ** 0   62   51 ****** ***** ****** *** *** ***** ***** ***** ***** **
948440 ***** 201509130500 020   6 *** 722 CLR * * * 31.2 02 ** ** ** ** ** ** ** 0   78   45 ****** ***** ****** *** *** ***** ***** ***** ***** **
948440 ***** 201509132300 360  10 *** 722 CLR * * * 31.2 02 ** ** ** ** ** ** ** 0   66   46 ****** ***** ****** *** *** ***** ***** ***** ***** **
948440 ***** 201509140500 360  14 *** *** SCT * * * 31.2 02 ** ** ** ** ** ** ** 0   85   28 ****** ***** ****** *** *** ***** ***** ***** ***** **
948440 ***** 201509150500 270   6 *** *** SCT * * * 31.2 02 ** ** ** ** ** ** ** 0   63   40 ****** ***** ****** *** *** ***** ***** ***** ***** **
948440 ***** 201509152300 110   6 *** *** BKN * * * 18.8 02 ** ** ** ** ** ** ** 1   50   44 ****** ***** ****** *** *** ***** ***** ***** ***** **
948440 ***** 201509160500 200   8 ***  20 BKN * * * 12.5 02 ** ** ** ** ** ** ** 2   62   40 ****** ***** ****** *** *** ***** ***** ***** ***** **
948440 ***** 201509162300 230   6 *** 722 CLR * * * 31.2 02 ** ** ** ** ** ** ** 0   52   43 ****** ***** ****** *** *** ***** ***** ***** ***** **
948440 ***** 201509170500 230  17 *** *** SCT * * * 25.0 02 ** ** ** ** ** ** ** 0   64   42 ****** ***** ****** *** *** ***** ***** ***** ***** **
948440 ***** 201509172300 180  10 *** *** SCT * * * 31.2 01 ** ** ** ** ** ** ** 0   56   44 ****** ***** ****** *** *** ***** ***** ***** ***** **
948440 ***** 201509180500 130  10 ***  20 BKN * * * 18.8 02 ** ** ** ** ** ** ** 1   62   44 ****** ***** ****** *** *** ***** ***** ***** ***** **
948440 ***** 201509182300 110   6 *** 722 CLR * * * 31.2 02 ** ** ** ** ** ** ** 0   53   46 ****** ***** ****** *** *** ***** ***** ***** ***** **
948440 ***** 201509190500 310   8 *** *** SCT * * * 25.0 02 ** ** ** ** ** ** ** 0   71   42 ****** ***** ****** *** *** ***** ***** ***** ***** **
948440 ***** 201509192300 020   6 *** *** SCT * * * 31.2 02 ** ** ** ** ** ** ** 0   64   47 ****** ***** ****** *** *** ***** ***** ***** ***** **
