  USAF  WBAN YR--MODAHRMN DIR SPD GUS CLG SKC L M H  VSB MW MW MW MW AW AW AW AW W TEMP DEWP    SLP   ALT    STP MAX MIN PCP01 PCP06 PCP24 PCPXX SD
948990 ***** 201501010400 230   7 *** *** BKN * * * 31.2 03 ** ** ** ** ** ** ** 2   89   62 ****** ***** ****** *** *** ***** ***** ***** ***** **
948990 ***** 201501012200 360   0 *** 722 CLR * * * 31.2 02 ** ** ** ** ** ** ** 1   72   55 ****** ***** ****** *** *** ***** ***** ***** ***** **
948990 ***** 201501020400 270   2 *** *** SCT * * * 31.2 03 ** ** ** ** ** ** ** 0   96   58 ****** ***** ****** *** *** *****  0.00 ***** ***** **
948990 ***** 201501022200 310   1 *** *** *** * * * 31.2 02 ** ** ** ** ** ** ** 0   75   54 ****** ***** ****** *** *** ***** *****  0.00 ***** **
948990 ***** 201501030400 230   1 *** *** SCT * * * 31.2 03 ** ** ** ** ** ** ** 0   95   66 ****** ***** ****** *** *** ***** ***** ***** ***** **
948990 ***** 201501032200 ***   0 *** *** OVC * * * 31.2 14 ** ** ** ** ** ** ** 2   75   64 ****** ***** ****** *** *** ***** *****  0.00 ***** **
948990 ***** 201501040400 ***   0 *** *** OVC * * * 25.0 02 ** ** ** ** ** ** ** 2   88   60 ****** ***** ****** *** *** *****  0.00 ***** ***** **
948990 ***** 201501042200 360   0 *** *** SCT * * * 31.2 02 ** ** ** ** ** ** ** 1   76   64 ****** ***** ****** *** *** ***** ***** ***** ***** **
948990 ***** 201501050400 310   3 *** *** BKN * * * 25.0 16 ** ** ** ** ** ** ** 2   93   70 ****** ***** ****** *** *** *****  0.00 ***** ***** **
948990 ***** 201501052200 ***   0 *** *** SCT * * * 25.0 03 ** ** ** ** ** ** ** 0   74   62 ****** ***** ****** *** *** ***** *****  0.00 ***** **
948990 ***** 201501060400 200   3 *** *** SCT * * * 34.4 16 ** ** ** ** ** ** ** 8   90   73 ****** ***** ****** *** *** *****  0.00 ***** ***** **
948990 ***** 201501062200 020   3 *** *** SCT * * * 31.2 03 ** ** ** ** ** ** ** 1   73   59 ****** ***** ****** *** *** ***** *****  0.00 ***** **
948990 ***** 201501070400 230   3 ***  10 BKN * * * 31.2 03 ** ** ** ** ** ** ** 1   92   58 ****** ***** ****** *** *** ***** ***** ***** ***** **
948990 ***** 201501072200 090   1 *** *** SCT * * * 25.0 03 ** ** ** ** ** ** ** 1   74   62 ****** ***** ****** *** *** ***** ***** ***** ***** **
948990 ***** 201501080400 200   6 *** *** BKN * * * 31.2 16 ** ** ** ** ** ** ** 2   86   61 ****** ***** ****** *** *** *****  0.00 ***** ***** **
948990 ***** 201501082200 ***   0 *** *** OVC * * * 25.0 15 ** ** ** ** ** ** ** 8   71   67 ****** ***** ****** *** *** ***** *****  0.32 ***** **
948990 ***** 201501090400 230   7 *** *** OVC * * * 25.0 15 ** ** ** ** ** ** ** 2   82   63 ****** ***** ****** *** *** *****  0.00 ***** ***** **
948990 ***** 201501092200 360   0 *** *** OVC * * *  0.1 63 ** ** ** ** ** ** ** 8   67   64 ****** ***** ****** *** *** ***** *****  0.47 ***** **
948990 ***** 201501100400 230   5 *** *** OVC * * *  3.1 53 ** ** ** ** ** ** ** 6   71   67 ****** ***** ****** *** *** ***** ***** ***** ***** **
948990 ***** 201501102200 ***   0 *** *** OVC * * *  6.2 10 ** ** ** ** ** ** ** 6   66   63 ****** ***** ****** *** *** ***** *****  0.55 ***** **
948990 ***** 201501110400 020   1 *** *** OVC * * * 31.2 02 ** ** ** ** ** ** ** 5   83   63 ****** ***** ****** *** *** *****  0.02 ***** ***** **
948990 ***** 201501112200 ***   0 *** *** *** * * * 31.2 02 ** ** ** ** ** ** ** 1   68   59 ****** ***** ****** *** *** ***** *****  0.02 ***** **
948990 ***** 201501120400 360   0 *** 722 CLR * * * 31.2 02 ** ** ** ** ** ** ** 0   88   51 ****** ***** ****** *** *** ***** ***** ***** ***** **
948990 ***** 201501122200 360   0 *** *** BKN * * * 31.2 03 ** ** ** ** ** ** ** 2   64   59 ****** ***** ****** *** *** ***** ***** ***** ***** **
948990 ***** 201501130400 050   3 *** *** OVC * * *  6.2 51 ** ** ** ** ** ** ** 6   72   67 ****** ***** ****** *** *** ***** ***** ***** ***** **
948990 ***** 201501132200 360   0 ***  10 OVC * * * 12.5 15 ** ** ** ** ** ** ** 6   69   64 ****** ***** ****** *** *** ***** *****  1.28 ***** **
948990 ***** 201501140400 270   6 *** *** BKN * * * 12.5 15 ** ** ** ** ** ** ** 5   74   62 ****** ***** ****** *** *** *****  0.02 ***** ***** **
948990 ***** 201501142200 360   0 *** 722 CLR * * * 31.2 02 ** ** ** ** ** ** ** 1   63   56 ****** ***** ****** *** *** ***** *****  0.02 ***** **
948990 ***** 201501150400 270   9 *** *** SCT * * * 31.2 02 ** ** ** ** ** ** ** 0   81   48 ****** ***** ****** *** *** ***** ***** ***** ***** **
948990 ***** 201501152200 ***   0 *** *** *** * * * 31.2 02 ** ** ** ** ** ** ** 0   64   45 ****** ***** ****** *** *** ***** *****  0.00 ***** **
948990 ***** 201501160400 270  10 *** *** SCT * * * 31.2 02 ** ** ** ** ** ** ** 0   79   41 ****** ***** ****** *** *** ***** ***** ***** ***** **
948990 ***** 201501162200 360   0 *** *** SCT * * * 31.2 03 ** ** ** ** ** ** ** 0   69   59 ****** ***** ****** *** *** ***** ***** ***** ***** **
948990 ***** 201501170400 250   7 *** *** SCT * * * 31.2 02 ** ** ** ** ** ** ** 0   77   51 ****** ***** ****** *** *** *****  0.00 ***** ***** **
948990 ***** 201501172200 360   0 *** *** SCT * * * 31.2 03 ** ** ** ** ** ** ** 0   62   55 ****** ***** ****** *** *** ***** ***** ***** ***** **
948990 ***** 201501180400 360   0 *** *** SCT * * * 31.2 03 ** ** ** ** ** ** ** 1   81   40 ****** ***** ****** *** *** ***** ***** ***** ***** **
948990 ***** 201501182200 ***   0 *** *** *** * * * 31.2 02 ** ** ** ** ** ** ** 0   61   49 ****** ***** ****** *** *** ***** *****  0.00 ***** **
948990 ***** 201501190400 ***   0 *** *** SCT * * * 31.2 03 ** ** ** ** ** ** ** 1   80   47 ****** ***** ****** *** *** *****  0.00 ***** ***** **
948990 ***** 201501192200 360   0 *** 722 CLR * * * 31.2 02 ** ** ** ** ** ** ** 0   66   55 ****** ***** ****** *** *** ***** ***** ***** ***** **
948990 ***** 201501200400 230   2 *** *** OVC * * * 31.2 03 ** ** ** ** ** ** ** 1   82   56 ****** ***** ****** *** *** ***** ***** ***** ***** **
948990 ***** 201501202200 ***   0 *** *** OVC * * * 18.8 16 ** ** ** ** ** ** ** 2   70   61 ****** ***** ****** *** *** ***** *****  0.00 ***** **
948990 ***** 201501210400 ***   0 *** *** OVC * * * 25.0 02 ** ** ** ** ** ** ** 2   77 **** ****** ***** ****** *** *** *****  0.00 ***** ***** **
948990 ***** 201501212200 ***   0 *** *** *** * * * 31.2 02 ** ** ** ** ** ** ** 1   69   58 ****** ***** ****** *** *** ***** ***** *****  0.00 **
948990 ***** 201501220400 360   0 *** *** SCT * * * 31.2 03 ** ** ** ** ** ** ** 1   88   62 ****** ***** ****** *** *** ***** ***** ***** ***** **
948990 ***** 201501222200 360   0 ***  10 BKN * * * 25.0 03 ** ** ** ** ** ** ** 0   67   62 ****** ***** ****** *** *** ***** ***** ***** ***** **
948990 ***** 201501232200 310   2 *** *** BKN * * * 31.2 03 ** ** ** ** ** ** ** 8   73   66 ****** ***** ****** *** *** ***** *****  0.13 ***** **
948990 ***** 201501240400 310   7 *** *** OVC * * * 12.5 16 ** ** ** ** ** ** ** 2   86   63 ****** ***** ****** *** *** *****  0.00 ***** ***** **
948990 ***** 201501242200 270  11 *** *** SCT * * * 31.2 01 ** ** ** ** ** ** ** 9   72   48 ****** ***** ****** *** *** ***** *****  0.38 ***** **
948990 ***** 201501250400 270  11 *** 722 CLR * * * 31.2 02 ** ** ** ** ** ** ** 0   81   36 ****** ***** ****** *** *** ***** ***** ***** ***** **
948990 ***** 201501252200 ***   0 *** *** *** * * * 31.2 02 ** ** ** ** ** ** ** 0   60   55 ****** ***** ****** *** *** ***** *****  0.00 ***** **
948990 ***** 201501260400 360   0 *** *** SCT * * * 31.2 02 ** ** ** ** ** ** ** 0   77   45 ****** ***** ****** *** *** ***** ***** ***** ***** **
948990 ***** 201501262200 ***   0 *** *** BKN * * * 31.2 03 ** ** ** ** ** ** ** 2   65   50 ****** ***** ****** *** *** ***** *****  0.00 ***** **
948990 ***** 201501270400 ***   0 *** *** SCT * * * 31.2 02 ** ** ** ** ** ** ** 1   82   55 ****** ***** ****** *** *** *****  0.00 ***** ***** **
948990 ***** 201501272200 ***   0 *** *** *** * * * 31.2 03 ** ** ** ** ** ** ** 1   68   52 ****** ***** ****** *** *** ***** *****  0.00 ***** **
948990 ***** 201501280400 180  11 *** *** SCT * * * 31.2 03 ** ** ** ** ** ** ** 0   77   45 ****** ***** ****** *** *** ***** ***** ***** ***** **
948990 ***** 201501282200 360   0 *** 722 CLR * * * 31.2 02 ** ** ** ** ** ** ** 0   62   45 ****** ***** ****** *** *** ***** ***** ***** ***** **
948990 ***** 201501290400 180   9 *** *** SCT * * * 31.2 15 ** ** ** ** ** ** ** 1   75   43 ****** ***** ****** *** *** ***** ***** ***** ***** **
948990 ***** 201501292200 ***   0 *** *** SCT * * * 31.2 03 ** ** ** ** ** ** ** 0   56   47 ****** ***** ****** *** *** ***** *****  0.00 ***** **
948990 ***** 201501300400 250   7 *** *** OVC * * * 31.2 03 ** ** ** ** ** ** ** 2   68   44 ****** ***** ****** *** *** *****  0.00 ***** ***** **
948990 ***** 201501302200 110   2 *** *** SCT * * * 31.2 02 ** ** ** ** ** ** ** 0   60   48 ****** ***** ****** *** *** ***** *****  0.00 ***** **
948990 ***** 201502012200 270   5 *** *** *** * * * 31.2 01 ** ** ** ** ** ** ** 1   67   45 ****** ***** ****** *** *** ***** *****  0.00 ***** **
948990 ***** 201502020400 090   6 *** *** SCT * * * 31.2 03 ** ** ** ** ** ** ** 0   81   48 ****** ***** ****** *** *** *****  0.00 ***** ***** **
948990 ***** 201502022200 360   0 *** 722 CLR * * * 31.2 02 ** ** ** ** ** ** ** 0   63   50 ****** ***** ****** *** *** ***** ***** ***** ***** **
948990 ***** 201502030400 090   3 *** 722 CLR * * * 31.2 02 ** ** ** ** ** ** ** 0   82   53 ****** ***** ****** *** *** ***** ***** ***** ***** **
948990 ***** 201502032200 230   6 *** *** SCT * * * 31.2 03 ** ** ** ** ** ** ** 1   67   45 ****** ***** ****** *** *** ***** *****  0.00 ***** **
948990 ***** 201502040400 230   2 *** *** SCT * * * 31.2 03 ** ** ** ** ** ** ** 0   81   56 ****** ***** ****** *** *** ***** ***** ***** ***** **
948990 ***** 201502042200 360   0 *** *** SCT * * * 31.2 01 ** ** ** ** ** ** ** 0   65   52 ****** ***** ****** *** *** ***** ***** ***** ***** **
948990 ***** 201502052200 ***   0 *** *** *** * * * 31.2 02 ** ** ** ** ** ** ** 0   68   56 ****** ***** ****** *** *** ***** *****  0.00 ***** **
948990 ***** 201502060400 310   7 *** *** SCT * * * 31.2 03 ** ** ** ** ** ** ** 0   89   51 ****** ***** ****** *** *** ***** ***** ***** ***** **
948990 ***** 201502062200 ***   0 *** *** *** * * * 31.2 02 ** ** ** ** ** ** ** 0   70   55 ****** ***** ****** *** *** ***** *****  0.00 ***** **
948990 ***** 201502070400 290   6 *** *** SCT * * * 31.2 03 ** ** ** ** ** ** ** 0   91   53 ****** ***** ****** *** *** *****  0.00 ***** ***** **
948990 ***** 201502072200 ***   0 *** *** BKN * * * 31.2 15 ** ** ** ** ** ** ** 2   66   56 ****** ***** ****** *** *** ***** *****  0.00 ***** **
948990 ***** 201502080400 020   9 *** *** SCT * * * 31.2 03 ** ** ** ** ** ** ** 1   75   66 ****** ***** ****** *** *** *****  0.00 ***** ***** **
948990 ***** 201502082200 360   0 *** 722 CLR * * * 31.2 02 ** ** ** ** ** ** ** 0   73   53 ****** ***** ****** *** *** ***** ***** ***** ***** **
948990 ***** 201502090400 050   5 *** *** SCT * * * 31.2 03 ** ** ** ** ** ** ** 0   92   55 ****** ***** ****** *** *** ***** ***** ***** ***** **
948990 ***** 201502092200 360   0 *** *** SCT * * * 31.2 02 ** ** ** ** ** ** ** 0   71   58 ****** ***** ****** *** *** ***** ***** ***** ***** **
948990 ***** 201502100400 360   0 *** *** SCT * * * 31.2 03 ** ** ** ** ** ** ** 1   90   61 ****** ***** ****** *** *** ***** ***** ***** ***** **
948990 ***** 201502102200 090   2 *** *** SCT * * * 25.0 15 ** ** ** ** ** ** ** 1   73   58 ****** ***** ****** *** *** ***** ***** ***** ***** **
948990 ***** 201502110400 090  11 ***  10 BKN * * * 31.2 15 ** ** ** ** ** ** ** 2   86   57 ****** ***** ****** *** *** ***** ***** ***** ***** **
948990 ***** 201502112200 ***   0 *** *** OVC * * * 25.0 02 ** ** ** ** ** ** ** 9   64   62 ****** ***** ****** *** *** ***** *****  0.89 ***** **
948990 ***** 201502120400 ***   0 *** *** OVC * * * 31.2 03 ** ** ** ** ** ** ** 2   87   60 ****** ***** ****** *** *** *****  0.00 ***** ***** **
948990 ***** 201502122200 ***   0 *** *** SCT * * * 31.2 01 ** ** ** ** ** ** ** 9   66   49 ****** ***** ****** *** *** ***** *****  0.46 ***** **
948990 ***** 201502130400 070   2 *** *** OVC * * * 31.2 03 ** ** ** ** ** ** ** 1   86   56 ****** ***** ****** *** *** *****  0.00 ***** ***** **
948990 ***** 201502132200 360   0 *** *** OVC * * *  6.2 51 ** ** ** ** ** ** ** 5   65   62 ****** ***** ****** *** *** ***** ***** ***** ***** **
948990 ***** 201502140400 ***   0 *** *** OVC * * *  6.2 61 ** ** ** ** ** ** ** 6   66   65 ****** ***** ****** *** *** *****  0.47 ***** ***** **
948990 ***** 201502142200 ***   0 *** *** OVC * * * 12.5 02 ** ** ** ** ** ** ** 6   65   64 ****** ***** ****** *** *** ***** *****  0.57 ***** **
948990 ***** 201502150400 360   0 *** *** SCT * * * 31.2 03 ** ** ** ** ** ** ** 1   85   62 ****** ***** ****** *** *** ***** ***** ***** ***** **
948990 ***** 201502152200 ***   0 *** *** OVC * * * 25.0 03 ** ** ** ** ** ** ** 2   67   60 ****** ***** ****** *** *** ***** *****  0.00 ***** **
948990 ***** 201502162200 270   3 *** *** *** * * * 31.2 01 ** ** ** ** ** ** ** 1   73   65 ****** ***** ****** *** *** ***** *****  0.00 ***** **
948990 ***** 201502170400 360   9 *** *** OVC * * *  6.2 80 ** ** ** ** ** ** ** 2   77   65 ****** ***** ****** *** *** ***** ***** ***** ***** **
948990 ***** 201502172200 ***   0 *** *** OVC * * *  6.2 61 ** ** ** ** ** ** ** 8   66   64 ****** ***** ****** *** *** ***** *****  0.24 ***** **
948990 ***** 201502180400 360   2 *** *** OVC * * * 12.5 15 ** ** ** ** ** ** ** 6   81   62 ****** ***** ****** *** *** *****  0.02 ***** ***** **
948990 ***** 201502182200 360   0 ***  20 BKN * * * 31.2 02 ** ** ** ** ** ** ** 2   69   62 ****** ***** ****** *** *** ***** *****  0.02 ***** **
948990 ***** 201502190400 ***   0 *** *** BKN * * * 31.2 02 ** ** ** ** ** ** ** 2   86   59 ****** ***** ****** *** *** *****  0.00 ***** ***** **
948990 ***** 201502192200 ***   0 *** *** *** * * * 31.2 02 ** ** ** ** ** ** ** 2   68   63 ****** ***** ****** *** *** ***** *****  0.00 ***** **
948990 ***** 201502200400 230   3 *** *** SCT * * * 31.2 03 ** ** ** ** ** ** ** 1   90   59 ****** ***** ****** *** *** *****  0.00 ***** ***** **
948990 ***** 201502202200 ***   0 *** *** SCT * * * 31.2 03 ** ** ** ** ** ** ** 5   66   60 ****** ***** ****** *** *** ***** *****  0.00 ***** **
948990 ***** 201502210400 230   1 *** *** OVC * * * 31.2 03 ** ** ** ** ** ** ** 2   90   57 ****** ***** ****** *** *** *****  0.00 ***** ***** **
948990 ***** 201502220400 360   0 *** *** SCT * * * 31.2 02 ** ** ** ** ** ** ** 0   91   62 ****** ***** ****** *** *** ***** ***** ***** ***** **
948990 ***** 201502222200 360   0 *** *** SCT * * * 31.2 02 ** ** ** ** ** ** ** 0   68   60 ****** ***** ****** *** *** ***** ***** ***** ***** **
948990 ***** 201502230400 340   7 *** *** SCT * * * 31.2 02 ** ** ** ** ** ** ** 1   92   67 ****** ***** ****** *** *** *****  0.00 ***** ***** **
948990 ***** 201502232200 270   2 *** *** *** * * * 25.0 02 ** ** ** ** ** ** ** 5   70   55 ****** ***** ****** *** *** ***** *****  0.01 ***** **
948990 ***** 201502240400 360   0 ***  20 BKN * * * 31.2 03 ** ** ** ** ** ** ** 2   82   68 ****** ***** ****** *** *** ***** ***** ***** ***** **
948990 ***** 201502242200 360   0 *** *** SCT * * * 31.2 03 ** ** ** ** ** ** ** 0   70   52 ****** ***** ****** *** *** ***** ***** ***** ***** **
948990 ***** 201502250400 ***   0 *** *** BKN * * * 31.2 02 ** ** ** ** ** ** ** 8   82   62 ****** ***** ****** *** *** *****  0.02 ***** ***** **
948990 ***** 201502252200 ***   0 *** *** OVC * * * 25.0 03 ** ** ** ** ** ** ** 2   65   61 ****** ***** ****** *** *** ***** *****  0.02 ***** **
948990 ***** 201502260400 360   0 *** *** BKN * * * 31.2 01 ** ** ** ** ** ** ** 2   80   58 ****** ***** ****** *** *** ***** ***** ***** ***** **
948990 ***** 201502262200 360   0 *** 722 CLR * * * 25.0 02 ** ** ** ** ** ** ** 2   68   60 ****** ***** ****** *** *** ***** ***** ***** ***** **
948990 ***** 201502270400 230   8 *** *** SCT * * * 31.2 03 ** ** ** ** ** ** ** 0   86   51 ****** ***** ****** *** *** ***** ***** ***** ***** **
948990 ***** 201502272200 ***   0 *** *** OVC * * * 12.5 16 ** ** ** ** ** ** ** 5   64   58 ****** ***** ****** *** *** ***** *****  0.00 ***** **
948990 ***** 201502280400 130   3 *** *** SCT * * * 31.2 03 ** ** ** ** ** ** ** 1   91   81 ****** ***** ****** *** *** ***** ***** ***** ***** **
948990 ***** 201502282200 ***   0 *** *** OVC * * * 25.0 15 ** ** ** ** ** ** ** 2   68   59 ****** ***** ****** *** *** ***** *****  0.00 ***** **
948990 ***** 201503010400 050  11 *** *** SCT * * * 31.2 01 ** ** ** ** ** ** ** 8   81   60 ****** ***** ****** *** *** *****  0.08 ***** ***** **
948990 ***** 201503012200 ***   0 *** *** *** * * * 31.2 02 ** ** ** ** ** ** ** 1   53   41 ****** ***** ****** *** *** ***** *****  0.06 ***** **
948990 ***** 201503020400 230   2 *** *** BKN * * * 31.2 03 ** ** ** ** ** ** ** 1   82   44 ****** ***** ****** *** *** *****  0.00 ***** ***** **
948990 ***** 201503022200 ***   0 *** *** OVC * * * 31.2 03 ** ** ** ** ** ** ** 2   64   53 ****** ***** ****** *** *** ***** *****  0.00 ***** **
948990 ***** 201503030400 ***   0 *** *** BKN * * * 31.2 01 ** ** ** ** ** ** ** 2   85   55 ****** ***** ****** *** *** *****  0.00 ***** ***** **
948990 ***** 201503032200 ***   0 *** *** SCT * * * 31.2 02 ** ** ** ** ** ** ** 1   60   53 ****** ***** ****** *** *** ***** *****  0.00 ***** **
948990 ***** 201503040400 270   5 *** *** *** * * * 31.2 02 ** ** ** ** ** ** ** 0   86   41 ****** ***** ****** *** *** *****  0.00 ***** ***** **
948990 ***** 201503042200 270  11 *** *** SCT * * * 31.2 03 ** ** ** ** ** ** ** 0   65   46 ****** ***** ****** *** *** ***** *****  0.00 ***** **
948990 ***** 201503050400 230   5 *** *** SCT * * * 31.2 02 ** ** ** ** ** ** ** 0   73   26 ****** ***** ****** *** *** *****  0.00 ***** ***** **
948990 ***** 201503052200 ***   0 *** *** OVC * * * 25.0 03 ** ** ** ** ** ** ** 2   53   39 ****** ***** ****** *** *** ***** *****  0.00 ***** **
948990 ***** 201503060400 020   6 ***  20 OVC * * * 31.2 02 ** ** ** ** ** ** ** 1   67   45 ****** ***** ****** *** *** ***** ***** ***** ***** **
948990 ***** 201503062200 ***   0 *** *** *** * * * 25.0 02 ** ** ** ** ** ** ** 1   53   50 ****** ***** ****** *** *** ***** *****  0.00 ***** **
948990 ***** 201503070400 ***   0 *** *** OVC * * * 31.2 03 ** ** ** ** ** ** ** 2   76   51 ****** ***** ****** *** *** *****  0.00 ***** ***** **
948990 ***** 201503072200 ***   0 *** *** *** * * * 31.2 02 ** ** ** ** ** ** ** 2   57   51 ****** ***** ****** *** *** ***** *****  0.00 ***** **
948990 ***** 201503080400 290   7 *** *** *** * * * 31.2 02 ** ** ** ** ** ** ** 0   82   52 ****** ***** ****** *** *** *****  0.00 ***** ***** **
948990 ***** 201503082200 ***   0 *** *** *** * * * 31.2 02 ** ** ** ** ** ** ** 0   58   49 ****** ***** ****** *** *** ***** *****  0.00 ***** **
948990 ***** 201503090400 270   9 *** 722 CLR * * * 31.2 02 ** ** ** ** ** ** ** 0   82   45 ****** ***** ****** *** *** ***** ***** ***** ***** **
948990 ***** 201503092200 360   0 *** 722 CLR * * * 18.8 02 ** ** ** ** ** ** ** 0   59   55 ****** ***** ****** *** *** ***** ***** ***** ***** **
948990 ***** 201503100400 360   0 *** *** SCT * * * 31.2 03 ** ** ** ** ** ** ** 0   83   56 ****** ***** ****** *** *** ***** ***** ***** ***** **
948990 ***** 201503102200 ***   0 *** *** SCT * * * 25.0 03 ** ** ** ** ** ** ** 0   59   47 ****** ***** ****** *** *** ***** *****  0.00 ***** **
948990 ***** 201503110400 ***   0 *** *** SCT * * * 18.8 02 ** ** ** ** ** ** ** 0   84   54 ****** ***** ****** *** *** *****  0.00 ***** ***** **
948990 ***** 201503112200 360   0 *** *** SCT * * * 31.2 02 ** ** ** ** ** ** ** 0   58   49 ****** ***** ****** *** *** ***** ***** ***** ***** **
948990 ***** 201503120400 360   0 *** 722 CLR * * * 18.8 02 ** ** ** ** ** ** ** 0   83   40 ****** ***** ****** *** *** ***** ***** ***** ***** **
948990 ***** 201503122200 270   5 *** 722 CLR * * * 12.5 02 ** ** ** ** ** ** ** 0   58   45 ****** ***** ****** *** *** ***** ***** ***** ***** **
948990 ***** 201503130400 180   2 *** *** SCT * * * 31.2 03 ** ** ** ** ** ** ** 0   77   47 ****** ***** ****** *** *** ***** ***** ***** ***** **
948990 ***** 201503140400 230   2 *** *** SCT * * * 25.0 02 ** ** ** ** ** ** ** 1   79   51 ****** ***** ****** *** *** ***** ***** ***** ***** **
948990 ***** 201503142200 360   0 *** 722 CLR * * * 31.2 02 ** ** ** ** ** ** ** 1   66   49 ****** ***** ****** *** *** ***** ***** ***** ***** **
948990 ***** 201503152200 360   0 *** 722 CLR * * * 25.0 02 ** ** ** ** ** ** ** 0   52   48 ****** ***** ****** *** *** ***** ***** ***** ***** **
948990 ***** 201503160400 360   0 *** *** OVC * * * 31.2 03 ** ** ** ** ** ** ** 2   78   46 ****** ***** ****** *** *** ***** ***** ***** ***** **
948990 ***** 201503162200 360   0 *** *** OVC * * * 31.2 02 ** ** ** ** ** ** ** 2   58   49 ****** ***** ****** *** *** ***** ***** ***** ***** **
948990 ***** 201503170400 160   2 *** *** OVC * * * 31.2 02 ** ** ** ** ** ** ** 2   78   41 ****** ***** ****** *** *** ***** ***** ***** ***** **
948990 ***** 201503172200 270   2 *** *** SCT * * * 31.2 01 ** ** ** ** ** ** ** 8   63   59 ****** ***** ****** *** *** ***** *****  0.08 ***** **
948990 ***** 201503180400 230   9 *** *** SCT * * * 31.2 03 ** ** ** ** ** ** ** 0   83   50 ****** ***** ****** *** *** ***** ***** ***** ***** **
948990 ***** 201503182200 360   0 *** 722 CLR * * * 31.2 02 ** ** ** ** ** ** ** 1   59   55 ****** ***** ****** *** *** ***** ***** ***** ***** **
948990 ***** 201503192200 360   0 *** *** SCT * * * 31.2 01 ** ** ** ** ** ** ** 8   63   61 ****** ***** ****** *** *** ***** *****  0.08 ***** **
948990 ***** 201503200400 270   9 *** 722 CLR * * * 31.2 02 ** ** ** ** ** ** ** 1   81   37 ****** ***** ****** *** *** ***** ***** ***** ***** **
948990 ***** 201503202200 360   0 *** 722 CLR * * * 25.0 02 ** ** ** ** ** ** ** 0   54   42 ****** ***** ****** *** *** ***** ***** ***** ***** **
948990 ***** 201503210400 360   0 *** 722 CLR * * * 31.2 02 ** ** ** ** ** ** ** 0   76   41 ****** ***** ****** *** *** ***** ***** ***** ***** **
948990 ***** 201503212200 360   0 *** 722 CLR * * * 31.2 02 ** ** ** ** ** ** ** 0   56   48 ****** ***** ****** *** *** ***** ***** ***** ***** **
948990 ***** 201503220400 360   0 *** *** SCT * * * 31.2 03 ** ** ** ** ** ** ** 1   80   22 ****** ***** ****** *** *** ***** ***** ***** ***** **
948990 ***** 201503222200 360   0 *** *** OVC * * * 31.2 03 ** ** ** ** ** ** ** 2   58   53 ****** ***** ****** *** *** ***** ***** ***** ***** **
948990 ***** 201503230400 310   9 *** *** OVC * * * 31.2 03 ** ** ** ** ** ** ** 2   82   51 ****** ***** ****** *** *** ***** ***** ***** ***** **
948990 ***** 201503232200 050   5 *** *** OVC * * * 18.8 15 ** ** ** ** ** ** ** 8   62   59 ****** ***** ****** *** *** ***** *****  0.04 ***** **
948990 ***** 201503240400 230   7 ***  10 BKN * * * 31.2 01 ** ** ** ** ** ** ** 2   73   44 ****** ***** ****** *** *** ***** ***** ***** ***** **
948990 ***** 201503242200 360   0 *** 722 CLR * * * 31.2 02 ** ** ** ** ** ** ** 1   52   45 ****** ***** ****** *** *** ***** ***** ***** ***** **
948990 ***** 201503250400 090   3 *** *** SCT * * * 31.2 03 ** ** ** ** ** ** ** 0   70   47 ****** ***** ****** *** *** ***** ***** ***** ***** **
948990 ***** 201503252200 250   2 ***  10 BKN * * * 31.2 03 ** ** ** ** ** ** ** 2   48   42 ****** ***** ****** *** *** ***** ***** ***** ***** **
948990 ***** 201503260400 270  14 *** *** SCT * * * 31.2 01 ** ** ** ** ** ** ** 1   64   25 ****** ***** ****** *** *** ***** ***** ***** ***** **
948990 ***** 201503280400 310   2 *** 722 CLR * * * 31.2 02 ** ** ** ** ** ** ** 0   69   33 ****** ***** ****** *** *** ***** ***** ***** ***** **
948990 ***** 201503290400 090   2 *** *** SCT * * * 31.2 03 ** ** ** ** ** ** ** 0   74   37 ****** ***** ****** *** *** ***** ***** ***** ***** **
948990 ***** 201503292200 360   0 *** *** SCT * * * 31.2 03 ** ** ** ** ** ** ** 0   47   42 ****** ***** ****** *** *** ***** ***** ***** ***** **
948990 ***** 201503300400 360   0 *** *** SCT * * * 31.2 02 ** ** ** ** ** ** ** 0   77   41 ****** ***** ****** *** *** ***** ***** ***** ***** **
948990 ***** 201503302200 230   1 *** 722 CLR * * * 25.0 02 ** ** ** ** ** ** ** 0   44   41 ****** ***** ****** *** *** ***** ***** ***** ***** **
948990 ***** 201503310400 180   1 *** 722 CLR * * * 31.2 02 ** ** ** ** ** ** ** 0   80   38 ****** ***** ****** *** *** ***** ***** ***** ***** **
948990 ***** 201503312200 360   0 *** *** SCT * * * 25.0 03 ** ** ** ** ** ** ** 1   48   41 ****** ***** ****** *** *** ***** ***** ***** ***** **
948990 ***** 201504012200 360   0 *** *** OVC * * * 31.2 02 ** ** ** ** ** ** ** 2   62   52 ****** ***** ****** *** *** ***** ***** ***** ***** **
948990 ***** 201504020400 250   8 ***  20 BKN * * * 31.2 02 ** ** ** ** ** ** ** 0   81   37 ****** ***** ****** *** *** ***** ***** ***** ***** **
948990 ***** 201504022200 360   0 *** 722 CLR * * * 12.5 02 ** ** ** ** ** ** ** 2   46   38 ****** ***** ****** *** *** ***** ***** ***** ***** **
948990 ***** 201504030400 360   0 *** *** SCT * * * 25.0 03 ** ** ** ** ** ** ** 1   78   40 ****** ***** ****** *** *** ***** ***** ***** ***** **
948990 ***** 201504032200 360   0 ***  10 BKN * * * 25.0 03 ** ** ** ** ** ** ** 1   54   45 ****** ***** ****** *** *** ***** ***** ***** ***** **
948990 ***** 201504040400 070   5 ***  10 OVC * * * 25.0 02 ** ** ** ** ** ** ** 8   62   56 ****** ***** ****** *** *** ***** ***** ***** ***** **
948990 ***** 201504042300 360   0 ***  10 OVC * * * 25.0 02 ** ** ** ** ** ** ** 5   61   58 ****** ***** ****** *** *** ***** *****  0.07 ***** **
948990 ***** 201504050500 310   7 ***  10 BKN * * * 31.2 16 ** ** ** ** ** ** ** 2   69   55 ****** ***** ****** *** *** ***** ***** ***** ***** **
948990 ***** 201504052300 360   0 *** *** OVC * * * 25.0 16 ** ** ** ** ** ** ** 8   54   49 ****** ***** ****** *** *** ***** *****  0.05 ***** **
948990 ***** 201504060400 360   0 ***  10 BKN * * * 31.2 02 ** ** ** ** ** ** ** 6   64   50 ****** ***** ****** *** *** ***** ***** ***** ***** **
948990 ***** 201504060500 360   0 ***  10 BKN * * * 31.2 02 ** ** ** ** ** ** ** 6   64   50 ****** ***** ****** *** *** ***** ***** ***** ***** **
948990 ***** 201504062300 360   0 *** *** BKN * * * 31.2 02 ** ** ** ** ** ** ** 5   56   50 ****** ***** ****** *** *** ***** ***** ***** ***** **
948990 ***** 201504070500 130   1 ***  10 OVC * * *  3.1 62 ** ** ** ** ** ** ** 8   56   51 ****** ***** ****** *** *** ***** ***** ***** ***** **
948990 ***** 201504072300 200  11 ***  20 BKN * * * 31.2 02 ** ** ** ** ** ** ** 8   59   42 ****** ***** ****** *** *** ***** *****  0.35 ***** **
948990 ***** 201504080500 200   9 *** *** OVC * * * 31.2 03 ** ** ** ** ** ** ** 2   64   42 ****** ***** ****** *** *** ***** ***** ***** ***** **
948990 ***** 201504082300 090   2 *** 722 CLR * * * 31.2 02 ** ** ** ** ** ** ** 1   56   44 ****** ***** ****** *** *** ***** ***** ***** ***** **
948990 ***** 201504090500 360   0 *** *** SCT * * * 31.2 03 ** ** ** ** ** ** ** 0   70   40 ****** ***** ****** *** *** ***** ***** ***** ***** **
948990 ***** 201504092300 360   0 *** 722 CLR * * * 31.2 02 ** ** ** ** ** ** ** 0   51   44 ****** ***** ****** *** *** ***** ***** ***** ***** **
948990 ***** 201504102300 360   0 *** *** SCT * * * 31.2 02 ** ** ** ** ** ** ** 0   54   47 ****** ***** ****** *** *** ***** ***** ***** ***** **
948990 ***** 201504110500 270   2 *** *** SCT * * * 31.2 03 ** ** ** ** ** ** ** 0   73   42 ****** ***** ****** *** *** ***** ***** ***** ***** **
948990 ***** 201504112300 360   0 *** *** BKN * * * 31.2 03 ** ** ** ** ** ** ** 2   55   47 ****** ***** ****** *** *** ***** ***** ***** ***** **
948990 ***** 201504120500 360   1 *** *** SCT * * * 31.2 02 ** ** ** ** ** ** ** 2   74   45 ****** ***** ****** *** *** ***** ***** ***** ***** **
948990 ***** 201504122300 360   0 *** 722 CLR * * * 31.2 02 ** ** ** ** ** ** ** 0   52   45 ****** ***** ****** *** *** ***** ***** ***** ***** **
948990 ***** 201504130500 020   1 *** *** SCT * * * 31.2 03 ** ** ** ** ** ** ** 0   74   46 ****** ***** ****** *** *** ***** ***** ***** ***** **
948990 ***** 201504132300 360   0 *** *** OVC * * * 25.0 03 ** ** ** ** ** ** ** 2   51   45 ****** ***** ****** *** *** ***** ***** ***** ***** **
948990 ***** 201504142300 270   5 *** *** OVC * * * 25.0 15 ** ** ** ** ** ** ** 2   59   49 ****** ***** ****** *** *** ***** *****  0.02 ***** **
948990 ***** 201504150500 360   0 *** *** SCT * * * 31.2 01 ** ** ** ** ** ** ** 8   68   57 ****** ***** ****** *** *** *****  0.08 ***** ***** **
948990 ***** 201504152300 360   0 *** *** *** * * *  0.3 42 ** ** ** ** ** ** ** 4   55   55 ****** ***** ****** *** *** ***** *****  0.08 ***** **
948990 ***** 201504162300 360   0 *** *** OVC * * *  3.1 51 ** ** ** ** ** ** ** 5   59   56 ****** ***** ****** *** *** ***** *****  0.02 ***** **
948990 ***** 201504170500 360   0 *** *** OVC * * *  1.2 51 ** ** ** ** ** ** ** 5   59   56 ****** ***** ****** *** *** *****  0.04 ***** ***** **
948990 ***** 201504172300 360   0 *** *** OVC * * *  3.1 61 ** ** ** ** ** ** ** 6   61   61 ****** ***** ****** *** *** ***** *****  0.94 ***** **
948990 ***** 201504180500 020   7 ***   7 OVC * * *  9.4 15 ** ** ** ** ** ** ** 8   65   61 ****** ***** ****** *** *** *****  0.12 ***** ***** **
948990 ***** 201504182300 230   5 ***  10 OVC * * *  3.1 10 ** ** ** ** ** ** ** 8   54   53 ****** ***** ****** *** *** ***** *****  0.71 ***** **
948990 ***** 201504190500 360   0 ***  20 BKN * * * 31.2 01 ** ** ** ** ** ** ** 5   58   44 ****** ***** ****** *** *** *****  0.02 ***** ***** **
948990 ***** 201504192300 270   9 *** *** SCT * * * 31.2 02 ** ** ** ** ** ** ** 1   55   34 ****** ***** ****** *** *** ***** *****  0.02 ***** **
948990 ***** 201504200500 180  16 *** *** SCT * * * 31.2 02 ** ** ** ** ** ** ** 0   62   37 ****** ***** ****** *** *** ***** ***** ***** ***** **
948990 ***** 201504202300 360   0 *** *** SCT * * * 31.2 03 ** ** ** ** ** ** ** 0   57   39 ****** ***** ****** *** *** ***** ***** ***** ***** **
948990 ***** 201504210500 160  11 *** *** BKN * * * 31.2 03 ** ** ** ** ** ** ** 1   64   39 ****** ***** ****** *** *** ***** ***** ***** ***** **
948990 ***** 201504212300 180   8 *** *** SCT * * * 31.2 03 ** ** ** ** ** ** ** 0   65   46 ****** ***** ****** *** *** ***** ***** ***** ***** **
948990 ***** 201504220500 130  11 *** *** SCT * * * 31.2 03 ** ** ** ** ** ** ** 2   73   43 ****** ***** ****** *** *** ***** ***** ***** ***** **
948990 ***** 201504222300 360   0 *** *** BKN * * * 31.2 03 ** ** ** ** ** ** ** 1   58   51 ****** ***** ****** *** *** ***** ***** ***** ***** **
948990 ***** 201504230500 180   5 *** *** SCT * * * 31.2 02 ** ** ** ** ** ** ** 1   77   54 ****** ***** ****** *** *** ***** ***** ***** ***** **
948990 ***** 201504232300 360   0 *** *** OVC * * * 12.5 15 ** ** ** ** ** ** ** 6   60   59 ****** ***** ****** *** *** ***** *****  0.31 ***** **
948990 ***** 201504240500 050   1 ***  10 BKN * * * 18.8 15 ** ** ** ** ** ** ** 6   63   54 ****** ***** ****** *** *** *****  0.04 ***** ***** **
948990 ***** 201504242300 360   0 *** *** OVC * * * 18.8 15 ** ** ** ** ** ** ** 8   51   50 ****** ***** ****** *** *** ***** *****  0.08 ***** **
948990 ***** 201504250500 050   3 ***  10 OVC * * *  6.2 16 ** ** ** ** ** ** ** 8   52   48 ****** ***** ****** *** *** *****  0.02 ***** ***** **
948990 ***** 201504252300 360   0 *** *** *** * * *  6.2 41 ** ** ** ** ** ** ** 4   48   47 ****** ***** ****** *** *** ***** *****  0.03 ***** **
948990 ***** 201504260500 050   1 ***  10 BKN * * * 31.2 02 ** ** ** ** ** ** ** 1   61   51 ****** ***** ****** *** *** ***** ***** ***** ***** **
948990 ***** 201504262300 360   0 *** *** SCT * * * 31.2 02 ** ** ** ** ** ** ** 0   44   41 ****** ***** ****** *** *** ***** ***** ***** ***** **
948990 ***** 201504270500 360   0 *** *** SCT * * * 31.2 02 ** ** ** ** ** ** ** 0   63   39 ****** ***** ****** *** *** ***** ***** ***** ***** **
948990 ***** 201504272300 360   0 *** 722 CLR * * * 31.2 02 ** ** ** ** ** ** ** 1   45   42 ****** ***** ****** *** *** ***** ***** ***** ***** **
948990 ***** 201504280500 360   0 *** *** SCT * * * 31.2 02 ** ** ** ** ** ** ** 0   63   37 ****** ***** ****** *** *** ***** ***** ***** ***** **
948990 ***** 201504282300 360   0 *** 722 CLR * * * 31.2 02 ** ** ** ** ** ** ** 0   46   40 ****** ***** ****** *** *** ***** ***** ***** ***** **
948990 ***** 201504290500 360   0 *** *** SCT * * * 31.2 02 ** ** ** ** ** ** ** 0   65   38 ****** ***** ****** *** *** ***** ***** ***** ***** **
948990 ***** 201504292300 360   0 *** *** SCT * * * 31.2 03 ** ** ** ** ** ** ** 0   46   43 ****** ***** ****** *** *** ***** ***** ***** ***** **
948990 ***** 201504300500 360   0 *** *** SCT * * * 31.2 03 ** ** ** ** ** ** ** 1   68   43 ****** ***** ****** *** *** ***** ***** ***** ***** **
948990 ***** 201504302300 360   0 *** 722 CLR * * * 31.2 02 ** ** ** ** ** ** ** 0   44   44 ****** ***** ****** *** *** ***** ***** ***** ***** **
948990 ***** 201505010500 360   0 *** *** SCT * * * 37.5 03 ** ** ** ** ** ** ** 0   71   45 ****** ***** ****** *** *** ***** ***** ***** ***** **
948990 ***** 201505012300 360   0 ***  10 OVC * * * 31.2 02 ** ** ** ** ** ** ** 2   49   47 ****** ***** ****** *** *** ***** ***** ***** ***** **
948990 ***** 201505020500 360   0 *** *** BKN * * * 31.2 01 ** ** ** ** ** ** ** 2   65   47 ****** ***** ****** *** *** ***** ***** ***** ***** **
948990 ***** 201505022300 360   0 *** *** *** * * *  0.3 45 ** ** ** ** ** ** ** 4   48   46 ****** ***** ****** *** *** ***** ***** ***** ***** **
948990 ***** 201505030500 360   0 *** 722 CLR * * * 31.2 02 ** ** ** ** ** ** ** 0   71   51 ****** ***** ****** *** *** ***** ***** ***** ***** **
948990 ***** 201505040500 360   0 *** 722 CLR * * * 31.2 02 ** ** ** ** ** ** ** 0   71   51 ****** ***** ****** *** *** ***** ***** ***** ***** **
948990 ***** 201505042300 230   2 *** *** OVC * * * 18.8 15 ** ** ** ** ** ** ** 2   46   44 ****** ***** ****** *** *** ***** ***** ***** ***** **
948990 ***** 201505050500 270  17 *** *** *** * * *  6.2 07 ** ** ** ** ** ** ** 8   65   32 ****** ***** ****** *** *** *****  0.02 ***** ***** **
948990 ***** 201505052300 090   5 ***  10 OVC * * * 18.8 15 ** ** ** ** ** ** ** 2   49   40 ****** ***** ****** *** *** ***** *****  0.02 ***** **
948990 ***** 201505060500 360   0 ***  10 OVC * * * 18.8 16 ** ** ** ** ** ** ** 2   54   41 ****** ***** ****** *** *** ***** ***** ***** ***** **
948990 ***** 201505062300 360   0 ***  10 BKN * * * 31.2 01 ** ** ** ** ** ** ** 8   49   44 ****** ***** ****** *** *** ***** *****  0.04 ***** **
948990 ***** 201505070500 270   8 ***  10 BKN * * * 31.2 02 ** ** ** ** ** ** ** 2   54   38 ****** ***** ****** *** *** ***** ***** ***** ***** **
948990 ***** 201505072300 360   0 *** *** OVC * * * 18.8 02 ** ** ** ** ** ** ** 2   46   42 ****** ***** ****** *** *** ***** ***** ***** ***** **
948990 ***** 201505080500 270   7 ***  10 OVC * * * 25.0 02 ** ** ** ** ** ** ** 2   54   40 ****** ***** ****** *** *** ***** ***** ***** ***** **
948990 ***** 201505082300 050   8 ***  10 OVC * * *  3.1 10 ** ** ** ** ** ** ** 5   51   49 ****** ***** ****** *** *** ***** *****  0.03 ***** **
948990 ***** 201505090500 250   5 ***  10 OVC * * * 25.0 15 ** ** ** ** ** ** ** 8   57   49 ****** ***** ****** *** *** *****  0.04 ***** ***** **
948990 ***** 201505092300 020  11 ***  10 OVC * * *  9.4 15 ** ** ** ** ** ** ** 8   51   45 ****** ***** ****** *** *** ***** *****  0.08 ***** **
948990 ***** 201505100500 360   0 ***  10 OVC * * *  9.4 15 ** ** ** ** ** ** ** 8   52   41 ****** ***** ****** *** *** *****  0.24 ***** ***** **
948990 ***** 201505102300 110   6 ***  10 OVC * * *  1.2 ** ** ** ** ** ** ** ** 8   51   49 ****** ***** ****** *** *** ***** *****  0.31 ***** **
948990 ***** 201505110500 270  17 *** *** SCT * * * 31.2 01 ** ** ** ** ** ** ** 5   60   47 ****** ***** ****** *** *** *****  0.02 ***** ***** **
948990 ***** 201505112300 310   5 ***   7 OVC * * *  9.4 15 ** ** ** ** ** ** ** 2   54   48 ****** ***** ****** *** *** ***** *****  0.02 ***** **
948990 ***** 201505120500 290   7 ***  10 OVC * * * 18.8 15 ** ** ** ** ** ** ** 5   58   44 ****** ***** ****** *** *** *****  0.01 ***** ***** **
948990 ***** 201505122300 270   3 *** *** SCT * * * 31.2 01 ** ** ** ** ** ** ** 8   45   36 ****** ***** ****** *** *** ***** *****  0.03 ***** **
948990 ***** 201505130500 290   8 *** *** SCT * * * 31.2 16 ** ** ** ** ** ** ** 5   48   34 ****** ***** ****** *** *** *****  0.02 ***** ***** **
948990 ***** 201505132300 360   0 ***  10 BKN * * * 25.0 03 ** ** ** ** ** ** ** 2   39   37 ****** ***** ****** *** *** ***** *****  0.02 ***** **
948990 ***** 201505140500 050   3 *** *** SCT * * * 31.2 02 ** ** ** ** ** ** ** 1   53   40 ****** ***** ****** *** *** ***** ***** ***** ***** **
948990 ***** 201505142300 360   0 *** *** *** * * *  0.1 45 ** ** ** ** ** ** ** 4   40   40 ****** ***** ****** *** *** ***** ***** ***** ***** **
948990 ***** 201505150500 360   0 *** 722 CLR * * * 31.2 02 ** ** ** ** ** ** ** 4   58   49 ****** ***** ****** *** *** ***** ***** ***** ***** **
948990 ***** 201505160500 360   0 *** 722 CLR * * * 31.2 02 ** ** ** ** ** ** ** *   59   48 ****** ***** ****** *** *** ***** ***** ***** ***** **
948990 ***** 201505162300 360   0 *** *** *** * * *  0.6 45 ** ** ** ** ** ** ** 4   42   41 ****** ***** ****** *** *** ***** *****  0.02 ***** **
948990 ***** 201505170500 360   0 *** 722 CLR * * * 31.2 02 ** ** ** ** ** ** ** 4   55   48 ****** ***** ****** *** *** ***** ***** ***** ***** **
948990 ***** 201505172300 360   0 *** *** *** * * *  0.1 45 ** ** ** ** ** ** ** 4   38   38 ****** ***** ****** *** *** ***** *****  0.02 ***** **
948990 ***** 201505180500 360   0 *** 722 CLR * * * 31.2 02 ** ** ** ** ** ** ** 4   59   42 ****** ***** ****** *** *** ***** ***** ***** ***** **
948990 ***** 201505190500 360   0 *** *** OVC * * *  0.1 97 ** ** ** ** ** ** ** 6   51   49 ****** ***** ****** *** *** *****  0.55 ***** ***** **
948990 ***** 201505192300 360   0 ***   7 BKN * * *  9.4 16 ** ** ** ** ** ** ** 9   53   53 ****** ***** ****** *** *** ***** *****  0.79 ***** **
948990 ***** 201505200500 340   3 ***  10 BKN * * *  3.1 80 ** ** ** ** ** ** ** 1   60   52 ****** ***** ****** *** *** *****  0.02 ***** ***** **
948990 ***** 201505202300 360   0 *** *** *** * * *  6.2 12 ** ** ** ** ** ** ** 8   46   45 ****** ***** ****** *** *** ***** *****  0.03 ***** **
948990 ***** 201505210500 360   0 *** *** BKN * * * 25.0 03 ** ** ** ** ** ** ** 2   54   47 ****** ***** ****** *** *** ***** ***** ***** ***** **
948990 ***** 201505212300 270   2 *** *** SCT * * * 31.2 02 ** ** ** ** ** ** ** 0   52   40 ****** ***** ****** *** *** ***** ***** ***** ***** **
948990 ***** 201505240500 360   0 ***  49 BKN * * * 25.0 03 ** ** ** ** ** ** ** 1   54   42 ****** ***** ****** *** *** ***** ***** ***** ***** **
948990 ***** 201505242300 360   0 *** *** BKN * * * 25.0 03 ** ** ** ** ** ** ** 2   37   37 ****** ***** ****** *** *** ***** *****  0.01 ***** **
948990 ***** 201505250500 360   0 *** *** BKN * * * 31.2 02 ** ** ** ** ** ** ** 1   53   40 ****** ***** ****** *** *** ***** ***** ***** ***** **
948990 ***** 201505252300 360   0 *** 722 CLR * * * 31.2 02 ** ** ** ** ** ** ** 1   36   34 ****** ***** ****** *** *** ***** *****  0.01 ***** **
948990 ***** 201505260500 360   0 *** *** BKN * * * 31.2 03 ** ** ** ** ** ** ** 2   53   36 ****** ***** ****** *** *** ***** ***** ***** ***** **
948990 ***** 201505262300 360   0 *** *** BKN * * * 25.0 03 ** ** ** ** ** ** ** 2   44   42 ****** ***** ****** *** *** ***** ***** ***** ***** **
948990 ***** 201505270500 360   0 *** *** OVC * * *  2.5 52 ** ** ** ** ** ** ** 8   50   46 ****** ***** ****** *** *** *****  0.02 ***** ***** **
948990 ***** 201505280500 360   0 *** *** SCT * * * 31.2 02 ** ** ** ** ** ** ** 8   59   52 ****** ***** ****** *** *** *****  0.04 ***** ***** **
948990 ***** 201505282300 270   1 ***   7 BKN * * * 25.0 03 ** ** ** ** ** ** ** 8   51   49 ****** ***** ****** *** *** ***** *****  0.31 ***** **
948990 ***** 201505290500 230   5 *** *** SCT * * * 31.2 01 ** ** ** ** ** ** ** 1   58   42 ****** ***** ****** *** *** ***** ***** ***** ***** **
948990 ***** 201505292300 360   0 ***  10 OVC * * * 25.0 03 ** ** ** ** ** ** ** 2   44   42 ****** ***** ****** *** *** ***** *****  0.01 ***** **
948990 ***** 201505300500 360   0 ***  20 BKN * * * 25.0 02 ** ** ** ** ** ** ** 2   54   43 ****** ***** ****** *** *** ***** ***** ***** ***** **
948990 ***** 201505302300 360   0 ***  10 BKN * * * 12.5 16 ** ** ** ** ** ** ** 5   44   42 ****** ***** ****** *** *** ***** *****  0.01 ***** **
948990 ***** 201505310500 360   0 ***  10 BKN * * * 12.5 16 ** ** ** ** ** ** ** 5   52   47 ****** ***** ****** *** *** *****  0.02 ***** ***** **
948990 ***** 201505312300 270   3 *** *** SCT * * * 31.2 01 ** ** ** ** ** ** ** 8   41   34 ****** ***** ****** *** *** ***** *****  0.20 ***** **
948990 ***** 201506010500 180   5 *** *** SCT * * * 31.2 03 ** ** ** ** ** ** ** 0   50   27 ****** ***** ****** *** *** ***** ***** ***** ***** **
948990 ***** 201506012300 360   0 *** 722 CLR * * * 31.2 02 ** ** ** ** ** ** ** 0   33   31 ****** ***** ****** *** *** ***** *****  0.01 ***** **
948990 ***** 201506020500 360   0 *** 722 CLR * * * 31.2 02 ** ** ** ** ** ** ** 0   52   35 ****** ***** ****** *** *** ***** ***** ***** ***** **
948990 ***** 201506022300 360   0 *** *** *** * * * **** 11 ** ** ** ** ** ** ** 0   32   29 ****** ***** ****** *** *** ***** *****  0.01 ***** **
948990 ***** 201506030500 360   0 *** 722 CLR * * * 31.2 02 ** ** ** ** ** ** ** 0   50   38 ****** ***** ****** *** *** ***** ***** ***** ***** **
948990 ***** 201506032300 360   0 *** *** *** * * *  0.3 45 ** ** ** ** ** ** ** 4   32   31 ****** ***** ****** *** *** ***** *****  0.01 ***** **
948990 ***** 201506040500 360   0 *** *** SCT * * * 31.2 03 ** ** ** ** ** ** ** 0   46   39 ****** ***** ****** *** *** ***** ***** ***** ***** **
948990 ***** 201506042300 360   0 ***  10 BKN * * *  9.4 03 ** ** ** ** ** ** ** 8   42   39 ****** ***** ****** *** *** ***** *****  0.20 ***** **
948990 ***** 201506050500 360   0 *** *** SCT * * * 31.2 02 ** ** ** ** ** ** ** 1   51   41 ****** ***** ****** *** *** ***** ***** ***** ***** **
948990 ***** 201506052300 360   0 *** *** *** * * *  3.1 11 ** ** ** ** ** ** ** 4   39   39 ****** ***** ****** *** *** ***** *****  0.02 ***** **
948990 ***** 201506060500 360   0 *** *** *** * * *  0.3 45 ** ** ** ** ** ** ** 4   41   40 ****** ***** ****** *** *** ***** ***** ***** ***** **
948990 ***** 201506062300 360   0 *** *** *** * * *  0.4 45 ** ** ** ** ** ** ** 4   37   36 ****** ***** ****** *** *** ***** *****  0.02 ***** **
948990 ***** 201506070500 360   0 *** *** *** * * *  0.6 45 ** ** ** ** ** ** ** 4   41   39 ****** ***** ****** *** *** ***** ***** ***** ***** **
948990 ***** 201506072300 360   0 *** *** *** * * *  0.6 45 ** ** ** ** ** ** ** 4   39   39 ****** ***** ****** *** *** ***** *****  0.01 ***** **
948990 ***** 201506080500 360   0 *** *** BKN * * * 31.2 03 ** ** ** ** ** ** ** 4   52   46 ****** ***** ****** *** *** ***** ***** ***** ***** **
948990 ***** 201506082300 360   0 ***  10 OVC * * *  1.9 52 ** ** ** ** ** ** ** 2   52   49 ****** ***** ****** *** *** ***** *****  0.02 ***** **
948990 ***** 201506090500 310   7 *** *** SCT * * * 31.2 02 ** ** ** ** ** ** ** 5   58   40 ****** ***** ****** *** *** *****  0.01 ***** ***** **
948990 ***** 201506092300 360   0 *** 722 CLR * * * 12.5 11 ** ** ** ** ** ** ** 0   32   30 ****** ***** ****** *** *** ***** *****  0.02 ***** **
948990 ***** 201506100500 360   0 *** 722 CLR * * * 31.2 02 ** ** ** ** ** ** ** 0   55   40 ****** ***** ****** *** *** ***** ***** ***** ***** **
948990 ***** 201506102300 360   0 *** 722 CLR * * * 31.2 02 ** ** ** ** ** ** ** 0   31   29 ****** ***** ****** *** *** ***** ***** ***** ***** **
948990 ***** 201506110500 360   0 *** 722 CLR * * * 31.2 02 ** ** ** ** ** ** ** 0   53   39 ****** ***** ****** *** *** ***** ***** ***** ***** **
948990 ***** 201506112300 360   0 *** *** *** * * *  0.1 45 ** ** ** ** ** ** ** 4   37   36 ****** ***** ****** *** *** ***** *****  0.02 ***** **
948990 ***** 201506120500 360   0 *** *** SCT * * * 31.2 03 ** ** ** ** ** ** ** 0   50   43 ****** ***** ****** *** *** ***** ***** ***** ***** **
948990 ***** 201506122300 360   0 *** *** *** * * *  0.3 45 ** ** ** ** ** ** ** 4   37   37 ****** ***** ****** *** *** ***** *****  0.02 ***** **
948990 ***** 201506130500 360   0 *** *** BKN * * * 12.5 03 ** ** ** ** ** ** ** 4   46   43 ****** ***** ****** *** *** ***** ***** ***** ***** **
948990 ***** 201506132300 360   0 *** *** *** * * *  0.1 45 ** ** ** ** ** ** ** 4   41   41 ****** ***** ****** *** *** ***** *****  0.02 ***** **
948990 ***** 201506140500 360   0 *** *** *** * * * 12.5 40 ** ** ** ** ** ** ** 4   48   46 ****** ***** ****** *** *** ***** ***** ***** ***** **
948990 ***** 201506142300 360   0 *** *** *** * * *  0.1 45 ** ** ** ** ** ** ** 4   39   39 ****** ***** ****** *** *** ***** *****  0.02 ***** **
948990 ***** 201506150500 360   0 *** *** OVC * * *  9.4 03 ** ** ** ** ** ** ** 4   46   43 ****** ***** ****** *** *** ***** ***** ***** ***** **
948990 ***** 201506152300 360   0 *** *** OVC * * *  3.1 51 ** ** ** ** ** ** ** 8   47   46 ****** ***** ****** *** *** ***** *****  0.39 ***** **
948990 ***** 201506160500 360   0 *** *** OVC * * *  3.1 10 ** ** ** ** ** ** ** 6   54   53 ****** ***** ****** *** *** *****  0.08 ***** ***** **
948990 ***** 201506162300 360   0 *** *** *** * * *  0.6 61 ** ** ** ** ** ** ** 5   52   51 ****** ***** ****** *** *** ***** *****  0.16 ***** **
948990 ***** 201506170500 270   5 *** *** OVC * * * 18.8 16 ** ** ** ** ** ** ** 6   54   52 ****** ***** ****** *** *** *****  0.51 ***** ***** **
948990 ***** 201506172300 360   0 *** *** OVC * * *  3.1 61 ** ** ** ** ** ** ** 6   49   48 ****** ***** ****** *** *** ***** *****  0.67 ***** **
948990 ***** 201506180500 360   0 *** *** OVC * * *  6.2 10 ** ** ** ** ** ** ** 5   52   52 ****** ***** ****** *** *** *****  0.04 ***** ***** **
948990 ***** 201506182300 360   0 *** *** SCT * * * 31.2 02 ** ** ** ** ** ** ** 1   42   39 ****** ***** ****** *** *** ***** *****  0.04 ***** **
948990 ***** 201506190500 270   2 *** *** SCT * * * 31.2 03 ** ** ** ** ** ** ** 0   55   39 ****** ***** ****** *** *** ***** ***** ***** ***** **
948990 ***** 201506192300 360   0 *** 722 CLR * * * 31.2 02 ** ** ** ** ** ** ** 0   33   30 ****** ***** ****** *** *** ***** ***** ***** ***** **
948990 ***** 201506200500 360   0 *** 722 CLR * * * 31.2 02 ** ** ** ** ** ** ** 0   43   39 ****** ***** ****** *** *** ***** ***** ***** ***** **
948990 ***** 201506202300 360   0 *** 722 CLR * * * 31.2 40 ** ** ** ** ** ** ** 0   32   29 ****** ***** ****** *** *** ***** *****  0.01 ***** **
948990 ***** 201506210500 360   0 *** 722 CLR * * * 31.2 02 ** ** ** ** ** ** ** 0   50   37 ****** ***** ****** *** *** ***** ***** ***** ***** **
948990 ***** 201506212300 360   0 *** *** *** * * *  0.0 45 ** ** ** ** ** ** ** 4   30   29 ****** ***** ****** *** *** ***** *****  0.01 ***** **
948990 ***** 201506220500 360   0 *** *** BKN * * * 31.2 03 ** ** ** ** ** ** ** 4   45   40 ****** ***** ****** *** *** ***** ***** ***** ***** **
948990 ***** 201506222300 360   0 ***  10 BKN * * * 31.2 03 ** ** ** ** ** ** ** 1   39   39 ****** ***** ****** *** *** ***** ***** ***** ***** **
948990 ***** 201506230500 360   0 ***  10 BKN * * * 25.0 02 ** ** ** ** ** ** ** 2   49   43 ****** ***** ****** *** *** ***** ***** ***** ***** **
948990 ***** 201506232300 360   0 *** *** OVC * * *  1.2 ** ** ** ** ** ** ** ** 2   46   45 ****** ***** ****** *** *** ***** *****  0.02 ***** **
948990 ***** 201506240500 360   0 *** *** OVC * * * 18.8 02 ** ** ** ** ** ** ** 2   51   49 ****** ***** ****** *** *** *****  0.02 ***** ***** **
948990 ***** 201506242300 230   2 *** *** SCT * * * 25.0 40 ** ** ** ** ** ** ** 2   49   47 ****** ***** ****** *** *** ***** *****  0.02 ***** **
948990 ***** 201506250500 360   0 *** *** SCT * * * 31.2 02 ** ** ** ** ** ** ** 0   57   48 ****** ***** ****** *** *** ***** ***** ***** ***** **
948990 ***** 201506252300 360   0 *** 722 CLR * * * 31.2 40 ** ** ** ** ** ** ** 1   36   34 ****** ***** ****** *** *** ***** *****  0.01 ***** **
948990 ***** 201506260500 ***   0 *** *** *** * * * 31.2 02 ** ** ** ** ** ** ** 0   53   44 ****** ***** ****** *** *** *****  0.00 ***** ***** **
948990 ***** 201506262300 360   0 *** *** *** * * *  0.0 45 ** ** ** ** ** ** ** 4   38   37 ****** ***** ****** *** *** ***** *****  0.01 ***** **
948990 ***** 201506270500 360   0 *** *** *** * * *  0.6 42 ** ** ** ** ** ** ** 4   42   41 ****** ***** ****** *** *** ***** ***** ***** ***** **
948990 ***** 201506272300 360   0 ***  10 BKN * * * 18.8 40 ** ** ** ** ** ** ** 4   41   38 ****** ***** ****** *** *** ***** *****  0.01 ***** **
948990 ***** 201506280500 ***   0 *** *** SCT * * * 31.2 01 ** ** ** ** ** ** ** 1   50   41 ****** ***** ****** *** *** *****  0.00 ***** ***** **
948990 ***** 201506282300 360   0 *** *** *** * * *  0.6 45 ** ** ** ** ** ** ** 4   37   36 ****** ***** ****** *** *** ***** *****  0.01 ***** **
948990 ***** 201506290500 360   0 *** *** *** * * *  0.6 45 ** ** ** ** ** ** ** 4   41   41 ****** ***** ****** *** *** ***** ***** ***** ***** **
948990 ***** 201506292300 360   0 *** *** *** * * *  0.0 45 ** ** ** ** ** ** ** 4   33   32 ****** ***** ****** *** *** ***** *****  0.01 ***** **
948990 ***** 201506300500 360   0 *** *** OVC * * * 18.8 03 ** ** ** ** ** ** ** 4   42   40 ****** ***** ****** *** *** ***** ***** ***** ***** **
948990 ***** 201506302300 ***   0 ***   1 OBS * * *  0.1 45 ** ** ** ** ** ** ** 4   35   35 ****** ***** ****** *** *** ***** *****  0.01 ***** **
948990 ***** 201507010500 360   0 *** *** *** * * *  0.6 45 ** ** ** ** ** ** ** 4   38   37 ****** ***** ****** *** *** ***** ***** ***** ***** **
948990 ***** 201507012300 360   0 *** *** OVC * * *  1.2 62 ** ** ** ** ** ** ** 6   39   39 ****** ***** ****** *** *** ***** *****  0.12 ***** **
948990 ***** 201507020500 130   2 *** *** SCT * * * 25.0 15 ** ** ** ** ** ** ** 6   47   44 ****** ***** ****** *** *** *****  0.08 ***** ***** **
948990 ***** 201507022300 360   0 *** *** *** * * *  0.0 45 ** ** ** ** ** ** ** 4   28   28 ****** ***** ****** *** *** ***** *****  0.08 ***** **
948990 ***** 201507030500 360   0 *** 722 CLR * * * 31.2 02 ** ** ** ** ** ** ** 4   46   35 ****** ***** ****** *** *** ***** ***** ***** ***** **
948990 ***** 201507032300 360   0 *** *** BKN * * * 18.8 03 ** ** ** ** ** ** ** 2   33   32 ****** ***** ****** *** *** ***** *****  0.02 ***** **
948990 ***** 201507040500 360   0 *** *** BKN * * * 31.2 02 ** ** ** ** ** ** ** 1   46   34 ****** ***** ****** *** *** ***** ***** ***** ***** **
948990 ***** 201507042300 360   0 *** 722 CLR * * * 25.0 40 ** ** ** ** ** ** ** 1   38   34 ****** ***** ****** *** *** ***** ***** ***** ***** **
948990 ***** 201507050500 020   2 *** *** BKN * * * 31.2 03 ** ** ** ** ** ** ** 2   47   39 ****** ***** ****** *** *** *****  0.00 ***** ***** **
948990 ***** 201507052300 360   0 ***  10 OVC * * * 18.8 40 ** ** ** ** ** ** ** 2   38   32 ****** ***** ****** *** *** ***** ***** ***** ***** **
948990 ***** 201507060500 360   0 *** *** OVC * * * 12.5 16 ** ** ** ** ** ** ** 2   46   41 ****** ***** ****** *** *** ***** ***** ***** ***** **
948990 ***** 201507062300 360   0 *** 722 CLR * * *  6.2 41 ** ** ** ** ** ** ** 4   41   40 ****** ***** ****** *** *** ***** ***** ***** ***** **
948990 ***** 201507070500 ***   0 *** *** SCT * * * 31.2 02 ** ** ** ** ** ** ** 0   52   44 ****** ***** ****** *** *** *****  0.00 ***** ***** **
948990 ***** 201507072300 360   0 *** *** SCT * * * 25.0 01 ** ** ** ** ** ** ** 1   35   34 ****** ***** ****** *** *** ***** *****  0.01 ***** **
948990 ***** 201507080500 360   0 *** *** SCT * * * 31.2 02 ** ** ** ** ** ** ** 0   55   43 ****** ***** ****** *** *** ***** ***** ***** ***** **
948990 ***** 201507082300 360   0 *** *** *** * * *  0.0 45 ** ** ** ** ** ** ** 4   28   25 ****** ***** ****** *** *** ***** ***** ***** ***** **
948990 ***** 201507090500 360   0 ***  20 BKN * * * 31.2 03 ** ** ** ** ** ** ** 2   50   38 ****** ***** ****** *** *** ***** ***** ***** ***** **
948990 ***** 201507092300 360   0 *** *** OVC * * *  3.1 50 ** ** ** ** ** ** ** 6   42   42 ****** ***** ****** *** *** ***** *****  0.39 ***** **
948990 ***** 201507100500 360   0 ***  10 BKN * * * 18.8 15 ** ** ** ** ** ** ** 5   55   45 ****** ***** ****** *** *** *****  0.01 ***** ***** **
948990 ***** 201507102300 360   0 ***  10 OVC * * *  9.4 15 ** ** ** ** ** ** ** 8   46   46 ****** ***** ****** *** *** ***** *****  0.24 ***** **
948990 ***** 201507110500 020   8 ***  10 BKN * * * 25.0 15 ** ** ** ** ** ** ** 8   55   48 ****** ***** ****** *** *** *****  0.47 ***** ***** **
948990 ***** 201507120500 050   2 ***  10 OVC * * * 18.8 02 ** ** ** ** ** ** ** 5   44   38 ****** ***** ****** *** *** *****  0.01 ***** ***** **
948990 ***** 201507122300 360   0 ***  10 BKN * * * 12.5 15 ** ** ** ** ** ** ** 8   39   38 ****** ***** ****** *** *** ***** *****  0.47 ***** **
948990 ***** 201507130500 360   0 ***  10 BKN * * *  3.1 80 ** ** ** ** ** ** ** 2   49   46 ****** ***** ****** *** *** *****  0.02 ***** ***** **
948990 ***** 201507132300 360   0 *** *** SCT * * * 31.2 01 ** ** ** ** ** ** ** 8   46   38 ****** ***** ****** *** *** ***** *****  0.08 ***** **
948990 ***** 201507140500 270   9 ***  10 OVC * * * 18.8 15 ** ** ** ** ** ** ** 2   45   39 ****** ***** ****** *** *** ***** ***** ***** ***** **
948990 ***** 201507142300 360   0 *** *** OVC * * *  1.2 ** ** ** ** ** ** ** ** 6   39   39 ****** ***** ****** *** *** ***** *****  0.12 ***** **
948990 ***** 201507150500 360   0 *** *** OVC * * *  1.9 61 ** ** ** ** ** ** ** 5   44   42 ****** ***** ****** *** *** *****  0.08 ***** ***** **
948990 ***** 201507152300 360   0 *** *** *** * * *  0.0 45 ** ** ** ** ** ** ** 8   38   37 ****** ***** ****** *** *** ***** *****  0.12 ***** **
948990 ***** 201507160500 360   0 *** *** BKN * * * 25.0 03 ** ** ** ** ** ** ** 2   52   41 ****** ***** ****** *** *** ***** ***** ***** ***** **
948990 ***** 201507162300 250   7 *** 722 CLR * * * 31.2 02 ** ** ** ** ** ** ** 1   45   28 ****** ***** ****** *** *** ***** ***** ***** ***** **
948990 ***** 201507170500 230   3 ***  10 BKN * * * 31.2 02 ** ** ** ** ** ** ** 2   50   33 ****** ***** ****** *** *** ***** ***** ***** ***** **
948990 ***** 201507172300 360   0 *** 722 CLR * * * 25.0 40 ** ** ** ** ** ** ** 1   38   35 ****** ***** ****** *** *** ***** ***** ***** ***** **
948990 ***** 201507180500 360   0 *** *** SCT * * * 31.2 02 ** ** ** ** ** ** ** 0   53   36 ****** ***** ****** *** *** ***** ***** ***** ***** **
948990 ***** 201507182300 360   0 *** 722 CLR * * * 31.2 40 ** ** ** ** ** ** ** 0   31   28 ****** ***** ****** *** *** ***** ***** ***** ***** **
948990 ***** 201507190500 360   0 *** 722 CLR * * * 31.2 02 ** ** ** ** ** ** ** 0   52   40 ****** ***** ****** *** *** ***** ***** ***** ***** **
948990 ***** 201507192300 360   0 ***  20 BKN * * * 25.0 40 ** ** ** ** ** ** ** 2   32   29 ****** ***** ****** *** *** ***** *****  0.01 ***** **
948990 ***** 201507200500 360   0 *** *** SCT * * * 31.2 02 ** ** ** ** ** ** ** 1   53   38 ****** ***** ****** *** *** ***** ***** ***** ***** **
948990 ***** 201507202300 360   0 *** *** SCT * * * 31.2 02 ** ** ** ** ** ** ** 1   40   37 ****** ***** ****** *** *** ***** ***** ***** ***** **
948990 ***** 201507210500 360   0 ***  10 BKN * * * 31.2 03 ** ** ** ** ** ** ** 1   54   46 ****** ***** ****** *** *** ***** ***** ***** ***** **
948990 ***** 201507212300 360   0 *** *** OVC * * *  3.1 60 ** ** ** ** ** ** ** 8   50   49 ****** ***** ****** *** *** ***** *****  0.20 ***** **
948990 ***** 201507220500 110   3 *** *** OVC * * * 12.5 15 ** ** ** ** ** ** ** 6   53   49 ****** ***** ****** *** *** *****  0.12 ***** ***** **
948990 ***** 201507222300 360   0 *** *** *** * * *  1.2 10 ** ** ** ** ** ** ** 8   48   48 ****** ***** ****** *** *** ***** *****  0.24 ***** **
948990 ***** 201507230500 360   0 ***  10 BKN * * * 31.2 02 ** ** ** ** ** ** ** 2   54   48 ****** ***** ****** *** *** *****  0.01 ***** ***** **
948990 ***** 201507232300 360   0 *** *** *** * * *  0.6 45 ** ** ** ** ** ** ** 4   45   44 ****** ***** ****** *** *** ***** *****  0.02 ***** **
948990 ***** 201507240500 360   0 ***  10 OVC * * *  6.2 10 ** ** ** ** ** ** ** 6   49   48 ****** ***** ****** *** *** *****  0.08 ***** ***** **
948990 ***** 201507242300 360   0 ***  10 BKN * * * 12.5 15 ** ** ** ** ** ** ** 8   49   43 ****** ***** ****** *** *** ***** *****  0.63 ***** **
948990 ***** 201507250500 360   0 *** *** SCT * * * 25.0 15 ** ** ** ** ** ** ** 1   54   33 ****** ***** ****** *** *** ***** ***** ***** ***** **
948990 ***** 201507252300 340   9 *** *** OVC * * *  0.6 80 ** ** ** ** ** ** ** 8   48   44 ****** ***** ****** *** *** ***** *****  0.16 ***** **
948990 ***** 201507260500 270  11 *** *** SCT * * * 18.8 16 ** ** ** ** ** ** ** 8   48   32 ****** ***** ****** *** *** *****  0.04 ***** ***** **
948990 ***** 201507262300 360   0 *** *** SCT * * * 31.2 02 ** ** ** ** ** ** ** 5   41   37 ****** ***** ****** *** *** ***** *****  0.12 ***** **
948990 ***** 201507270500 310   5 ***  10 OVC * * * 25.0 02 ** ** ** ** ** ** ** 2   48   36 ****** ***** ****** *** *** ***** ***** ***** ***** **
948990 ***** 201507272300 360   0 *** *** BKN * * * 25.0 03 ** ** ** ** ** ** ** 1   43   36 ****** ***** ****** *** *** ***** ***** ***** ***** **
948990 ***** 201507280500 020   1 ***  10 BKN * * * 31.2 02 ** ** ** ** ** ** ** 2   51   39 ****** ***** ****** *** *** ***** ***** ***** ***** **
948990 ***** 201507282300 360   0 *** *** *** * * *  0.6 45 ** ** ** ** ** ** ** 4   41   40 ****** ***** ****** *** *** ***** *****  0.01 ***** **
948990 ***** 201507290500 320   2 *** *** SCT * * * 31.2 03 ** ** ** ** ** ** ** 0   45   44 ****** ***** ****** *** *** ***** ***** ***** ***** **
948990 ***** 201507292300 360   0 *** 722 CLR * * *  0.6 41 ** ** ** ** ** ** ** 4   40   40 ****** ***** ****** *** *** ***** ***** ***** ***** **
948990 ***** 201507300500 050   2 *** *** BKN * * * 25.0 03 ** ** ** ** ** ** ** 2   51   42 ****** ***** ****** *** *** ***** ***** ***** ***** **
948990 ***** 201507302300 360   0 ***  10 BKN * * * 25.0 03 ** ** ** ** ** ** ** 8   47   43 ****** ***** ****** *** *** ***** ***** *****  0.02 **
948990 ***** 201507310500 360   0 *** *** SCT * * * 31.2 02 ** ** ** ** ** ** ** 1   57   43 ****** ***** ****** *** *** ***** ***** ***** ***** **
948990 ***** 201507312300 180   5 *** *** OVC * * *  6.2 15 ** ** ** ** ** ** ** 5   51   46 ****** ***** ****** *** *** ***** *****  0.01 ***** **
948990 ***** 201508012300 360   0 *** *** OVC * * *  1.2 60 ** ** ** ** ** ** ** 8   46   46 ****** ***** ****** *** *** ***** *****  0.75 ***** **
948990 ***** 201508022300 340   7 ***  10 OVC * * * 12.5 16 ** ** ** ** ** ** ** 8   48   38 ****** ***** ****** *** *** ***** *****  0.16 ***** **
948990 ***** 201508032300 360   0 *** 722 CLR * * * 31.2 40 ** ** ** ** ** ** ** 0   32   30 ****** ***** ****** *** *** ***** *****  0.01 ***** **
948990 ***** 201508042300 270   3 ***  10 OVC * * *  3.1 57 ** ** ** ** ** ** ** 8   39   38 ****** ***** ****** *** *** ***** *****  0.12 ***** **
948990 ***** 201508052300 360   0 *** *** OVC * * * 18.8 03 ** ** ** ** ** ** ** 8   39   36 ****** ***** ****** *** *** ***** *****  0.12 ***** **
948990 ***** 201508062300 360   0 ***  10 OVC * * * 18.8 40 ** ** ** ** ** ** ** 8   45   43 ****** ***** ****** *** *** ***** *****  0.02 ***** **
948990 ***** 201508072300 360   0 *** 722 CLR * * *  0.6 42 ** ** ** ** ** ** ** 4   40   39 ****** ***** ****** *** *** ***** *****  0.01 ***** **
948990 ***** 201508082300 360   0 *** *** *** * * *  0.6 45 ** ** ** ** ** ** ** 4   39   39 ****** ***** ****** *** *** ***** *****  0.01 ***** **
948990 ***** 201508092300 360   0 ***  10 BKN * * * 12.5 03 ** ** ** ** ** ** ** 2   44   43 ****** ***** ****** *** *** ***** ***** ***** ***** **
948990 ***** 201508102300 090   2 *** *** *** * * *  0.6 42 ** ** ** ** ** ** ** 8   45   43 ****** ***** ****** *** *** ***** *****  0.12 ***** **
948990 ***** 201508112300 200   2 ***  10 BKN * * * 18.8 15 ** ** ** ** ** ** ** 2   39   39 ****** ***** ****** *** *** ***** *****  0.01 ***** **
948990 ***** 201508132300 360   0 *** *** OVC * * * 25.0 02 ** ** ** ** ** ** ** 5   45   44 ****** ***** ****** *** *** ***** *****  0.02 ***** **
948990 ***** 201508142300 360   0 *** 722 CLR * * * 31.2 02 ** ** ** ** ** ** ** 1   46   43 ****** ***** ****** *** *** ***** ***** ***** ***** **
948990 ***** 201508152300 360   0 *** 722 CLR * * * 31.2 40 ** ** ** ** ** ** ** 0   47   45 ****** ***** ****** *** *** ***** ***** ***** ***** **
948990 ***** 201508162300 090   3 ***  10 OVC * * * 12.5 02 ** ** ** ** ** ** ** 8   47   46 ****** ***** ****** *** *** ***** *****  0.03 ***** **
948990 ***** 201508172300 360   0 *** *** *** * * *  0.5 45 ** ** ** ** ** ** ** 8   34   32 ****** ***** ****** *** *** ***** *****  0.08 ***** **
948990 ***** 201508182300 360   0 *** 722 CLR * * * 31.2 02 ** ** ** ** ** ** ** 0   37   25 ****** ***** ****** *** *** ***** *****  0.01 ***** **
948990 ***** 201508192300 360   0 *** *** SCT * * * 31.2 03 ** ** ** ** ** ** ** 0   40   36 ****** ***** ****** *** *** ***** *****  0.01 ***** **
948990 ***** 201508202300 360   0 *** *** SCT * * * 31.2 02 ** ** ** ** ** ** ** 1   41   40 ****** ***** ****** *** *** ***** ***** ***** ***** **
948990 ***** 201508212300 360   0 *** *** SCT * * * 31.2 03 ** ** ** ** ** ** ** 8   54   52 ****** ***** ****** *** *** ***** *****  0.24 ***** **
948990 ***** 201508222300 360   0 *** *** BKN * * * 12.5 15 ** ** ** ** ** ** ** 8   52   51 ****** ***** ****** *** *** ***** *****  0.04 ***** **
948990 ***** 201508232300 360   0 *** *** OVC * * * 34.4 03 ** ** ** ** ** ** ** 2   50   47 ****** ***** ****** *** *** ***** ***** ***** ***** **
948990 ***** 201508242300 270   3 *** *** OVC * * * 25.0 02 ** ** ** ** ** ** ** 6   52   41 ****** ***** ****** *** *** ***** *****  0.20 ***** **
948990 ***** 201508252300 310   7 *** *** BKN * * * 28.1 03 ** ** ** ** ** ** ** 5   53   42 ****** ***** ****** *** *** ***** *****  0.08 ***** **
948990 ***** 201508262300 360   0 ***  10 OVC * * *  6.2 10 ** ** ** ** ** ** ** 8   50   48 ****** ***** ****** *** *** ***** *****  0.35 ***** **
948990 ***** 201508302300 360   0 *** 722 CLR * * * 31.2 01 ** ** ** ** ** ** ** 0   41   36 ****** ***** ****** *** *** ***** ***** ***** ***** **
948990 ***** 201508312300 360   0 *** 722 CLR * * * 31.2 40 ** ** ** ** ** ** ** 0   44   41 ****** ***** ****** *** *** ***** ***** ***** ***** **
948990 ***** 201509012300 360   0 *** *** BKN * * * 25.0 40 ** ** ** ** ** ** ** 2   39   39 ****** ***** ****** *** *** ***** ***** ***** ***** **
948990 ***** 201509022300 160   5 *** *** OVC * * *  6.2 61 ** ** ** ** ** ** ** 8   50   47 ****** ***** ****** *** *** ***** *****  0.67 ***** **
948990 ***** 201509032300 360   0 *** 722 CLR * * * 31.2 02 ** ** ** ** ** ** ** 5   46   43 ****** ***** ****** *** *** ***** *****  0.02 ***** **
948990 ***** 201509052300 360   0 *** *** SCT * * * 31.2 40 ** ** ** ** ** ** ** 0   46   46 ****** ***** ****** *** *** ***** ***** ***** ***** **
948990 ***** 201509062300 310   9 ***  10 BKN * * * 18.8 16 ** ** ** ** ** ** ** 8   53   43 ****** ***** ****** *** *** ***** *****  0.08 ***** **
948990 ***** 201509092300 360   0 *** 722 CLR * * * 31.2 02 ** ** ** ** ** ** ** 0   49   40 ****** ***** ****** *** *** ***** ***** ***** ***** **
948990 ***** 201509102300 360   0 *** 722 CLR * * * 31.2 40 ** ** ** ** ** ** ** 0   47   42 ****** ***** ****** *** *** ***** ***** ***** ***** **
948990 ***** 201509112300 360   0 *** *** BKN * * * 31.2 02 ** ** ** ** ** ** ** 2   52   48 ****** ***** ****** *** *** ***** ***** ***** ***** **
948990 ***** 201509122300 360   0 *** 722 CLR * * * 31.2 02 ** ** ** ** ** ** ** 1   53   47 ****** ***** ****** *** *** ***** ***** ***** ***** **
948990 ***** 201509132300 360   0 *** 722 CLR * * * 31.2 02 ** ** ** ** ** ** ** 0   54   46 ****** ***** ****** *** *** ***** ***** ***** ***** **
948990 ***** 201509142300 310  14 ***  10 OVC * * * 18.8 15 ** ** ** ** ** ** ** 8   59   46 ****** ***** ****** *** *** ***** *****  0.04 ***** **
948990 ***** 201509152300 360   0 *** *** SCT * * * 31.2 02 ** ** ** ** ** ** ** 1   47   44 ****** ***** ****** *** *** ***** ***** ***** ***** **
948990 ***** 201509162300 360   0 *** 722 CLR * * * 31.2 02 ** ** ** ** ** ** ** 0   51   45 ****** ***** ****** *** *** ***** ***** ***** ***** **
948990 ***** 201509172300 360   0 *** 722 CLR * * * 31.2 02 ** ** ** ** ** ** ** 0   49   43 ****** ***** ****** *** *** ***** ***** ***** ***** **
948990 ***** 201509182300 360   0 *** 722 CLR * * * 31.2 02 ** ** ** ** ** ** ** 0   51   44 ****** ***** ****** *** *** ***** ***** ***** ***** **
948990 ***** 201509192300 360   0 *** *** BKN * * * 31.2 02 ** ** ** ** ** ** ** 8   50   46 ****** ***** ****** *** *** ***** *****  0.02 ***** **
