  USAF  WBAN YR--MODAHRMN DIR SPD GUS CLG SKC L M H  VSB MW MW MW MW AW AW AW AW W TEMP DEWP    SLP   ALT    STP MAX MIN PCP01 PCP06 PCP24 PCPXX SD
949670 ***** 201501010400 250  29 *** 722 SCT * * *  6.2 05 ** ** ** ** ** ** ** 0   59   45 ****** ***** ****** *** *** *****  0.00 ***** ***** **
949670 ***** 201501011900 ***   0 *** 722 SCT * * *  9.4 02 ** ** ** ** ** ** ** 0   52   44 ****** ***** ****** *** *** ***** ***** ***** ***** **
949670 ***** 201501012200 070  10 *** 722 SCT * * * 12.5 05 ** ** ** ** ** ** ** 0   61   48 ****** ***** ****** *** *** ***** *****  0.00 ***** **
949670 ***** 201501020400 070  11 *** *** BKN * * *  9.4 05 ** ** ** ** ** ** ** 1   70   53 ****** ***** ****** *** *** *****  0.00 ***** ***** **
949670 ***** 201501021900 ***   0 *** 722 SCT * * *  9.4 05 ** ** ** ** ** ** ** 2   64   55 ****** ***** ****** *** *** ***** ***** ***** ***** **
949670 ***** 201501030400 090   6 *** *** BKN * * *  9.4 05 ** ** ** ** ** ** ** 1   69   58 ****** ***** ****** *** *** ***** *****  0.00 ***** **
949670 ***** 201501031900 250  29 *** *** BKN * * *  6.2 15 ** ** ** ** ** ** ** 2   56   53 ****** ***** ****** *** *** ***** ***** ***** ***** **
949670 ***** 201501032200 250  25 *** 722 SCT * * * 12.5 02 ** ** ** ** ** ** ** 1   58   49 ****** ***** ****** *** *** ***** ***** *****  0.24 **
949670 ***** 201501040400 250  21 *** 722 SCT * * *  9.4 05 ** ** ** ** ** ** ** 0   63   49 ****** ***** ****** *** *** *****  0.00 ***** ***** **
949670 ***** 201501041900 270   2 *** *** OVC * * *  9.4 15 ** ** ** ** ** ** ** 2   54   50 ****** ***** ****** *** *** ***** ***** ***** ***** **
949670 ***** 201501042200 290   2 *** *** BKN * * * 12.5 01 ** ** ** ** ** ** ** 2   58   49 ****** ***** ****** *** *** ***** *****  0.00 ***** **
949670 ***** 201501050400 200  18 *** 722 SCT * * * 12.5 05 ** ** ** ** ** ** ** 0   62   49 ****** ***** ****** *** *** *****  0.00 ***** ***** **
949670 ***** 201501051900 ***   0 *** *** BKN * * *  9.4 15 ** ** ** ** ** ** ** 2   57   53 ****** ***** ****** *** *** ***** ***** ***** ***** **
949670 ***** 201501052200 160   3 *** 722 SCT * * *  9.4 05 ** ** ** ** ** ** ** 0   60   55 ****** ***** ****** *** *** ***** *****  0.00 ***** **
949670 ***** 201501060400 110   6 *** 722 SCT * * * 18.8 01 ** ** ** ** ** ** ** 0   65   55 ****** ***** ****** *** *** *****  0.00 ***** ***** **
949670 ***** 201501061900 020   9 *** 722 SCT * * * 12.5 01 ** ** ** ** ** ** ** 0   60   53 ****** ***** ****** *** *** ***** ***** ***** ***** **
949670 ***** 201501062200 020  16 *** 722 SCT * * * 18.8 02 ** ** ** ** ** ** ** 0   65   53 ****** ***** ****** *** *** ***** *****  0.00 ***** **
949670 ***** 201501070400 070  13 *** 722 SCT * * * 18.8 03 ** ** ** ** ** ** ** 0   76   59 ****** ***** ****** *** *** *****  0.00 ***** ***** **
949670 ***** 201501071900 360  11 *** *** BKN * * * 12.5 03 ** ** ** ** ** ** ** 2   66   60 ****** ***** ****** *** *** ***** ***** ***** ***** **
949670 ***** 201501072200 270   2 *** *** OVC * * *  6.2 81 ** ** ** ** ** ** ** 8   65   62 ****** ***** ****** *** *** ***** *****  0.03 ***** **
949670 ***** 201501080400 020   3 *** *** OVC * * *  6.2 80 ** ** ** ** ** ** ** 8   67   65 ****** ***** ****** *** *** *****  0.16 ***** ***** **
949670 ***** 201501081900 290   1 *** 722 SCT * * *  9.4 02 ** ** ** ** ** ** ** 2   52   44 ****** ***** ****** *** *** ***** ***** ***** ***** **
949670 ***** 201501082200 290   6 *** 722 SCT * * * 15.6 01 ** ** ** ** ** ** ** 0   57   43 ****** ***** ****** *** *** ***** *****  0.24 ***** **
949670 ***** 201501091900 270   2 *** *** OVC * * *  9.4 03 ** ** ** ** ** ** ** 2   54   50 ****** ***** ****** *** *** ***** ***** ***** ***** **
949670 ***** 201501092200 090   2 *** *** OVC * * *  9.4 15 ** ** ** ** ** ** ** 2   55   48 ****** ***** ****** *** *** ***** *****  0.01 ***** **
949670 ***** 201501100400 200   6 *** *** BKN * * *  9.4 15 ** ** ** ** ** ** ** 2   59   48 ****** ***** ****** *** *** *****  0.00 ***** ***** **
949670 ***** 201501102200 290   6 *** 722 SCT * * * 12.5 03 ** ** ** ** ** ** ** 0   58   47 ****** ***** ****** *** *** ***** ***** ***** ***** **
949670 ***** 201501110400 250   9 *** 722 SCT * * * 18.8 02 ** ** ** ** ** ** ** 0   61   54 ****** ***** ****** *** *** *****  0.00 ***** ***** **
949670 ***** 201501112200 110   3 *** *** BKN * * * 18.8 03 ** ** ** ** ** ** ** 2   62   56 ****** ***** ****** *** *** ***** *****  0.00 ***** **
949670 ***** 201501122200 070  13 *** *** BKN * * * 18.8 02 ** ** ** ** ** ** ** 2   63   53 ****** ***** ****** *** *** ***** *****  0.00 ***** **
949670 ***** 201501130400 050  11 *** *** OVC * * * 12.5 02 ** ** ** ** ** ** ** 2   69   56 ****** ***** ****** *** *** *****  0.00 ***** ***** **
949670 ***** 201501132200 110  17 *** *** OVC * * *  0.6 63 ** ** ** ** ** ** ** 6   62   62 ****** ***** ****** *** *** ***** *****  1.50 ***** **
949670 ***** 201501140400 200  16 *** *** OVC * * *  3.1 80 ** ** ** ** ** ** ** 8   60   60 ****** ***** ****** *** *** *****  0.24 ***** ***** **
949670 ***** 201501142200 270   6 *** *** BKN * * *  5.0 05 ** ** ** ** ** ** ** 2   58   53 ****** ***** ****** *** *** ***** *****  0.28 ***** **
949670 ***** 201501150400 270  15 *** *** BKN * * *  6.2 16 ** ** ** ** ** ** ** 8   59   53 ****** ***** ****** *** *** *****  0.00 ***** ***** **
949670 ***** 201501152200 310  13 *** *** BKN * * * 12.5 15 ** ** ** ** ** ** ** 2   57   46 ****** ***** ****** *** *** ***** ***** ***** ***** **
949670 ***** 201501160400 270  16 *** *** OVC * * *  1.6 80 ** ** ** ** ** ** ** 8   56   52 ****** ***** ****** *** *** *****  0.12 ***** ***** **
949670 ***** 201501162200 270  21 *** *** BKN * * *  1.6 80 ** ** ** ** ** ** ** 8   53   44 ****** ***** ****** *** *** ***** *****  0.32 ***** **
949670 ***** 201501170400 290  25 *** *** BKN * * *  3.1 80 ** ** ** ** ** ** ** 8   58   44 ****** ***** ****** *** *** *****  0.04 ***** ***** **
949670 ***** 201501172200 250  23 *** *** BKN * * *  0.9 80 ** ** ** ** ** ** ** 8   50   45 ****** ***** ****** *** *** ***** *****  0.31 ***** **
949670 ***** 201501180400 250  31 *** *** BKN * * *  3.8 15 ** ** ** ** ** ** ** 8   56   41 ****** ***** ****** *** *** ***** ***** ***** ***** **
949670 ***** 201501182200 250  14 *** *** BKN * * *  3.1 05 ** ** ** ** ** ** ** 2   54   39 ****** ***** ****** *** *** ***** *****  0.04 ***** **
949670 ***** 201501190400 200   3 *** *** BKN * * *  9.4 05 ** ** ** ** ** ** ** 2   57   39 ****** ***** ****** *** *** *****  0.00 ***** ***** **
949670 ***** 201501192200 050   9 *** *** OVC * * *  6.2 05 ** ** ** ** ** ** ** 2   59   45 ****** ***** ****** *** *** ***** *****  0.00 ***** **
949670 ***** 201501200400 020   8 *** *** OVC * * * 12.5 03 ** ** ** ** ** ** ** 2   74   49 ****** ***** ****** *** *** *****  0.00 ***** ***** **
949670 ***** 201501202200 360   9 *** *** BKN * * * 12.5 02 ** ** ** ** ** ** ** 8   65   60 ****** ***** ****** *** *** ***** *****  0.01 ***** **
949670 ***** 201501210400 360   6 *** *** BKN * * * 12.5 03 ** ** ** ** ** ** ** 2   79   64 ****** ***** ****** *** *** ***** ***** ***** ***** **
949670 ***** 201501212200 340   9 *** *** BKN * * *  9.4 21 ** ** ** ** ** ** ** 2   65   59 ****** ***** ****** *** *** ***** *****  0.00T***** **
949670 ***** 201501220400 270   3 *** *** OVC * * *  6.2 14 ** ** ** ** ** ** ** 6   61   57 ****** ***** ****** *** *** *****  0.00T***** ***** **
949670 ***** 201501222200 310   6 *** *** BKN * * * 18.8 15 ** ** ** ** ** ** ** 2   66   57 ****** ***** ****** *** *** ***** *****  0.15 ***** **
949670 ***** 201501230400 270  20 *** *** BKN * * *  9.4 15 ** ** ** ** ** ** ** 2   59   52 ****** ***** ****** *** *** *****  0.00 ***** ***** **
949670 ***** 201501232200 020   3 *** *** BKN * * *  6.2 05 ** ** ** ** ** ** ** 2   60   54 ****** ***** ****** *** *** ***** *****  0.01 ***** **
949670 ***** 201501240400 160   3 *** 722 SCT * * * 12.5 01 ** ** ** ** ** ** ** 0   62   50 ****** ***** ****** *** *** *****  0.00 ***** ***** **
949670 ***** 201501242200 250  14 *** *** OVC * * * 12.5 15 ** ** ** ** ** ** ** 2   55   44 ****** ***** ****** *** *** ***** *****  0.00 ***** **
949670 ***** 201501250400 290  17 *** *** OVC * * *  9.4 80 ** ** ** ** ** ** ** 8   52   47 ****** ***** ****** *** *** *****  0.08 ***** ***** **
949670 ***** 201501252200 270  14 *** *** BKN * * * 12.5 25 ** ** ** ** ** ** ** 2   53   46 ****** ***** ****** *** *** ***** *****  0.22 ***** **
949670 ***** 201501260400 270  21 *** *** BKN * * * 12.5 25 ** ** ** ** ** ** ** 2   55   44 ****** ***** ****** *** *** *****  0.03 ***** ***** **
949670 ***** 201501262200 310   3 *** *** BKN * * * 12.5 02 ** ** ** ** ** ** ** 2   56   44 ****** ***** ****** *** *** ***** *****  0.03 ***** **
949670 ***** 201501270400 200  15 *** *** BKN * * * 15.6 01 ** ** ** ** ** ** ** 2   59   46 ****** ***** ****** *** *** *****  0.00 ***** ***** **
949670 ***** 201501272200 130  14 *** *** BKN * * * 12.5 15 ** ** ** ** ** ** ** 2   56   41 ****** ***** ****** *** *** ***** *****  0.02 ***** **
949670 ***** 201501280400 160   9 *** *** BKN * * * 15.6 01 ** ** ** ** ** ** ** 8   58   41 ****** ***** ****** *** *** *****  0.01 ***** ***** **
949670 ***** 201501282200 160  11 *** *** BKN * * * 12.5 16 ** ** ** ** ** ** ** 2   55   46 ****** ***** ****** *** *** ***** *****  0.01 ***** **
949670 ***** 201501290400 160   6 *** *** BKN * * * 12.5 15 ** ** ** ** ** ** ** 2   57   45 ****** ***** ****** *** *** ***** ***** ***** ***** **
949670 ***** 201501292200 160  17 *** *** BKN * * *  5.0 80 ** ** ** ** ** ** ** 8   54   52 ****** ***** ****** *** *** ***** *****  0.04 ***** **
949670 ***** 201501300400 160  14 *** *** BKN * * *  9.4 25 ** ** ** ** ** ** ** 8   56   51 ****** ***** ****** *** *** *****  0.03 ***** ***** **
949670 ***** 201501302200 160  14 *** *** OVC * * *  1.6 50 ** ** ** ** ** ** ** 6   55   54 ****** ***** ****** *** *** ***** *****  0.13 ***** **
949670 ***** 201501310400 160  11 *** *** OVC * * *  0.9 58 ** ** ** ** ** ** ** 5   56   55 ****** ***** ****** *** *** *****  0.01 ***** ***** **
949670 ***** 201501312200 180  11 *** *** OVC * * *  6.2 80 ** ** ** ** ** ** ** 8   53   48 ****** ***** ****** *** *** ***** *****  0.07 ***** **
949670 ***** 201502010400 230   9 *** *** OVC * * *  9.4 02 ** ** ** ** ** ** ** 8   56   49 ****** ***** ****** *** *** *****  0.00T***** ***** **
949670 ***** 201502012200 270  20 *** *** BKN * * * 18.8 01 ** ** ** ** ** ** ** 2   57   46 ****** ***** ****** *** *** ***** *****  0.03 ***** **
949670 ***** 201502020400 270  17 *** *** BKN * * * 15.6 02 ** ** ** ** ** ** ** 2   61   47 ****** ***** ****** *** *** *****  0.00 ***** ***** **
949670 ***** 201502040400 230  14 *** *** BKN * * * 12.5 02 ** ** ** ** ** ** ** 2   56   39 ****** ***** ****** *** *** ***** ***** *****  0.08 **
949670 ***** 201502042200 250   6 *** 722 SCT * * * 12.5 02 ** ** ** ** ** ** ** 0   56   44 ****** ***** ****** *** *** ***** ***** *****  0.08 **
949670 ***** 201502050400 200  14 *** *** BKN * * * 12.5 03 ** ** ** ** ** ** ** 1   62   51 ****** ***** ****** *** *** *****  0.00 ***** ***** **
949670 ***** 201502052200 ***   0 *** *** OVC * * *  3.1 10 ** ** ** ** ** ** ** 2   57   54 ****** ***** ****** *** *** ***** *****  0.00 ***** **
949670 ***** 201502060400 110   9 *** 722 SCT * * *  9.4 01 ** ** ** ** ** ** ** 1   60   56 ****** ***** ****** *** *** *****  0.00 ***** ***** **
949670 ***** 201502062200 360   3 *** *** BKN * * *  9.4 02 ** ** ** ** ** ** ** 1   66   59 ****** ***** ****** *** *** ***** *****  0.00 ***** **
949670 ***** 201502070400 290   3 *** *** BKN * * *  9.4 03 ** ** ** ** ** ** ** 2   79   56 ****** ***** ****** *** *** *****  0.00 ***** ***** **
949670 ***** 201502072200 250  18 *** *** BKN * * *  3.1 80 ** ** ** ** ** ** ** 2   58   53 ****** ***** ****** *** *** ***** *****  0.00T***** **
949670 ***** 201502080400 250  21 *** *** BKN * * *  9.4 01 ** ** ** ** ** ** ** 2   61   41 ****** ***** ****** *** *** *****  0.00 ***** ***** **
949670 ***** 201502082200 290   3 *** 722 SCT * * *  9.4 02 ** ** ** ** ** ** ** 0   57   46 ****** ***** ****** *** *** ***** *****  0.00 ***** **
949670 ***** 201502090400 130  11 *** 722 SCT * * * 12.5 02 ** ** ** ** ** ** ** 0   62   45 ****** ***** ****** *** *** *****  0.00 ***** ***** **
949670 ***** 201502092200 020   6 *** 722 SCT * * * 12.5 02 ** ** ** ** ** ** ** 0   60   50 ****** ***** ****** *** *** ***** *****  0.00 ***** **
949670 ***** 201502100400 110   6 *** 722 SCT * * * 12.5 02 ** ** ** ** ** ** ** 0   66   55 ****** ***** ****** *** *** *****  0.00 ***** ***** **
949670 ***** 201502102200 020   6 *** *** BKN * * * 15.6 02 ** ** ** ** ** ** ** 1   64   58 ****** ***** ****** *** *** ***** *****  0.00 ***** **
949670 ***** 201502110400 130   6 *** *** BKN * * *  9.4 03 ** ** ** ** ** ** ** 2   68   58 ****** ***** ****** *** *** *****  0.00 ***** ***** **
949670 ***** 201502112200 230   5 *** 722 SCT * * * 12.5 02 ** ** ** ** ** ** ** 0   57   38 ****** ***** ****** *** *** ***** *****  0.00 ***** **
949670 ***** 201502120400 110   9 *** 722 SCT * * * 18.8 02 ** ** ** ** ** ** ** 0   60   40 ****** ***** ****** *** *** *****  0.00 ***** ***** **
949670 ***** 201502122200 020   8 *** 722 SCT * * * 15.6 02 ** ** ** ** ** ** ** 0   60   45 ****** ***** ****** *** *** ***** *****  0.00 ***** **
949670 ***** 201502130400 050  15 *** *** BKN * * * 15.6 03 ** ** ** ** ** ** ** 1   67   47 ****** ***** ****** *** *** *****  0.00 ***** ***** **
949670 ***** 201502132200 020   9 *** *** BKN * * *  9.4 03 ** ** ** ** ** ** ** 2   63   56 ****** ***** ****** *** *** ***** *****  0.00 ***** **
949670 ***** 201502140400 090   2 *** *** BKN * * *  5.0 61 ** ** ** ** ** ** ** 6   64   62 ****** ***** ****** *** *** *****  0.02 ***** ***** **
949670 ***** 201502142200 050  11 *** 722 SCT * * * 12.5 02 ** ** ** ** ** ** ** 0   68   62 ****** ***** ****** *** *** ***** *****  0.05 ***** **
949670 ***** 201502150400 050  17 *** *** BKN * * *  9.4 03 ** ** ** ** ** ** ** 1   71   62 ****** ***** ****** *** *** *****  0.00 ***** ***** **
949670 ***** 201502152200 230   5 *** *** BKN * * *  1.6 10 ** ** ** ** ** ** ** 2   64   62 ****** ***** ****** *** *** ***** *****  0.00 ***** **
949670 ***** 201502160400 270  14 *** 722 SCT * * * 18.8 01 ** ** ** ** ** ** ** 1   73   53 ****** ***** ****** *** *** *****  0.00 ***** ***** **
949670 ***** 201502162200 250   2 *** *** BKN * * * 12.5 02 ** ** ** ** ** ** ** 2   59   53 ****** ***** ****** *** *** ***** *****  0.00 ***** **
949670 ***** 201502170400 020   2 *** *** BKN * * *  9.4 02 ** ** ** ** ** ** ** 2   63   55 ****** ***** ****** *** *** *****  0.00 ***** ***** **
949670 ***** 201502172200 250  14 *** 722 SCT * * * 15.6 02 ** ** ** ** ** ** ** 0   60   50 ****** ***** ****** *** *** ***** *****  0.00 ***** **
949670 ***** 201502180400 200   9 *** 722 SCT * * * 21.9 02 ** ** ** ** ** ** ** 0   62   53 ****** ***** ****** *** *** *****  0.00 ***** ***** **
949670 ***** 201502182200 360   9 *** *** BKN * * * 21.9 01 ** ** ** ** ** ** ** 2   62   57 ****** ***** ****** *** *** ***** *****  0.00 ***** **
949670 ***** 201502190400 200   3 *** *** BKN * * * 15.6 02 ** ** ** ** ** ** ** 2   71   57 ****** ***** ****** *** *** *****  0.00 ***** ***** **
949670 ***** 201502192200 230   8 *** *** BKN * * * 12.5 02 ** ** ** ** ** ** ** 2   64   60 ****** ***** ****** *** *** ***** *****  0.00 ***** **
949670 ***** 201502200400 230  21 *** *** BKN * * * 18.8 01 ** ** ** ** ** ** ** 2   64   56 ****** ***** ****** *** *** *****  0.00 ***** ***** **
949670 ***** 201502202200 360   9 *** 722 SCT * * * 21.9 01 ** ** ** ** ** ** ** 1   65   57 ****** ***** ****** *** *** ***** *****  0.00 ***** **
949670 ***** 201502210400 110   3 *** 722 SCT * * * 21.9 02 ** ** ** ** ** ** ** 1   66   64 ****** ***** ****** *** *** *****  0.00 ***** ***** **
949670 ***** 201502212200 340   3 *** *** BKN * * * 25.0 03 ** ** ** ** ** ** ** 2   76   53 ****** ***** ****** *** *** ***** *****  0.00 ***** **
949670 ***** 201502220400 160   6 *** *** BKN * * * 15.6 17 ** ** ** ** ** ** ** 2   69   61 ****** ***** ****** *** *** *****  0.00 ***** ***** **
949670 ***** 201502222200 270   6 *** *** BKN * * *  6.2 40 ** ** ** ** ** ** ** 2   67   62 ****** ***** ****** *** *** ***** *****  0.05 ***** **
949670 ***** 201502230400 250  21 *** *** BKN * * * 12.5 01 ** ** ** ** ** ** ** 9   58   50 ****** ***** ****** *** *** *****  0.20 ***** ***** **
949670 ***** 201502232200 270  10 *** *** BKN * * * 15.6 01 ** ** ** ** ** ** ** 2   56   44 ****** ***** ****** *** *** ***** *****  0.20 ***** **
949670 ***** 201502240400 230  15 *** *** BKN * * * 18.8 03 ** ** ** ** ** ** ** 2   60   43 ****** ***** ****** *** *** *****  0.00 ***** ***** **
949670 ***** 201502242200 050   9 *** 722 SCT * * * 18.8 02 ** ** ** ** ** ** ** 0   58   50 ****** ***** ****** *** *** ***** *****  0.00 ***** **
949670 ***** 201502250400 130   5 *** *** BKN * * * 21.9 03 ** ** ** ** ** ** ** 2   66   54 ****** ***** ****** *** *** *****  0.00 ***** ***** **
949670 ***** 201502252200 310   5 *** *** BKN * * *  9.4 80 ** ** ** ** ** ** ** 6   63   52 ****** ***** ****** *** *** ***** *****  0.00T***** **
949670 ***** 201502260400 230  16 *** *** BKN * * *  9.4 01 ** ** ** ** ** ** ** 6   59   45 ****** ***** ****** *** *** *****  0.01 ***** ***** **
949670 ***** 201502262200 ***   0 *** *** OVC * * * 15.6 03 ** ** ** ** ** ** ** 2   55   49 ****** ***** ****** *** *** ***** *****  0.01 ***** **
949670 ***** 201502270400 250  10 *** *** OVC * * * 11.2 03 ** ** ** ** ** ** ** 2   60   49 ****** ***** ****** *** *** ***** ***** ***** ***** **
949670 ***** 201502272200 050  11 *** *** BKN * * * 12.5 03 ** ** ** ** ** ** ** 1   59   49 ****** ***** ****** *** *** ***** *****  0.00 ***** **
949670 ***** 201502280400 050   6 *** *** OVC * * * 12.5 60 ** ** ** ** ** ** ** 6   59   55 ****** ***** ****** *** *** *****  0.12 ***** ***** **
949670 ***** 201502282200 250  25 *** 722 SCT * * *  9.4 01 ** ** ** ** ** ** ** 8   56   48 ****** ***** ****** *** *** ***** *****  0.20 ***** **
949670 ***** 201503010400 230  29 *** *** BKN * * *  6.2 60 ** ** ** ** ** ** ** 8   57   49 ****** ***** ****** *** *** *****  0.01 ***** ***** **
949670 ***** 201503012200 050   8 *** 722 SCT * * * 18.8 03 ** ** ** ** ** ** ** 0   52   43 ****** ***** ****** *** *** ***** *****  0.02 ***** **
949670 ***** 201503020400 160   7 *** *** OVC * * * 18.8 02 ** ** ** ** ** ** ** 2   61   46 ****** ***** ****** *** *** *****  0.00 ***** ***** **
949670 ***** 201503022200 290   7 *** 722 SCT * * * 18.8 15 ** ** ** ** ** ** ** 1   57   38 ****** ***** ****** *** *** ***** *****  0.00 ***** **
949670 ***** 201503030400 250   7 *** 722 SCT * * * 21.9 03 ** ** ** ** ** ** ** 0   60   43 ****** ***** ****** *** *** *****  0.00 ***** ***** **
949670 ***** 201503032200 290  25 *** *** BKN * * * 21.9 03 ** ** ** ** ** ** ** 2   62   46 ****** ***** ****** *** *** ***** *****  0.00 ***** **
949670 ***** 201503040400 310  28 *** *** BKN * * * 12.5 01 ** ** ** ** ** ** ** 2   63   45 ****** ***** ****** *** *** *****  0.00 ***** ***** **
949670 ***** 201503042200 250  34 *** *** BKN * * * 11.2 80 ** ** ** ** ** ** ** 2   51   38 ****** ***** ****** *** *** ***** *****  0.39 ***** **
949670 ***** 201503050400 270  18 *** *** BKN * * * 12.5 81 ** ** ** ** ** ** ** 8   54   41 ****** ***** ****** *** *** *****  0.04 ***** ***** **
949670 ***** 201503052200 230  32 *** *** BKN * * *  6.2 81 ** ** ** ** ** ** ** 8   52   40 ****** ***** ****** *** *** ***** *****  0.17 ***** **
949670 ***** 201503060400 230  25 *** 722 SCT * * * 12.5 03 ** ** ** ** ** ** ** 8   56   39 ****** ***** ****** *** *** *****  0.00T***** ***** **
949670 ***** 201503062200 340   6 *** *** BKN * * * 15.6 15 ** ** ** ** ** ** ** 2   56   49 ****** ***** ****** *** *** ***** *****  0.00T***** **
949670 ***** 201503070400 230   7 *** *** BKN * * * 18.8 15 ** ** ** ** ** ** ** 2   64   55 ****** ***** ****** *** *** *****  0.00 ***** ***** **
949670 ***** 201503072200 050   5 *** *** BKN * * * 18.8 03 ** ** ** ** ** ** ** 2   57   48 ****** ***** ****** *** *** ***** *****  0.00 ***** **
949670 ***** 201503080400 290   5 *** *** BKN * * * 21.9 03 ** ** ** ** ** ** ** 2   65   49 ****** ***** ****** *** *** *****  0.00 ***** ***** **
949670 ***** 201503082200 270  10 *** 722 SCT * * * 18.8 02 ** ** ** ** ** ** ** 0   59   48 ****** ***** ****** *** *** ***** *****  0.00 ***** **
949670 ***** 201503090400 160   5 *** *** BKN * * * 18.8 03 ** ** ** ** ** ** ** 1   63   51 ****** ***** ****** *** *** *****  0.00 ***** ***** **
949670 ***** 201503092200 360   9 *** 722 SCT * * * 18.8 03 ** ** ** ** ** ** ** 0   56   46 ****** ***** ****** *** *** ***** *****  0.00 ***** **
949670 ***** 201503100400 160   9 *** *** BKN * * * 18.8 03 ** ** ** ** ** ** ** 1   61   49 ****** ***** ****** *** *** *****  0.00 ***** ***** **
949670 ***** 201503102200 110   6 *** *** BKN * * * 18.8 01 ** ** ** ** ** ** ** 2   57   46 ****** ***** ****** *** *** ***** *****  0.00 ***** **
949670 ***** 201503110400 340   8 *** *** BKN * * * 12.5 15 ** ** ** ** ** ** ** 2   63   47 ****** ***** ****** *** *** *****  0.00 ***** ***** **
949670 ***** 201503112200 270  11 *** 722 SCT * * * 12.5 01 ** ** ** ** ** ** ** 5   54   43 ****** ***** ****** *** *** ***** *****  0.08 ***** **
949670 ***** 201503120400 250  22 *** *** BKN * * *  7.5 80 ** ** ** ** ** ** ** 8   54   45 ****** ***** ****** *** *** ***** ***** ***** ***** **
949670 ***** 201503122200 310   7 *** *** BKN * * * 25.0 14 ** ** ** ** ** ** ** 2   52   39 ****** ***** ****** *** *** ***** ***** ***** ***** **
949670 ***** 201503130400 270   7 *** *** BKN * * * 11.2 01 ** ** ** ** ** ** ** 2   60   43 ****** ***** ****** *** *** ***** ***** ***** ***** **
949670 ***** 201503132200 340   2 *** *** BKN * * * 17.5 03 ** ** ** ** ** ** ** 2   55   42 ****** ***** ****** *** *** ***** ***** ***** ***** **
949670 ***** 201503140400 310  21 *** *** OVC * * * 11.2 80 ** ** ** ** ** ** ** 8   60   48 ****** ***** ****** *** *** ***** ***** ***** ***** **
949670 ***** 201503142200 270  20 *** *** BKN * * * 11.2 80 ** ** ** ** ** ** ** 8   49   40 ****** ***** ****** *** *** ***** *****  0.05 ***** **
949670 ***** 201503150400 230   6 *** *** BKN * * * 11.2 02 ** ** ** ** ** ** ** 2   53   39 ****** ***** ****** *** *** ***** ***** ***** ***** **
949670 ***** 201503152200 050   6 *** 722 SCT * * * 17.5 02 ** ** ** ** ** ** ** 0   52   44 ****** ***** ****** *** *** ***** *****  0.01 ***** **
949670 ***** 201503152300 050   6 *** 722 SCT * * * 17.5 02 ** ** ** ** ** ** ** 0   52   44 ****** ***** ****** *** *** ***** ***** ***** ***** **
949670 ***** 201503160400 230   4 *** *** BKN * * * 25.0 03 ** ** ** ** ** ** ** 1   57   44 ****** ***** ****** *** *** ***** ***** ***** ***** **
949670 ***** 201503162200 020   7 *** *** BKN * * * 21.9 03 ** ** ** ** ** ** ** 2   57   47 ****** ***** ****** *** *** ***** ***** ***** ***** **
949670 ***** 201503170400 020   7 *** *** OVC * * * 18.8 03 ** ** ** ** ** ** ** 2   66   51 ****** ***** ****** *** *** ***** ***** ***** ***** **
949670 ***** 201503172200 020   4 *** *** OVC * * * 12.5 61 ** ** ** ** ** ** ** 6   61   57 ****** ***** ****** *** *** ***** *****  0.23 ***** **
949670 ***** 201503180400 200   7 *** *** BKN * * * 12.5 01 ** ** ** ** ** ** ** 6   61   59 ****** ***** ****** *** *** ***** ***** ***** ***** **
949670 ***** 201503182200 020   4 *** *** BKN * * * 21.9 01 ** ** ** ** ** ** ** 6   59   52 ****** ***** ****** *** *** ***** *****  0.04 ***** **
949670 ***** 201503190400 020   7 *** *** BKN * * *  7.5 52 ** ** ** ** ** ** ** 2   70   59 ****** ***** ****** *** *** ***** ***** ***** ***** **
949670 ***** 201503192200 290  16 *** 722 SCT * * * 10.0 25 ** ** ** ** ** ** ** 6   55   40 ****** ***** ****** *** *** ***** ***** ***** ***** **
949670 ***** 201503200400 270  17 *** *** BKN * * *  7.5 60 ** ** ** ** ** ** ** 6   53   45 ****** ***** ****** *** *** ***** ***** ***** ***** **
949670 ***** 201503202200 340   2 *** *** BKN * * * 18.8 01 ** ** ** ** ** ** ** 2   52   40 ****** ***** ****** *** *** ***** *****  0.04 ***** **
949670 ***** 201503210400 180   6 *** 722 SCT * * * 21.9 01 ** ** ** ** ** ** ** 1   59   43 ****** ***** ****** *** *** ***** ***** ***** ***** **
949670 ***** 201503212200 360   9 *** 722 SCT * * * 25.0 00 ** ** ** ** ** ** ** 0   51   49 ****** ***** ****** *** *** ***** ***** ***** ***** **
949670 ***** 201503220400 110   5 *** *** BKN * * * 10.0 04 ** ** ** ** ** ** ** 1   60   54 ****** ***** ****** *** *** ***** ***** ***** ***** **
949670 ***** 201503222200 130   0 *** *** OVC * * *  5.0 61 ** ** ** ** ** ** ** 6   57   53 ****** ***** ****** *** *** ***** *****  0.04 ***** **
949670 ***** 201503230400 250  20 *** *** OVC * * *  7.5 15 ** ** ** ** ** ** ** 6   56   53 ****** ***** ****** *** *** ***** ***** ***** ***** **
949670 ***** 201503232200 290   9 *** *** BKN * * * 18.8 01 ** ** ** ** ** ** ** 2   49   37 ****** ***** ****** *** *** ***** *****  0.24 ***** **
949670 ***** 201503240400 290   1 *** *** BKN * * * 21.9 03 ** ** ** ** ** ** ** 2   58   40 ****** ***** ****** *** *** ***** ***** ***** ***** **
949670 ***** 201503242200 340   5 *** *** BKN * * * 21.9 00 ** ** ** ** ** ** ** 2   54   43 ****** ***** ****** *** *** ***** ***** ***** ***** **
949670 ***** 201503250400 310   2 *** *** BKN * * * 25.0 03 ** ** ** ** ** ** ** 2   61   44 ****** ***** ****** *** *** ***** ***** ***** ***** **
949670 ***** 201503252200 310   2 *** *** OVC * * *  5.0 60 ** ** ** ** ** ** ** 2   51   46 ****** ***** ****** *** *** ***** *****  0.02 ***** **
949670 ***** 201503260400 020   0 *** *** BKN * * * 10.0 15 ** ** ** ** ** ** ** 6   54   49 ****** ***** ****** *** *** ***** ***** ***** ***** **
949670 ***** 201503262200 020   2 *** *** OVC * * *  5.0 63 ** ** ** ** ** ** ** 6   49   47 ****** ***** ****** *** *** ***** *****  0.88 ***** **
949670 ***** 201503270400 200  11 *** *** OVC * * *  7.5 60 ** ** ** ** ** ** ** 6   55   51 ****** ***** ****** *** *** ***** ***** ***** ***** **
949670 ***** 201503272200 250   2 *** 722 SCT * * * 18.8 01 ** ** ** ** ** ** ** 1   51   47 ****** ***** ****** *** *** ***** *****  0.12 ***** **
949670 ***** 201503280400 250   5 *** 722 SCT * * * 21.9 03 ** ** ** ** ** ** ** 0   59   46 ****** ***** ****** *** *** ***** ***** ***** ***** **
949670 ***** 201503282200 340   4 *** *** BKN * * * 10.0 03 ** ** ** ** ** ** ** 2   56   46 ****** ***** ****** *** *** ***** ***** ***** ***** **
949670 ***** 201503290400 250  16 *** *** BKN * * *  7.5 01 ** ** ** ** ** ** ** 6   56   50 ****** ***** ****** *** *** ***** ***** ***** ***** **
949670 ***** 201503292200 290  12 *** 722 SCT * * * 12.5 01 ** ** ** ** ** ** ** 1   58   46 ****** ***** ****** *** *** ***** *****  0.11 ***** **
949670 ***** 201503300400 250   9 *** 722 SCT * * * 18.8 03 ** ** ** ** ** ** ** 0   61   54 ****** ***** ****** *** *** ***** ***** ***** ***** **
949670 ***** 201503302200 360   4 *** 722 SCT * * * 21.9 01 ** ** ** ** ** ** ** 0   57   50 ****** ***** ****** *** *** ***** ***** ***** ***** **
949670 ***** 201503310400 130   4 *** *** BKN * * * 25.0 03 ** ** ** ** ** ** ** 1   59   50 ****** ***** ****** *** *** ***** ***** ***** ***** **
949670 ***** 201503312200 020  11 *** *** BKN * * * 25.0 03 ** ** ** ** ** ** ** 2   58   48 ****** ***** ****** *** *** ***** ***** ***** ***** **
949670 ***** 201504010400 360   4 *** *** OVC * * * 25.0 03 ** ** ** ** ** ** ** 2   70   47 ****** ***** ****** *** *** ***** ***** ***** ***** **
949670 ***** 201504012200 160  16 *** *** BKN * * *  5.0 ** ** ** ** ** ** ** ** 5   49   44 ****** ***** ****** *** *** ***** *****  0.12 ***** **
949670 ***** 201504020400 200  13 *** *** BKN * * * 10.0 01 ** ** ** ** ** ** ** 6   52   43 ****** ***** ****** *** *** ***** ***** ***** ***** **
949670 ***** 201504022200 270  16 *** *** OVC * * *  5.0 15 ** ** ** ** ** ** ** 5   50   46 ****** ***** ****** *** *** ***** ***** ***** ***** **
949670 ***** 201504030400 250  13 *** *** BKN * * * 10.0 01 ** ** ** ** ** ** ** 2   55   47 ****** ***** ****** *** *** ***** ***** ***** ***** **
949670 ***** 201504032200 020   2 *** *** BKN * * * 12.5 01 ** ** ** ** ** ** ** 2   51   48 ****** ***** ****** *** *** ***** ***** ***** ***** **
949670 ***** 201504040400 130   2 *** 722 SCT * * * 18.8 01 ** ** ** ** ** ** ** 0   57   52 ****** ***** ****** *** *** ***** ***** ***** ***** **
949670 ***** 201504042300 020   4 *** 722 SCT * * * 25.0 03 ** ** ** ** ** ** ** 0   56   55 ****** ***** ****** *** *** ***** ***** ***** ***** **
949670 ***** 201504050500 200   2 *** *** BKN * * * 25.0 03 ** ** ** ** ** ** ** 1   62   53 ****** ***** ****** *** *** ***** ***** ***** ***** **
949670 ***** 201504052300 270   2 *** *** BKN * * * 18.8 02 ** ** ** ** ** ** ** 2   55   49 ****** ***** ****** *** *** ***** *****  0.15 ***** **
949670 ***** 201504060500 160  10 *** *** BKN * * * 10.0 02 ** ** ** ** ** ** ** 2   54   45 ****** ***** ****** *** *** ***** ***** ***** ***** **
949670 ***** 201504062300 270   4 *** *** BKN * * * 18.8 02 ** ** ** ** ** ** ** 2   52   41 ****** ***** ****** *** *** ***** ***** ***** ***** **
949670 ***** 201504070500 250   5 *** 722 SCT * * * 25.0 01 ** ** ** ** ** ** ** 0   55   41 ****** ***** ****** *** *** ***** ***** ***** ***** **
949670 ***** 201504072300 200   4 *** *** OVC * * * 10.0 03 ** ** ** ** ** ** ** 2   53   41 ****** ***** ****** *** *** ***** *****  0.04 ***** **
949670 ***** 201504080500 200   7 *** *** BKN * * * 18.8 03 ** ** ** ** ** ** ** 1   54   43 ****** ***** ****** *** *** ***** ***** ***** ***** **
949670 ***** 201504082300 290   4 *** *** BKN * * * 12.5 01 ** ** ** ** ** ** ** 2   52   46 ****** ***** ****** *** *** ***** ***** ***** ***** **
949670 ***** 201504090500 200  21 *** 722 SCT * * * 10.0 15 ** ** ** ** ** ** ** 0   53   49 ****** ***** ****** *** *** ***** ***** ***** ***** **
949670 ***** 201504092300 270   4 *** *** BKN * * * 21.9 01 ** ** ** ** ** ** ** 2   51   44 ****** ***** ****** *** *** ***** ***** ***** ***** **
949670 ***** 201504100500 230   7 *** 722 SCT * * * 21.9 01 ** ** ** ** ** ** ** 0   56   46 ****** ***** ****** *** *** ***** ***** ***** ***** **
949670 ***** 201504102300 290   4 *** *** BKN * * * 12.5 03 ** ** ** ** ** ** ** 2   52   41 ****** ***** ****** *** *** ***** ***** ***** ***** **
949670 ***** 201504110500 250  13 *** *** OVC * * * 10.0 15 ** ** ** ** ** ** ** 2   53   46 ****** ***** ****** *** *** ***** ***** ***** ***** **
949670 ***** 201504112300 250  22 *** *** OVC * * *  5.0 50 ** ** ** ** ** ** ** 5   49   40 ****** ***** ****** *** *** ***** *****  0.11 ***** **
949670 ***** 201504120500 230  16 *** *** OVC * * *  5.0 20 ** ** ** ** ** ** ** 2   51   41 ****** ***** ****** *** *** ***** ***** ***** ***** **
949670 ***** 201504122300 230  13 *** *** BKN * * * 10.0 01 ** ** ** ** ** ** ** 2   52   41 ****** ***** ****** *** *** ***** ***** ***** ***** **
949670 ***** 201504130500 230   5 *** 722 SCT * * * 12.5 00 ** ** ** ** ** ** ** 0   53   41 ****** ***** ****** *** *** ***** ***** ***** ***** **
949670 ***** 201504132300 020   9 *** 722 SCT * * * 15.6 03 ** ** ** ** ** ** ** 4   48   47 ****** ***** ****** *** *** ***** ***** ***** ***** **
949670 ***** 201504140500 360   0 *** 722 SCT * * *  9.4 03 ** ** ** ** ** ** ** 0   57   50 ****** ***** ****** *** *** ***** ***** ***** ***** **
949670 ***** 201504142300 020   9 *** *** BKN * * * 18.8 03 ** ** ** ** ** ** ** 2   57   50 ****** ***** ****** *** *** ***** ***** ***** ***** **
949670 ***** 201504150500 310   7 *** *** BKN * * * 10.0 15 ** ** ** ** ** ** ** 2   70   54 ****** ***** ****** *** *** ***** ***** ***** ***** **
949670 ***** 201504152300 270  14 *** 722 SCT * * * 10.0 01 ** ** ** ** ** ** ** 1   54   40 ****** ***** ****** *** *** ***** *****  0.08 ***** **
949670 ***** 201504160500 290  14 *** *** BKN * * *  9.4 15 ** ** ** ** ** ** ** 1   56   44 ****** ***** ****** *** *** ***** ***** ***** ***** **
949670 ***** 201504162300 310   1 *** 722 SCT * * * 18.8 01 ** ** ** ** ** ** ** 0   56   45 ****** ***** ****** *** *** ***** *****  0.08 ***** **
949670 ***** 201504170500 290   9 *** 722 SCT * * * 21.9 03 ** ** ** ** ** ** ** 0   64   43 ****** ***** ****** *** *** ***** ***** ***** ***** **
949670 ***** 201504172300 310   6 *** 722 SCT * * * 21.9 02 ** ** ** ** ** ** ** 0   59   44 ****** ***** ****** *** *** ***** ***** ***** ***** **
949670 ***** 201504180500 250  23 *** *** OVC * * *  5.0 20 ** ** ** ** ** ** ** 2   51   48 ****** ***** ****** *** *** *****  0.03 ***** ***** **
949670 ***** 201504182300 230  17 *** *** BKN * * * 10.0 15 ** ** ** ** ** ** ** 2   49   37 ****** ***** ****** *** *** ***** *****  0.28 ***** **
949670 ***** 201504190500 270  11 *** 722 SCT * * * 10.0 01 ** ** ** ** ** ** ** 1   52   39 ****** ***** ****** *** *** ***** ***** ***** ***** **
949670 ***** 201504192300 310   2 *** 722 SCT * * * 25.0 03 ** ** ** ** ** ** ** 0   50   40 ****** ***** ****** *** *** ***** *****  0.03 ***** **
949670 ***** 201504200500 290  11 *** *** BKN * * * 12.5 03 ** ** ** ** ** ** ** 1   57   43 ****** ***** ****** *** *** ***** ***** ***** ***** **
949670 ***** 201504202300 360   1 *** *** BKN * * * 12.5 01 ** ** ** ** ** ** ** 2   55   50 ****** ***** ****** *** *** ***** ***** ***** ***** **
949670 ***** 201504210500 090   1 *** *** BKN * * * 15.6 03 ** ** ** ** ** ** ** 1   59   52 ****** ***** ****** *** *** ***** ***** ***** ***** **
949670 ***** 201504212300 020   3 *** *** BKN * * *  5.0 40 ** ** ** ** ** ** ** 2   52   51 ****** ***** ****** *** *** ***** ***** ***** ***** **
949670 ***** 201504220500 110   1 *** *** OVC * * * 10.0 03 ** ** ** ** ** ** ** 2   56   53 ****** ***** ****** *** *** ***** ***** ***** ***** **
949670 ***** 201504222300 050   3 *** *** BKN * * *  7.5 01 ** ** ** ** ** ** ** 4   56   55 ****** ***** ****** *** *** ***** ***** ***** ***** **
949670 ***** 201504230500 050   2 *** *** BKN * * * 18.8 03 ** ** ** ** ** ** ** 1   58   53 ****** ***** ****** *** *** ***** ***** ***** ***** **
949670 ***** 201504232300 270   1 *** *** OVC * * * 10.0 14 ** ** ** ** ** ** ** 2   54   53 ****** ***** ****** *** *** ***** ***** ***** ***** **
949670 ***** 201504240500 250   6 *** *** BKN * * * 12.5 01 ** ** ** ** ** ** ** 2   57   53 ****** ***** ****** *** *** ***** ***** ***** ***** **
949670 ***** 201504242300 230   9 *** *** BKN * * *  9.4 15 ** ** ** ** ** ** ** 2   50   43 ****** ***** ****** *** *** ***** *****  0.08 ***** **
949670 ***** 201504250500 230  11 *** *** BKN * * *  7.5 80 ** ** ** ** ** ** ** 2   50   48 ****** ***** ****** *** *** *****  0.01 ***** ***** **
949670 ***** 201504252300 290   5 *** *** BKN * * * 12.5 01 ** ** ** ** ** ** ** 6   49   40 ****** ***** ****** *** *** ***** *****  0.08 ***** **
949670 ***** 201504260500 250  14 *** *** BKN * * *  5.0 60 ** ** ** ** ** ** ** 2   52   46 ****** ***** ****** *** *** ***** ***** ***** ***** **
949670 ***** 201504262300 250  14 *** *** BKN * * *  7.5 15 ** ** ** ** ** ** ** 2   51   43 ****** ***** ****** *** *** ***** *****  0.08 ***** **
949670 ***** 201504270500 250  17 *** *** OVC * * *  5.0 60 ** ** ** ** ** ** ** 6   50   48 ****** ***** ****** *** *** *****  0.02 ***** ***** **
949670 ***** 201504272300 270  14 *** *** BKN * * * 12.5 15 ** ** ** ** ** ** ** 2   52   46 ****** ***** ****** *** *** ***** *****  0.04 ***** **
949670 ***** 201504280500 250  17 *** *** BKN * * * 12.5 14 ** ** ** ** ** ** ** 2   55   47 ****** ***** ****** *** *** ***** ***** ***** ***** **
949670 ***** 201504282300 250  11 *** *** BKN * * *  5.0 15 ** ** ** ** ** ** ** 2   54   49 ****** ***** ****** *** *** ***** ***** ***** ***** **
949670 ***** 201504290500 250   9 *** *** BKN * * * 12.5 01 ** ** ** ** ** ** ** 2   57   49 ****** ***** ****** *** *** ***** ***** ***** ***** **
949670 ***** 201504292300 360   5 *** 722 SCT * * * 18.8 11 ** ** ** ** ** ** ** 1   46   46 ****** ***** ****** *** *** ***** ***** ***** ***** **
949670 ***** 201504300500 180   1 *** 722 SCT * * * 21.9 00 ** ** ** ** ** ** ** 0   55   47 ****** ***** ****** *** *** ***** ***** ***** ***** **
949670 ***** 201504302300 020   6 *** 722 SCT * * *  0.6 42 ** ** ** ** ** ** ** 4   47   47 ****** ***** ****** *** *** ***** ***** ***** ***** **
949670 ***** 201505010500 020   2 *** 722 SCT * * * 25.0 03 ** ** ** ** ** ** ** 0   62   47 ****** ***** ****** *** *** ***** ***** ***** ***** **
949670 ***** 201505012300 020   9 *** *** OVC * * * 18.8 03 ** ** ** ** ** ** ** 1   58   50 ****** ***** ****** *** *** ***** ***** ***** ***** **
949670 ***** 201505020500 050   3 *** *** OVC * * * 12.5 02 ** ** ** ** ** ** ** 2   61   53 ****** ***** ****** *** *** ***** ***** ***** ***** **
949670 ***** 201505022300 340   5 *** *** BKN * * * 18.8 01 ** ** ** ** ** ** ** 1   56   48 ****** ***** ****** *** *** ***** *****  0.43 ***** **
949670 ***** 201505030500 110   5 *** *** BKN * * * 12.5 15 ** ** ** ** ** ** ** 2   57   53 ****** ***** ****** *** *** ***** ***** ***** ***** **
949670 ***** 201505032300 360   3 *** *** BKN * * * 18.8 40 ** ** ** ** ** ** ** 2   51   50 ****** ***** ****** *** *** ***** ***** ***** ***** **
949670 ***** 201505040500 020   1 *** *** BKN * * * 18.8 03 ** ** ** ** ** ** ** 2   56   49 ****** ***** ****** *** *** ***** ***** ***** ***** **
949670 ***** 201505042300 360   6 *** *** BKN * * *  5.0 60 ** ** ** ** ** ** ** 6   59   50 ****** ***** ****** *** *** ***** *****  0.03 ***** **
949670 ***** 201505050500 310  14 *** 722 SCT * * * 12.5 15 ** ** ** ** ** ** ** 6   58   38 ****** ***** ****** *** *** *****  0.12 ***** ***** **
949670 ***** 201505052300 290  14 *** 722 SCT * * *  5.0 15 ** ** ** ** ** ** ** 6   49   38 ****** ***** ****** *** *** ***** *****  0.20 ***** **
949670 ***** 201505060500 270  17 *** *** OVC * * *  3.8 62 ** ** ** ** ** ** ** 6   45   40 ****** ***** ****** *** *** *****  0.31 ***** ***** **
949670 ***** 201505062300 250  29 *** *** OVC * * *  0.6 93 ** ** ** ** ** ** ** 9   41   36 ****** ***** ****** *** *** ***** *****  0.75 ***** **
949670 ***** 201505070500 270  17 *** *** BKN * * *  3.1 60 ** ** ** ** ** ** ** 6   44   39 ****** ***** ****** *** *** *****  0.08 ***** ***** **
949670 ***** 201505072300 290  17 *** *** BKN * * *  7.5 14 ** ** ** ** ** ** ** 2   56   46 ****** ***** ****** *** *** ***** *****  0.20 ***** **
949670 ***** 201505080500 290  23 *** *** BKN * * *  7.5 15 ** ** ** ** ** ** ** 2   57   47 ****** ***** ****** *** *** ***** ***** ***** ***** **
949670 ***** 201505082300 310  17 *** *** BKN * * *  7.5 15 ** ** ** ** ** ** ** 6   53   41 ****** ***** ****** *** *** ***** *****  0.12 ***** **
949670 ***** 201505090500 310   7 *** *** BKN * * *  7.5 15 ** ** ** ** ** ** ** 5   54   46 ****** ***** ****** *** *** *****  0.02 ***** ***** **
949670 ***** 201505092300 290  17 *** 722 SCT * * *  9.4 01 ** ** ** ** ** ** ** 6   51   41 ****** ***** ****** *** *** ***** *****  0.16 ***** **
949670 ***** 201505100500 270   9 *** *** BKN * * *  7.5 15 ** ** ** ** ** ** ** 6   51   41 ****** ***** ****** *** *** *****  0.04 ***** ***** **
949670 ***** 201505102300 250  17 *** *** BKN * * *  3.1 62 ** ** ** ** ** ** ** 6   45   40 ****** ***** ****** *** *** ***** *****  0.55 ***** **
949670 ***** 201505110500 270  11 *** 722 SCT * * * 10.0 01 ** ** ** ** ** ** ** 5   50   40 ****** ***** ****** *** *** *****  0.02 ***** ***** **
949670 ***** 201505112300 290  14 *** *** BKN * * *  3.1 91 ** ** ** ** ** ** ** 6   48   44 ****** ***** ****** *** *** ***** *****  0.16 ***** **
949670 ***** 201505120500 290  17 *** *** BKN * * *  3.1 93 ** ** ** ** ** ** ** 6   49   44 ****** ***** ****** *** *** *****  0.16 ***** ***** **
949670 ***** 201505122300 270  21 *** *** OVC * * *  5.0 ** ** ** ** ** ** ** ** 6   45   38 ****** ***** ****** *** *** ***** *****  0.28 ***** **
949670 ***** 201505130500 250  32 *** *** OVC * * *  3.1 ** ** ** ** ** ** ** ** 6   48   45 ****** ***** ****** *** *** *****  0.20 ***** ***** **
949670 ***** 201505132300 230  16 *** *** BKN * * *  6.2 15 ** ** ** ** ** ** ** 8   51   46 ****** ***** ****** *** *** ***** *****  0.39 ***** **
949670 ***** 201505140500 250  21 *** *** BKN * * *  5.0 15 ** ** ** ** ** ** ** 8   54   51 ****** ***** ****** *** *** ***** ***** ***** ***** **
949670 ***** 201505142300 250  16 *** *** BKN * * *  3.1 16 ** ** ** ** ** ** ** 8   51   46 ****** ***** ****** *** *** ***** *****  0.02 ***** **
949670 ***** 201505150500 250  11 *** *** BKN * * *  7.5 15 ** ** ** ** ** ** ** 2   53   46 ****** ***** ****** *** *** ***** ***** ***** ***** **
949670 ***** 201505152300 360   9 *** 722 SCT * * * 21.9 01 ** ** ** ** ** ** ** 0   49   44 ****** ***** ****** *** *** ***** ***** ***** ***** **
949670 ***** 201505160500 360   1 *** 722 SCT * * * 21.9 01 ** ** ** ** ** ** ** 0   57   46 ****** ***** ****** *** *** ***** ***** ***** ***** **
949670 ***** 201505162300 310   8 *** 722 SCT * * * 21.9 02 ** ** ** ** ** ** ** 0   52   25 ****** ***** ****** *** *** ***** ***** ***** ***** **
949670 ***** 201505170500 290  14 *** *** BKN * * * 21.9 03 ** ** ** ** ** ** ** 1   57   46 ****** ***** ****** *** *** ***** ***** ***** ***** **
949670 ***** 201505172300 020   2 *** *** BKN * * * 21.9 03 ** ** ** ** ** ** ** 2   52   46 ****** ***** ****** *** *** ***** ***** ***** ***** **
949670 ***** 201505180500 110   1 *** 722 SCT * * * 21.9 01 ** ** ** ** ** ** ** 0   54   54 ****** ***** ****** *** *** ***** ***** ***** ***** **
949670 ***** 201505182300 020   7 *** *** OVC * * * 21.9 03 ** ** ** ** ** ** ** 2   54   42 ****** ***** ****** *** *** ***** ***** ***** ***** **
949670 ***** 201505190500 020   1 *** *** OVC * * * 21.9 03 ** ** ** ** ** ** ** 2   57   46 ****** ***** ****** *** *** ***** ***** ***** ***** **
949670 ***** 201505192300 230   2 *** *** BKN * * * 12.5 15 ** ** ** ** ** ** ** 2   49   43 ****** ***** ****** *** *** ***** *****  0.28 ***** **
949670 ***** 201505200500 250   9 *** 722 SCT * * * 15.6 01 ** ** ** ** ** ** ** 2   48   40 ****** ***** ****** *** *** ***** ***** ***** ***** **
949670 ***** 201505202300 180   5 *** *** OVC * * * 12.5 15 ** ** ** ** ** ** ** 2   50   37 ****** ***** ****** *** *** ***** *****  0.02 ***** **
949670 ***** 201505210500 230   7 *** *** BKN * * *  9.4 15 ** ** ** ** ** ** ** 2   51   39 ****** ***** ****** *** *** ***** ***** ***** ***** **
949670 ***** 201505212300 270   5 *** *** BKN * * * 18.8 15 ** ** ** ** ** ** ** 2   49   40 ****** ***** ****** *** *** ***** ***** ***** ***** **
949670 ***** 201505220500 230  16 *** 722 SCT * * *  9.4 15 ** ** ** ** ** ** ** 1   52   44 ****** ***** ****** *** *** ***** ***** ***** ***** **
949670 ***** 201505222300 250  16 *** *** BKN * * *  9.4 15 ** ** ** ** ** ** ** 2   50   43 ****** ***** ****** *** *** ***** ***** ***** ***** **
949670 ***** 201505230500 270  14 *** *** BKN * * * 12.5 15 ** ** ** ** ** ** ** 2   51   43 ****** ***** ****** *** *** ***** ***** ***** ***** **
949670 ***** 201505232300 360   7 *** *** BKN * * * 21.9 01 ** ** ** ** ** ** ** 2   47   42 ****** ***** ****** *** *** ***** ***** ***** ***** **
949670 ***** 201505240500 360   0 *** *** BKN * * * 21.9 03 ** ** ** ** ** ** ** 2   51   44 ****** ***** ****** *** *** ***** ***** ***** ***** **
949670 ***** 201505242300 360   1 *** *** BKN * * * 21.9 03 ** ** ** ** ** ** ** 2   47   45 ****** ***** ****** *** *** ***** ***** ***** ***** **
949670 ***** 201505250500 310   1 *** *** BKN * * * 21.9 02 ** ** ** ** ** ** ** 2   55   53 ****** ***** ****** *** *** ***** ***** ***** ***** **
949670 ***** 201505252300 270   1 *** 722 SCT * * *  3.1 40 ** ** ** ** ** ** ** 0   53   48 ****** ***** ****** *** *** ***** *****  0.39 ***** **
949670 ***** 201505260500 230   5 *** *** BKN * * * 21.9 02 ** ** ** ** ** ** ** 2   54   47 ****** ***** ****** *** *** ***** ***** ***** ***** **
949670 ***** 201505262300 020   5 *** *** BKN * * * 21.9 02 ** ** ** ** ** ** ** 2   47   46 ****** ***** ****** *** *** ***** *****  0.01 ***** **
949670 ***** 201505270500 020   1 *** 722 SCT * * * 21.9 01 ** ** ** ** ** ** ** 0   57   47 ****** ***** ****** *** *** ***** ***** ***** ***** **
949670 ***** 201505272300 310   9 *** 722 SCT * * * 21.9 02 ** ** ** ** ** ** ** 0   55   40 ****** ***** ****** *** *** ***** *****  0.01 ***** **
949670 ***** 201505280500 340   9 *** *** BKN * * * 11.2 15 ** ** ** ** ** ** ** 2   59   42 ****** ***** ****** *** *** ***** ***** ***** ***** **
949670 ***** 201505282300 310  18 *** *** BKN * * * 11.2 15 ** ** ** ** ** ** ** 8   45   37 ****** ***** ****** *** *** ***** *****  0.20 ***** **
949670 ***** 201505290500 290  16 *** 722 SCT * * * 12.5 02 ** ** ** ** ** ** ** 1   51   39 ****** ***** ****** *** *** ***** ***** ***** ***** **
949670 ***** 201505292300 310  23 *** *** BKN * * * 18.8 14 ** ** ** ** ** ** ** 2   55   43 ****** ***** ****** *** *** ***** ***** ***** ***** **
949670 ***** 201505300500 310  11 *** 722 SCT * * * 21.9 25 ** ** ** ** ** ** ** 1   49   39 ****** ***** ****** *** *** *****  0.08 ***** ***** **
949670 ***** 201505302300 270  21 *** *** OVC * * *  5.0 80 ** ** ** ** ** ** ** 8   44   41 ****** ***** ****** *** *** ***** *****  0.12 ***** **
949670 ***** 201505310500 270  14 *** *** BKN * * *  3.1 80 ** ** ** ** ** ** ** 8   43   37 ****** ***** ****** *** *** *****  0.02 ***** ***** **
949670 ***** 201505312300 250  14 *** *** BKN * * *  3.1 16 ** ** ** ** ** ** ** 8   45   36 ****** ***** ****** *** *** ***** *****  0.43 ***** **
949670 ***** 201506010500 250  11 *** 722 SCT * * *  9.4 14 ** ** ** ** ** ** ** 8   47   36 ****** ***** ****** *** *** *****  0.02 ***** ***** **
949670 ***** 201506012300 250  11 *** *** BKN * * *  6.2 15 ** ** ** ** ** ** ** 2   47   42 ****** ***** ****** *** *** ***** *****  0.12 ***** **
949670 ***** 201506020500 230   9 *** *** BKN * * *  7.5 15 ** ** ** ** ** ** ** 8   48   44 ****** ***** ****** *** *** ***** ***** ***** ***** **
949670 ***** 201506022300 270   5 *** *** BKN * * *  9.4 15 ** ** ** ** ** ** ** 8   47   44 ****** ***** ****** *** *** ***** *****  0.02 ***** **
949670 ***** 201506030500 230   5 *** *** BKN * * * 21.9 03 ** ** ** ** ** ** ** 2   52   44 ****** ***** ****** *** *** ***** ***** ***** ***** **
949670 ***** 201506032300 360   9 *** 722 SCT * * *  0.2 44 ** ** ** ** ** ** ** 4   42   41 ****** ***** ****** *** *** ***** ***** ***** ***** **
949670 ***** 201506040500 360   5 *** 722 SCT * * * 21.9 01 ** ** ** ** ** ** ** 0   50   40 ****** ***** ****** *** *** ***** ***** ***** ***** **
949670 ***** 201506042300 360  14 *** 722 SCT * * * 21.9 01 ** ** ** ** ** ** ** 0   42   40 ****** ***** ****** *** *** ***** ***** ***** ***** **
949670 ***** 201506050500 360   2 *** *** BKN * * * 21.9 03 ** ** ** ** ** ** ** 2   51   45 ****** ***** ****** *** *** ***** ***** ***** ***** **
949670 ***** 201506052300 340   7 *** *** OVC * * * 18.8 15 ** ** ** ** ** ** ** 2   55   45 ****** ***** ****** *** *** ***** ***** ***** ***** **
949670 ***** 201506062300 360   9 *** *** BKN * * * 21.9 03 ** ** ** ** ** ** ** 2   59   49 ****** ***** ****** *** *** ***** *****  0.08 ***** **
949670 ***** 201506070500 310  21 *** *** BKN * * * 18.8 60 ** ** ** ** ** ** ** 1   60   51 ****** ***** ****** *** *** *****  0.01 ***** ***** **
949670 ***** 201506072300 310  11 *** *** BKN * * *  6.2 80 ** ** ** ** ** ** ** 8   50   45 ****** ***** ****** *** *** ***** *****  0.35 ***** **
949670 ***** 201506080500 290  30 *** 722 SCT * * *  3.8 15 ** ** ** ** ** ** ** 8   58   48 ****** ***** ****** *** *** *****  0.01 ***** ***** **
949670 ***** 201506082300 290   9 *** *** BKN * * *  2.5 16 ** ** ** ** ** ** ** 8   45   38 ****** ***** ****** *** *** ***** *****  0.39 ***** **
949670 ***** 201506090500 270  28 *** *** BKN * * *  1.9 25 ** ** ** ** ** ** ** 8   43   40 ****** ***** ****** *** *** *****  0.08 ***** ***** **
949670 ***** 201506092300 270  16 *** *** BKN * * *  9.4 15 ** ** ** ** ** ** ** 2   48   41 ****** ***** ****** *** *** ***** *****  0.31 ***** **
949670 ***** 201506100500 270  16 *** *** BKN * * *  6.2 15 ** ** ** ** ** ** ** 2   50   43 ****** ***** ****** *** *** ***** ***** ***** ***** **
949670 ***** 201506102300 290   9 *** 722 SCT * * * 21.9 02 ** ** ** ** ** ** ** 0   51   41 ****** ***** ****** *** *** ***** ***** ***** ***** **
949670 ***** 201506110500 290   9 *** 722 SCT * * * 21.9 02 ** ** ** ** ** ** ** 0   55   42 ****** ***** ****** *** *** ***** ***** ***** ***** **
949670 ***** 201506112300 270   5 *** *** BKN * * * 12.5 15 ** ** ** ** ** ** ** 2   52   47 ****** ***** ****** *** *** ***** ***** ***** ***** **
949670 ***** 201506120500 360   0 *** *** BKN * * * 21.9 02 ** ** ** ** ** ** ** 2   53   49 ****** ***** ****** *** *** ***** ***** ***** ***** **
949670 ***** 201506122300 360   7 *** 722 SCT * * * 21.9 01 ** ** ** ** ** ** ** 0   45   44 ****** ***** ****** *** *** ***** ***** ***** ***** **
949670 ***** 201506130500 360   1 *** 722 SCT * * * 21.9 02 ** ** ** ** ** ** ** 0   53   42 ****** ***** ****** *** *** ***** ***** ***** ***** **
949670 ***** 201506132300 310   1 *** *** BKN * * * 21.9 03 ** ** ** ** ** ** ** 2   48   44 ****** ***** ****** *** *** ***** ***** ***** ***** **
949670 ***** 201506140500 250   7 *** 722 SCT * * * 21.9 02 ** ** ** ** ** ** ** 1   51   45 ****** ***** ****** *** *** ***** ***** ***** ***** **
949670 ***** 201506142300 360   2 *** *** OVC * * *  0.6 50 ** ** ** ** ** ** ** 5   45   45 ****** ***** ****** *** *** ***** *****  0.02 ***** **
949670 ***** 201506150500 360   5 *** *** BKN * * * 21.9 03 ** ** ** ** ** ** ** 2   53   48 ****** ***** ****** *** *** ***** ***** ***** ***** **
949670 ***** 201506152300 360   7 *** *** BKN * * * 21.9 03 ** ** ** ** ** ** ** 2   48   45 ****** ***** ****** *** *** ***** ***** ***** ***** **
949670 ***** 201506160500 360   0 *** *** OVC * * * 18.8 15 ** ** ** ** ** ** ** 2   51   48 ****** ***** ****** *** *** ***** ***** ***** ***** **
949670 ***** 201506162300 180   7 *** *** OVC * * *  9.4 15 ** ** ** ** ** ** ** 8   50   45 ****** ***** ****** *** *** ***** *****  0.39 ***** **
949670 ***** 201506170500 160  11 *** *** BKN * * *  6.2 80 ** ** ** ** ** ** ** 8   47   43 ****** ***** ****** *** *** *****  0.04 ***** ***** **
949670 ***** 201506172300 130   9 *** *** BKN * * * 12.5 80 ** ** ** ** ** ** ** 8   44   37 ****** ***** ****** *** *** ***** *****  0.08 ***** **
949670 ***** 201506180500 110   5 *** *** BKN * * * 12.5 15 ** ** ** ** ** ** ** 8   46   38 ****** ***** ****** *** *** *****  0.01 ***** ***** **
949670 ***** 201506182300 310   7 *** *** BKN * * * 12.5 15 ** ** ** ** ** ** ** 8   43   38 ****** ***** ****** *** *** ***** *****  0.12 ***** **
949670 ***** 201506190500 230  15 *** *** BKN * * *  9.4 16 ** ** ** ** ** ** ** 8   47   43 ****** ***** ****** *** *** *****  0.08 ***** ***** **
949670 ***** 201506192300 310   8 *** 722 SCT * * *  9.4 05 ** ** ** ** ** ** ** 1   45   39 ****** ***** ****** *** *** ***** *****  0.24 ***** **
949670 ***** 201506200500 290   9 *** 722 SCT * * * 15.6 02 ** ** ** ** ** ** ** 0   49   40 ****** ***** ****** *** *** ***** ***** ***** ***** **
949670 ***** 201506202300 360   7 *** 722 SCT * * * 15.6 02 ** ** ** ** ** ** ** 0   44   43 ****** ***** ****** *** *** ***** ***** ***** ***** **
949670 ***** 201506210500 020   5 *** 722 SCT * * * 18.8 03 ** ** ** ** ** ** ** 0   51   42 ****** ***** ****** *** *** ***** ***** ***** ***** **
949670 ***** 201506212300 360   8 *** *** BKN * * * 21.9 02 ** ** ** ** ** ** ** 1   40   38 ****** ***** ****** *** *** ***** *****  0.01 ***** **
949670 ***** 201506220500 360   9 *** *** BKN * * * 21.9 03 ** ** ** ** ** ** ** 2   48   38 ****** ***** ****** *** *** ***** ***** ***** ***** **
949670 ***** 201506222300 360   7 *** *** OVC * * * 21.9 01 ** ** ** ** ** ** ** 6   50   46 ****** ***** ****** *** *** ***** *****  0.28 ***** **
949670 ***** 201506230500 360   7 *** *** BKN * * * 12.5 80 ** ** ** ** ** ** ** 2   51   44 ****** ***** ****** *** *** ***** ***** ***** ***** **
949670 ***** 201506232300 360   6 *** *** BKN * * * 21.9 03 ** ** ** ** ** ** ** 2   52   45 ****** ***** ****** *** *** ***** ***** ***** ***** **
949670 ***** 201506240500 020   5 *** *** BKN * * * 18.8 25 ** ** ** ** ** ** ** 8   58   48 ****** ***** ****** *** *** ***** ***** ***** ***** **
949670 ***** 201506242300 310   7 *** 722 SCT * * * 18.8 15 ** ** ** ** ** ** ** 8   48   43 ****** ***** ****** *** *** ***** *****  0.08 ***** **
949670 ***** 201506250500 290  14 *** *** BKN * * * 25.0 15 ** ** ** ** ** ** ** 0   54   46 ****** ***** ****** *** *** ***** ***** ***** ***** **
949670 ***** 201506252300 360   0 *** 722 SCT * * * 15.6 01 ** ** ** ** ** ** ** 5   52   50 ****** ***** ****** *** *** ***** *****  0.02 ***** **
949670 ***** 201506260500 310   7 *** *** BKN * * * 15.6 15 ** ** ** ** ** ** ** 2   56   48 ****** ***** ****** *** *** ***** ***** ***** ***** **
949670 ***** 201506262300 290  10 *** 722 SCT * * * 15.6 02 ** ** ** ** ** ** ** 0   52   39 ****** ***** ****** *** *** ***** *****  0.02 ***** **
949670 ***** 201506270500 310  23 *** 722 SCT * * * 12.5 03 ** ** ** ** ** ** ** 0   55   38 ****** ***** ****** *** *** ***** ***** ***** ***** **
949670 ***** 201506272300 290  24 *** 722 SCT * * * 12.5 02 ** ** ** ** ** ** ** 0   52   39 ****** ***** ****** *** *** ***** ***** ***** ***** **
949670 ***** 201506280500 290  22 *** 722 SCT * * * 18.8 02 ** ** ** ** ** ** ** 0   56   44 ****** ***** ****** *** *** ***** ***** ***** ***** **
949670 ***** 201506282300 270  18 *** 722 SCT * * * 18.8 03 ** ** ** ** ** ** ** 0   52   44 ****** ***** ****** *** *** ***** ***** ***** ***** **
949670 ***** 201506290500 270  32 *** 722 SCT * * * 18.8 02 ** ** ** ** ** ** ** 0   57   43 ****** ***** ****** *** *** ***** ***** ***** ***** **
949670 ***** 201506292300 290  13 *** 722 SCT * * * 15.6 15 ** ** ** ** ** ** ** 0   52   43 ****** ***** ****** *** *** ***** ***** ***** ***** **
949670 ***** 201506300500 290  11 *** *** BKN * * * 15.6 15 ** ** ** ** ** ** ** 1   54   42 ****** ***** ****** *** *** ***** ***** ***** ***** **
949670 ***** 201506302300 020  14 *** 722 SCT * * * 25.0 15 ** ** ** ** ** ** ** 0   52   44 ****** ***** ****** *** *** ***** *****  0.00 ***** **
949670 ***** 201507010500 290  37 *** *** BKN * * * 18.8 15 ** ** ** ** ** ** ** 2   55   41 ****** ***** ****** *** *** ***** ***** ***** ***** **
949670 ***** 201507012300 230  29 *** *** BKN * * *  9.4 81 ** ** ** ** ** ** ** 2   45   40 ****** ***** ****** *** *** ***** *****  0.35 ***** **
949670 ***** 201507020500 200  39 *** *** BKN * * *  3.1 81 ** ** ** ** ** ** ** 2   45   40 ****** ***** ****** *** *** *****  0.08 ***** ***** **
949670 ***** 201507022300 290   9 *** 722 SCT * * * 12.5 15 ** ** ** ** ** ** ** 1   47   37 ****** ***** ****** *** *** ***** *****  0.12 ***** **
949670 ***** 201507030500 310  11 *** *** BKN * * * 12.5 15 ** ** ** ** ** ** ** 2   51   40 ****** ***** ****** *** *** ***** ***** ***** ***** **
949670 ***** 201507032300 230  25 *** *** BKN * * *  4.4 16 ** ** ** ** ** ** ** 2   52   42 ****** ***** ****** *** *** ***** *****  0.02 ***** **
949670 ***** 201507040500 250  14 *** *** BKN * * *  5.6 15 ** ** ** ** ** ** ** 2   51   37 ****** ***** ****** *** *** ***** ***** ***** ***** **
949670 ***** 201507042300 230  14 *** *** BKN * * *  6.2 02 ** ** ** ** ** ** ** 2   47   39 ****** ***** ****** *** *** ***** *****  0.02 ***** **
949670 ***** 201507050500 180   9 *** *** BKN * * * 12.5 15 ** ** ** ** ** ** ** 2   48   39 ****** ***** ****** *** *** ***** ***** ***** ***** **
949670 ***** 201507052300 130  13 *** 722 SCT * * * 15.6 80 ** ** ** ** ** ** ** 1   44   33 ****** ***** ****** *** *** ***** *****  0.01 ***** **
949670 ***** 201507060500 130  14 *** 722 SCT * * * 21.9 15 ** ** ** ** ** ** ** 1   45   45 ****** ***** ****** *** *** *****  0.02 ***** ***** **
949670 ***** 201507062300 130   7 *** *** BKN * * *  6.2 15 ** ** ** ** ** ** ** 8   43   43 ****** ***** ****** *** *** ***** *****  0.02 ***** **
949670 ***** 201507070500 050   2 *** 722 SCT * * * 21.9 15 ** ** ** ** ** ** ** 0   46   35 ****** ***** ****** *** *** ***** ***** ***** ***** **
949670 ***** 201507072300 360  21 *** *** BKN * * * 21.9 02 ** ** ** ** ** ** ** 0   38   37 ****** ***** ****** *** *** ***** ***** ***** ***** **
949670 ***** 201507080500 360   9 *** 722 CLR * * * 25.0 02 ** ** ** ** ** ** ** 0   47   36 ****** ***** ****** *** *** ***** ***** ***** ***** **
949670 ***** 201507082300 360  25 *** *** BKN * * * 21.9 02 ** ** ** ** ** ** ** 1   42   39 ****** ***** ****** *** *** ***** ***** ***** ***** **
949670 ***** 201507090500 360  14 *** *** BKN * * * 18.8 02 ** ** ** ** ** ** ** 2   52   40 ****** ***** ****** *** *** ***** ***** ***** ***** **
949670 ***** 201507092300 360  21 *** *** BKN * * * 25.0 02 ** ** ** ** ** ** ** 2   48   40 ****** ***** ****** *** *** ***** ***** ***** ***** **
949670 ***** 201507100500 340  18 *** *** BKN * * * 15.6 15 ** ** ** ** ** ** ** 2   55   41 ****** ***** ****** *** *** ***** ***** ***** ***** **
949670 ***** 201507102300 360  16 *** *** BKN * * * 18.8 02 ** ** ** ** ** ** ** 2   47   44 ****** ***** ****** *** *** ***** ***** ***** ***** **
949670 ***** 201507110500 020   7 *** *** BKN * * * 12.5 15 ** ** ** ** ** ** ** 2   55   44 ****** ***** ****** *** *** ***** ***** ***** ***** **
949670 ***** 201507112300 360   0 *** *** BKN * * * 15.6 15 ** ** ** ** ** ** ** 2   47   45 ****** ***** ****** *** *** ***** ***** ***** ***** **
949670 ***** 201507120500 230   2 *** *** BKN * * * 10.6 15 ** ** ** ** ** ** ** *   55   52 ****** ***** ****** *** *** ***** ***** ***** ***** **
949670 ***** 201507122300 180  23 *** *** OVC * * *  1.9 16 ** ** ** ** ** ** ** 2   50   47 ****** ***** ****** *** *** ***** *****  0.08 ***** **
949670 ***** 201507130500 230  21 *** *** BKN * * *  3.1 50 ** ** ** ** ** ** ** 2   50   46 ****** ***** ****** *** *** ***** ***** ***** ***** **
949670 ***** 201507132300 250  18 *** *** BKN * * * 12.5 80 ** ** ** ** ** ** ** 2   44   36 ****** ***** ****** *** *** ***** *****  0.16 ***** **
949670 ***** 201507140500 250  18 *** *** BKN * * * 15.6 15 ** ** ** ** ** ** ** 2   46   35 ****** ***** ****** *** *** ***** ***** ***** ***** **
949670 ***** 201507142300 160  10 *** *** BKN * * * 12.5 15 ** ** ** ** ** ** ** 2   46   38 ****** ***** ****** *** *** ***** *****  0.04 ***** **
949670 ***** 201507150500 180   7 *** *** OVC * * *  2.5 16 ** ** ** ** ** ** ** 2   46   39 ****** ***** ****** *** *** ***** ***** ***** ***** **
949670 ***** 201507152300 340   7 *** *** BKN * * *  6.2 02 ** ** ** ** ** ** ** 2   42   40 ****** ***** ****** *** *** ***** *****  0.04 ***** **
949670 ***** 201507160500 050   2 *** *** BKN * * *  9.4 02 ** ** ** ** ** ** ** 2   50   41 ****** ***** ****** *** *** ***** ***** ***** ***** **
949670 ***** 201507162300 180  37 *** *** BKN * * * 46.9 16 ** ** ** ** ** ** ** 2   45   38 ****** ***** ****** *** *** ***** *****  0.08 ***** **
949670 ***** 201507170500 180  41 *** *** BKN * * *  5.0 15 ** ** ** ** ** ** ** 2   45   35 ****** ***** ****** *** *** ***** ***** ***** ***** **
949670 ***** 201507172300 250  26 *** *** BKN * * *  6.2 80 ** ** ** ** ** ** ** 2   47   41 ****** ***** ****** *** *** ***** *****  0.04 ***** **
949670 ***** 201507180500 230  23 *** *** OVC * * *  6.2 15 ** ** ** ** ** ** ** 2   48   38 ****** ***** ****** *** *** ***** ***** ***** ***** **
949670 ***** 201507182300 310  23 *** *** BKN * * *  7.5 02 ** ** ** ** ** ** ** 2   45   37 ****** ***** ****** *** *** ***** ***** ***** ***** **
949670 ***** 201507190500 310  18 *** *** BKN * * * 12.5 15 ** ** ** ** ** ** ** 2   51   38 ****** ***** ****** *** *** ***** ***** ***** ***** **
949670 ***** 201507192300 360 *** *** 722 SCT * * * 21.9 02 ** ** ** ** ** ** ** 1   50   43 ****** ***** ****** *** *** ***** ***** ***** ***** **
949670 ***** 201507200500 310   2 *** 722 SCT * * * 21.9 03 ** ** ** ** ** ** ** 0   55   42 ****** ***** ****** *** *** ***** ***** ***** ***** **
949670 ***** 201507202300 340   7 *** 722 SCT * * * 18.8 02 ** ** ** ** ** ** ** 0   43   37 ****** ***** ****** *** *** ***** ***** ***** ***** **
949670 ***** 201507210500 340   9 *** *** OVC * * * 15.6 03 ** ** ** ** ** ** ** 2   53   39 ****** ***** ****** *** *** ***** ***** ***** ***** **
949670 ***** 201507212300 360  14 *** *** BKN * * * 12.5 15 ** ** ** ** ** ** ** 2   54   42 ****** ***** ****** *** *** ***** ***** ***** ***** **
949670 ***** 201507220500 310   7 *** *** BKN * * * 15.6 81 ** ** ** ** ** ** ** 8   51   42 ****** ***** ****** *** *** *****  0.03 ***** ***** **
949670 ***** 201507222300 340  18 *** 722 SCT * * * 11.2 02 ** ** ** ** ** ** ** 0   52   44 ****** ***** ****** *** *** ***** *****  0.03 ***** **
949670 ***** 201507230500 360   9 *** *** OVC * * * 18.8 03 ** ** ** ** ** ** ** 2   54   44 ****** ***** ****** *** *** ***** ***** ***** ***** **
949670 ***** 201507232300 020  16 *** 722 SCT * * * 18.8 03 ** ** ** ** ** ** ** 0   48   43 ****** ***** ****** *** *** ***** ***** ***** ***** **
949670 ***** 201507240500 360  11 *** *** OVC * * * 18.8 03 ** ** ** ** ** ** ** 2   55   42 ****** ***** ****** *** *** ***** ***** ***** ***** **
949670 ***** 201507242300 020   9 *** *** BKN * * * 18.8 01 ** ** ** ** ** ** ** 2   46   43 ****** ***** ****** *** *** ***** ***** ***** ***** **
949670 ***** 201507250500 020   9 *** *** BKN * * * 18.8 15 ** ** ** ** ** ** ** 2   52   42 ****** ***** ****** *** *** ***** ***** ***** ***** **
949670 ***** 201507252300 340  17 *** *** BKN * * * 10.0 80 ** ** ** ** ** ** ** 8   46   36 ****** ***** ****** *** *** ***** *****  0.08 ***** **
949670 ***** 201507260500 310  29 *** *** OVC * * *  7.5 80 ** ** ** ** ** ** ** 8   45   39 ****** ***** ****** *** *** *****  0.04 ***** ***** **
949670 ***** 201507262300 250  29 *** *** BKN * * *  7.5 03 ** ** ** ** ** ** ** 8   47   41 ****** ***** ****** *** *** ***** *****  0.31 ***** **
949670 ***** 201507270500 250  29 *** *** BKN * * *  7.5 80 ** ** ** ** ** ** ** 8   50   43 ****** ***** ****** *** *** ***** ***** ***** ***** **
949670 ***** 201507272300 270  17 *** *** BKN * * * 10.0 15 ** ** ** ** ** ** ** 8   50   45 ****** ***** ****** *** *** ***** *****  0.12 ***** **
949670 ***** 201507280500 250  17 *** *** BKN * * * 10.0 15 ** ** ** ** ** ** ** 2   53   48 ****** ***** ****** *** *** ***** ***** ***** ***** **
949670 ***** 201507282300 360   9 *** *** BKN * * * 15.6 03 ** ** ** ** ** ** ** 2   49   43 ****** ***** ****** *** *** ***** ***** ***** ***** **
949670 ***** 201507290500 360   6 *** *** OVC * * * 18.8 03 ** ** ** ** ** ** ** 2   52   44 ****** ***** ****** *** *** ***** ***** ***** ***** **
949670 ***** 201507292300 290   9 *** *** OVC * * * 18.8 03 ** ** ** ** ** ** ** 2   50   38 ****** ***** ****** *** *** ***** ***** ***** ***** **
949670 ***** 201507300500 310  21 *** *** BKN * * * 10.0 15 ** ** ** ** ** ** ** 2   55   38 ****** ***** ****** *** *** ***** ***** ***** ***** **
949670 ***** 201507302300 290  21 *** *** BKN * * * 18.8 01 ** ** ** ** ** ** ** 8   44   35 ****** ***** ****** *** *** ***** *****  0.12 ***** **
949670 ***** 201507310500 310  16 *** *** BKN * * * 15.6 15 ** ** ** ** ** ** ** 2   50   37 ****** ***** ****** *** *** ***** ***** ***** ***** **
949670 ***** 201507312300 290  23 *** *** BKN * * * 12.5 15 ** ** ** ** ** ** ** 8   42   38 ****** ***** ****** *** *** ***** *****  0.16 ***** **
949670 ***** 201508010500 290  23 *** *** BKN * * *  7.5 15 ** ** ** ** ** ** ** 8   47   34 ****** ***** ****** *** *** ***** ***** ***** ***** **
949670 ***** 201508012300 310  29 *** 722 SCT * * * 10.0 15 ** ** ** ** ** ** ** 0   49   37 ****** ***** ****** *** *** ***** ***** ***** ***** **
949670 ***** 201508020500 310  21 *** *** BKN * * * 10.0 15 ** ** ** ** ** ** ** 8   43   35 ****** ***** ****** *** *** *****  0.24 ***** ***** **
949670 ***** 201508022300 270  34 *** *** BKN * * * 10.0 16 ** ** ** ** ** ** ** 8   41   32 ****** ***** ****** *** *** ***** *****  0.47 ***** **
949670 ***** 201508030500 230  34 *** *** BKN * * *  3.1 80 ** ** ** ** ** ** ** 8   43   37 ****** ***** ****** *** *** *****  0.04 ***** ***** **
949670 ***** 201508032300 310  21 *** *** BKN * * * 12.5 15 ** ** ** ** ** ** ** 8   45   35 ****** ***** ****** *** *** ***** *****  0.12 ***** **
949670 ***** 201508040500 270  29 *** *** BKN * * *  7.5 15 ** ** ** ** ** ** ** 8   50   38 ****** ***** ****** *** *** *****  0.01 ***** ***** **
949670 ***** 201508042300 270  38 *** *** BKN * * *  7.5 83 ** ** ** ** ** ** ** 8   40   36 ****** ***** ****** *** *** ***** *****  0.55 ***** **
949670 ***** 201508050500 250  34 *** *** BKN * * *  3.1 16 ** ** ** ** ** ** ** 8   43   33 ****** ***** ****** *** *** *****  0.24 ***** ***** **
949670 ***** 201508052300 270  21 *** *** BKN * * * 12.5 01 ** ** ** ** ** ** ** 8   45   36 ****** ***** ****** *** *** ***** *****  0.35 ***** **
949670 ***** 201508060500 250  29 *** 722 SCT * * * 10.0 15 ** ** ** ** ** ** ** 0   50   41 ****** ***** ****** *** *** ***** ***** ***** ***** **
949670 ***** 201508062300 270  17 *** *** BKN * * * 12.5 15 ** ** ** ** ** ** ** 8   45   41 ****** ***** ****** *** *** ***** *****  0.04 ***** **
949670 ***** 201508070500 250  21 *** *** BKN * * * 10.0 03 ** ** ** ** ** ** ** 5   48   39 ****** ***** ****** *** *** ***** ***** ***** ***** **
949670 ***** 201508072300 360   9 *** 722 SCT * * * 21.9 01 ** ** ** ** ** ** ** 8   42   38 ****** ***** ****** *** *** ***** *****  0.02 ***** **
949670 ***** 201508080500 110   6 *** 722 SCT * * * 21.9 01 ** ** ** ** ** ** ** 0   47   38 ****** ***** ****** *** *** ***** ***** ***** ***** **
949670 ***** 201508082300 360   9 *** *** BKN * * * 18.8 02 ** ** ** ** ** ** ** 2   38   38 ****** ***** ****** *** *** ***** ***** ***** ***** **
949670 ***** 201508090500 020   6 *** *** BKN * * * 18.8 02 ** ** ** ** ** ** ** 2   49   38 ****** ***** ****** *** *** ***** ***** ***** ***** **
949670 ***** 201508092300 360   6 *** *** OVC * * * 21.9 02 ** ** ** ** ** ** ** 2   45   42 ****** ***** ****** *** *** ***** ***** ***** ***** **
949670 ***** 201508100500 050   9 *** *** BKN * * * 15.6 03 ** ** ** ** ** ** ** 2   52   41 ****** ***** ****** *** *** ***** ***** ***** ***** **
949670 ***** 201508102300 340   9 *** *** BKN * * * 12.5 15 ** ** ** ** ** ** ** 8   47   40 ****** ***** ****** *** *** ***** ***** ***** ***** **
949670 ***** 201508110500 020   6 *** *** BKN * * * 18.8 03 ** ** ** ** ** ** ** 2   51   41 ****** ***** ****** *** *** ***** ***** ***** ***** **
949670 ***** 201508112300 020   6 *** *** BKN * * * 18.8 03 ** ** ** ** ** ** ** 2   48   40 ****** ***** ****** *** *** ***** ***** ***** ***** **
949670 ***** 201508120500 270  14 *** *** BKN * * * 12.5 15 ** ** ** ** ** ** ** 8   53   43 ****** ***** ****** *** *** ***** ***** ***** ***** **
949670 ***** 201508122300 270  24 *** *** BKN * * * 10.0 15 ** ** ** ** ** ** ** 8   47   36 ****** ***** ****** *** *** ***** *****  0.16 ***** **
949670 ***** 201508130500 250  18 *** *** BKN * * * 12.5 03 ** ** ** ** ** ** ** 8   49   40 ****** ***** ****** *** *** *****  0.01 ***** ***** **
949670 ***** 201508132300 230  11 *** *** BKN * * * 10.0 15 ** ** ** ** ** ** ** 2   51   47 ****** ***** ****** *** *** ***** *****  0.01 ***** **
949670 ***** 201508140500 250   9 *** *** BKN * * *  3.1 80 ** ** ** ** ** ** ** 8   51   48 ****** ***** ****** *** *** *****  0.02 ***** ***** **
949670 ***** 201508142300 020   9 *** 722 SCT * * * 21.9 02 ** ** ** ** ** ** ** 8   42   40 ****** ***** ****** *** *** ***** *****  0.08 ***** **
949670 ***** 201508150500 360   9 *** 722 SCT * * * 18.8 03 ** ** ** ** ** ** ** 0   53   37 ****** ***** ****** *** *** ***** ***** ***** ***** **
949670 ***** 201508152300 360  11 *** *** BKN * * * 10.0 16 ** ** ** ** ** ** ** 8   49   47 ****** ***** ****** *** *** ***** *****  0.02 ***** **
949670 ***** 201508162300 250  37 *** *** BKN * * * 10.0 15 ** ** ** ** ** ** ** 8   42   35 ****** ***** ****** *** *** ***** *****  0.47 ***** **
949670 ***** 201508170500 230  34 *** *** BKN * * *  7.5 15 ** ** ** ** ** ** ** 8   44   34 ****** ***** ****** *** *** *****  0.16 ***** ***** **
949670 ***** 201508172300 270  14 *** *** BKN * * *  7.5 15 ** ** ** ** ** ** ** 8   44   39 ****** ***** ****** *** *** ***** *****  0.39 ***** **
949670 ***** 201508180500 250  23 *** 722 SCT * * *  7.5 15 ** ** ** ** ** ** ** 8   48   41 ****** ***** ****** *** *** *****  0.02 ***** ***** **
949670 ***** 201508182300 270  11 *** 722 SCT * * * 15.6 03 ** ** ** ** ** ** ** 0   48   41 ****** ***** ****** *** *** ***** *****  0.02 ***** **
949670 ***** 201508192300 360   9 *** 722 SCT * * * 15.6 01 ** ** ** ** ** ** ** 4   43   42 ****** ***** ****** *** *** ***** ***** ***** ***** **
949670 ***** 201508202300 360   9 *** *** OVC * * * 18.8 02 ** ** ** ** ** ** ** 8   52   42 ****** ***** ****** *** *** ***** ***** ***** ***** **
949670 ***** 201508210500 340   6 *** *** BKN * * * 18.8 01 ** ** ** ** ** ** ** 2   61   45 ****** ***** ****** *** *** ***** ***** ***** ***** **
949670 ***** 201508212300 270  11 *** *** BKN * * * 15.6 03 ** ** ** ** ** ** ** 2   53   44 ****** ***** ****** *** *** ***** ***** ***** ***** **
949670 ***** 201508220500 310   9 *** *** BKN * * * 10.0 15 ** ** ** ** ** ** ** 8   55   46 ****** ***** ****** *** *** *****  0.01 ***** ***** **
949670 ***** 201508222300 230  14 *** *** BKN * * * 15.6 01 ** ** ** ** ** ** ** 8   46   36 ****** ***** ****** *** *** ***** *****  0.12 ***** **
949670 ***** 201508230500 230  17 *** *** BKN * * * 15.6 15 ** ** ** ** ** ** ** 2   46   36 ****** ***** ****** *** *** ***** ***** ***** ***** **
949670 ***** 201508232300 310   9 *** 722 SCT * * * 18.8 03 ** ** ** ** ** ** ** 8   46   35 ****** ***** ****** *** *** ***** *****  0.01 ***** **
949670 ***** 201508240500 270   2 *** *** BKN * * * 18.8 03 ** ** ** ** ** ** ** 2   52   38 ****** ***** ****** *** *** ***** ***** ***** ***** **
949670 ***** 201508242300 020  11 *** 722 SCT * * * 15.6 02 ** ** ** ** ** ** ** 0   46   40 ****** ***** ****** *** *** ***** ***** ***** ***** **
949670 ***** 201508250500 110   6 *** 722 SCT * * * 18.8 02 ** ** ** ** ** ** ** 0   52   41 ****** ***** ****** *** *** ***** ***** ***** ***** **
949670 ***** 201508252300 360  15 *** 722 SCT * * * 21.9 02 ** ** ** ** ** ** ** 0   45   41 ****** ***** ****** *** *** ***** ***** ***** ***** **
949670 ***** 201508262300 360   9 *** *** BKN * * * 18.8 03 ** ** ** ** ** ** ** 2   44   43 ****** ***** ****** *** *** ***** ***** ***** ***** **
949670 ***** 201508270500 230   6 *** *** OVC * * *  5.0 50 ** ** ** ** ** ** ** 2   50   46 ****** ***** ****** *** *** ***** ***** ***** ***** **
949670 ***** 201508272300 160  29 *** *** BKN * * * 10.0 15 ** ** ** ** ** ** ** 8   42   37 ****** ***** ****** *** *** ***** *****  0.16 ***** **
949670 ***** 201508280500 230  29 *** *** BKN * * * 10.0 15 ** ** ** ** ** ** ** 8   46   24 ****** ***** ****** *** *** *****  0.01 ***** ***** **
949670 ***** 201508282300 180  29 *** *** OVC * * *  3.1 16 ** ** ** ** ** ** ** 8   47   43 ****** ***** ****** *** *** ***** *****  0.59 ***** **
949670 ***** 201508290500 180  21 *** *** OVC * * *  3.1 16 ** ** ** ** ** ** ** 5   47   39 ****** ***** ****** *** *** ***** ***** ***** ***** **
949670 ***** 201508292300 160  14 *** *** BKN * * * 10.0 15 ** ** ** ** ** ** ** 5   46   38 ****** ***** ****** *** *** ***** ***** ***** ***** **
949670 ***** 201508300500 160   6 *** *** BKN * * *  3.1 16 ** ** ** ** ** ** ** 5   47   44 ****** ***** ****** *** *** *****  0.01 ***** ***** **
949670 ***** 201508302300 110   9 *** *** BKN * * *  1.9 50 ** ** ** ** ** ** ** 8   47   43 ****** ***** ****** *** *** ***** *****  0.03 ***** **
949670 ***** 201508310500 160   2 *** *** OVC * * *  0.6 52 ** ** ** ** ** ** ** 5   47   47 ****** ***** ****** *** *** *****  0.04 ***** ***** **
949670 ***** 201508312300 290   1 *** *** OVC * * *  0.6 50 ** ** ** ** ** ** ** 5   46   46 ****** ***** ****** *** *** ***** *****  0.12 ***** **
949670 ***** 201509010500 130   9 *** 722 SCT * * * 10.0 15 ** ** ** ** ** ** ** 5   49   45 ****** ***** ****** *** *** *****  0.03 ***** ***** **
949670 ***** 201509012300 020  11 *** *** BKN * * * 21.9 03 ** ** ** ** ** ** ** 2   45   44 ****** ***** ****** *** *** ***** *****  0.03 ***** **
949670 ***** 201509020500 130   1 *** *** BKN * * * 15.6 03 ** ** ** ** ** ** ** 2   50   43 ****** ***** ****** *** *** ***** ***** ***** ***** **
949670 ***** 201509022300 230  21 *** 722 SCT * * * 15.6 01 ** ** ** ** ** ** ** 8   47   35 ****** ***** ****** *** *** ***** *****  0.16 ***** **
949670 ***** 201509030500 230  21 *** *** BKN * * *  7.5 15 ** ** ** ** ** ** ** 8   47   34 ****** ***** ****** *** *** *****  0.02 ***** ***** **
949670 ***** 201509032300 270  29 *** 722 SCT * * * 12.5 15 ** ** ** ** ** ** ** 0   51   38 ****** ***** ****** *** *** ***** *****  0.02 ***** **
949670 ***** 201509040500 270  16 *** 722 SCT * * * 12.5 15 ** ** ** ** ** ** ** 0   54   44 ****** ***** ****** *** *** ***** ***** ***** ***** **
949670 ***** 201509042300 180   5 *** *** OVC * * *  5.0 50 ** ** ** ** ** ** ** 6   45   42 ****** ***** ****** *** *** ***** *****  0.28 ***** **
949670 ***** 201509050500 130   5 *** *** BKN * * * 12.5 02 ** ** ** ** ** ** ** 6   47   36 ****** ***** ****** *** *** *****  0.01 ***** ***** **
949670 ***** 201509052300 020   9 *** 722 SCT * * * 21.9 02 ** ** ** ** ** ** ** 1   49   43 ****** ***** ****** *** *** ***** *****  0.01 ***** **
949670 ***** 201509060500 050   9 *** *** BKN * * * 21.9 03 ** ** ** ** ** ** ** 1   55   40 ****** ***** ****** *** *** ***** ***** ***** ***** **
949670 ***** 201509062300 360   0 *** *** BKN * * *  6.2 10 ** ** ** ** ** ** ** 5   49   46 ****** ***** ****** *** *** ***** ***** ***** ***** **
949670 ***** 201509070500 130   5 *** 722 SCT * * *  9.4 05 ** ** ** ** ** ** ** 1   54   46 ****** ***** ****** *** *** ***** ***** ***** ***** **
949670 ***** 201509072300 230  21 *** *** OVC * * *  0.6 81 ** ** ** ** ** ** ** 5   51   50 ****** ***** ****** *** *** ***** *****  0.02 ***** **
949670 ***** 201509080500 250  15 *** *** BKN * * * 11.2 15 ** ** ** ** ** ** ** 5   53   47 ****** ***** ****** *** *** *****  0.01 ***** ***** **
949670 ***** 201509082300 290  16 *** *** BKN * * * 12.5 05 ** ** ** ** ** ** ** 6   52   43 ****** ***** ****** *** *** ***** *****  0.02 ***** **
949670 ***** 201509090500 250  21 *** *** BKN * * * 10.0 15 ** ** ** ** ** ** ** 5   55   47 ****** ***** ****** *** *** ***** ***** ***** ***** **
949670 ***** 201509092300 310  23 *** *** BKN * * * 12.5 15 ** ** ** ** ** ** ** 2   55   46 ****** ***** ****** *** *** ***** ***** ***** ***** **
949670 ***** 201509100500 290  22 *** *** BKN * * * 15.6 03 ** ** ** ** ** ** ** 2   56   46 ****** ***** ****** *** *** ***** ***** ***** ***** **
949670 ***** 201509102300 360  13 *** 722 SCT * * * 21.9 02 ** ** ** ** ** ** ** 1   54   43 ****** ***** ****** *** *** ***** ***** ***** ***** **
949670 ***** 201509110500 310  11 *** *** BKN * * * 21.9 02 ** ** ** ** ** ** ** 1   61   40 ****** ***** ****** *** *** ***** ***** ***** ***** **
949670 ***** 201509112300 110   5 *** 722 SCT * * *  5.0 05 ** ** ** ** ** ** ** 5   57   54 ****** ***** ****** *** *** ***** *****  0.02 ***** **
949670 ***** 201509120500 180   6 *** 722 SCT * * *  6.2 05 ** ** ** ** ** ** ** 1   54   50 ****** ***** ****** *** *** ***** ***** ***** ***** **
949670 ***** 201509122300 020   7 *** 722 SCT * * *  7.5 05 ** ** ** ** ** ** ** 1   56   52 ****** ***** ****** *** *** ***** ***** ***** ***** **
949670 ***** 201509130500 110   7 *** 722 SCT * * *  9.4 05 ** ** ** ** ** ** ** 0   55   51 ****** ***** ****** *** *** ***** ***** ***** ***** **
949670 ***** 201509132300 020   8 *** *** BKN * * * 12.5 02 ** ** ** ** ** ** ** 1   66   45 ****** ***** ****** *** *** ***** ***** ***** ***** **
949670 ***** 201509140500 050  15 *** 722 SCT * * * 12.5 03 ** ** ** ** ** ** ** 1   74   48 ****** ***** ****** *** *** ***** ***** ***** ***** **
949670 ***** 201509142300 270  14 *** 722 SCT * * * 18.8 01 ** ** ** ** ** ** ** 1   57   45 ****** ***** ****** *** *** ***** ***** ***** ***** **
949670 ***** 201509150500 230  11 *** *** OVC * * *  1.9 62 ** ** ** ** ** ** ** 6   50   48 ****** ***** ****** *** *** *****  0.03 ***** ***** **
949670 ***** 201509152300 270   6 *** *** BKN * * * 12.5 01 ** ** ** ** ** ** ** 6   46   39 ****** ***** ****** *** *** ***** *****  0.20 ***** **
949670 ***** 201509160500 250  15 *** 722 SCT * * * 10.0 01 ** ** ** ** ** ** ** 1   52   40 ****** ***** ****** *** *** ***** ***** ***** ***** **
949670 ***** 201509162300 310  15 *** *** BKN * * * 12.5 15 ** ** ** ** ** ** ** 1   50   41 ****** ***** ****** *** *** ***** ***** ***** ***** **
949670 ***** 201509170500 200  25 *** 722 SCT * * *  9.4 15 ** ** ** ** ** ** ** 1   53   46 ****** ***** ****** *** *** ***** ***** ***** ***** **
949670 ***** 201509172300 050   5 *** *** BKN * * * 12.5 01 ** ** ** ** ** ** ** 6   50   49 ****** ***** ****** *** *** ***** *****  0.08 ***** **
949670 ***** 201509180500 130  46 *** 722 SCT * * * 12.5 01 ** ** ** ** ** ** ** 1   55   46 ****** ***** ****** *** *** ***** ***** ***** ***** **
949670 ***** 201509182300 360   7 *** 722 SCT * * * 21.9 00 ** ** ** ** ** ** ** 0   51   47 ****** ***** ****** *** *** ***** ***** ***** ***** **
949670 ***** 201509190500 200   9 *** 722 SCT * * * 21.9 03 ** ** ** ** ** ** ** 0   54   47 ****** ***** ****** *** *** ***** ***** ***** ***** **
949670 ***** 201509192300 360   9 *** *** BKN * * * 15.6 03 ** ** ** ** ** ** ** 1   51   48 ****** ***** ****** *** *** ***** ***** ***** ***** **
