  USAF  WBAN YR--MODAHRMN DIR SPD GUS CLG SKC L M H  VSB MW MW MW MW AW AW AW AW W TEMP DEWP    SLP   ALT    STP MAX MIN PCP01 PCP06 PCP24 PCPXX SD
956240 ***** 201501010100 110   1 *** *** *** * * * 12.5 02 ** ** ** ** ** ** ** 0   73   71 ****** ***** ****** *** *** ***** *****  0.00 ***** **
956240 ***** 201501010700 180   1 *** 722 CLR * * * 12.5 02 ** ** ** ** ** ** ** 0   95   95 ****** ***** ****** *** *** ***** ***** ***** ***** **
956240 ***** 201501020100 180   1 *** *** BKN * * * 12.5 02 ** ** ** ** ** ** ** 1   81   80 ****** ***** ****** *** *** ***** *****  0.00 ***** **
956240 ***** 201501020700 200   1 *** *** OVC * * * 12.5 02 ** ** ** ** ** ** ** 2   88   88 ****** ***** ****** *** *** *****  0.00 ***** ***** **
956240 ***** 201501030100 130   3 *** *** *** * * * 12.5 02 ** ** ** ** ** ** ** 1   72   71 ****** ***** ****** *** *** ***** *****  0.00 ***** **
956240 ***** 201501030700 130   5 *** *** BKN * * * 12.5 02 ** ** ** ** ** ** ** 1   91   91 ****** ***** ****** *** *** *****  0.00 ***** ***** **
956240 ***** 201501040100 050   2 *** *** *** * * * 12.5 02 ** ** ** ** ** ** ** 1   82   82 ****** ***** ****** *** *** ***** *****  0.00 ***** **
956240 ***** 201501040700 090   3 *** *** *** * * * 12.5 02 ** ** ** ** ** ** ** 0  100 **** ****** ***** ****** *** *** *****  0.00 ***** ***** **
956240 ***** 201501050100 050   9 *** *** *** * * * 12.5 02 ** ** ** ** ** ** ** 0   91   91 ****** ***** ****** *** *** ***** *****  0.00 ***** **
956240 ***** 201501050700 090   1 *** *** SCT * * * 12.5 02 ** ** ** ** ** ** ** 0  106 **** ****** ***** ****** *** *** *****  0.00 ***** ***** **
956240 ***** 201501060100 050   1 *** *** BKN * * * 12.5 02 ** ** ** ** ** ** ** 1   90   90 ****** ***** ****** *** *** ***** *****  0.00 ***** **
956240 ***** 201501060700 310   1 *** *** BKN * * * 12.5 02 ** ** ** ** ** ** ** 1  104 **** ****** ***** ****** *** *** *****  0.00 ***** ***** **
956240 ***** 201501070100 160   2 *** *** BKN * * * 12.5 02 ** ** ** ** ** ** ** 2   72   72 ****** ***** ****** *** *** ***** *****  0.00 ***** **
956240 ***** 201501070700 130   2 *** *** *** * * * 12.5 02 ** ** ** ** ** ** ** 1   90   56 ****** ***** ****** *** *** *****  0.00 ***** ***** **
956240 ***** 201501080100 130   7 *** 722 CLR * * * 12.5 02 ** ** ** ** ** ** ** 0   71   45 ****** ***** ****** *** *** ***** ***** ***** ***** **
956240 ***** 201501080700 130   5 *** *** *** * * * 12.5 02 ** ** ** ** ** ** ** 0   86   42 ****** ***** ****** *** *** *****  0.00 ***** ***** **
956240 ***** 201501090100 130  10 *** *** *** * * * 12.5 02 ** ** ** ** ** ** ** 0   67   44 ****** ***** ****** *** *** ***** *****  0.00 ***** **
956240 ***** 201501090700 130  10 *** *** SCT * * * 12.5 02 ** ** ** ** ** ** ** 0   79   43 ****** ***** ****** *** *** *****  0.00 ***** ***** **
956240 ***** 201501100100 130  17 *** *** SCT * * * 12.5 02 ** ** ** ** ** ** ** 0   68   46 ****** ***** ****** *** *** ***** *****  0.00 ***** **
956240 ***** 201501100700 110  10 *** *** *** * * * 12.5 02 ** ** ** ** ** ** ** 0   82   41 ****** ***** ****** *** *** *****  0.00 ***** ***** **
956240 ***** 201501110100 050  10 *** *** *** * * * 12.5 02 ** ** ** ** ** ** ** 0   73   44 ****** ***** ****** *** *** ***** *****  0.00 ***** **
956240 ***** 201501110700 230   1 *** *** SCT * * * 12.5 02 ** ** ** ** ** ** ** 0   86   39 ****** ***** ****** *** *** *****  0.00 ***** ***** **
956240 ***** 201501120100 050   1 *** 722 CLR * * * 12.5 02 ** ** ** ** ** ** ** 0   82   38 ****** ***** ****** *** *** ***** ***** ***** ***** **
956240 ***** 201501120700 360   1 *** *** *** * * * 12.5 02 ** ** ** ** ** ** ** 0   94   34 ****** ***** ****** *** *** *****  0.00 ***** ***** **
956240 ***** 201501130100 050   2 *** *** *** * * * 12.5 02 ** ** ** ** ** ** ** 0   86   48 ****** ***** ****** *** *** ***** *****  0.00 ***** **
956240 ***** 201501130700 050   1 ***  49 BKN * * * 12.5 02 ** ** ** ** ** ** ** 1  104   38 ****** ***** ****** *** *** ***** ***** ***** ***** **
956240 ***** 201501140100 360   1 *** *** *** * * * 12.5 02 ** ** ** ** ** ** ** 0   90   51 ****** ***** ****** *** *** ***** *****  0.00 ***** **
956240 ***** 201501140700 230   1 *** *** *** * * * 12.5 02 ** ** ** ** ** ** ** 0  104   47 ****** ***** ****** *** *** *****  0.00 ***** ***** **
956240 ***** 201501150100 130   1 *** *** *** * * * 12.5 02 ** ** ** ** ** ** ** 1   73   57 ****** ***** ****** *** *** ***** *****  0.00 ***** **
956240 ***** 201501150700 160   1 *** 722 CLR * * * 12.5 02 ** ** ** ** ** ** ** 0   91   58 ****** ***** ****** *** *** ***** ***** ***** ***** **
956240 ***** 201501160100 130   1 *** *** *** * * * 12.5 02 ** ** ** ** ** ** ** 0   68   61 ****** ***** ****** *** *** ***** *****  0.00 ***** **
956240 ***** 201501160700 130   1 *** *** *** * * * 12.5 02 ** ** ** ** ** ** ** 0   91   44 ****** ***** ****** *** *** *****  0.00 ***** ***** **
956240 ***** 201501170100 090   5 *** *** *** * * * 12.5 02 ** ** ** ** ** ** ** 0   82   51 ****** ***** ****** *** *** ***** *****  0.00 ***** **
956240 ***** 201501170700 090   5 *** *** SCT * * * 12.5 02 ** ** ** ** ** ** ** 0  100   48 ****** ***** ****** *** *** *****  0.00 ***** ***** **
956240 ***** 201501180100 310   1 *** *** SCT * * * 12.5 02 ** ** ** ** ** ** ** 0   95   55 ****** ***** ****** *** *** ***** *****  0.00 ***** **
956240 ***** 201501180700 270   3 *** *** SCT * * * 12.5 02 ** ** ** ** ** ** ** 1  103   35 ****** ***** ****** *** *** *****  0.00 ***** ***** **
956240 ***** 201501190100 230   2 *** *** BKN * * * 12.5 02 ** ** ** ** ** ** ** 1   79   54 ****** ***** ****** *** *** ***** *****  0.00 ***** **
956240 ***** 201501190700 230   5 *** *** SCT * * * 12.5 02 ** ** ** ** ** ** ** 1   99   50 ****** ***** ****** *** *** *****  0.00 ***** ***** **
956240 ***** 201501200100 180   1 *** *** *** * * * 12.5 02 ** ** ** ** ** ** ** 0   86   52 ****** ***** ****** *** *** ***** *****  0.00 ***** **
956240 ***** 201501200700 180   1 *** *** *** * * * 12.5 02 ** ** ** ** ** ** ** 0  109   42 ****** ***** ****** *** *** *****  0.00 ***** ***** **
956240 ***** 201501210100 050   3 *** 722 CLR * * * 12.5 02 ** ** ** ** ** ** ** 0   99   57 ****** ***** ****** *** *** ***** ***** ***** ***** **
956240 ***** 201501210700 130   2 *** *** BKN * * * 18.8 05 ** ** ** ** ** ** ** 1  112   47 ****** ***** ****** *** *** *****  0.00 ***** ***** **
956240 ***** 201501220100 160   1 *** *** BKN * * * 12.5 02 ** ** ** ** ** ** ** 2   77   61 ****** ***** ****** *** *** ***** *****  0.00 ***** **
956240 ***** 201501220700 180   1 *** *** BKN * * * 12.5 50 ** ** ** ** ** ** ** 2   82   55 ****** ***** ****** *** *** ***** ***** ***** ***** **
956240 ***** 201501230100 130   1 *** 722 SCT * * * 12.5 02 ** ** ** ** ** ** ** 2   71   51 ****** ***** ****** *** *** ***** *****  0.00T***** **
956240 ***** 201501230700 200   1 *** *** BKN * * * 12.5 02 ** ** ** ** ** ** ** 2   93   47 ****** ***** ****** *** *** *****  0.00 ***** ***** **
956240 ***** 201501240100 160   2 *** 722 SCT * * * 12.5 02 ** ** ** ** ** ** ** 0   73   54 ****** ***** ****** *** *** ***** *****  0.00 ***** **
956240 ***** 201501240700 130   3 *** *** BKN * * * 12.5 02 ** ** ** ** ** ** ** 2   90   40 ****** ***** ****** *** *** *****  0.00 ***** ***** **
956240 ***** 201501250100 110   6 *** *** *** * * * 12.5 02 ** ** ** ** ** ** ** 0   71   51 ****** ***** ****** *** *** ***** *****  0.00 ***** **
956240 ***** 201501250700 130   2 *** *** *** * * * 12.5 02 ** ** ** ** ** ** ** 0   88   40 ****** ***** ****** *** *** *****  0.00 ***** ***** **
956240 ***** 201501260100 050   6 *** *** *** * * * 12.5 02 ** ** ** ** ** ** ** 0   73   47 ****** ***** ****** *** *** ***** *****  0.00 ***** **
956240 ***** 201501260700 110   3 *** *** *** * * * 12.5 02 ** ** ** ** ** ** ** 0   93   46 ****** ***** ****** *** *** *****  0.00 ***** ***** **
956240 ***** 201501270100 090  10 *** *** *** * * * 12.5 02 ** ** ** ** ** ** ** 0   84   40 ****** ***** ****** *** *** ***** *****  0.00 ***** **
956240 ***** 201501270700 230   1 *** 722 SCT * * * 12.5 03 ** ** ** ** ** ** ** 0   99   48 ****** ***** ****** *** *** *****  0.00 ***** ***** **
956240 ***** 201501280100 050  10 *** 722 SCT * * * 12.5 03 ** ** ** ** ** ** ** 0   87   42 ****** ***** ****** *** *** ***** *****  0.00 ***** **
956240 ***** 201501280700 050   6 *** *** BKN * * * 12.5 02 ** ** ** ** ** ** ** 2   99   47 ****** ***** ****** *** *** *****  0.00 ***** ***** **
956240 ***** 201501290100 050   6 *** 722 SCT * * * 12.5 03 ** ** ** ** ** ** ** 0   90   40 ****** ***** ****** *** *** ***** *****  0.00 ***** **
956240 ***** 201501290700 050   3 *** *** BKN * * * 12.5 02 ** ** ** ** ** ** ** 2   96   46 ****** ***** ****** *** *** *****  0.00 ***** ***** **
956240 ***** 201501300100 050  10 *** *** BKN * * * 12.5 02 ** ** ** ** ** ** ** 2   85   46 ****** ***** ****** *** *** ***** *****  0.00 ***** **
956240 ***** 201501300700 130   2 *** *** OVC * * * 12.5 02 ** ** ** ** ** ** ** 8   94   44 ****** ***** ****** *** *** *****  0.16 ***** ***** **
956240 ***** 201501310100 090  10 *** *** OVC * * * 12.5 02 ** ** ** ** ** ** ** 2   72   54 ****** ***** ****** *** *** ***** *****  0.16 ***** **
956240 ***** 201501310700 090   6 *** *** OVC * * * 12.5 02 ** ** ** ** ** ** ** 2   86   62 ****** ***** ****** *** *** *****  0.00 ***** ***** **
956240 ***** 201502010100 050  17 *** *** OVC * * * 12.5 02 ** ** ** ** ** ** ** 2   71   62 ****** ***** ****** *** *** ***** *****  0.00 ***** **
956240 ***** 201502010700 090  13 *** 722 SCT * * * 12.5 01 ** ** ** ** ** ** ** 0   85   44 ****** ***** ****** *** *** *****  0.00 ***** ***** **
956240 ***** 201502020100 050   8 *** *** BKN * * * 12.5 01 ** ** ** ** ** ** ** 2   77   49 ****** ***** ****** *** *** ***** *****  0.00 ***** **
956240 ***** 201502020700 090   6 *** 722 SCT * * * 12.5 02 ** ** ** ** ** ** ** 0   93   52 ****** ***** ****** *** *** *****  0.00 ***** ***** **
956240 ***** 201502030100 070   8 *** *** BKN * * * 12.5 01 ** ** ** ** ** ** ** 2   83   40 ****** ***** ****** *** *** ***** *****  0.00 ***** **
956240 ***** 201502030700 070   6 *** *** OVC * * * 12.5 02 ** ** ** ** ** ** ** 2   92   44 ****** ***** ****** *** *** *****  0.00 ***** ***** **
956240 ***** 201502040100 050   8 *** *** BKN * * * 12.5 01 ** ** ** ** ** ** ** 2   86   60 ****** ***** ****** *** *** ***** *****  0.00 ***** **
956240 ***** 201502040700 340   3 *** *** BKN * * * 12.5 01 ** ** ** ** ** ** ** 2  100   54 ****** ***** ****** *** *** *****  0.00 ***** ***** **
956240 ***** 201502050100 020   3 *** *** *** * * * 12.5 02 ** ** ** ** ** ** ** 0   90   49 ****** ***** ****** *** *** ***** *****  0.00 ***** **
956240 ***** 201502050700 310   2 *** 722 SCT * * * 12.5 03 ** ** ** ** ** ** ** 0  105   44 ****** ***** ****** *** *** *****  0.00 ***** ***** **
956240 ***** 201502060100 130   3 *** *** *** * * * 12.5 02 ** ** ** ** ** ** ** 0   78   64 ****** ***** ****** *** *** ***** *****  0.00 ***** **
956240 ***** 201502060700 130   2 *** *** *** * * * 12.5 02 ** ** ** ** ** ** ** 0   99   53 ****** ***** ****** *** *** *****  0.00 ***** ***** **
956240 ***** 201502070100 130   3 *** 722 SCT * * * 12.5 03 ** ** ** ** ** ** ** 0   77   57 ****** ***** ****** *** *** ***** *****  0.00 ***** **
956240 ***** 201502070700 050   2 *** 722 SCT * * * 12.5 03 ** ** ** ** ** ** ** 0   97   49 ****** ***** ****** *** *** *****  0.00 ***** ***** **
956240 ***** 201502080100 070   3 *** *** BKN * * * 12.5 02 ** ** ** ** ** ** ** 2   84   55 ****** ***** ****** *** *** ***** *****  0.00 ***** **
956240 ***** 201502080700 090   3 *** *** BKN * * * 12.5 02 ** ** ** ** ** ** ** 2  102   52 ****** ***** ****** *** *** *****  0.00 ***** ***** **
956240 ***** 201502090100 200   2 *** *** BKN * * * 12.5 03 ** ** ** ** ** ** ** 1   87   63 ****** ***** ****** *** *** ***** *****  0.00 ***** **
956240 ***** 201502090700 270   1 *** 722 SCT * * * 12.5 01 ** ** ** ** ** ** ** 0  108   54 ****** ***** ****** *** *** *****  0.00 ***** ***** **
956240 ***** 201502100100 050   2 *** 722 SCT * * * 12.5 03 ** ** ** ** ** ** ** 0   93   53 ****** ***** ****** *** *** ***** *****  0.00 ***** **
956240 ***** 201502100700 250   2 *** *** BKN * * * 12.5 02 ** ** ** ** ** ** ** 2  108   44 ****** ***** ****** *** *** *****  0.00 ***** ***** **
956240 ***** 201502110100 090   8 *** 722 SCT * * * 12.5 03 ** ** ** ** ** ** ** 0   75   52 ****** ***** ****** *** *** ***** *****  0.00 ***** **
956240 ***** 201502110700 090   3 *** 722 SCT * * * 12.5 02 ** ** ** ** ** ** ** 0  100   49 ****** ***** ****** *** *** *****  0.00 ***** ***** **
956240 ***** 201502120100 050   2 *** *** OVC * * * 12.5 02 ** ** ** ** ** ** ** 2   81   58 ****** ***** ****** *** *** ***** *****  0.00 ***** **
956240 ***** 201502120700 180   2 *** *** OVC * * * 12.5 02 ** ** ** ** ** ** ** 2   92   56 ****** ***** ****** *** *** *****  0.00 ***** ***** **
956240 ***** 201502130100 310   2 *** *** OVC * * * 12.5 02 ** ** ** ** ** ** ** 2   86   52 ****** ***** ****** *** *** ***** *****  0.00 ***** **
956240 ***** 201502130700 290   6 *** *** BKN * * * 12.5 01 ** ** ** ** ** ** ** 2  100   45 ****** ***** ****** *** *** *****  0.00 ***** ***** **
956240 ***** 201502140100 200   3 *** *** BKN * * * 12.5 02 ** ** ** ** ** ** ** 2   71   56 ****** ***** ****** *** *** ***** *****  0.00 ***** **
956240 ***** 201502150100 090   6 *** *** *** * * * 12.5 02 ** ** ** ** ** ** ** 0   65   46 ****** ***** ****** *** *** ***** *****  0.00 ***** **
956240 ***** 201502160100 090   6 *** 722 SCT * * * 12.5 03 ** ** ** ** ** ** ** 0   75   49 ****** ***** ****** *** *** ***** *****  0.00 ***** **
956240 ***** 201502160700 090   3 *** *** BKN * * * 12.5 02 ** ** ** ** ** ** ** 2   96   48 ****** ***** ****** *** *** *****  0.00 ***** ***** **
956240 ***** 201502170100 050   6 *** *** BKN * * * 12.5 02 ** ** ** ** ** ** ** 2   88   51 ****** ***** ****** *** *** ***** *****  0.00 ***** **
956240 ***** 201502170700 360   1 *** *** OVC * * * 12.5 02 ** ** ** ** ** ** ** 2   95   54 ****** ***** ****** *** *** *****  0.00 ***** ***** **
956240 ***** 201502180100 020   2 *** 722 SCT * * * 12.5 03 ** ** ** ** ** ** ** 0   91   53 ****** ***** ****** *** *** ***** *****  0.00 ***** **
956240 ***** 201502180700 270   6 *** *** BKN * * * 12.5 02 ** ** ** ** ** ** ** 2  104   44 ****** ***** ****** *** *** *****  0.00 ***** ***** **
956240 ***** 201502190100 090   1 *** 722 SCT * * * 12.5 03 ** ** ** ** ** ** ** 0   85   59 ****** ***** ****** *** *** ***** *****  0.00 ***** **
956240 ***** 201502190700 230   2 *** 722 SCT * * * 12.5 02 ** ** ** ** ** ** ** 0   97   52 ****** ***** ****** *** *** *****  0.00 ***** ***** **
956240 ***** 201502200100 050   2 *** 722 SCT * * * 12.5 03 ** ** ** ** ** ** ** 0   73   56 ****** ***** ****** *** *** ***** *****  0.00 ***** **
956240 ***** 201502200700 230   2 *** 722 SCT * * * 12.5 02 ** ** ** ** ** ** ** 0   94   51 ****** ***** ****** *** *** *****  0.00 ***** ***** **
956240 ***** 201502210100 090   3 *** *** *** * * * 12.5 02 ** ** ** ** ** ** ** 0   72   56 ****** ***** ****** *** *** ***** *****  0.00 ***** **
956240 ***** 201502210700 230   2 *** 722 CLR * * * 12.5 02 ** ** ** ** ** ** ** 0   87   45 ****** ***** ****** *** *** ***** ***** ***** ***** **
956240 ***** 201502220100 130   6 *** *** *** * * * 12.5 02 ** ** ** ** ** ** ** 0   74   54 ****** ***** ****** *** *** ***** *****  0.00 ***** **
956240 ***** 201502220700 230   6 *** *** *** * * * 12.5 02 ** ** ** ** ** ** ** 0   92   51 ****** ***** ****** *** *** *****  0.00 ***** ***** **
956240 ***** 201502230100 130  13 *** *** *** * * * 12.5 02 ** ** ** ** ** ** ** 0   68   50 ****** ***** ****** *** *** ***** *****  0.00 ***** **
956240 ***** 201502230700 070   8 *** *** *** * * * 12.5 02 ** ** ** ** ** ** ** 0   89   52 ****** ***** ****** *** *** *****  0.00 ***** ***** **
956240 ***** 201502240100 050  15 *** 722 SCT * * * 12.5 03 ** ** ** ** ** ** ** 0   87   55 ****** ***** ****** *** *** ***** ***** ***** ***** **
956240 ***** 201502240700 270   3 *** *** BKN * * * 12.5 02 ** ** ** ** ** ** ** 2  104   55 ****** ***** ****** *** *** *****  0.00 ***** ***** **
956240 ***** 201502250100 050   6 *** 722 SCT * * * 12.5 01 ** ** ** ** ** ** ** 0   88   62 ****** ***** ****** *** *** ***** *****  0.17 ***** **
956240 ***** 201502250700 340   3 *** 722 SCT * * * 12.5 02 ** ** ** ** ** ** ** 0  101   60 ****** ***** ****** *** *** *****  0.00 ***** ***** **
956240 ***** 201502260100 020   2 *** *** BKN * * * 12.5 02 ** ** ** ** ** ** ** 2   87   67 ****** ***** ****** *** *** ***** *****  0.00 ***** **
956240 ***** 201502260700 050  10 *** *** BKN * * * 12.5 17 ** ** ** ** ** ** ** 9   84   67 ****** ***** ****** *** *** *****  0.00 ***** ***** **
956240 ***** 201502270100 230   6 *** 722 SCT * * * 12.5 02 ** ** ** ** ** ** ** 2   76   63 ****** ***** ****** *** *** ***** *****  0.02 ***** **
956240 ***** 201502270700 230   6 *** 722 SCT * * * 12.5 01 ** ** ** ** ** ** ** 0   90   56 ****** ***** ****** *** *** *****  0.00 ***** ***** **
956240 ***** 201502280100 110   6 *** 722 SCT * * * 12.5 02 ** ** ** ** ** ** ** 0   68   55 ****** ***** ****** *** *** ***** *****  0.00 ***** **
956240 ***** 201502280700 090   6 *** *** *** * * * 12.5 02 ** ** ** ** ** ** ** 0   83   47 ****** ***** ****** *** *** *****  0.00 ***** ***** **
956240 ***** 201503010100 070  10 *** 722 SCT * * * 12.5 02 ** ** ** ** ** ** ** 0   78   55 ****** ***** ****** *** *** ***** *****  0.00 ***** **
956240 ***** 201503010700 230   3 *** *** OVC * * *  6.2 95 ** ** ** ** ** ** ** 9   66   66 ****** ***** ****** *** *** *****  1.65 ***** ***** **
956240 ***** 201503020100 130   2 *** *** OVC * * * 12.5 02 ** ** ** ** ** ** ** 2   68   63 ****** ***** ****** *** *** ***** *****  1.78 ***** **
956240 ***** 201503020700 130   2 *** *** OVC * * * 12.5 02 ** ** ** ** ** ** ** 9   71   62 ****** ***** ****** *** *** *****  0.00 ***** ***** **
956240 ***** 201503030100 090   6 *** *** *** * * * 12.5 02 ** ** ** ** ** ** ** 0   70   57 ****** ***** ****** *** *** ***** *****  0.00 ***** **
956240 ***** 201503030700 090   3 *** 722 SCT * * * 12.5 03 ** ** ** ** ** ** ** 0   83   46 ****** ***** ****** *** *** *****  0.00 ***** ***** **
956240 ***** 201503040100 050   6 *** 722 SCT * * * 12.5 03 ** ** ** ** ** ** ** 0   71   55 ****** ***** ****** *** *** ***** *****  0.00 ***** **
956240 ***** 201503040700 090   6 *** 722 SCT * * * 12.5 02 ** ** ** ** ** ** ** 0   84   45 ****** ***** ****** *** *** *****  0.00 ***** ***** **
956240 ***** 201503050100 090   6 *** 722 SCT * * * 12.5 03 ** ** ** ** ** ** ** 0   70   54 ****** ***** ****** *** *** ***** *****  0.00 ***** **
956240 ***** 201503050700 090   3 *** 722 SCT * * * 12.5 02 ** ** ** ** ** ** ** 0   83   50 ****** ***** ****** *** *** *****  0.00 ***** ***** **
956240 ***** 201503060100 070   8 *** 722 SCT * * * 12.5 03 ** ** ** ** ** ** ** 0   71   55 ****** ***** ****** *** *** ***** *****  0.00 ***** **
956240 ***** 201503060700 110   3 *** 722 SCT * * * 12.5 02 ** ** ** ** ** ** ** 0   84   50 ****** ***** ****** *** *** *****  0.00 ***** ***** **
956240 ***** 201503070100 050   2 *** *** *** * * * 12.5 02 ** ** ** ** ** ** ** 0   74   57 ****** ***** ****** *** *** ***** *****  0.00 ***** **
956240 ***** 201503070700 130   1 *** 722 SCT * * * 12.5 02 ** ** ** ** ** ** ** 0   87   54 ****** ***** ****** *** *** *****  0.00 ***** ***** **
956240 ***** 201503080100 090   2 *** *** *** * * * 12.5 02 ** ** ** ** ** ** ** 0   73   52 ****** ***** ****** *** *** ***** *****  0.00 ***** **
956240 ***** 201503080700 160   2 *** *** *** * * * 12.5 02 ** ** ** ** ** ** ** 0   90   46 ****** ***** ****** *** *** *****  0.00 ***** ***** **
956240 ***** 201503090100 050   3 *** *** *** * * * 12.5 02 ** ** ** ** ** ** ** 0   73   57 ****** ***** ****** *** *** ***** *****  0.00 ***** **
956240 ***** 201503090700 050   1 *** 722 SCT * * * 12.5 03 ** ** ** ** ** ** ** 0   90   52 ****** ***** ****** *** *** *****  0.00 ***** ***** **
956240 ***** 201503100100 340   1 *** *** *** * * * 12.5 02 ** ** ** ** ** ** ** 0   81   54 ****** ***** ****** *** *** ***** *****  0.00 ***** **
956240 ***** 201503100700 180   2 *** 722 SCT * * * 12.5 03 ** ** ** ** ** ** ** 0   94   48 ****** ***** ****** *** *** *****  0.00 ***** ***** **
956240 ***** 201503110100 090   3 *** 722 SCT * * * 12.5 03 ** ** ** ** ** ** ** 0   78   49 ****** ***** ****** *** *** ***** *****  0.00 ***** **
956240 ***** 201503110700 050   2 *** 722 SCT * * * 12.5 02 ** ** ** ** ** ** ** 0   95   48 ****** ***** ****** *** *** *****  0.00 ***** ***** **
956240 ***** 201503120100 050   9 *** 722 CLR * * * 12.5 02 ** ** ** ** ** ** ** 0   84   44 ****** ***** ****** *** *** ***** ***** ***** ***** **
956240 ***** 201503120700 310   2 *** 722 SCT * * * 12.5 02 ** ** ** ** ** ** ** 0   98   38 ****** ***** ****** *** *** ***** ***** ***** ***** **
956240 ***** 201503130100 050   7 *** *** OVC * * * 12.5 02 ** ** ** ** ** ** ** 2   83   40 ****** ***** ****** *** *** ***** ***** ***** ***** **
956240 ***** 201503130700 020   2 *** *** OVC * * * 12.5 02 ** ** ** ** ** ** ** 2   94   49 ****** ***** ****** *** *** ***** ***** ***** ***** **
956240 ***** 201503140100 090   4 *** *** OVC * * * 12.5 02 ** ** ** ** ** ** ** 2   84   46 ****** ***** ****** *** *** ***** ***** ***** ***** **
956240 ***** 201503140700 050  10 *** *** OVC * * *  6.2 61 ** ** ** ** ** ** ** 6   70 **** ****** ***** ****** *** *** ***** ***** ***** ***** **
956240 ***** 201503150100 310   2 *** *** BKN * * * 12.5 01 ** ** ** ** ** ** ** 2   72   68 ****** ***** ****** *** *** ***** *****  0.63 ***** **
956240 ***** 201503150700 250   4 *** 722 SCT * * * 12.5 02 ** ** ** ** ** ** ** 0   83   56 ****** ***** ****** *** *** ***** ***** ***** ***** **
956240 ***** 201503160100 250   2 *** *** OVC * * * 12.5 02 ** ** ** ** ** ** ** 2   65   62 ****** ***** ****** *** *** ***** ***** ***** ***** **
956240 ***** 201503160700 270   2 *** *** BKN * * * 12.5 01 ** ** ** ** ** ** ** 2   79   57 ****** ***** ****** *** *** ***** ***** ***** ***** **
956240 ***** 201503170100 310   2 *** *** BKN * * * 12.5 03 ** ** ** ** ** ** ** 1   69   60 ****** ***** ****** *** *** ***** ***** ***** ***** **
956240 ***** 201503170700 270   2 *** 722 CLR * * * 12.5 02 ** ** ** ** ** ** ** 0   85   55 ****** ***** ****** *** *** ***** ***** ***** ***** **
956240 ***** 201503180100 310   6 *** *** BKN * * * 12.5 03 ** ** ** ** ** ** ** 1   71   62 ****** ***** ****** *** *** ***** ***** ***** ***** **
956240 ***** 201503180700 290   6 *** *** OVC * * * 12.5 02 ** ** ** ** ** ** ** 2   76   60 ****** ***** ****** *** *** ***** ***** ***** ***** **
956240 ***** 201503190100 180   2 *** 722 SCT * * * 12.5 03 ** ** ** ** ** ** ** 0   66   58 ****** ***** ****** *** *** ***** ***** ***** ***** **
956240 ***** 201503190700 180   2 *** 722 SCT * * * 12.5 01 ** ** ** ** ** ** ** 0   77   52 ****** ***** ****** *** *** ***** ***** ***** ***** **
956240 ***** 201503200100 050   2 *** 722 CLR * * * 12.5 02 ** ** ** ** ** ** ** 0   68   51 ****** ***** ****** *** *** ***** ***** ***** ***** **
956240 ***** 201503200700 050   2 *** 722 SCT * * * 12.5 03 ** ** ** ** ** ** ** 0   86   53 ****** ***** ****** *** *** ***** ***** ***** ***** **
956240 ***** 201503210100 020   2 *** 722 SCT * * * 12.5 03 ** ** ** ** ** ** ** 0   82   59 ****** ***** ****** *** *** ***** ***** ***** ***** **
956240 ***** 201503210700 310  13 *** 722 SCT * * * 12.5 02 ** ** ** ** ** ** ** 0   83   52 ****** ***** ****** *** *** ***** ***** ***** ***** **
956240 ***** 201503220100 130   8 *** 722 SCT * * * 12.5 01 ** ** ** ** ** ** ** 1   63   52 ****** ***** ****** *** *** ***** ***** ***** ***** **
956240 ***** 201503220700 180   2 *** *** BKN * * * 12.5 02 ** ** ** ** ** ** ** 2   70   42 ****** ***** ****** *** *** ***** ***** ***** ***** **
956240 ***** 201503230100 090   7 *** 722 CLR * * * 12.5 02 ** ** ** ** ** ** ** 0   58   38 ****** ***** ****** *** *** ***** ***** ***** ***** **
956240 ***** 201503230700 130   2 *** 722 CLR * * * 12.5 02 ** ** ** ** ** ** ** 0   70   37 ****** ***** ****** *** *** ***** ***** ***** ***** **
956240 ***** 201503240100 050   7 *** 722 CLR * * * 12.5 02 ** ** ** ** ** ** ** 0   62   43 ****** ***** ****** *** *** ***** ***** ***** ***** **
956240 ***** 201503240700 130   2 *** 722 CLR * * * 12.5 02 ** ** ** ** ** ** ** 0   78   52 ****** ***** ****** *** *** ***** ***** ***** ***** **
956240 ***** 201503250100 090   4 *** 722 SCT * * * 12.5 03 ** ** ** ** ** ** ** 0   64   50 ****** ***** ****** *** *** ***** ***** ***** ***** **
956240 ***** 201503250700 070   6 *** 722 CLR * * * 12.5 02 ** ** ** ** ** ** ** 0   78   36 ****** ***** ****** *** *** ***** ***** ***** ***** **
956240 ***** 201503260100 090   9 *** 722 SCT * * * 12.5 03 ** ** ** ** ** ** ** 0   66   49 ****** ***** ****** *** *** ***** ***** ***** ***** **
956240 ***** 201503260700 090   8 *** *** BKN * * * 12.5 02 ** ** ** ** ** ** ** 2   78   39 ****** ***** ****** *** *** ***** ***** ***** ***** **
956240 ***** 201503270100 360   0 *** *** OVC * * * 12.5 02 ** ** ** ** ** ** ** 2   64   52 ****** ***** ****** *** *** ***** ***** ***** ***** **
956240 ***** 201503270700 340   2 *** 722 SCT * * * 12.5 01 ** ** ** ** ** ** ** 1   77   51 ****** ***** ****** *** *** ***** ***** ***** ***** **
956240 ***** 201503280100 090   0 *** 722 CLR * * * 12.5 02 ** ** ** ** ** ** ** 0   69   56 ****** ***** ****** *** *** ***** ***** ***** ***** **
956240 ***** 201503280700 180   0 *** 722 SCT * * * 12.5 03 ** ** ** ** ** ** ** 0   80   50 ****** ***** ****** *** *** ***** ***** ***** ***** **
956240 ***** 201503290100 050   2 *** 722 CLR * * * 12.5 02 ** ** ** ** ** ** ** 0   72   53 ****** ***** ****** *** *** ***** ***** ***** ***** **
956240 ***** 201503290700 360   2 *** 722 SCT * * * 12.5 03 ** ** ** ** ** ** ** 0   83   49 ****** ***** ****** *** *** ***** ***** ***** ***** **
956240 ***** 201503300100 360   7 *** *** BKN * * * 12.5 03 ** ** ** ** ** ** ** 1   76   49 ****** ***** ****** *** *** ***** ***** ***** ***** **
956240 ***** 201503300700 290   8 *** *** OVC * * * 12.5 02 ** ** ** ** ** ** ** 2   87   47 ****** ***** ****** *** *** ***** ***** ***** ***** **
956240 ***** 201503310100 180   0 *** *** OVC * * * 12.5 02 ** ** ** ** ** ** ** 6   65   64 ****** ***** ****** *** *** ***** *****  0.90 ***** **
956240 ***** 201503310700 230   1 *** *** BKN * * * 12.5 01 ** ** ** ** ** ** ** 2   74   59 ****** ***** ****** *** *** ***** ***** ***** ***** **
956240 ***** 201504010100 090   6 *** *** OVC * * * 12.5 02 ** ** ** ** ** ** ** 2   62   55 ****** ***** ****** *** *** ***** ***** ***** ***** **
956240 ***** 201504010700 070   4 *** *** BKN * * * 12.5 01 ** ** ** ** ** ** ** 2   67   55 ****** ***** ****** *** *** ***** ***** ***** ***** **
956240 ***** 201504020100 090   7 *** 722 SCT * * * 12.5 03 ** ** ** ** ** ** ** 0   61   52 ****** ***** ****** *** *** ***** ***** ***** ***** **
956240 ***** 201504020700 090   2 *** 722 SCT * * * 12.5 02 ** ** ** ** ** ** ** 0   75   51 ****** ***** ****** *** *** ***** ***** ***** ***** **
956240 ***** 201504030100 050   2 *** 722 SCT * * * 12.5 03 ** ** ** ** ** ** ** 0   68   55 ****** ***** ****** *** *** ***** ***** ***** ***** **
956240 ***** 201504030700 090   2 *** 722 SCT * * * 12.5 02 ** ** ** ** ** ** ** 0   78   55 ****** ***** ****** *** *** ***** ***** ***** ***** **
956240 ***** 201504040100 050   2 *** *** OVC * * * 12.5 02 ** ** ** ** ** ** ** 2   66   60 ****** ***** ****** *** *** ***** ***** ***** ***** **
956240 ***** 201504040700 110   2 *** *** BKN * * * 12.5 01 ** ** ** ** ** ** ** 2   80   59 ****** ***** ****** *** *** ***** ***** ***** ***** **
956240 ***** 201504050100 130   4 *** 722 SCT * * * 12.5 03 ** ** ** ** ** ** ** 0   65   56 ****** ***** ****** *** *** ***** ***** ***** ***** **
956240 ***** 201504050700 130   2 *** 722 SCT * * * 12.5 02 ** ** ** ** ** ** ** 0   82   54 ****** ***** ****** *** *** ***** ***** ***** ***** **
956240 ***** 201504060100 090   7 *** 722 SCT * * * 12.5 02 ** ** ** ** ** ** ** 2   61   45 ****** ***** ****** *** *** ***** ***** ***** ***** **
956240 ***** 201504060700 130   3 *** *** OVC * * * 12.5 02 ** ** ** ** ** ** ** 2   74   48 ****** ***** ****** *** *** ***** ***** ***** ***** **
956240 ***** 201504070100 050   6 *** *** OVC * * * 12.5 02 ** ** ** ** ** ** ** 2   66   44 ****** ***** ****** *** *** ***** ***** ***** ***** **
956240 ***** 201504070700 050   2 *** *** OVC * * * 12.5 02 ** ** ** ** ** ** ** 2   67   46 ****** ***** ****** *** *** ***** ***** ***** ***** **
956240 ***** 201504080100 070   2 *** *** OVC * * * 12.5 02 ** ** ** ** ** ** ** 6   60   52 ****** ***** ****** *** *** ***** *****  0.27 ***** **
956240 ***** 201504080700 050   2 *** *** OVC * * * 12.5 02 ** ** ** ** ** ** ** 6   65   59 ****** ***** ****** *** *** ***** ***** ***** ***** **
956240 ***** 201504090100 050   2 *** *** OVC * * * 12.5 02 ** ** ** ** ** ** ** 2   66   63 ****** ***** ****** *** *** ***** *****  0.04 ***** **
956240 ***** 201504090700 050   2 *** *** OVC * * * 12.5 02 ** ** ** ** ** ** ** 6   70   66 ****** ***** ****** *** *** ***** ***** ***** ***** **
956240 ***** 201504100100 310   7 *** 722 SCT * * * 12.5 02 ** ** ** ** ** ** ** 1   73   57 ****** ***** ****** *** *** ***** *****  0.23 ***** **
956240 ***** 201504100700 310   6 *** 722 SCT * * * 12.5 02 ** ** ** ** ** ** ** 2   79   64 ****** ***** ****** *** *** ***** ***** ***** ***** **
956240 ***** 201504110100 310   1 *** *** BKN * * * 12.5 03 ** ** ** ** ** ** ** 1   63   58 ****** ***** ****** *** *** ***** ***** ***** ***** **
956240 ***** 201504110700 250   3 *** *** BKN * * * 12.5 02 ** ** ** ** ** ** ** 2   73   53 ****** ***** ****** *** *** ***** ***** ***** ***** **
956240 ***** 201504120100 270   2 *** *** OVC * * * 12.5 02 ** ** ** ** ** ** ** 2   61   55 ****** ***** ****** *** *** ***** ***** ***** ***** **
956240 ***** 201504120700 270   3 *** *** BKN * * * 12.5 02 ** ** ** ** ** ** ** 2   70   54 ****** ***** ****** *** *** ***** ***** ***** ***** **
956240 ***** 201504130100 230   1 *** *** OVC * * * 12.5 02 ** ** ** ** ** ** ** 2   61   54 ****** ***** ****** *** *** ***** ***** ***** ***** **
956240 ***** 201504130700 270   1 *** *** OVC * * * 12.5 02 ** ** ** ** ** ** ** 2   67   55 ****** ***** ****** *** *** ***** ***** ***** ***** **
956240 ***** 201504140100 230   1 *** *** OVC * * * 12.5 02 ** ** ** ** ** ** ** 1   58   56 ****** ***** ****** *** *** ***** ***** ***** ***** **
956240 ***** 201504140700 230   2 *** *** BKN * * * 12.5 01 ** ** ** ** ** ** ** 2   70   48 ****** ***** ****** *** *** ***** ***** ***** ***** **
956240 ***** 201504150100 130   8 *** *** BKN * * * 12.5 02 ** ** ** ** ** ** ** 2   59   51 ****** ***** ****** *** *** ***** ***** ***** ***** **
956240 ***** 201504150700 130   3 *** 722 SCT * * * 12.5 01 ** ** ** ** ** ** ** 1   72   50 ****** ***** ****** *** *** ***** ***** ***** ***** **
956240 ***** 201504160100 110   6 *** 722 SCT * * * 12.5 03 ** ** ** ** ** ** ** 0   58   46 ****** ***** ****** *** *** ***** ***** ***** ***** **
956240 ***** 201504160700 130   2 *** 722 CLR * * * 12.5 02 ** ** ** ** ** ** ** 0   70   42 ****** ***** ****** *** *** ***** ***** ***** ***** **
956240 ***** 201504170100 050   2 *** 722 CLR * * * 12.5 02 ** ** ** ** ** ** ** 0   61   46 ****** ***** ****** *** *** ***** ***** ***** ***** **
956240 ***** 201504170700 110   2 *** 722 CLR * * * 12.5 02 ** ** ** ** ** ** ** 0   74   46 ****** ***** ****** *** *** ***** ***** ***** ***** **
956240 ***** 201504180100 090   6 *** 722 CLR * * * 12.5 02 ** ** ** ** ** ** ** 0   62   51 ****** ***** ****** *** *** ***** ***** ***** ***** **
956240 ***** 201504180700 070   2 *** 722 CLR * * * 12.5 02 ** ** ** ** ** ** ** 0   75   40 ****** ***** ****** *** *** ***** ***** ***** ***** **
956240 ***** 201504190100 090   8 *** 722 SCT * * * 12.5 03 ** ** ** ** ** ** ** 0   63   53 ****** ***** ****** *** *** ***** ***** ***** ***** **
956240 ***** 201504190700 090   6 *** 722 CLR * * * 12.5 02 ** ** ** ** ** ** ** 0   75   48 ****** ***** ****** *** *** ***** ***** ***** ***** **
956240 ***** 201504200100 050   8 *** 722 CLR * * * 12.5 02 ** ** ** ** ** ** ** 0   62   47 ****** ***** ****** *** *** ***** ***** ***** ***** **
956240 ***** 201504200700 070   3 *** 722 SCT * * * 12.5 03 ** ** ** ** ** ** ** 0   76   41 ****** ***** ****** *** *** ***** ***** ***** ***** **
956240 ***** 201504210100 050   6 *** 722 SCT * * * 12.5 03 ** ** ** ** ** ** ** 0   63   38 ****** ***** ****** *** *** ***** ***** ***** ***** **
956240 ***** 201504210700 090   1 *** 722 SCT * * * 12.5 02 ** ** ** ** ** ** ** 0   77   39 ****** ***** ****** *** *** ***** ***** ***** ***** **
956240 ***** 201504220100 050   2 *** 722 CLR * * * 12.5 02 ** ** ** ** ** ** ** 0   66   38 ****** ***** ****** *** *** ***** ***** ***** ***** **
956240 ***** 201504220700 050   2 *** 722 CLR * * * 12.5 02 ** ** ** ** ** ** ** 0   77   41 ****** ***** ****** *** *** ***** ***** ***** ***** **
956240 ***** 201504230100 130   3 *** *** *** * * * 12.5 02 ** ** ** ** ** ** ** 0   61   49 ****** ***** ****** *** *** ***** *****  0.00 ***** **
956240 ***** 201504230700 130   3 *** 722 SCT * * * 12.5 03 ** ** ** ** ** ** ** 0   76   49 ****** ***** ****** *** *** ***** ***** ***** ***** **
956240 ***** 201504240100 090   6 *** 722 SCT * * * 12.5 03 ** ** ** ** ** ** ** 0   55   38 ****** ***** ****** *** *** ***** ***** ***** ***** **
956240 ***** 201504240700 090   6 *** 722 SCT * * * 12.5 02 ** ** ** ** ** ** ** 0   66   38 ****** ***** ****** *** *** ***** ***** ***** ***** **
956240 ***** 201504250100 050   2 *** 722 SCT * * * 12.5 02 ** ** ** ** ** ** ** 0   59   45 ****** ***** ****** *** *** ***** ***** ***** ***** **
956240 ***** 201504250700 050   3 *** 722 CLR * * * 12.5 02 ** ** ** ** ** ** ** 0   68   38 ****** ***** ****** *** *** ***** ***** ***** ***** **
956240 ***** 201504260100 050   5 *** 722 CLR * * * 12.5 02 ** ** ** ** ** ** ** 0   61   42 ****** ***** ****** *** *** ***** ***** ***** ***** **
956240 ***** 201504260700 070   5 *** 722 CLR * * * 12.5 02 ** ** ** ** ** ** ** 0   70   44 ****** ***** ****** *** *** ***** ***** ***** ***** **
956240 ***** 201504270100 050   6 *** 722 CLR * * * 12.5 02 ** ** ** ** ** ** ** 0   62   43 ****** ***** ****** *** *** ***** ***** ***** ***** **
956240 ***** 201504270700 070   6 *** 722 CLR * * * 12.5 02 ** ** ** ** ** ** ** 0   71   51 ****** ***** ****** *** *** ***** ***** ***** ***** **
956240 ***** 201504280100 050  10 *** 722 SCT * * * 12.5 03 ** ** ** ** ** ** ** 0   62   48 ****** ***** ****** *** *** ***** ***** ***** ***** **
956240 ***** 201504280700 050   2 *** *** BKN * * * 12.5 02 ** ** ** ** ** ** ** 2   70   54 ****** ***** ****** *** *** ***** ***** ***** ***** **
956240 ***** 201504290100 050   6 *** 722 SCT * * * 12.5 03 ** ** ** ** ** ** ** 0   63   50 ****** ***** ****** *** *** ***** ***** ***** ***** **
956240 ***** 201504290700 020   3 *** *** BKN * * * 12.5 02 ** ** ** ** ** ** ** 2   77   46 ****** ***** ****** *** *** ***** ***** ***** ***** **
956240 ***** 201504300100 020   6 *** 722 SCT * * * 12.5 03 ** ** ** ** ** ** ** 0   71   39 ****** ***** ****** *** *** ***** ***** ***** ***** **
956240 ***** 201504300700 310   6 *** *** BKN * * * 12.5 02 ** ** ** ** ** ** ** 2   86   33 ****** ***** ****** *** *** ***** ***** ***** ***** **
956240 ***** 201505010100 130   2 *** *** BKN * * * 12.5 02 ** ** ** ** ** ** ** 2   61   51 ****** ***** ****** *** *** ***** ***** ***** ***** **
956240 ***** 201505010700 130   2 *** 722 SCT * * * 12.5 01 ** ** ** ** ** ** ** 0   71   44 ****** ***** ****** *** *** ***** ***** ***** ***** **
956240 ***** 201505020100 090   3 *** *** OVC * * * 12.5 02 ** ** ** ** ** ** ** 2   58   46 ****** ***** ****** *** *** ***** ***** ***** ***** **
956240 ***** 201505020700 310   2 *** *** OVC * * * 12.5 02 ** ** ** ** ** ** ** 0   73   51 ****** ***** ****** *** *** ***** ***** ***** ***** **
956240 ***** 201505030100 250   2 *** *** OVC * * * 12.5 02 ** ** ** ** ** ** ** 2   60   49 ****** ***** ****** *** *** ***** ***** ***** ***** **
956240 ***** 201505030700 250   3 *** 722 SCT * * * 12.5 01 ** ** ** ** ** ** ** 0   71   42 ****** ***** ****** *** *** ***** ***** ***** ***** **
956240 ***** 201505040100 180   6 *** 722 CLR * * * 12.5 02 ** ** ** ** ** ** ** 0   51   43 ****** ***** ****** *** *** ***** *****  0.04 ***** **
956240 ***** 201505040700 200   6 *** 722 SCT * * * 12.5 03 ** ** ** ** ** ** ** 0   60   31 ****** ***** ****** *** *** ***** ***** ***** ***** **
956240 ***** 201505050100 180   1 *** 722 CLR * * * 12.5 02 ** ** ** ** ** ** ** 0   51   43 ****** ***** ****** *** *** ***** ***** ***** ***** **
956240 ***** 201505050700 180   1 *** 722 CLR * * * 12.5 02 ** ** ** ** ** ** ** 0   66   43 ****** ***** ****** *** *** ***** ***** ***** ***** **
956240 ***** 201505060100 090   3 *** 722 CLR * * * 12.5 02 ** ** ** ** ** ** ** 0   56   47 ****** ***** ****** *** *** ***** ***** ***** ***** **
956240 ***** 201505060700 090   3 *** 722 SCT * * * 12.5 03 ** ** ** ** ** ** ** 0   68   40 ****** ***** ****** *** *** ***** ***** ***** ***** **
956240 ***** 201505070100 090   3 *** 722 CLR * * * 12.5 02 ** ** ** ** ** ** ** 0   57   48 ****** ***** ****** *** *** ***** ***** ***** ***** **
956240 ***** 201505070700 110   1 *** 722 SCT * * * 12.5 03 ** ** ** ** ** ** ** 0   70   41 ****** ***** ****** *** *** ***** ***** ***** ***** **
956240 ***** 201505080100 050   3 *** 722 SCT * * * 12.5 01 ** ** ** ** ** ** ** 0   60   43 ****** ***** ****** *** *** ***** ***** ***** ***** **
956240 ***** 201505080700 200   1 *** 722 SCT * * * 12.5 02 ** ** ** ** ** ** ** 0   72   42 ****** ***** ****** *** *** ***** ***** ***** ***** **
956240 ***** 201505090100 130   1 *** 722 CLR * * * 12.5 02 ** ** ** ** ** ** ** 0   58   48 ****** ***** ****** *** *** ***** ***** ***** ***** **
956240 ***** 201505090700 230   1 *** 722 CLR * * * 12.5 02 ** ** ** ** ** ** ** 0   71   46 ****** ***** ****** *** *** ***** ***** ***** ***** **
956240 ***** 201505100100 070   6 *** 722 CLR * * * 12.5 02 ** ** ** ** ** ** ** 0   60   49 ****** ***** ****** *** *** ***** ***** ***** ***** **
956240 ***** 201505100700 090   2 *** 722 CLR * * * 12.5 02 ** ** ** ** ** ** ** 0   72   46 ****** ***** ****** *** *** ***** ***** ***** ***** **
956240 ***** 201505110100 070   6 *** *** BKN * * * 12.5 01 ** ** ** ** ** ** ** 2   57   52 ****** ***** ****** *** *** ***** ***** ***** ***** **
956240 ***** 201505110700 130   2 *** 722 SCT * * * 12.5 02 ** ** ** ** ** ** ** 0   72   52 ****** ***** ****** *** *** ***** ***** ***** ***** **
956240 ***** 201505120100 070   8 *** 722 SCT * * * 12.5 03 ** ** ** ** ** ** ** 0   59   48 ****** ***** ****** *** *** ***** ***** ***** ***** **
956240 ***** 201505120700 090   2 *** 722 SCT * * * 12.5 02 ** ** ** ** ** ** ** 0   67   48 ****** ***** ****** *** *** ***** ***** ***** ***** **
956240 ***** 201505130100 090  13 *** 722 SCT * * * 12.5 03 ** ** ** ** ** ** ** 0   58   47 ****** ***** ****** *** *** ***** ***** ***** ***** **
956240 ***** 201505130700 090   6 *** 722 CLR * * * 12.5 02 ** ** ** ** ** ** ** 0   66   44 ****** ***** ****** *** *** ***** ***** ***** ***** **
956240 ***** 201505140100 070  10 *** 722 CLR * * * 12.5 00 ** ** ** ** ** ** ** 0   57   36 ****** ***** ****** *** *** ***** ***** ***** ***** **
956240 ***** 201505140700 050   6 *** 722 SCT * * * 12.5 03 ** ** ** ** ** ** ** 0   72   38 ****** ***** ****** *** *** ***** ***** ***** ***** **
956240 ***** 201505150100 050   8 *** 722 SCT * * * 12.5 03 ** ** ** ** ** ** ** 0   57   27 ****** ***** ****** *** *** ***** ***** ***** ***** **
956240 ***** 201505150700 050   6 *** *** BKN * * * 12.5 02 ** ** ** ** ** ** ** 2   73   61 ****** ***** ****** *** *** ***** ***** ***** ***** **
956240 ***** 201505160100 020   6 *** *** OVC * * * 12.5 02 ** ** ** ** ** ** ** 2   63   59 ****** ***** ****** *** *** ***** ***** ***** ***** **
956240 ***** 201505160700 310  11 *** *** OVC * * * 12.5 02 ** ** ** ** ** ** ** 2   64   63 ****** ***** ****** *** *** ***** ***** ***** ***** **
956240 ***** 201505170100 310   6 *** *** OVC * * *  6.2 60 ** ** ** ** ** ** ** 6   53   51 ****** ***** ****** *** *** ***** *****  0.35 ***** **
956240 ***** 201505170700 310  14 *** *** OVC * * * 12.5 02 ** ** ** ** ** ** ** 2   63   53 ****** ***** ****** *** *** ***** ***** ***** ***** **
956240 ***** 201505180100 250   3 *** *** OVC * * * 12.5 02 ** ** ** ** ** ** ** 2   57   54 ****** ***** ****** *** *** ***** *****  0.08 ***** **
956240 ***** 201505180700 230   3 *** *** BKN * * * 12.5 01 ** ** ** ** ** ** ** 2   64   53 ****** ***** ****** *** *** ***** ***** ***** ***** **
956240 ***** 201505190100 130   2 *** 722 SCT * * * 12.5 01 ** ** ** ** ** ** ** 0   54   49 ****** ***** ****** *** *** ***** ***** ***** ***** **
956240 ***** 201505190700 130   2 *** 722 SCT * * * 12.5 02 ** ** ** ** ** ** ** 0   62   48 ****** ***** ****** *** *** ***** ***** ***** ***** **
956240 ***** 201505200100 090   6 *** 722 CLR * * * 12.5 02 ** ** ** ** ** ** ** 0   50   42 ****** ***** ****** *** *** ***** ***** ***** ***** **
956240 ***** 201505200700 090   6 *** 722 SCT * * * 12.5 03 ** ** ** ** ** ** ** 0   60   55 ****** ***** ****** *** *** ***** ***** ***** ***** **
956240 ***** 201505210100 070   8 *** 722 CLR * * * 12.5 02 ** ** ** ** ** ** ** 0   52   38 ****** ***** ****** *** *** ***** ***** ***** ***** **
956240 ***** 201505210700 090   8 *** 722 SCT * * * 12.5 03 ** ** ** ** ** ** ** 0   64   41 ****** ***** ****** *** *** ***** ***** ***** ***** **
956240 ***** 201505220100 090   6 *** *** BKN * * * 12.5 02 ** ** ** ** ** ** ** 6   56   48 ****** ***** ****** *** *** ***** *****  0.08 ***** **
956240 ***** 201505230100 360   1 *** 722 CLR * * * 12.5 02 ** ** ** ** ** ** ** 0   59   50 ****** ***** ****** *** *** ***** ***** ***** ***** **
956240 ***** 201505230700 200   1 *** 722 SCT * * * 12.5 02 ** ** ** ** ** ** ** 0   69   45 ****** ***** ****** *** *** ***** ***** ***** ***** **
956240 ***** 201505240100 360   0 *** 722 CLR * * * 12.5 02 ** ** ** ** ** ** ** 0   57   50 ****** ***** ****** *** *** ***** ***** ***** ***** **
956240 ***** 201505240700 360   0 *** 722 CLR * * * 12.5 02 ** ** ** ** ** ** ** 0   68   48 ****** ***** ****** *** *** ***** ***** ***** ***** **
956240 ***** 201505250100 130   1 *** 722 SCT * * * 12.5 02 ** ** ** ** ** ** ** 0   55   48 ****** ***** ****** *** *** ***** ***** ***** ***** **
956240 ***** 201505250700 200   1 *** 722 SCT * * * 12.5 02 ** ** ** ** ** ** ** 0   71   48 ****** ***** ****** *** *** ***** ***** ***** ***** **
956240 ***** 201505260100 180   1 *** 722 SCT * * * 12.5 03 ** ** ** ** ** ** ** 0   54   46 ****** ***** ****** *** *** ***** ***** ***** ***** **
956240 ***** 201505260700 230   1 *** 722 SCT * * * 12.5 02 ** ** ** ** ** ** ** 0   68   42 ****** ***** ****** *** *** ***** ***** ***** ***** **
956240 ***** 201505270100 180   1 *** 722 SCT * * * 12.5 03 ** ** ** ** ** ** ** 0   53   49 ****** ***** ****** *** *** ***** ***** ***** ***** **
956240 ***** 201505270700 180   1 *** 722 SCT * * * 12.5 02 ** ** ** ** ** ** ** 0   64   46 ****** ***** ****** *** *** ***** ***** ***** ***** **
956240 ***** 201505280100 130   2 *** 722 SCT * * * 12.5 03 ** ** ** ** ** ** ** 0   52   43 ****** ***** ****** *** *** ***** ***** ***** ***** **
956240 ***** 201505280700 130   1 *** 722 SCT * * * 12.5 02 ** ** ** ** ** ** ** 0   64   44 ****** ***** ****** *** *** ***** ***** ***** ***** **
956240 ***** 201505290100 110   3 *** 722 SCT * * * 12.5 02 ** ** ** ** ** ** ** 0   52   46 ****** ***** ****** *** *** ***** ***** ***** ***** **
956240 ***** 201505290700 110   1 *** 722 SCT * * * 12.5 02 ** ** ** ** ** ** ** 0   69   49 ****** ***** ****** *** *** ***** ***** ***** ***** **
956240 ***** 201505300100 050   2 *** 722 SCT * * * 12.5 02 ** ** ** ** ** ** ** 0   58   46 ****** ***** ****** *** *** ***** ***** ***** ***** **
956240 ***** 201505300700 230   1 *** 722 SCT * * * 12.5 02 ** ** ** ** ** ** ** 0   64   47 ****** ***** ****** *** *** ***** ***** ***** ***** **
956240 ***** 201505310100 020   2 *** 722 CLR * * * 12.5 02 ** ** ** ** ** ** ** 0   58   39 ****** ***** ****** *** *** ***** ***** ***** ***** **
956240 ***** 201505310700 310   1 *** 722 CLR * * * 12.5 02 ** ** ** ** ** ** ** 0   70   41 ****** ***** ****** *** *** ***** ***** ***** ***** **
956240 ***** 201506010100 050   5 *** *** BKN * * * 12.5 02 ** ** ** ** ** ** ** 1   55   38 ****** ***** ****** *** *** ***** ***** ***** ***** **
956240 ***** 201506010700 050   5 *** *** BKN * * * 12.5 02 ** ** ** ** ** ** ** 2   65   39 ****** ***** ****** *** *** ***** ***** ***** ***** **
956240 ***** 201506020100 310   2 *** 722 SCT * * * 12.5 01 ** ** ** ** ** ** ** 1   58   46 ****** ***** ****** *** *** ***** ***** ***** ***** **
956240 ***** 201506020700 250   6 *** 722 SCT * * * 12.5 02 ** ** ** ** ** ** ** 0   67   44 ****** ***** ****** *** *** ***** ***** ***** ***** **
956240 ***** 201506030100 290   6 *** 722 SCT * * * 12.5 01 ** ** ** ** ** ** ** 0   60   55 ****** ***** ****** *** *** ***** ***** ***** ***** **
956240 ***** 201506030700 230   6 *** *** BKN * * * 12.5 02 ** ** ** ** ** ** ** 2   71   52 ****** ***** ****** *** *** ***** ***** ***** ***** **
956240 ***** 201506040100 360   2 *** 722 CLR * * * 12.5 02 ** ** ** ** ** ** ** 0   58   53 ****** ***** ****** *** *** ***** ***** ***** ***** **
956240 ***** 201506040700 290   2 *** 722 CLR * * * 12.5 02 ** ** ** ** ** ** ** 0   73   53 ****** ***** ****** *** *** ***** ***** ***** ***** **
956240 ***** 201506050100 340   3 *** 722 SCT * * * 12.5 03 ** ** ** ** ** ** ** 0   63   44 ****** ***** ****** *** *** ***** ***** ***** ***** **
956240 ***** 201506050700 310   3 *** 722 SCT * * * 12.5 02 ** ** ** ** ** ** ** 0   79   40 ****** ***** ****** *** *** ***** ***** ***** ***** **
956240 ***** 201506060100 230   1 *** *** OVC * * * 12.5 02 ** ** ** ** ** ** ** 2   52   47 ****** ***** ****** *** *** ***** ***** ***** ***** **
956240 ***** 201506060700 310   1 *** 722 SCT * * * 12.5 02 ** ** ** ** ** ** ** 0   71   51 ****** ***** ****** *** *** ***** ***** ***** ***** **
956240 ***** 201506070100 230   1 *** 722 CLR * * * 12.5 02 ** ** ** ** ** ** ** 0   51   46 ****** ***** ****** *** *** ***** ***** ***** ***** **
956240 ***** 201506070700 360   0 *** 722 CLR * * * 12.5 02 ** ** ** ** ** ** ** 0   64   47 ****** ***** ****** *** *** ***** ***** ***** ***** **
956240 ***** 201506080100 200   1 *** 722 SCT * * * 12.5 03 ** ** ** ** ** ** ** 0   54   46 ****** ***** ****** *** *** ***** ***** ***** ***** **
956240 ***** 201506080700 070   2 *** 722 SCT * * * 12.5 02 ** ** ** ** ** ** ** 0   67   44 ****** ***** ****** *** *** ***** ***** ***** ***** **
956240 ***** 201506090100 090   6 *** 722 SCT * * * 12.5 03 ** ** ** ** ** ** ** 0   53   49 ****** ***** ****** *** *** ***** ***** ***** ***** **
956240 ***** 201506090700 050   3 *** *** BKN * * * 12.5 02 ** ** ** ** ** ** ** 2   66   47 ****** ***** ****** *** *** ***** ***** ***** ***** **
956240 ***** 201506100100 050   3 *** 722 CLR * * * 12.5 02 ** ** ** ** ** ** ** 0   55   46 ****** ***** ****** *** *** ***** ***** ***** ***** **
956240 ***** 201506100700 050   2 *** 722 CLR * * * 12.5 02 ** ** ** ** ** ** ** 0   68   50 ****** ***** ****** *** *** ***** ***** ***** ***** **
956240 ***** 201506110100 050   8 *** 722 CLR * * * 12.5 02 ** ** ** ** ** ** ** 0   55   47 ****** ***** ****** *** *** ***** ***** ***** ***** **
956240 ***** 201506110700 020   2 *** 722 CLR * * * 12.5 02 ** ** ** ** ** ** ** 0   73   48 ****** ***** ****** *** *** ***** ***** ***** ***** **
956240 ***** 201506120100 200   1 *** *** OVC * * * 12.5 02 ** ** ** ** ** ** ** 2   59   42 ****** ***** ****** *** *** ***** ***** ***** ***** **
956240 ***** 201506120700 230   1 *** *** BKN * * * 12.5 01 ** ** ** ** ** ** ** 2   72   44 ****** ***** ****** *** *** ***** ***** ***** ***** **
956240 ***** 201506130100 130   1 *** *** OVC * * * 12.5 02 ** ** ** ** ** ** ** 2   54   51 ****** ***** ****** *** *** ***** ***** ***** ***** **
956240 ***** 201506130700 230   2 *** *** BKN * * * 12.5 03 ** ** ** ** ** ** ** 1   64   50 ****** ***** ****** *** *** ***** ***** ***** ***** **
956240 ***** 201506140100 110   2 *** 722 SCT * * * 12.5 03 ** ** ** ** ** ** ** 0   53   46 ****** ***** ****** *** *** ***** ***** ***** ***** **
956240 ***** 201506150100 110   2 *** 722 CLR * * * 12.5 02 ** ** ** ** ** ** ** 0   51   47 ****** ***** ****** *** *** ***** ***** ***** ***** **
956240 ***** 201506150700 090   3 *** 722 SCT * * * 12.5 03 ** ** ** ** ** ** ** 0   64   41 ****** ***** ****** *** *** ***** ***** ***** ***** **
956240 ***** 201506160100 070   6 *** 722 SCT * * * 12.5 03 ** ** ** ** ** ** ** 0   53   41 ****** ***** ****** *** *** ***** ***** ***** ***** **
956240 ***** 201506160700 050   6 *** *** BKN * * * 12.5 02 ** ** ** ** ** ** ** 1   66   37 ****** ***** ****** *** *** ***** ***** ***** ***** **
956240 ***** 201506170100 050   6 *** *** OVC * * * 12.5 02 ** ** ** ** ** ** ** 2   55   46 ****** ***** ****** *** *** ***** ***** ***** ***** **
956240 ***** 201506170700 050   7 *** *** OVC * * * 12.5 02 ** ** ** ** ** ** ** 2   57   51 ****** ***** ****** *** *** ***** ***** ***** ***** **
956240 ***** 201506180100 090  13 *** *** OVC * * * 12.5 02 ** ** ** ** ** ** ** 2   55   47 ****** ***** ****** *** *** ***** *****  0.04 ***** **
956240 ***** 201506180700 020   2 *** *** OVC * * * 12.5 02 ** ** ** ** ** ** ** 2   67   52 ****** ***** ****** *** *** ***** ***** ***** ***** **
956240 ***** 201506190100 020   2 *** *** OVC * * * 12.5 02 ** ** ** ** ** ** ** 6   58   54 ****** ***** ****** *** *** ***** *****  0.12 ***** **
956240 ***** 201506190700 310   1 *** *** OVC * * * 12.5 02 ** ** ** ** ** ** ** 8   64   62 ****** ***** ****** *** *** *****  0.08 ***** ***** **
956240 ***** 201506200100 310   3 *** *** OVC * * * 12.5 02 ** ** ** ** ** ** ** 2   61   58 ****** ***** ****** *** *** ***** *****  0.47 ***** **
956240 ***** 201506200700 230   7 *** *** OVC * * * 12.5 03 ** ** ** ** ** ** ** 8   65   59 ****** ***** ****** *** *** *****  0.08 ***** ***** **
956240 ***** 201506210100 310   2 *** *** OVC * * * 12.5 02 ** ** ** ** ** ** ** 6   56   55 ****** ***** ****** *** *** ***** *****  0.79 ***** **
956240 ***** 201506210700 270   3 *** *** OVC * * *  6.2 60 ** ** ** ** ** ** ** 6   53   51 ****** ***** ****** *** *** *****  0.28 ***** ***** **
956240 ***** 201506220100 250   3 *** *** BKN * * * 12.5 01 ** ** ** ** ** ** ** 2   49   44 ****** ***** ****** *** *** ***** *****  0.31 ***** **
956240 ***** 201506220700 230   2 *** *** BKN * * * 12.5 02 ** ** ** ** ** ** ** 2   55   45 ****** ***** ****** *** *** *****  0.01 ***** ***** **
956240 ***** 201506230100 090   2 *** *** OVC * * * 12.5 02 ** ** ** ** ** ** ** 1   45   44 ****** ***** ****** *** *** ***** *****  0.01 ***** **
956240 ***** 201506230700 050   2 *** *** BKN * * * 12.5 01 ** ** ** ** ** ** ** 2   55   46 ****** ***** ****** *** *** ***** ***** ***** ***** **
956240 ***** 201506240100 090   2 *** 722 CLR * * * 12.5 02 ** ** ** ** ** ** ** 0   50   44 ****** ***** ****** *** *** ***** ***** ***** ***** **
956240 ***** 201506240700 340   2 *** 722 CLR * * * 12.5 02 ** ** ** ** ** ** ** 0   62   46 ****** ***** ****** *** *** ***** ***** ***** ***** **
956240 ***** 201506250100 050   6 *** 722 CLR * * * 12.5 02 ** ** ** ** ** ** ** 0   50   43 ****** ***** ****** *** *** ***** ***** ***** ***** **
956240 ***** 201506250700 340   2 *** 722 CLR * * * 12.5 02 ** ** ** ** ** ** ** 0   62   50 ****** ***** ****** *** *** ***** ***** ***** ***** **
956240 ***** 201506260100 310   1 *** 722 CLR * * * 12.5 02 ** ** ** ** ** ** ** 0   50   46 ****** ***** ****** *** *** ***** ***** ***** ***** **
956240 ***** 201506260700 180   2 *** 722 SCT * * * 12.5 03 ** ** ** ** ** ** ** 0   64   52 ****** ***** ****** *** *** ***** ***** ***** ***** **
956240 ***** 201506270100 090   2 *** 722 CLR * * * 12.5 02 ** ** ** ** ** ** ** 0   53   48 ****** ***** ****** *** *** ***** ***** ***** ***** **
956240 ***** 201506270700 090   2 *** 722 SCT * * * 12.5 03 ** ** ** ** ** ** ** 0   64   52 ****** ***** ****** *** *** ***** ***** ***** ***** **
956240 ***** 201506280100 050   8 *** 722 CLR * * * 12.5 02 ** ** ** ** ** ** ** 0   51   46 ****** ***** ****** *** *** ***** ***** ***** ***** **
956240 ***** 201506280700 130   2 *** 722 CLR * * * 12.5 02 ** ** ** ** ** ** ** 0   61   47 ****** ***** ****** *** *** ***** ***** ***** ***** **
956240 ***** 201506290100 050   8 *** 722 CLR * * * 12.5 02 ** ** ** ** ** ** ** 0   53   44 ****** ***** ****** *** *** ***** ***** ***** ***** **
956240 ***** 201506290700 050   2 *** 722 SCT * * * 12.5 03 ** ** ** ** ** ** ** 0   68   45 ****** ***** ****** *** *** ***** ***** ***** ***** **
956240 ***** 201506300100 070   3 *** *** BKN * * * 12.5 02 ** ** ** ** ** ** ** 2   56   31 ****** ***** ****** *** *** ***** ***** ***** ***** **
956240 ***** 201506300700 310   1 *** *** BKN * * * 12.5 02 ** ** ** ** ** ** ** 2   68   36 ****** ***** ****** *** *** ***** ***** ***** ***** **
956240 ***** 201507010100 050   2 *** *** OVC * * * 12.5 02 ** ** ** ** ** ** ** 2   58   37 ****** ***** ****** *** *** ***** ***** ***** ***** **
956240 ***** 201507010700 050   2 *** *** BKN * * * 12.5 02 ** ** ** ** ** ** ** 2   66   41 ****** ***** ****** *** *** ***** ***** ***** ***** **
956240 ***** 201507020100 130   1 *** *** OVC * * * 12.5 02 ** ** ** ** ** ** ** 6   55   49 ****** ***** ****** *** *** ***** *****  0.08 ***** **
956240 ***** 201507020700 090   1 *** *** OVC * * * 12.5 02 ** ** ** ** ** ** ** 6   58   53 ****** ***** ****** *** *** *****  0.03 ***** ***** **
956240 ***** 201507030100 050   1 *** *** BKN * * * 12.5 02 ** ** ** ** ** ** ** 6   57   52 ****** ***** ****** *** *** ***** *****  0.12 ***** **
956240 ***** 201507030700 270   1 *** *** BKN * * * 12.5 02 ** ** ** ** ** ** ** 5   64   57 ****** ***** ****** *** *** *****  0.01 ***** ***** **
956240 ***** 201507040100 290   1 *** 722 CLR * * *  0.1 44 ** ** ** ** ** ** ** 4   53   52 ****** ***** ****** *** *** ***** *****  0.02 ***** **
956240 ***** 201507040700 310   2 *** *** BKN * * * 12.5 02 ** ** ** ** ** ** ** 2   63   55 ****** ***** ****** *** *** ***** ***** ***** ***** **
956240 ***** 201507050100 270   1 *** *** OVC * * * 12.5 02 ** ** ** ** ** ** ** 2   54   53 ****** ***** ****** *** *** ***** ***** ***** ***** **
956240 ***** 201507050700 310   1 *** 722 SCT * * * 12.5 02 ** ** ** ** ** ** ** 1   66   47 ****** ***** ****** *** *** ***** ***** ***** ***** **
956240 ***** 201507060100 360   1 *** 722 SCT * * * 12.5 01 ** ** ** ** ** ** ** 0   56   51 ****** ***** ****** *** *** ***** *****  0.02 ***** **
956240 ***** 201507060700 360   1 *** 722 SCT * * * 12.5 02 ** ** ** ** ** ** ** 0   63   50 ****** ***** ****** *** *** ***** ***** ***** ***** **
956240 ***** 201507070100 310   1 *** *** OVC * * * 12.5 02 ** ** ** ** ** ** ** 2   55   53 ****** ***** ****** *** *** ***** ***** ***** ***** **
956240 ***** 201507070700 290   2 *** 722 SCT * * * 12.5 01 ** ** ** ** ** ** ** 0   67   52 ****** ***** ****** *** *** ***** ***** ***** ***** **
956240 ***** 201507080100 200   3 *** *** BKN * * * 12.5 01 ** ** ** ** ** ** ** 2   50   44 ****** ***** ****** *** *** ***** *****  0.12 ***** **
956240 ***** 201507080700 180   3 *** *** BKN * * * 12.5 02 ** ** ** ** ** ** ** 2   55   39 ****** ***** ****** *** *** ***** ***** ***** ***** **
956240 ***** 201507090100 130   1 *** 722 CLR * * * 12.5 02 ** ** ** ** ** ** ** 0   46   38 ****** ***** ****** *** *** ***** ***** ***** ***** **
956240 ***** 201507090700 250   1 *** 722 CLR * * * 12.5 02 ** ** ** ** ** ** ** 0   55   36 ****** ***** ****** *** *** ***** ***** ***** ***** **
956240 ***** 201507100100 270   1 *** *** OVC * * * 12.5 02 ** ** ** ** ** ** ** 2   45   40 ****** ***** ****** *** *** ***** ***** ***** ***** **
956240 ***** 201507100700 200   2 *** *** BKN * * * 12.5 01 ** ** ** ** ** ** ** 2   57   46 ****** ***** ****** *** *** ***** ***** ***** ***** **
956240 ***** 201507110100 130   1 *** 722 CLR * * * 12.5 02 ** ** ** ** ** ** ** 0   46   41 ****** ***** ****** *** *** ***** ***** ***** ***** **
956240 ***** 201507110700 130   5 *** 722 SCT * * * 12.5 02 ** ** ** ** ** ** ** 0   57   38 ****** ***** ****** *** *** ***** ***** ***** ***** **
956240 ***** 201507120100 090   5 *** 722 CLR * * * 12.5 02 ** ** ** ** ** ** ** 0   49   39 ****** ***** ****** *** *** ***** ***** ***** ***** **
956240 ***** 201507120700 090   5 *** 722 SCT * * * 12.5 02 ** ** ** ** ** ** ** 0   57   38 ****** ***** ****** *** *** ***** ***** ***** ***** **
956240 ***** 201507130100 050   2 *** *** BKN * * * 12.5 02 ** ** ** ** ** ** ** 2   48   40 ****** ***** ****** *** *** ***** ***** ***** ***** **
956240 ***** 201507130700 090   2 *** *** BKN * * * 12.5 02 ** ** ** ** ** ** ** 2   58   41 ****** ***** ****** *** *** ***** ***** ***** ***** **
956240 ***** 201507140100 090   3 *** 722 SCT * * * 12.5 01 ** ** ** ** ** ** ** 0   48   45 ****** ***** ****** *** *** ***** ***** ***** ***** **
956240 ***** 201507140700 070   2 *** 722 SCT * * * 12.5 02 ** ** ** ** ** ** ** 0   61   42 ****** ***** ****** *** *** ***** ***** ***** ***** **
956240 ***** 201507150100 130   3 *** *** OVC * * * 12.5 02 ** ** ** ** ** ** ** 2   50   47 ****** ***** ****** *** *** ***** ***** ***** ***** **
956240 ***** 201507150700 130   3 *** *** BKN * * * 12.5 01 ** ** ** ** ** ** ** 2   55   43 ****** ***** ****** *** *** ***** ***** ***** ***** **
956240 ***** 201507160100 050   6 *** 722 CLR * * * 12.5 02 ** ** ** ** ** ** ** 0   49   38 ****** ***** ****** *** *** ***** ***** ***** ***** **
956240 ***** 201507160700 050   6 *** 722 CLR * * * 12.5 02 ** ** ** ** ** ** ** 0   59   35 ****** ***** ****** *** *** ***** ***** ***** ***** **
956240 ***** 201507170100 050   8 *** 722 CLR * * * 12.5 02 ** ** ** ** ** ** ** 0   49   39 ****** ***** ****** *** *** ***** ***** ***** ***** **
956240 ***** 201507170700 050   3 *** 722 SCT * * * 12.5 03 ** ** ** ** ** ** ** 0   66   38 ****** ***** ****** *** *** ***** ***** ***** ***** **
956240 ***** 201507180100 050   3 *** 722 SCT * * * 12.5 03 ** ** ** ** ** ** ** 0   55   35 ****** ***** ****** *** *** ***** ***** ***** ***** **
956240 ***** 201507180700 360   5 *** 722 SCT * * * 12.5 02 ** ** ** ** ** ** ** 0   70   35 ****** ***** ****** *** *** ***** ***** ***** ***** **
956240 ***** 201507190100 020   6 *** 722 SCT * * * 12.5 03 ** ** ** ** ** ** ** 0   56   29 ****** ***** ****** *** *** ***** ***** ***** ***** **
956240 ***** 201507200100 310   6 *** *** OVC * * * 12.5 02 ** ** ** ** ** ** ** 6   55   51 ****** ***** ****** *** *** ***** *****  0.08 ***** **
956240 ***** 201507200700 290   3 *** *** BKN * * * 12.5 02 ** ** ** ** ** ** ** 8   62   55 ****** ***** ****** *** *** *****  0.02 ***** ***** **
956240 ***** 201507210100 180   1 *** *** OVC * * * 12.5 02 ** ** ** ** ** ** ** 2   48   44 ****** ***** ****** *** *** ***** *****  0.12 ***** **
956240 ***** 201507210700 230   2 *** 722 SCT * * * 12.5 03 ** ** ** ** ** ** ** 0   58   38 ****** ***** ****** *** *** ***** ***** ***** ***** **
956240 ***** 201507220100 360   2 *** *** OVC * * * 12.5 02 ** ** ** ** ** ** ** 2   50   38 ****** ***** ****** *** *** ***** ***** ***** ***** **
956240 ***** 201507220700 340   2 *** 722 SCT * * * 12.5 02 ** ** ** ** ** ** ** 0   61   37 ****** ***** ****** *** *** ***** ***** ***** ***** **
956240 ***** 201507230100 230   2 *** *** OVC * * * 12.5 02 ** ** ** ** ** ** ** 2   52   47 ****** ***** ****** *** *** ***** ***** ***** ***** **
956240 ***** 201507230700 230   2 *** 722 SCT * * * 12.5 01 ** ** ** ** ** ** ** 0   59   38 ****** ***** ****** *** *** ***** ***** ***** ***** **
956240 ***** 201507240100 180   1 *** 722 CLR * * * 12.5 02 ** ** ** ** ** ** ** 0   43   38 ****** ***** ****** *** *** ***** ***** ***** ***** **
956240 ***** 201507240700 200   1 *** 722 CLR * * * 12.5 02 ** ** ** ** ** ** ** 0   60   39 ****** ***** ****** *** *** ***** ***** ***** ***** **
956240 ***** 201507250100 270   1 *** 722 CLR * * * 12.5 02 ** ** ** ** ** ** ** 0   51   44 ****** ***** ****** *** *** ***** ***** ***** ***** **
956240 ***** 201507250700 230   2 *** *** BKN * * * 12.5 02 ** ** ** ** ** ** ** 2   58   41 ****** ***** ****** *** *** ***** ***** ***** ***** **
956240 ***** 201507260100 090   1 *** 722 CLR * * * 12.5 02 ** ** ** ** ** ** ** 0   52   44 ****** ***** ****** *** *** ***** ***** ***** ***** **
956240 ***** 201507260700 130   2 *** 722 SCT * * * 12.5 02 ** ** ** ** ** ** ** 0   60   42 ****** ***** ****** *** *** ***** ***** ***** ***** **
956240 ***** 201507270100 050   3 *** *** BKN * * * 12.5 02 ** ** ** ** ** ** ** 2   51   39 ****** ***** ****** *** *** ***** ***** ***** ***** **
956240 ***** 201507270700 050   3 *** 722 SCT * * * 12.5 01 ** ** ** ** ** ** ** 0   63   38 ****** ***** ****** *** *** ***** ***** ***** ***** **
956240 ***** 201507280100 050   3 *** *** OVC * * * 12.5 02 ** ** ** ** ** ** ** 2   55   38 ****** ***** ****** *** *** ***** ***** ***** ***** **
956240 ***** 201507280700 050   2 *** *** OVC * * * 12.5 02 ** ** ** ** ** ** ** 6   52   50 ****** ***** ****** *** *** *****  0.55 ***** ***** **
956240 ***** 201507290100 230   1 *** *** *** * * *  0.3 43 ** ** ** ** ** ** ** 4   53   52 ****** ***** ****** *** *** ***** *****  0.59 ***** **
956240 ***** 201507290700 310   1 *** *** OVC * * * 12.5 02 ** ** ** ** ** ** ** 2   61   56 ****** ***** ****** *** *** ***** ***** ***** ***** **
956240 ***** 201507300100 360   1 *** *** OVC * * * 12.5 02 ** ** ** ** ** ** ** 6   61   57 ****** ***** ****** *** *** ***** *****  0.04 ***** **
956240 ***** 201507300700 360   1 *** *** OVC * * * 12.5 02 ** ** ** ** ** ** ** 2   63   60 ****** ***** ****** *** *** ***** ***** ***** ***** **
956240 ***** 201507310100 050   3 *** *** OVC * * * 12.5 02 ** ** ** ** ** ** ** 9   56   55 ****** ***** ****** *** *** ***** *****  1.30 ***** **
956240 ***** 201507310700 050   1 *** *** OVC * * *  6.2 61 ** ** ** ** ** ** ** 6   58   57 ****** ***** ****** *** *** *****  1.06 ***** ***** **
956240 ***** 201508010100 130   6 *** *** OVC * * * 12.5 02 ** ** ** ** ** ** ** 2   50   48 ****** ***** ****** *** *** ***** *****  1.46 ***** **
956240 ***** 201508010700 180   9 *** *** OVC * * * 12.5 02 ** ** ** ** ** ** ** 2   55   45 ****** ***** ****** *** *** ***** ***** ***** ***** **
956240 ***** 201508020100 110   3 *** *** OVC * * * 12.5 02 ** ** ** ** ** ** ** 2   48   38 ****** ***** ****** *** *** ***** ***** ***** ***** **
956240 ***** 201508020700 090   9 *** 722 SCT * * * 12.5 02 ** ** ** ** ** ** ** 0   55   40 ****** ***** ****** *** *** ***** ***** ***** ***** **
956240 ***** 201508030100 090   3 *** 722 CLR * * * 12.5 02 ** ** ** ** ** ** ** 0   50   42 ****** ***** ****** *** *** ***** ***** ***** ***** **
956240 ***** 201508030700 090   3 *** 722 SCT * * * 12.5 03 ** ** ** ** ** ** ** 0   59   42 ****** ***** ****** *** *** ***** ***** ***** ***** **
956240 ***** 201508040100 090   2 *** *** BKN * * * 12.5 02 ** ** ** ** ** ** ** 2   51   43 ****** ***** ****** *** *** ***** ***** ***** ***** **
956240 ***** 201508040700 130   2 *** *** BKN * * * 12.5 02 ** ** ** ** ** ** ** 2   60   41 ****** ***** ****** *** *** ***** ***** ***** ***** **
956240 ***** 201508050100 090   6 *** 722 SCT * * * 12.5 01 ** ** ** ** ** ** ** 2   49   44 ****** ***** ****** *** *** ***** ***** ***** ***** **
956240 ***** 201508050700 070   6 *** *** BKN * * * 12.5 02 ** ** ** ** ** ** ** 2   59   39 ****** ***** ****** *** *** ***** ***** ***** ***** **
956240 ***** 201508060100 050   6 *** *** BKN * * * 12.5 02 ** ** ** ** ** ** ** 2   51   38 ****** ***** ****** *** *** ***** ***** ***** ***** **
956240 ***** 201508060700 050   6 *** *** OVC * * * 12.5 02 ** ** ** ** ** ** ** 2   62   42 ****** ***** ****** *** *** ***** ***** ***** ***** **
956240 ***** 201508070100 050   6 *** *** OVC * * * 12.5 02 ** ** ** ** ** ** ** 2   56   39 ****** ***** ****** *** *** ***** *****  0.02 ***** **
956240 ***** 201508070700 340   3 *** *** BKN * * * 12.5 01 ** ** ** ** ** ** ** 5   64   47 ****** ***** ****** *** *** *****  0.02 ***** ***** **
956240 ***** 201508080100 310   3 *** *** BKN * * * 12.5 02 ** ** ** ** ** ** ** 2   52   51 ****** ***** ****** *** *** ***** *****  0.20 ***** **
956240 ***** 201508080700 230   3 *** *** OVC * * * 12.5 02 ** ** ** ** ** ** ** 8   54   49 ****** ***** ****** *** *** *****  0.16 ***** ***** **
956240 ***** 201508090100 200   2 *** 722 CLR * * * 12.5 02 ** ** ** ** ** ** ** 0   43   39 ****** ***** ****** *** *** ***** *****  0.20 ***** **
956240 ***** 201508090700 230   2 *** 722 SCT * * * 12.5 03 ** ** ** ** ** ** ** 0   52   35 ****** ***** ****** *** *** ***** ***** ***** ***** **
956240 ***** 201508100100 290   6 *** 722 CLR * * * 12.5 02 ** ** ** ** ** ** ** 0   49   42 ****** ***** ****** *** *** ***** ***** ***** ***** **
956240 ***** 201508100700 270   8 *** *** BKN * * * 12.5 02 ** ** ** ** ** ** ** 1   59   51 ****** ***** ****** *** *** ***** ***** ***** ***** **
956240 ***** 201508110100 230   1 *** *** BKN * * * 12.5 03 ** ** ** ** ** ** ** 1   49   44 ****** ***** ****** *** *** ***** ***** ***** ***** **
956240 ***** 201508110700 200   3 *** *** BKN * * * 12.5 02 ** ** ** ** ** ** ** 2   58   44 ****** ***** ****** *** *** ***** ***** ***** ***** **
956240 ***** 201508120100 180   1 *** 722 CLR * * * 12.5 02 ** ** ** ** ** ** ** 0   52   42 ****** ***** ****** *** *** ***** ***** ***** ***** **
956240 ***** 201508120700 230   2 *** *** OVC * * * 12.5 02 ** ** ** ** ** ** ** 2   58   48 ****** ***** ****** *** *** ***** ***** ***** ***** **
956240 ***** 201508130100 230   2 *** 722 SCT * * * 12.5 01 ** ** ** ** ** ** ** 1   53   46 ****** ***** ****** *** *** ***** ***** ***** ***** **
956240 ***** 201508130700 130   1 *** 722 SCT * * * 12.5 02 ** ** ** ** ** ** ** 0   61   45 ****** ***** ****** *** *** ***** ***** ***** ***** **
956240 ***** 201508140100 070   2 *** 722 CLR * * * 12.5 02 ** ** ** ** ** ** ** 0   54   46 ****** ***** ****** *** *** ***** ***** ***** ***** **
956240 ***** 201508140700 360   2 *** 722 CLR * * * 12.5 02 ** ** ** ** ** ** ** 0   71   44 ****** ***** ****** *** *** ***** ***** ***** ***** **
956240 ***** 201508150100 050   8 *** 722 CLR * * * 12.5 02 ** ** ** ** ** ** ** 0   60   43 ****** ***** ****** *** *** ***** ***** ***** ***** **
956240 ***** 201508150700 050   2 *** 722 CLR * * * 12.5 02 ** ** ** ** ** ** ** 0   76   39 ****** ***** ****** *** *** ***** ***** ***** ***** **
956240 ***** 201508160700 310   2 *** *** BKN * * * 12.5 02 ** ** ** ** ** ** ** 1   72   49 ****** ***** ****** *** *** ***** ***** ***** ***** **
956240 ***** 201508170100 050   2 *** *** OVC * * * 12.5 02 ** ** ** ** ** ** ** 6   59   55 ****** ***** ****** *** *** ***** *****  0.08 ***** **
956240 ***** 201508170700 360   1 *** *** OVC * * * 12.5 02 ** ** ** ** ** ** ** 2   66   55 ****** ***** ****** *** *** ***** ***** ***** ***** **
956240 ***** 201508180100 270   2 *** 722 SCT * * * 12.5 01 ** ** ** ** ** ** ** 1   59   55 ****** ***** ****** *** *** ***** *****  0.12 ***** **
956240 ***** 201508180700 290   3 *** 722 SCT * * * 12.5 02 ** ** ** ** ** ** ** 0   65   46 ****** ***** ****** *** *** ***** ***** ***** ***** **
956240 ***** 201508190100 310   2 *** *** OVC * * * 12.5 02 ** ** ** ** ** ** ** 5   56   54 ****** ***** ****** *** *** ***** *****  0.02 ***** **
956240 ***** 201508190700 310   2 *** *** BKN * * * 12.5 02 ** ** ** ** ** ** ** 6   62   53 ****** ***** ****** *** *** *****  0.04 ***** ***** **
956240 ***** 201508200100 250   3 *** *** BKN * * * 12.5 02 ** ** ** ** ** ** ** 2   54   50 ****** ***** ****** *** *** ***** *****  0.63 ***** **
956240 ***** 201508200700 250   6 *** 722 SCT * * * 12.5 01 ** ** ** ** ** ** ** 0   62   41 ****** ***** ****** *** *** ***** ***** ***** ***** **
956240 ***** 201508210100 360   2 *** *** BKN * * * 12.5 02 ** ** ** ** ** ** ** 2   53   48 ****** ***** ****** *** *** ***** ***** ***** ***** **
956240 ***** 201508210700 310   3 *** *** OVC * * * 12.5 02 ** ** ** ** ** ** ** 6   56   50 ****** ***** ****** *** *** *****  0.12 ***** ***** **
956240 ***** 201508220100 270   1 *** 722 SCT * * * 12.5 01 ** ** ** ** ** ** ** 4   47   46 ****** ***** ****** *** *** ***** *****  0.39 ***** **
956240 ***** 201508220700 230   7 *** *** OVC * * * 12.5 03 ** ** ** ** ** ** ** 2   56   45 ****** ***** ****** *** *** ***** ***** ***** ***** **
956240 ***** 201508230100 180   1 *** *** OVC * * * 12.5 02 ** ** ** ** ** ** ** 2   51   47 ****** ***** ****** *** *** ***** *****  0.02 ***** **
956240 ***** 201508230700 180   7 *** *** BKN * * * 12.5 02 ** ** ** ** ** ** ** 2   61   44 ****** ***** ****** *** *** ***** ***** ***** ***** **
956240 ***** 201508240100 110   6 *** 722 SCT * * * 12.5 01 ** ** ** ** ** ** ** 0   52   42 ****** ***** ****** *** *** ***** ***** ***** ***** **
956240 ***** 201508240700 130   3 *** *** BKN * * * 12.5 03 ** ** ** ** ** ** ** 1   59   40 ****** ***** ****** *** *** ***** ***** ***** ***** **
956240 ***** 201508250100 050   6 *** 722 SCT * * * 12.5 03 ** ** ** ** ** ** ** 1   50   43 ****** ***** ****** *** *** ***** ***** ***** ***** **
956240 ***** 201508250700 050   1 *** 722 SCT * * * 12.5 02 ** ** ** ** ** ** ** 2   58   38 ****** ***** ****** *** *** ***** ***** ***** ***** **
956240 ***** 201508260100 050   6 *** 722 SCT * * * 12.5 03 ** ** ** ** ** ** ** 0   53   40 ****** ***** ****** *** *** ***** ***** ***** ***** **
956240 ***** 201508260700 360   2 *** *** BKN * * * 12.5 02 ** ** ** ** ** ** ** 2   65   36 ****** ***** ****** *** *** ***** ***** ***** ***** **
956240 ***** 201508270100 050   6 *** 722 SCT * * * 12.5 03 ** ** ** ** ** ** ** 0   57   36 ****** ***** ****** *** *** ***** ***** ***** ***** **
956240 ***** 201508270700 050   6 *** *** BKN * * * 12.5 02 ** ** ** ** ** ** ** 2   70   36 ****** ***** ****** *** *** ***** ***** ***** ***** **
956240 ***** 201508280100 360   1 *** 722 SCT * * * 12.5 03 ** ** ** ** ** ** ** 0   59   50 ****** ***** ****** *** *** ***** ***** ***** ***** **
956240 ***** 201508280700 290   1 *** 722 CLR * * * 12.5 02 ** ** ** ** ** ** ** 0   70   48 ****** ***** ****** *** *** ***** ***** ***** ***** **
956240 ***** 201508290100 310   1 *** 722 SCT * * * 12.5 03 ** ** ** ** ** ** ** 0   58   51 ****** ***** ****** *** *** ***** ***** ***** ***** **
956240 ***** 201508290700 270   3 *** 722 SCT * * * 12.5 02 ** ** ** ** ** ** ** 0   72   48 ****** ***** ****** *** *** ***** ***** ***** ***** **
956240 ***** 201508300100 230   1 *** *** OVC * * * 12.5 02 ** ** ** ** ** ** ** 5   57   54 ****** ***** ****** *** *** ***** *****  0.03 ***** **
956240 ***** 201508300700 230   2 *** *** BKN * * * 12.5 02 ** ** ** ** ** ** ** 2   66   46 ****** ***** ****** *** *** ***** ***** ***** ***** **
956240 ***** 201508310100 270   3 *** 722 SCT * * * 12.5 03 ** ** ** ** ** ** ** 0   56   42 ****** ***** ****** *** *** ***** ***** ***** ***** **
956240 ***** 201508310700 270   6 *** *** OVC * * * 12.5 02 ** ** ** ** ** ** ** 2   61   43 ****** ***** ****** *** *** ***** ***** ***** ***** **
956240 ***** 201509010100 200   6 *** 722 SCT * * * 12.5 03 ** ** ** ** ** ** ** 0   46   38 ****** ***** ****** *** *** ***** *****  0.04 ***** **
956240 ***** 201509010700 230   3 *** *** BKN * * * 12.5 02 ** ** ** ** ** ** ** 2   54   33 ****** ***** ****** *** *** ***** ***** ***** ***** **
956240 ***** 201509020100 130   2 *** *** BKN * * * 12.5 02 ** ** ** ** ** ** ** 1   47   44 ****** ***** ****** *** *** ***** ***** ***** ***** **
956240 ***** 201509020700 110   2 *** *** OVC * * * 12.5 02 ** ** ** ** ** ** ** 2   53   38 ****** ***** ****** *** *** ***** ***** ***** ***** **
956240 ***** 201509030100 070   6 *** 722 CLR * * * 12.5 02 ** ** ** ** ** ** ** 0   52   39 ****** ***** ****** *** *** ***** ***** ***** ***** **
956240 ***** 201509030700 360   2 *** 722 SCT * * * 12.5 03 ** ** ** ** ** ** ** 0   67   37 ****** ***** ****** *** *** ***** ***** ***** ***** **
956240 ***** 201509040100 360   6 *** 722 CLR * * * 12.5 02 ** ** ** ** ** ** ** 0   62   36 ****** ***** ****** *** *** ***** ***** ***** ***** **
956240 ***** 201509040700 310   8 *** 722 SCT * * * 12.5 03 ** ** ** ** ** ** ** 0   71   34 ****** ***** ****** *** *** ***** ***** ***** ***** **
956240 ***** 201509050100 230   2 *** 722 SCT * * * 12.5 01 ** ** ** ** ** ** ** 0   60   51 ****** ***** ****** *** *** ***** ***** ***** ***** **
956240 ***** 201509050700 230   5 *** *** BKN * * * 12.5 02 ** ** ** ** ** ** ** 2   65   46 ****** ***** ****** *** *** ***** ***** ***** ***** **
956240 ***** 201509060100 090   5 *** 722 CLR * * * 12.5 02 ** ** ** ** ** ** ** 0   54   39 ****** ***** ****** *** *** ***** ***** ***** ***** **
956240 ***** 201509060700 200   1 *** 722 SCT * * * 12.5 02 ** ** ** ** ** ** ** 0   66   32 ****** ***** ****** *** *** ***** ***** ***** ***** **
956240 ***** 201509070100 050   3 *** 722 CLR * * * 12.5 02 ** ** ** ** ** ** ** 0   58   39 ****** ***** ****** *** *** ***** ***** ***** ***** **
956240 ***** 201509070700 090   2 *** 722 CLR * * * 12.5 02 ** ** ** ** ** ** ** 0   70   35 ****** ***** ****** *** *** ***** ***** ***** ***** **
956240 ***** 201509080100 050   8 *** 722 SCT * * * 12.5 03 ** ** ** ** ** ** ** 0   60   38 ****** ***** ****** *** *** ***** ***** ***** ***** **
956240 ***** 201509080700 050   6 *** 722 SCT * * * 12.5 02 ** ** ** ** ** ** ** 0   75   35 ****** ***** ****** *** *** ***** ***** ***** ***** **
956240 ***** 201509090100 050   8 *** 722 SCT * * * 12.5 03 ** ** ** ** ** ** ** 0   67   35 ****** ***** ****** *** *** ***** ***** ***** ***** **
956240 ***** 201509090700 340   3 *** 722 CLR * * * 12.5 02 ** ** ** ** ** ** ** 0   84   29 ****** ***** ****** *** *** ***** ***** ***** ***** **
956240 ***** 201509100100 310   3 *** 722 SCT * * * 12.5 03 ** ** ** ** ** ** ** 0   71   42 ****** ***** ****** *** *** ***** ***** ***** ***** **
956240 ***** 201509100700 290   8 *** *** OVC * * * 12.5 02 ** ** ** ** ** ** ** 2   75   50 ****** ***** ****** *** *** ***** ***** ***** ***** **
956240 ***** 201509110100 310   2 *** 722 CLR * * * 12.5 02 ** ** ** ** ** ** ** 0   60   48 ****** ***** ****** *** *** ***** ***** ***** ***** **
956240 ***** 201509110700 310   6 *** 722 SCT * * * 12.5 03 ** ** ** ** ** ** ** 0   71   42 ****** ***** ****** *** *** ***** ***** ***** ***** **
956240 ***** 201509120100 310   5 *** *** BKN * * * 12.5 03 ** ** ** ** ** ** ** 2   58   51 ****** ***** ****** *** *** ***** ***** ***** ***** **
956240 ***** 201509120700 310   3 *** *** OVC * * * 12.5 02 ** ** ** ** ** ** ** 6   54   50 ****** ***** ****** *** *** *****  0.24 ***** ***** **
956240 ***** 201509130100 200   2 *** 722 SCT * * * 12.5 03 ** ** ** ** ** ** ** 0   50   44 ****** ***** ****** *** *** ***** *****  0.24 ***** **
956240 ***** 201509130700 310   2 *** *** BKN * * * 12.5 02 ** ** ** ** ** ** ** 2   60   41 ****** ***** ****** *** *** ***** ***** ***** ***** **
956240 ***** 201509140100 230   1 *** *** OVC * * * 12.5 02 ** ** ** ** ** ** ** 1   51   46 ****** ***** ****** *** *** ***** ***** ***** ***** **
956240 ***** 201509140700 230   1 *** *** BKN * * * 12.5 01 ** ** ** ** ** ** ** 2   62   44 ****** ***** ****** *** *** ***** ***** ***** ***** **
956240 ***** 201509150100 180   1 *** *** BKN * * * 12.5 03 ** ** ** ** ** ** ** 1   50   36 ****** ***** ****** *** *** ***** ***** ***** ***** **
956240 ***** 201509150700 180   2 *** 722 CLR * * * 12.5 02 ** ** ** ** ** ** ** 0   62   36 ****** ***** ****** *** *** ***** ***** ***** ***** **
956240 ***** 201509160100 090   6 *** 722 CLR * * * 12.5 02 ** ** ** ** ** ** ** 0   53   36 ****** ***** ****** *** *** ***** ***** ***** ***** **
956240 ***** 201509160700 180   2 *** 722 CLR * * * 12.5 02 ** ** ** ** ** ** ** 0   68   37 ****** ***** ****** *** *** ***** ***** ***** ***** **
956240 ***** 201509170100 360   3 *** 722 CLR * * * 12.5 02 ** ** ** ** ** ** ** 0   60   35 ****** ***** ****** *** *** ***** ***** ***** ***** **
956240 ***** 201509170700 310   2 *** 722 CLR * * * 12.5 02 ** ** ** ** ** ** ** 0   77   33 ****** ***** ****** *** *** ***** ***** ***** ***** **
956240 ***** 201509180100 050   6 *** 722 CLR * * * 12.5 02 ** ** ** ** ** ** ** 0   68   36 ****** ***** ****** *** *** ***** ***** ***** ***** **
956240 ***** 201509180700 310   5 *** 722 SCT * * * 12.5 02 ** ** ** ** ** ** ** 0   86   43 ****** ***** ****** *** *** ***** ***** ***** ***** **
956240 ***** 201509190100 200   2 *** *** OVC * * * 12.5 02 ** ** ** ** ** ** ** 2   55   51 ****** ***** ****** *** *** ***** ***** ***** ***** **
956240 ***** 201509190700 180   5 *** *** BKN * * * 12.5 02 ** ** ** ** ** ** ** 2   65   46 ****** ***** ****** *** *** ***** ***** ***** ***** **
