  USAF  WBAN YR--MODAHRMN DIR SPD GUS CLG SKC L M H  VSB MW MW MW MW AW AW AW AW W TEMP DEWP    SLP   ALT    STP MAX MIN PCP01 PCP06 PCP24 PCPXX SD
319130 ***** 201501010300 310   4 *** *** *** * * * **** ** ** ** ** ** ** ** ** *    9   -6 1016.2 ***** 1003.9 *** *** ***** ***** ***** ***** **
319130 ***** 201501010900 300   4 *** *** *** * * * **** ** ** ** ** ** ** ** ** *   11   -7 1015.5 ***** 1003.8 *** *** ***** ***** ***** ***** **
319130 ***** 201501012100 300   7 *** *** *** * * * **** ** ** ** ** ** ** ** ** *   -2  -12 1017.1 ***** 1004.4 ***  -5 ***** ***** ***** ***** **
319130 ***** 201501020300 290   9  25 *** *** * * * **** ** ** ** ** ** ** ** ** *   10   -7 1016.4 ***** 1004.1 *** *** ***** ***** ***** ***** **
319130 ***** 201501020900 300   4 *** *** *** * * * **** ** ** ** ** ** ** ** ** *    5  -11 1017.0 ***** 1004.6 *** *** ***** ***** ***** ***** **
319130 ***** 201501030300 130   2 *** *** *** * * * **** ** ** ** ** ** ** ** ** *    8   -8 1016.7 ***** 1004.4 *** *** ***** ***** ***** ***** **
319130 ***** 201501030900 330   2 *** *** *** * * * **** ** ** ** ** ** ** ** ** *    4   -1 1014.4 ***** 1002.0 *** *** ***** ***** ***** ***** **
319130 ***** 201501032100 290   4 *** *** *** * * * **** ** ** ** ** ** ** ** ** *   -1   -7 1014.7 ***** 1002.1 ***  -4 ***** ***** ***** ***** **
319130 ***** 201501040300 110   2 *** *** *** * * * **** ** ** ** ** ** ** ** ** *    8   -1 1016.0 ***** 1003.6 *** *** ***** ***** ***** ***** **
319130 ***** 201501040900 360   0 *** *** *** * * * **** ** ** ** ** ** ** ** ** *    5    1 1017.8 ***** 1005.3 *** *** ***** ***** ***** ***** **
319130 ***** 201501050300 100   2 *** *** *** * * * **** ** ** ** ** ** ** ** ** *   10    5 1014.0 ***** 1001.7 *** *** ***** ***** ***** ***** **
319130 ***** 201501052100 300   9 *** *** *** * * * **** ** ** ** ** ** ** ** ** *    8   -6 1009.0 *****  996.8 ***   4 ***** ***** ***** ***** **
319130 ***** 201501060300 310   9  25 *** *** * * * **** ** ** ** ** ** ** ** ** *   10   -7 1009.2 *****  997.0 *** *** ***** ***** ***** ***** **
319130 ***** 201501060900 310   7  34 *** *** * * * **** ** ** ** ** ** ** ** ** *    3  -11 1011.4 *****  999.0 *** *** ***** ***** ***** ***** **
319130 ***** 201501062100 300   9  27 *** *** * * * **** ** ** ** ** ** ** ** ** *    0  -12 1014.9 ***** 1002.4 ***  -1 ***** ***** ***** ***** **
319130 ***** 201501070300 310  11  29 *** *** * * * **** ** ** ** ** ** ** ** ** *   10   -5 1016.4 ***** 1004.1 *** *** ***** ***** ***** ***** **
319130 ***** 201501070900 310   7  25 *** *** * * * **** ** ** ** ** ** ** ** ** *    8   -4 1020.6 ***** 1008.2 *** *** ***** ***** ***** ***** **
319130 ***** 201501072100 300   9  25 *** *** * * * **** ** ** ** ** ** ** ** ** *    2  -11 1022.9 ***** 1010.3 ***   2 ***** ***** ***** ***** **
319130 ***** 201501080900 300   4 *** *** *** * * * **** ** ** ** ** ** ** ** ** *    6   -5 1023.7 ***** 1011.3 *** *** ***** ***** ***** ***** **
319130 ***** 201501082100 290   4 *** *** *** * * * **** ** ** ** ** ** ** ** ** *    1  -10 1022.6 ***** 1010.0 ***  -2 ***** ***** ***** ***** **
319130 ***** 201501090900 360   0 *** *** *** * * * **** ** ** ** ** ** ** ** ** *   12    0 1019.2 ***** 1006.9 *** *** ***** ***** ***** ***** **
319130 ***** 201501092100 300   4 *** *** *** * * * **** ** ** ** ** ** ** ** ** *    1   -4 1018.6 ***** 1006.0 ***   0 ***** ***** ***** ***** **
319130 ***** 201501100900 310   2 *** *** *** * * * **** ** ** ** ** ** ** ** ** *    6   -3 1020.0 ***** 1007.5 *** *** ***** ***** ***** ***** **
319130 ***** 201501102100 300   4 *** *** *** * * * **** ** ** ** ** ** ** ** ** *   -5  -10 1022.1 ***** 1009.3 ***  -5 ***** ***** ***** ***** **
319130 ***** 201501110300 300   7 *** *** *** * * * **** ** ** ** ** ** ** ** ** *   10   -4 1023.5 ***** 1011.1 *** *** ***** ***** ***** ***** **
319130 ***** 201501110900 310   7 *** *** *** * * * **** ** ** ** ** ** ** ** ** *    7   -6 1026.9 ***** 1014.4 *** *** ***** ***** ***** ***** **
319130 ***** 201501112100 310   4 *** *** *** * * * **** ** ** ** ** ** ** ** ** *    4   -7 1032.4 ***** 1019.7 ***  -3 ***** ***** ***** ***** **
319130 ***** 201501120300 300   9  22 *** *** * * * **** ** ** ** ** ** ** ** ** *   17   -2 1033.7 ***** 1021.4 *** *** ***** ***** ***** ***** **
319130 ***** 201501120900 300   4 *** *** *** * * * **** ** ** ** ** ** ** ** ** *   12    0 1034.2 ***** 1021.7 *** *** ***** ***** ***** ***** **
319130 ***** 201501122100 360   0 *** *** *** * * * **** ** ** ** ** ** ** ** ** *    1   -8 1034.1 ***** 1021.3 ***   1 ***** ***** ***** ***** **
319130 ***** 201501130300 140   2 *** *** *** * * * **** ** ** ** ** ** ** ** ** *   15    2 1032.6 ***** 1020.2 *** *** ***** ***** ***** ***** **
319130 ***** 201501130900 290   2 *** *** *** * * * **** ** ** ** ** ** ** ** ** *   10    5 1031.0 ***** 1018.6 *** *** ***** ***** ***** ***** **
319130 ***** 201501132100 290   4 *** *** *** * * * **** ** ** ** ** ** ** ** ** *   10    2 1032.1 ***** 1019.6 ***   2 ***** ***** ***** ***** **
319130 ***** 201501140300 310   4 *** *** *** * * * **** ** ** ** ** ** ** ** ** *   22   10 1032.1 ***** 1019.9 *** *** ***** ***** ***** ***** **
319130 ***** 201501140900 310   2 *** *** *** * * * **** ** ** ** ** ** ** ** ** *   10   -2 1031.4 ***** 1018.9 *** *** ***** ***** ***** ***** **
319130 ***** 201501142100 290   4 *** *** *** * * * **** ** ** ** ** ** ** ** ** *   -1   -8 1030.3 ***** 1017.5 ***  -1 ***** ***** ***** ***** **
319130 ***** 201501150300 310   4 *** *** *** * * * **** ** ** ** ** ** ** ** ** *   12   -5 1028.9 ***** 1016.5 *** *** ***** ***** ***** ***** **
319130 ***** 201501150900 330   2 *** *** *** * * * **** ** ** ** ** ** ** ** ** *    5   -9 1026.9 ***** 1014.3 *** *** ***** ***** ***** ***** **
319130 ***** 201501152100 290   4 *** *** *** * * * **** ** ** ** ** ** ** ** ** *   -6  -12 1023.4 ***** 1010.5 ***  -6 ***** ***** ***** ***** **
319130 ***** 201501160300 290   2 *** *** *** * * * **** ** ** ** ** ** ** ** ** *   11   -4 1019.8 ***** 1007.5 *** *** ***** ***** ***** ***** **
319130 ***** 201501160900 360   0 *** *** *** * * * **** ** ** ** ** ** ** ** ** *    5   -3 1017.7 ***** 1005.2 *** *** ***** ***** ***** ***** **
319130 ***** 201501162100 310   4 *** *** *** * * * **** ** ** ** ** ** ** ** ** *   -2  -10 1018.0 ***** 1005.3 ***  -3 ***** ***** ***** ***** **
319130 ***** 201501170300 300   9  27 *** *** * * * **** ** ** ** ** ** ** ** ** *   11   -4 1018.9 ***** 1006.6 *** *** ***** ***** ***** ***** **
319130 ***** 201501170900 310   4  25 *** *** * * * **** ** ** ** ** ** ** ** ** *    9   -3 1018.8 ***** 1006.4 *** *** ***** ***** ***** ***** **
319130 ***** 201501172100 290   4 *** *** *** * * * **** ** ** ** ** ** ** ** ** *    2   -7 1021.3 ***** 1008.8 ***   1 ***** ***** ***** ***** **
319130 ***** 201501180300 290   7 *** *** *** * * * **** ** ** ** ** ** ** ** ** *   18   -2 1019.7 ***** 1007.5 *** *** ***** ***** ***** ***** **
319130 ***** 201501180900 200   2 *** *** *** * * * **** ** ** ** ** ** ** ** ** *   13    1 1017.4 ***** 1005.2 *** *** ***** ***** ***** ***** **
319130 ***** 201501182100 280   2 *** *** *** * * * **** ** ** ** ** ** ** ** ** *    2   -3 1016.4 ***** 1003.9 ***   0 ***** ***** ***** ***** **
319130 ***** 201501190300 330   7 *** *** *** * * * **** ** ** ** ** ** ** ** ** *   10   -3 1019.4 ***** 1007.1 *** *** ***** ***** ***** ***** **
319130 ***** 201501190900 290   4 *** *** *** * * * **** ** ** ** ** ** ** ** ** *    6   -6 1021.7 ***** 1009.2 *** *** ***** ***** ***** ***** **
319130 ***** 201501192100 300   9 *** *** *** * * * **** ** ** ** ** ** ** ** ** *    7   -7 1027.5 ***** 1015.0 ***   5 ***** ***** ***** ***** **
319130 ***** 201501200300 300   7 *** *** *** * * * **** ** ** ** ** ** ** ** ** *   16   -3 1029.8 ***** 1017.5 *** *** ***** ***** ***** ***** **
319130 ***** 201501200900 160   2 *** *** *** * * * **** ** ** ** ** ** ** ** ** *   11   -2 1029.6 ***** 1017.2 *** *** ***** ***** ***** ***** **
319130 ***** 201501202100 360   0 *** *** *** * * * **** ** ** ** ** ** ** ** ** *    6   -3 1028.2 ***** 1015.7 ***   5 ***** ***** ***** ***** **
319130 ***** 201501210300 080   2 *** *** *** * * * **** ** ** ** ** ** ** ** ** *   12    1 1027.1 ***** 1014.8 *** *** ***** ***** ***** ***** **
319130 ***** 201501210900 360   0 *** *** *** * * * **** ** ** ** ** ** ** ** ** *    9    4 1027.0 ***** 1014.5 *** *** ***** ***** ***** ***** **
319130 ***** 201501212100 290   4 *** *** *** * * * **** ** ** ** ** ** ** ** ** *    1   -4 1027.4 ***** 1014.7 ***  -1 ***** ***** ***** ***** **
319130 ***** 201501220300 320   4 *** *** *** * * * **** ** ** ** ** ** ** ** ** *   15    3 1026.8 ***** 1014.4 *** *** ***** ***** ***** ***** **
319130 ***** 201501220900 310   2 *** *** *** * * * **** ** ** ** ** ** ** ** ** *    9    0 1026.0 ***** 1013.5 *** *** ***** ***** ***** ***** **
319130 ***** 201501222100 290   4 *** *** *** * * * **** ** ** ** ** ** ** ** ** *   -4  -10 1024.2 ***** 1011.4 ***  -4 ***** ***** ***** ***** **
319130 ***** 201501230300 150   2 *** *** *** * * * **** ** ** ** ** ** ** ** ** *   11   -1 1023.1 ***** 1010.7 *** *** ***** ***** ***** ***** **
319130 ***** 201501230900 120   2 *** *** *** * * * **** ** ** ** ** ** ** ** ** *    4    0 1022.2 ***** 1009.7 *** *** ***** ***** ***** ***** **
319130 ***** 201501232100 280   2 *** *** *** * * * **** ** ** ** ** ** ** ** ** *   -9  -16 1024.6 ***** 1011.7 *** -10 ***** ***** ***** ***** **
319130 ***** 201501240300 310   4 *** *** *** * * * **** ** ** ** ** ** ** ** ** *    8    1 1026.0 ***** 1013.5 *** *** ***** ***** ***** ***** **
319130 ***** 201501240900 360   0 *** *** *** * * * **** ** ** ** ** ** ** ** ** *    7    2 1028.4 ***** 1015.9 *** *** ***** ***** ***** ***** **
319130 ***** 201501242100 360   0 *** *** *** * * * **** ** ** ** ** ** ** ** ** *   -1   -7 1030.7 ***** 1017.9 ***  -3 ***** ***** ***** ***** **
319130 ***** 201501250300 090   4 *** *** *** * * * **** ** ** ** ** ** ** ** ** *    6    0 1029.0 ***** 1016.5 *** *** ***** ***** ***** ***** **
319130 ***** 201501250900 110   4 *** *** *** * * * **** ** ** ** ** ** ** ** ** *   10    5 1025.9 ***** 1013.5 *** *** ***** ***** ***** ***** **
319130 ***** 201501252100 270   2 *** *** *** * * * **** ** ** ** ** ** ** ** ** *    0   -5 1023.3 ***** 1010.7 ***  -2 ***** ***** ***** ***** **
319130 ***** 201501260300 110   4 *** *** *** * * * **** ** ** ** ** ** ** ** ** *   10    4 1019.7 ***** 1007.3 *** *** ***** ***** ***** ***** **
319130 ***** 201501260900 320   4 *** *** *** * * * **** ** ** ** ** ** ** ** ** *   20   19 1017.3 ***** 1005.3 *** *** ***** ***** ***** ***** **
319130 ***** 201501262100 300   7 *** *** *** * * * **** ** ** ** ** ** ** ** ** *   -1  -14 1024.8 ***** 1012.1 ***  -2 ***** ***** ***** ***** **
319130 ***** 201501270300 300   7  25 *** *** * * * **** ** ** ** ** ** ** ** ** *    9  -10 1024.5 ***** 1012.1 *** *** ***** ***** ***** ***** **
319130 ***** 201501270900 310   7  25 *** *** * * * **** ** ** ** ** ** ** ** ** *    4  -16 1024.9 ***** 1012.3 *** *** ***** ***** ***** ***** **
319130 ***** 201501272100 300   9 *** *** *** * * * **** ** ** ** ** ** ** ** ** *   -3  -17 1028.1 ***** 1015.3 ***  -4 ***** ***** ***** ***** **
319130 ***** 201501280300 300   9  29 *** *** * * * **** ** ** ** ** ** ** ** ** *   10  -12 1028.1 ***** 1015.6 *** *** ***** ***** ***** ***** **
319130 ***** 201501280900 300   4 *** *** *** * * * **** ** ** ** ** ** ** ** ** *    6   -9 1028.3 ***** 1015.8 *** *** ***** ***** ***** ***** **
319130 ***** 201501282100 290   4 *** *** *** * * * **** ** ** ** ** ** ** ** ** *    2  -13 1030.3 ***** 1017.6 ***   2 ***** ***** ***** ***** **
319130 ***** 201501290300 140   2 *** *** *** * * * **** ** ** ** ** ** ** ** ** *   10   -5 1028.2 ***** 1015.8 *** *** ***** ***** ***** ***** **
319130 ***** 201501290900 170   2 *** *** *** * * * **** ** ** ** ** ** ** ** ** *   12    2 1025.1 ***** 1012.7 *** *** ***** ***** ***** ***** **
319130 ***** 201501292100 290   4 *** *** *** * * * **** ** ** ** ** ** ** ** ** *   -2   -8 1023.3 ***** 1010.6 ***  -3 ***** ***** ***** ***** **
319130 ***** 201501300300 310   4 *** *** *** * * * **** ** ** ** ** ** ** ** ** *   18   -1 1024.0 ***** 1011.8 *** *** ***** ***** ***** ***** **
319130 ***** 201501300900 330   4 *** *** *** * * * **** ** ** ** ** ** ** ** ** *   13    1 1025.5 ***** 1013.2 *** *** ***** ***** ***** ***** **
319130 ***** 201501302100 300   9  22 *** *** * * * **** ** ** ** ** ** ** ** ** *    3   -6 1029.8 ***** 1017.1 ***   0 ***** ***** ***** ***** **
319130 ***** 201501310300 310   7 *** *** *** * * * **** ** ** ** ** ** ** ** ** *   14   -4 1031.3 ***** 1018.9 *** *** ***** ***** ***** ***** **
319130 ***** 201501310900 320   2 *** *** *** * * * **** ** ** ** ** ** ** ** ** *    9   -5 1030.6 ***** 1018.1 *** *** ***** ***** ***** ***** **
319130 ***** 201501312100 300   4 *** *** *** * * * **** ** ** ** ** ** ** ** ** *   -1  -10 1033.3 ***** 1020.5 ***  -2 ***** ***** ***** ***** **
319130 ***** 201502010300 310   9 *** *** *** * * * **** ** ** ** ** ** ** ** ** *   15   -2 1032.7 ***** 1020.4 *** *** ***** ***** ***** ***** **
319130 ***** 201502010900 290   2 *** *** *** * * * **** ** ** ** ** ** ** ** ** *   14   -3 1032.2 ***** 1019.8 *** *** ***** ***** ***** ***** **
319130 ***** 201502012100 300   4 *** *** *** * * * **** ** ** ** ** ** ** ** ** *    3   -5 1032.5 ***** 1019.8 ***   0 ***** ***** ***** ***** **
319130 ***** 201502020300 320   4 *** *** *** * * * **** ** ** ** ** ** ** ** ** *   23    5 1032.8 ***** 1020.6 *** *** ***** ***** ***** ***** **
319130 ***** 201502020900 310   2 *** *** *** * * * **** ** ** ** ** ** ** ** ** *   15    4 1033.5 ***** 1021.1 *** *** ***** ***** ***** ***** **
319130 ***** 201502022100 280   4 *** *** *** * * * **** ** ** ** ** ** ** ** ** *   -2   -8 1036.3 ***** 1023.4 ***  -2 ***** ***** ***** ***** **
319130 ***** 201502030300 080   2 *** *** *** * * * **** ** ** ** ** ** ** ** ** *   11   -1 1035.3 ***** 1022.8 *** *** ***** ***** ***** ***** **
319130 ***** 201502030900 180   2 *** *** *** * * * **** ** ** ** ** ** ** ** ** *    9    1 1032.6 ***** 1020.0 *** *** ***** ***** ***** ***** **
319130 ***** 201502032100 270   2 *** *** *** * * * **** ** ** ** ** ** ** ** ** *   -6  -11 1028.5 ***** 1015.7 ***  -8 ***** ***** ***** ***** **
319130 ***** 201502040300 110   2 *** *** *** * * * **** ** ** ** ** ** ** ** ** *    8   -1 1027.2 ***** 1014.7 *** *** ***** ***** ***** ***** **
319130 ***** 201502040900 170   2 *** *** *** * * * **** ** ** ** ** ** ** ** ** *    7    1 1025.7 ***** 1013.2 *** *** ***** ***** ***** ***** **
319130 ***** 201502042100 290   4 *** *** *** * * * **** ** ** ** ** ** ** ** ** *    0   -5 1025.5 ***** 1012.9 ***  -3 ***** ***** ***** ***** **
319130 ***** 201502050300 280   2 *** *** *** * * * **** ** ** ** ** ** ** ** ** *   20    6 1024.1 ***** 1012.0 *** *** ***** ***** ***** ***** **
319130 ***** 201502050900 160   2 *** *** *** * * * **** ** ** ** ** ** ** ** ** *   11    4 1023.2 ***** 1010.8 *** *** ***** ***** ***** ***** **
319130 ***** 201502052100 360   0 *** *** *** * * * **** ** ** ** ** ** ** ** ** *   -3   -8 1021.2 ***** 1008.5 ***  -3 ***** ***** ***** ***** **
319130 ***** 201502060300 090   2 *** *** *** * * * **** ** ** ** ** ** ** ** ** *   10    2 1019.8 ***** 1007.5 *** *** ***** ***** ***** ***** **
319130 ***** 201502060900 090   2 *** *** *** * * * **** ** ** ** ** ** ** ** ** *   14    9 1018.6 ***** 1006.4 *** *** ***** ***** ***** ***** **
319130 ***** 201502062100 280   4 *** *** *** * * * **** ** ** ** ** ** ** ** ** *    6    1 1016.8 ***** 1004.4 ***   2 ***** ***** ***** ***** **
319130 ***** 201502070300 310   4 *** *** *** * * * **** ** ** ** ** ** ** ** ** *   21   12 1016.5 ***** 1004.5 *** *** ***** ***** ***** ***** **
319130 ***** 201502070900 320   7  27 *** *** * * * **** ** ** ** ** ** ** ** ** *   11   -5 1021.1 ***** 1008.7 *** *** ***** ***** ***** ***** **
319130 ***** 201502072100 330   4 *** *** *** * * * **** ** ** ** ** ** ** ** ** *   -9  -22 1025.1 ***** 1012.2 *** -11 ***** ***** ***** ***** **
319130 ***** 201502080300 320   9  25 *** *** * * * **** ** ** ** ** ** ** ** ** *    0  -21 1024.8 ***** 1010.8 *** *** ***** ***** ***** ***** **
319130 ***** 201502080900 340   4  22 *** *** * * * **** ** ** ** ** ** ** ** ** *   -4  -18 1023.6 ***** 1010.8 *** *** ***** ***** ***** ***** **
319130 ***** 201502082100 300   7 *** *** *** * * * **** ** ** ** ** ** ** ** ** *  -10  -23 1020.4 ***** 1007.5 *** -11 ***** ***** ***** ***** **
319130 ***** 201502090300 320  11  29 *** *** * * * **** ** ** ** ** ** ** ** ** *    2  -19 1015.4 ***** 1002.9 *** *** ***** ***** ***** ***** **
319130 ***** 201502090900 310  11  25 *** *** * * * **** ** ** ** ** ** ** ** ** *    6  -12 1010.2 *****  997.8 *** *** ***** ***** ***** ***** **
319130 ***** 201502092100 300   7 *** *** *** * * * **** ** ** ** ** ** ** ** ** *    3  -14 1010.7 *****  998.3 ***   3 ***** ***** ***** ***** **
319130 ***** 201502100300 300   9  25 *** *** * * * **** ** ** ** ** ** ** ** ** *   13  -10 1009.7 *****  997.6 *** *** ***** ***** ***** ***** **
319130 ***** 201502100900 300   2 *** *** *** * * * **** ** ** ** ** ** ** ** ** *   10   -8 1009.6 *****  997.3 *** *** ***** ***** ***** ***** **
319130 ***** 201502102100 280   4 *** *** *** * * * **** ** ** ** ** ** ** ** ** *    6   -9 1009.5 *****  997.2 ***  -2 ***** ***** ***** ***** **
319130 ***** 201502110300 300   7 *** *** *** * * * **** ** ** ** ** ** ** ** ** *   17    1 1010.3 *****  998.3 *** *** ***** ***** ***** ***** **
319130 ***** 201502110900 100   2 *** *** *** * * * **** ** ** ** ** ** ** ** ** *   16    9 1011.9 *****  999.8 *** *** ***** ***** ***** ***** **
319130 ***** 201502112100 360   0 *** *** *** * * * **** ** ** ** ** ** ** ** ** *    4   -1 1012.2 *****  999.8 ***   4 ***** ***** ***** ***** **
319130 ***** 201502120300 310   2 *** *** *** * * * **** ** ** ** ** ** ** ** ** *   14    3 1013.0 ***** 1000.8 *** *** ***** ***** ***** ***** **
319130 ***** 201502120900 340   2 *** *** *** * * * **** ** ** ** ** ** ** ** ** *   10   -3 1013.1 ***** 1000.8 *** *** ***** ***** ***** ***** **
319130 ***** 201502122100 300   4 *** *** *** * * * **** ** ** ** ** ** ** ** ** *    6   -3 1012.6 ***** 1000.2 ***  -2 ***** ***** ***** ***** **
319130 ***** 201502130300 290   7  25 *** *** * * * **** ** ** ** ** ** ** ** ** *   17    6 1012.4 ***** 1000.3 *** *** ***** ***** ***** ***** **
319130 ***** 201502130900 310   7 *** *** *** * * * **** ** ** ** ** ** ** ** ** *   19    7 1011.4 *****  999.4 *** *** ***** ***** ***** ***** **
319130 ***** 201502132100 290   4 *** *** *** * * * **** ** ** ** ** ** ** ** ** *   15    7 1011.9 *****  999.8 ***  10 ***** ***** ***** ***** **
319130 ***** 201502140300 310   7 *** *** *** * * * **** ** ** ** ** ** ** ** ** *   27   12 1012.6 ***** 1000.8 *** *** ***** ***** ***** ***** **
319130 ***** 201502140900 310   4 *** *** *** * * * **** ** ** ** ** ** ** ** ** *   22   10 1015.7 ***** 1003.7 *** *** ***** ***** ***** ***** **
319130 ***** 201502142100 300   7 *** *** *** * * * **** ** ** ** ** ** ** ** ** *   14    4 1023.4 ***** 1011.1 ***  12 ***** ***** ***** ***** **
319130 ***** 201502150300 310   7 *** *** *** * * * **** ** ** ** ** ** ** ** ** *   29   10 1025.8 ***** 1013.9 *** *** ***** ***** ***** ***** **
319130 ***** 201502150900 170   2 *** *** *** * * * **** ** ** ** ** ** ** ** ** *   23   14 1025.8 ***** 1013.7 *** *** ***** ***** ***** ***** **
319130 ***** 201502152100 360   0 *** *** *** * * * **** ** ** ** ** ** ** ** ** *    3   -1 1024.8 ***** 1012.2 ***   2 ***** ***** ***** ***** **
319130 ***** 201502160300 090   4 *** *** *** * * * **** ** ** ** ** ** ** ** ** *   16   10 1024.1 ***** 1011.9 *** *** ***** ***** ***** ***** **
319130 ***** 201502160900 230   2 *** *** *** * * * **** ** ** ** ** ** ** ** ** *   21   13 1021.0 ***** 1008.9 *** *** ***** ***** ***** ***** **
319130 ***** 201502162100 280   2 *** *** *** * * * **** ** ** ** ** ** ** ** ** *   15    8 1020.5 ***** 1008.3 ***  13 ***** ***** ***** ***** **
319130 ***** 201502170300 100   2 *** *** *** * * * **** ** ** ** ** ** ** ** ** *   20   11 1020.7 ***** 1008.7 *** *** ***** ***** ***** ***** **
319130 ***** 201502170900 360   0 *** *** *** * * * **** ** ** ** ** ** ** ** ** *   26   17 1019.2 ***** 1007.2 *** *** ***** ***** ***** ***** **
319130 ***** 201502172100 300   7 *** *** *** * * * **** ** ** ** ** ** ** ** ** *   20   14 1020.2 ***** 1008.2 ***  19 ***** ***** ***** ***** **
319130 ***** 201502180300 310   7 *** *** *** * * * **** ** ** ** ** ** ** ** ** *   30   16 1021.6 ***** 1009.8 *** *** ***** ***** ***** ***** **
319130 ***** 201502180900 320   7 *** *** *** * * * **** ** ** ** ** ** ** ** ** *   28   17 1022.9 ***** 1011.0 *** *** ***** ***** ***** ***** **
319130 ***** 201502182100 270   2 *** *** *** * * * **** ** ** ** ** ** ** ** ** *   10    4 1026.6 ***** 1014.2 ***   9 ***** ***** ***** ***** **
319130 ***** 201502190300 330   7 *** *** *** * * * **** ** ** ** ** ** ** ** ** *   28    4 1028.0 ***** 1016.0 *** *** ***** ***** ***** ***** **
319130 ***** 201502190900 360   0 *** *** *** * * * **** ** ** ** ** ** ** ** ** *   24    4 1027.9 ***** 1015.8 *** *** ***** ***** ***** ***** **
319130 ***** 201502192100 280   2 *** *** *** * * * **** ** ** ** ** ** ** ** ** *    2   -2 1028.5 ***** 1015.9 ***   1 ***** ***** ***** ***** **
319130 ***** 201502200300 100   4 *** *** *** * * * **** ** ** ** ** ** ** ** ** *   16    9 1027.0 ***** 1014.7 *** *** ***** ***** ***** ***** **
319130 ***** 201502200900 110   4 *** *** *** * * * **** ** ** ** ** ** ** ** ** *   19   12 1024.4 ***** 1012.3 *** *** ***** ***** ***** ***** **
319130 ***** 201502210300 180   2 *** *** *** * * * **** ** ** ** ** ** ** ** ** *   34   26 1019.0 ***** 1007.2 *** *** ***** ***** ***** ***** **
319130 ***** 201502210900 190   9 *** *** *** * * * **** ** ** ** ** ** ** ** ** *   35   29 1014.2 ***** 1002.6 *** *** ***** ***** ***** ***** **
319130 ***** 201502212100 190   4 *** *** *** * * * **** ** ** ** ** ** ** ** ** *   35   31 1009.3 *****  997.7 ***  35 ***** ***** ***** ***** **
319130 ***** 201502220300 120   2 *** *** *** * * * **** ** ** ** ** ** ** ** ** *   32 **** 1003.5 *****  991.9 *** *** ***** ***** ***** ***** **
319130 ***** 201502220900 320   2  34 *** *** * * * **** ** ** ** ** ** ** ** ** *   26   24 1004.1 *****  992.4 *** *** ***** ***** ***** ***** **
319130 ***** 201502222100 290   4 *** *** *** * * * **** ** ** ** ** ** ** ** ** *   22   14 1005.9 *****  994.0 ***  19 ***** ***** ***** ***** **
319130 ***** 201502230300 300   9  29 *** *** * * * **** ** ** ** ** ** ** ** ** *   29   14 1007.5 *****  995.8 *** *** ***** ***** ***** ***** **
319130 ***** 201502230900 290   7  27 *** *** * * * **** ** ** ** ** ** ** ** ** *   26   16 1009.4 *****  997.6 *** *** ***** ***** ***** ***** **
319130 ***** 201502240900 360   0 *** *** *** * * * **** ** ** ** ** ** ** ** ** *   21    7 1018.4 ***** 1006.4 *** *** ***** ***** ***** ***** **
319130 ***** 201502242100 270   2 *** *** *** * * * **** ** ** ** ** ** ** ** ** *    4   -1 1022.0 ***** 1009.4 ***   3 ***** ***** ***** ***** **
319130 ***** 201502250300 090   4 *** *** *** * * * **** ** ** ** ** ** ** ** ** *   17    9 1022.4 ***** 1010.2 *** *** ***** ***** ***** ***** **
319130 ***** 201502250900 110   2 *** *** *** * * * **** ** ** ** ** ** ** ** ** *   21   15 1020.8 ***** 1008.8 *** *** ***** ***** ***** ***** **
319130 ***** 201502252100 290   2 *** *** *** * * * **** ** ** ** ** ** ** ** ** *   14    9 1018.9 ***** 1006.6 ***   8 ***** ***** ***** ***** **
319130 ***** 201502260300 090   2 *** *** *** * * * **** ** ** ** ** ** ** ** ** *   24   13 1016.3 ***** 1004.3 *** *** ***** ***** ***** ***** **
319130 ***** 201502260900 360   2 *** *** *** * * * **** ** ** ** ** ** ** ** ** *   25   11 1014.7 ***** 1002.8 *** *** ***** ***** ***** ***** **
319130 ***** 201502262100 280   4 *** *** *** * * * **** ** ** ** ** ** ** ** ** *   13    4 1021.3 ***** 1009.1 ***  11 ***** ***** ***** ***** **
319130 ***** 201502270300 320   9  25 *** *** * * * **** ** ** ** ** ** ** ** ** *   25    9 1023.7 ***** 1011.7 *** *** ***** ***** ***** ***** **
319130 ***** 201502270900 320   7  27 *** *** * * * **** ** ** ** ** ** ** ** ** *   24    8 1025.7 ***** 1013.7 *** *** ***** ***** ***** ***** **
319130 ***** 201502272100 300   4 *** *** *** * * * **** ** ** ** ** ** ** ** ** *   11    3 1029.7 ***** 1017.3 ***  11 ***** ***** ***** ***** **
319130 ***** 201502280300 280   2 *** *** *** * * * **** ** ** ** ** ** ** ** ** *   29    7 1027.3 ***** 1015.4 *** *** ***** ***** ***** ***** **
319130 ***** 201502280900 160   2 *** *** *** * * * **** ** ** ** ** ** ** ** ** *   24   15 1022.5 ***** 1010.5 *** *** ***** ***** ***** ***** **
319130 ***** 201502282100 360   0 *** *** *** * * * **** ** ** ** ** ** ** ** ** *   23   18 1012.7 ***** 1000.7 ***  22 ***** ***** ***** ***** **
319130 ***** 201503010300 290   7 *** *** *** * * * **** ** ** ** ** ** ** ** ** *   35   15 1009.4 *****  997.8 *** *** ***** ***** ***** ***** **
319130 ***** 201503010900 220   2 *** *** *** * * * **** ** ** ** ** ** ** ** ** *   31   23 1008.7 *****  997.1 *** *** ***** ***** ***** ***** **
319130 ***** 201503012100 290   4 *** *** *** * * * **** ** ** ** ** ** ** ** ** *   14    8 1013.6 ***** 1001.5 ***  14 ***** ***** ***** ***** **
319130 ***** 201503020300 300   4 *** *** *** * * * **** ** ** ** ** ** ** ** ** *   29   13 1014.1 ***** 1002.4 *** *** ***** ***** ***** ***** **
319130 ***** 201503020900 170   2 *** *** *** * * * **** ** ** ** ** ** ** ** ** *   25   13 1014.5 ***** 1002.6 *** *** ***** ***** ***** ***** **
319130 ***** 201503030300 110   4 *** *** *** * * * **** ** ** ** ** ** ** ** ** *   24   15 1015.5 ***** 1003.5 *** *** ***** ***** ***** ***** **
319130 ***** 201503030900 070   2 *** *** *** * * * **** ** ** ** ** ** ** ** ** *   24   19 1014.4 ***** 1002.5 *** *** ***** ***** ***** ***** **
319130 ***** 201503032100 330   2 *** *** *** * * * **** ** ** ** ** ** ** ** ** *   20   13 1011.6 *****  999.6 ***  20 ***** ***** ***** ***** **
319130 ***** 201503040300 330   7 *** *** *** * * * **** ** ** ** ** ** ** ** ** *   19   15 1012.4 ***** 1000.4 *** *** ***** ***** ***** ***** **
319130 ***** 201503040900 320   9  29 *** *** * * * **** ** ** ** ** ** ** ** ** *   19   15 1016.2 ***** 1004.1 *** *** ***** ***** ***** ***** **
319130 ***** 201503042100 300   7 *** *** *** * * * **** ** ** ** ** ** ** ** ** *   15   10 1024.2 ***** 1011.9 ***  15 ***** ***** ***** ***** **
319130 ***** 201503050300 310   7 *** *** *** * * * **** ** ** ** ** ** ** ** ** *   27    8 1025.9 ***** 1013.9 *** *** ***** ***** ***** ***** **
319130 ***** 201503050900 360   0 *** *** *** * * * **** ** ** ** ** ** ** ** ** *   23    2 1025.7 ***** 1013.7 *** *** ***** ***** ***** ***** **
319130 ***** 201503052100 020   2 *** *** *** * * * **** ** ** ** ** ** ** ** ** *    1   -3 1025.7 ***** 1013.0 ***   0 ***** ***** ***** ***** **
319130 ***** 201503060300 130   2 *** *** *** * * * **** ** ** ** ** ** ** ** ** *   27   11 1022.8 ***** 1010.8 *** *** ***** ***** ***** ***** **
319130 ***** 201503060900 200   7 *** *** *** * * * **** ** ** ** ** ** ** ** ** *   30   15 1019.1 ***** 1007.3 *** *** ***** ***** ***** ***** **
319130 ***** 201503062100 360   0 *** *** *** * * * **** ** ** ** ** ** ** ** ** *   17   11 1019.0 ***** 1006.9 ***  15 ***** ***** ***** ***** **
319130 ***** 201503070300 220   7 *** *** *** * * * **** ** ** ** ** ** ** ** ** *   38   17 1017.9 ***** 1006.3 *** *** ***** ***** ***** ***** **
319130 ***** 201503070900 300   2 *** *** *** * * * **** ** ** ** ** ** ** ** ** *   30   30 1018.5 ***** 1006.7 *** *** ***** ***** ***** ***** **
319130 ***** 201503072100 170   2 *** *** *** * * * **** ** ** ** ** ** ** ** ** *   15   11 1027.5 ***** 1015.2 ***  14 ***** ***** ***** ***** **
319130 ***** 201503080300 110   4 *** *** *** * * * **** ** ** ** ** ** ** ** ** *   24   16 1027.0 ***** 1014.9 *** *** ***** ***** ***** ***** **
319130 ***** 201503080900 090   4 *** *** *** * * * **** ** ** ** ** ** ** ** ** *   23   22 1023.2 ***** 1011.1 *** *** ***** ***** ***** ***** **
319130 ***** 201503082100 300   4 *** *** *** * * * **** ** ** ** ** ** ** ** ** *   19   16 1022.6 ***** 1010.4 ***  18 ***** ***** ***** ***** **
319130 ***** 201503090300 330   4 *** *** *** * * * **** ** ** ** ** ** ** ** ** *   26   15 1021.2 ***** 1009.2 *** *** ***** ***** ***** ***** **
319130 ***** 201503090900 360   4 *** *** *** * * * **** ** ** ** ** ** ** ** ** *   26   11 1019.1 ***** 1007.2 *** *** ***** ***** ***** ***** **
319130 ***** 201503092100 310   7  25 *** *** * * * **** ** ** ** ** ** ** ** ** *   10   -2 1017.2 ***** 1004.9 ***  10 ***** ***** ***** ***** **
319130 ***** 201503100300 310  13  27 *** *** * * * **** ** ** ** ** ** ** ** ** *   16    0 1012.2 ***** 1000.1 *** *** ***** ***** ***** ***** **
319130 ***** 201503100900 320  11  27 *** *** * * * **** ** ** ** ** ** ** ** ** *   20    2 1008.8 *****  996.8 *** *** ***** ***** ***** ***** **
319130 ***** 201503102100 310  13  38 *** *** * * * **** ** ** ** ** ** ** ** ** *   15    2 1003.7 *****  991.7 ***  14 ***** ***** ***** ***** **
319130 ***** 201503110300 310  16  36 *** *** * * * **** ** ** ** ** ** ** ** ** *   17    5 1001.9 *****  989.9 *** *** ***** ***** ***** ***** **
319130 ***** 201503110900 310  11  27 *** *** * * * **** ** ** ** ** ** ** ** ** *   17   13 1004.0 *****  992.0 *** *** ***** ***** ***** ***** **
319130 ***** 201503140300 310   7 *** *** *** * * * **** ** ** ** ** ** ** ** ** *   37   18 1020.9 ***** 1009.2 *** *** ***** ***** ***** ***** **
319130 ***** 201503140600 180   2 *** *** *** * * * **** ** ** ** ** ** ** ** ** *   37   25 1018.9 ***** 1007.3 *** *** ***** ***** ***** ***** **
319130 ***** 201503140900 170   4 *** *** *** * * * **** ** ** ** ** ** ** ** ** *   31   20 1018.7 ***** 1006.9 *** *** ***** ***** ***** ***** **
319130 ***** 201503142100 360   0 *** *** *** * * * **** ** ** ** ** ** ** ** ** *   24   22 1016.5 ***** 1004.5 ***  23 ***** ***** ***** ***** **
319130 ***** 201503310600 340   4 *** *** *** * * * **** ** ** ** ** ** ** ** ** *   46   34 1014.0 ***** 1002.6 *** *** ***** ***** ***** ***** **
319130 ***** 201503310900 360   4 *** *** *** * * * **** ** ** ** ** ** ** ** ** *   43   23 1015.8 ***** 1004.3 *** *** ***** ***** ***** ***** **
319130 ***** 201504020900 210   7 *** *** *** * * * **** ** ** ** ** ** ** ** ** *   42   35 1008.5 *****  997.1 *** *** ***** ***** ***** ***** **
319130 ***** 201504070300 300  11  22 *** *** * * * **** ** ** ** ** ** ** ** ** *   34    5 1024.2 ***** 1012.4 *** *** ***** ***** ***** ***** **
319130 ***** 201504070600 300   7  25 *** *** * * * **** ** ** ** ** ** ** ** ** *   37    5 1023.1 ***** 1011.4 *** *** ***** ***** ***** ***** **
319130 ***** 201504080600 260   4 *** *** *** * * * **** ** ** ** ** ** ** ** ** *   45    6 1021.3 ***** 1009.8 *** *** ***** ***** ***** ***** **
319130 ***** 201504100600 300   7 *** *** *** * * * **** ** ** ** ** ** ** ** ** *   40   38 1020.2 ***** 1008.7 *** *** ***** ***** ***** ***** **
319130 ***** 201504100900 310   9  22 *** *** * * * **** ** ** ** ** ** ** ** ** *   40   33 1021.8 ***** 1010.2 *** *** ***** ***** *****  0.12 **
319130 ***** 201504110000 300   4 *** *** *** * * * **** ** ** ** ** ** ** ** ** *   40   27 1027.4 ***** 1015.7 *** *** ***** ***** ***** ***** **
319130 ***** 201505310600 250   4  25 *** *** * * * **** ** ** ** ** ** ** ** ** *   70   42 1000.1 *****  989.4 *** *** ***** ***** ***** ***** **
319130 ***** 201507060300 290   4 *** *** *** * * * **** ** ** ** ** ** ** ** ** *   81   64 1007.9 *****  997.3 *** *** ***** ***** ***** ***** **
319130 ***** 201508210900 090   2 *** *** *** * * * **** ** ** ** ** ** ** ** ** *   71   70 1005.1 *****  994.4 *** *** ***** ***** *****  0.91 **
319130 ***** 201508270600 190   7 *** *** *** * * * **** ** ** ** ** ** ** ** ** *   68   58 1004.0 *****  993.3 *** *** ***** ***** ***** ***** **
