  USAF  WBAN YR--MODAHRMN DIR SPD GUS CLG SKC L M H  VSB MW MW MW MW AW AW AW AW W TEMP DEWP    SLP   ALT    STP MAX MIN PCP01 PCP06 PCP24 PCPXX SD
319590 ***** 201501062100 280  20  36 *** SCT * * * 12.5 36 ** ** ** ** ** ** ** 3    4  -17  998.6 *****  994.1 ***   3 ***** ***** *****  5.08 **
319590 ***** 201501070900 260  22  45 *** *** * * * **** ** ** ** ** ** ** ** ** *   18   -2 1004.7 ***** 1000.3 *** *** ***** ***** *****  2.99 **
319590 ***** 201501080900 260  18  40 *** *** * * * **** ** ** ** ** ** ** ** ** *   20    3 1009.9 ***** 1005.6 *** *** ***** ***** ***** ***** **
319590 ***** 201501091500 260   9  25 *** SCT * * * 12.5 ** ** ** ** ** ** ** ** *   15   -5 1010.3 ***** 1005.9 *** *** ***** ***** ***** ***** **
319590 ***** 201501211500 300   7 *** *** *** * * * **** ** ** ** ** ** ** ** ** *   24    9 1023.3 ***** 1018.9 *** *** ***** ***** ***** ***** **
319590 ***** 201501212100 260   9  27 *** *** * * * **** ** ** ** ** ** ** ** ** *   18    1 1022.9 ***** 1018.4 ***  18 ***** ***** ***** ***** **
319590 ***** 201501220300 280   9  27 *** *** * * * **** ** ** ** ** ** ** ** ** *   25   -1 1022.6 ***** 1018.2 *** *** ***** ***** ***** ***** **
319590 ***** 201501232100 250   9 *** 722 CLR * * * 31.2 ** ** ** ** ** ** ** ** *    1   -5 1021.6 ***** 1017.0 ***   2 ***** ***** ***** ***** **
319590 ***** 201501242100 290   9  25 722 CLR * * * 12.5 ** ** ** ** ** ** ** ** *   20   -4 1027.1 ***** 1022.7 ***  16 ***** ***** ***** ***** **
319590 ***** 201501251500 260   2 *** *** SCT * * * 12.5 ** ** ** ** ** ** ** ** *   19   12 1025.5 ***** 1021.1 *** *** ***** ***** ***** ***** **
319590 ***** 201502141500 280  11  22 722 CLR * * * 12.5 ** ** ** ** ** ** ** ** *   23    5 1014.9 ***** 1010.5 *** *** ***** ***** ***** ***** **
319590 ***** 201502142100 250  11  34 722 CLR * * * 12.5 ** ** ** ** ** ** ** ** *   24    6 1015.5 ***** 1011.2 ***  22 ***** ***** ***** ***** **
319590 ***** 201503202100 280   4 *** 722 CLR * * * 12.5 ** ** ** ** ** ** ** ** *   30   14 1013.7 ***** 1009.4 ***  30 ***** ***** ***** ***** **
319590 ***** 201504060900 290  13  27 *** *** * * * **** ** ** ** ** ** ** ** ** *   32   10 1016.5 ***** 1012.2 *** *** ***** ***** ***** ***** **
319590 ***** 201504061200 270   7  36 *** *** * * * **** ** ** ** ** ** ** ** ** *   31    5 1019.2 ***** 1014.9 *** *** ***** ***** ***** ***** **
319590 ***** 201504061500 230   2  27 *** *** * * * **** ** ** ** ** ** ** ** ** *   27   13 1020.7 ***** 1016.3 *** *** ***** ***** ***** ***** **
319590 ***** 201504061800 260   4  27 *** *** * * * **** ** ** ** ** ** ** ** ** *   27    6 1019.9 ***** 1015.5 *** *** ***** ***** ***** ***** **
319590 ***** 201504062100 260   4 *** *** *** * * * **** ** ** ** ** ** ** ** ** *   26    4 1021.0 ***** 1016.6 ***  25 ***** ***** ***** ***** **
319590 ***** 201504070000 260  11 *** *** *** * * * **** ** ** ** ** ** ** ** ** *   30    3 1021.2 ***** 1016.9 *** *** ***** ***** ***** ***** **
319590 ***** 201504070300 280  13  27 *** *** * * * **** ** ** ** ** ** ** ** ** *   32    1 1020.4 ***** 1016.1 *** *** ***** ***** ***** ***** **
319590 ***** 201504070600 270   9  25 *** *** * * * **** ** ** ** ** ** ** ** ** *   32    4 1020.5 ***** 1016.2 *** *** ***** ***** ***** ***** **
319590 ***** 201504101200 290   7 *** *** SCT * * * 25.0 ** ** ** ** ** ** ** ** *   35   31 1022.8 ***** 1018.5 *** *** ***** ***** ***** ***** **
319590 ***** 201505190000 060   4 ***  15 OVC * * *  6.2 20 ** ** ** ** ** ** ** 5   44   37 1004.2 ***** 1000.1 ***  42 ***** ***** ***** ***** **
319590 ***** 201505310600 280   4  31 *** SCT * * * 12.5 ** ** ** ** ** ** ** ** *   77   33  999.0 *****  995.1 *** *** ***** ***** ***** ***** **
319590 ***** 201507051800 100   2 *** *** *** * * *  0.3 51 ** ** ** ** ** ** ** 5   51   50 1012.5 ***** 1008.4 *** *** ***** ***** ***** ***** **
319590 ***** 201507152100 270   2 *** *** SCT * * * 12.5 ** ** ** ** ** ** ** ** *   49   47 1015.3 ***** 1011.2 ***  48 ***** ***** ***** ***** **
319590 ***** 201507182100 250   2 *** *** OVC * * * 12.5 ** ** ** ** ** ** ** ** *   56   55 1010.9 ***** 1006.8 ***  55 ***** ***** ***** ***** **
319590 ***** 201507232100 100   2 ***  26 OVC * * *  0.6 10 ** ** ** ** ** ** ** 2   59   58 1007.6 ***** 1003.6 ***  58 ***** ***** ***** ***** **
319590 ***** 201507260000 080   2 ***  15 OVC * * *  0.6 61 ** ** ** ** ** ** ** 6   65   64 1004.8 ***** 1000.9 *** *** ***** ***** ***** ***** **
319590 ***** 201508070900 090   2 ***  26 OVC * * *  6.2 ** ** ** ** ** ** ** ** *   67   63 1018.5 ***** 1014.5 *** *** ***** ***** ***** ***** **
319590 ***** 201508162100 360   0 ***  15 OVC * * *  6.2 ** ** ** ** ** ** ** ** *   64   64 1014.5 ***** 1010.5 ***  64 ***** ***** ***** ***** **
319590 ***** 201509040600 260   7  22 *** SCT * * * 31.2 ** ** ** ** ** ** ** ** *   75   39 1006.2 ***** 1002.3 *** *** ***** ***** ***** ***** **
319590 ***** 201509040900 260   4  22 *** SCT * * * 31.2 ** ** ** ** ** ** ** ** *   69   39 1007.9 ***** 1003.9 *** *** ***** ***** ***** ***** **
319590 ***** 201509092100 290   2 ***  26 OVC * * *  6.2 25 ** ** ** ** ** ** ** 8   56   54 1016.4 ***** 1012.3 ***  56 ***** ***** *****  0.35 **
