  USAF  WBAN YR--MODAHRMN DIR SPD GUS CLG SKC L M H  VSB MW MW MW MW AW AW AW AW W TEMP DEWP    SLP   ALT    STP MAX MIN PCP01 PCP06 PCP24 PCPXX SD
415650 ***** 201506080300 310   2 *** *** *** * * *  6.2 ** ** ** ** ** ** ** ** *   76   47 ****** *****  861.0 ***  70 ***** *****  0.00  0.00 **
415650 ***** 201506080600 310   2 *** *** *** * * *  6.2 ** ** ** ** ** ** ** ** *   83   54 ****** *****  861.9 *** *** *****  0.00 *****  0.00 **
415650 ***** 201507150300 130   2 *** *** SCT * * *  6.2 ** ** ** ** ** ** ** ** *   71   58 ****** *****  859.0 ***  66 ***** *****  0.00  0.00 **
415650 ***** 201507150600 310   2 *** *** SCT * * *  2.5 ** ** ** ** ** ** ** ** *   85   61 ****** *****  856.7 *** *** *****  0.00 *****  0.00 **
415650 ***** 201507160000 130   5 *** *** SCT * * *  6.2 ** ** ** ** ** ** ** ** *   72   55 ****** *****  858.2 *** *** ***** ***** *****  0.00 **
415650 ***** 201507160300 130   5 *** *** SCT * * *  6.2 ** ** ** ** ** ** ** ** *   75   56 ****** *****  858.4 ***  72 ***** *****  0.00  0.00 **
415650 ***** 201507160600 310   2 *** *** SCT * * *  6.2 ** ** ** ** ** ** ** ** *   87   67 ****** *****  856.6 *** *** *****  0.00 *****  0.00 **
415650 ***** 201507160900 130   5 *** *** SCT * * *  2.5 ** ** ** ** ** ** ** ** *   90   69 ****** *****  853.6 *** *** ***** ***** *****  0.00 **
415650 ***** 201508240300 310   2 *** *** SCT * * *  6.2 ** ** ** ** ** ** ** ** *   66   62 ****** *****  859.3 ***  64 ***** *****  0.00  0.00 **
