  USAF  WBAN YR--MODAHRMN DIR SPD GUS CLG SKC L M H  VSB MW MW MW MW AW AW AW AW W TEMP DEWP    SLP   ALT    STP MAX MIN PCP01 PCP06 PCP24 PCPXX SD
480010 ***** 201501010300 270   1 *** *** BKN * * *  2.5 42 ** ** ** ** ** ** ** 4   53   50 1019.9 ***** ****** *** *** ***** ***** ***** ***** **
480010 ***** 201501011200 ***   0 *** *** BKN * * *  2.5 03 ** ** ** ** ** ** ** 2   71   51 1016.6 ***** ****** *** *** ***** ***** ***** ***** **
480010 ***** 201501020300 ***   0 ***   8 OBS * * *  0.4 45 ** ** ** ** ** ** ** 4   50   50 1020.3 ***** ****** *** *** ***** ***** ***** ***** **
480010 ***** 201501021200 230   1 *** *** *** * * *  6.2 ** ** ** ** ** ** ** ** *   62   56 1015.4 ***** ******  73 *** ***** ***** ***** ***** **
480010 ***** 201501030300 090   1 ***   8 OBS * * *  0.6 42 ** ** ** ** ** ** ** 4   49   44 1020.8 ***** ****** *** *** ***** ***** ***** ***** **
480010 ***** 201501040300 ***   0 *** *** BKN * * *  2.5 05 ** ** ** ** ** ** ** 2   54   53 1017.9 ***** ****** *** *** ***** ***** ***** ***** **
480010 ***** 201501041200 ***   0 *** *** OVC * * *  2.5 50 ** ** ** ** ** ** ** 5   67   59 1009.7 ***** ******  71 *** ***** ***** ***** ***** **
480010 ***** 201501050000 ***   0 *** *** OVC * * *  1.9 21 ** ** ** ** ** ** ** 6   58   57 1012.0 ***** ****** ***  53 ***** ***** ***** ***** **
480010 ***** 201501050300 ***   0 ***   8 OBS * * *  0.6 23 ** ** ** ** ** ** ** 5   60   58 1012.4 ***** ****** *** *** ***** ***** ***** ***** **
480010 ***** 201501060300 130   1 ***   2 OBS * * *  0.2 45 ** ** ** ** ** ** ** 4   53   50 1018.6 ***** ****** *** *** ***** ***** ***** ***** **
480010 ***** 201501061200 270   1 *** *** SCT * * *  3.8 ** ** ** ** ** ** ** ** *   64   58 1011.6 ***** ******  91 *** ***** ***** ***** ***** **
480010 ***** 201501070300 ***   0 *** *** OVC * * *  2.5 28 ** ** ** ** ** ** ** 4   54   50 1018.1 ***** ****** *** *** ***** ***** ***** ***** **
480010 ***** 201501080300 ***   0 *** *** BKN * * *  2.9 03 ** ** ** ** ** ** ** 4   54   53 1018.1 ***** ****** *** *** ***** ***** ***** ***** **
480010 ***** 201501090300 320   1 ***   2 OBS * * *  0.1 45 ** ** ** ** ** ** ** 4   50   49 1016.9 ***** ****** *** *** ***** ***** ***** ***** **
480010 ***** 201501100300 ***   0 *** *** OVC * * *  2.5 20 ** ** ** ** ** ** ** 5   57   56 1017.1 ***** ****** *** *** ***** ***** ***** ***** **
480010 ***** 201501100900 270   1 *** *** OVC * * *  3.1 ** ** ** ** ** ** ** ** *   68   55 1015.7 ***** ****** *** *** ***** ***** ***** ***** **
480010 ***** 201501110300 ***   0 ***   8 OBS * * *  0.4 47 ** ** ** ** ** ** ** 4   53   53 1019.8 ***** ****** *** *** ***** ***** ***** ***** **
480010 ***** 201501111200 ***   0 *** *** SCT * * *  4.4 ** ** ** ** ** ** ** ** *   64   58 1016.2 ***** ******  70 *** ***** ***** ***** ***** **
480010 ***** 201501120300 ***   0 ***   2 OBS * * *  0.2 47 ** ** ** ** ** ** ** 4   50   50 1022.2 ***** ****** *** *** ***** ***** ***** ***** **
480010 ***** 201501121200 ***   0 *** *** SCT * * *  3.1 ** ** ** ** ** ** ** ** *   62   60 1016.3 ***** ******  70 *** ***** ***** ***** ***** **
480010 ***** 201501130300 ***   0 ***   2 OBS * * *  0.2 47 ** ** ** ** ** ** ** 4   46   46 1022.0 ***** ****** *** *** ***** ***** ***** ***** **
480010 ***** 201501140300 ***   0 ***   4 OBS * * *  0.3 47 ** ** ** ** ** ** ** 4   47   46 1022.0 ***** ****** *** *** ***** ***** ***** ***** **
480010 ***** 201501150900 ***   0 *** *** SCT * * *  4.4 ** ** ** ** ** ** ** ** *   70   54 1014.8 ***** ****** *** *** ***** ***** ***** ***** **
480010 ***** 201501160900 360   1 *** *** SCT * * *  3.8 ** ** ** ** ** ** ** ** *   72   52 1015.3 ***** ****** *** *** ***** ***** ***** ***** **
480010 ***** 201501170600 320   1 *** *** SCT * * *  3.8 ** ** ** ** ** ** ** ** *   62   53 1016.8 ***** ****** *** *** ***** ***** ***** ***** **
480010 ***** 201501180300 ***   0 *** *** OVC * * *  2.5 ** ** ** ** ** ** ** ** *   52   52 1018.2 ***** ****** *** *** ***** ***** ***** ***** **
480010 ***** 201501190600 ***   0 *** *** SCT * * *  3.8 ** ** ** ** ** ** ** ** *   67   52 1016.2 ***** ****** *** *** ***** ***** ***** ***** **
480010 ***** 201501191200 ***   0 *** *** OVC * * *  2.5 03 ** ** ** ** ** ** ** 2   75   58 1014.2 ***** ******  75 *** ***** ***** ***** ***** **
480010 ***** 201501200300 ***   0 ***   4 OBS * * *  0.3 47 ** ** ** ** ** ** ** 4   49   48 1021.4 ***** ****** *** *** ***** ***** ***** ***** **
480010 ***** 201501201200 ***   0 *** *** SCT * * *  3.8 ** ** ** ** ** ** ** ** *   64   58 1015.8 ***** ******  74 *** ***** ***** ***** ***** **
480010 ***** 201501210300 ***   0 ***   4 OBS * * *  0.4 45 ** ** ** ** ** ** ** 4   50   50 1022.6 ***** ****** *** *** ***** ***** ***** ***** **
480010 ***** 201501210600 ***   0 *** *** SCT * * *  4.4 ** ** ** ** ** ** ** ** *   67   53 1019.8 ***** ****** *** *** ***** ***** ***** ***** **
480010 ***** 201501210900 040   1 *** *** SCT * * *  3.8 ** ** ** ** ** ** ** ** *   74   58 1017.1 ***** ****** *** *** ***** ***** ***** ***** **
480010 ***** 201501211200 360   1 *** *** SCT * * *  3.1 ** ** ** ** ** ** ** ** *   67   61 1015.5 ***** ******  75 *** ***** ***** ***** ***** **
480010 ***** 201501220300 ***   0 ***   4 OBS * * *  0.3 45 ** ** ** ** ** ** ** 4   50   49 1021.8 ***** ****** *** *** ***** ***** ***** ***** **
480010 ***** 201501220600 360   1 *** *** SCT * * *  4.4 ** ** ** ** ** ** ** ** *   63   53 1019.5 ***** ****** *** *** ***** ***** ***** ***** **
480010 ***** 201501220900 040   1 *** *** SCT * * *  3.8 ** ** ** ** ** ** ** ** *   72   55 1017.1 ***** ****** *** *** ***** ***** ***** ***** **
480010 ***** 201501221200 360   1 *** *** SCT * * *  3.1 ** ** ** ** ** ** ** ** *   64   58 1015.8 ***** ******  73 *** ***** ***** ***** ***** **
480010 ***** 201501230300 ***   0 ***   2 OBS * * *  0.2 47 ** ** ** ** ** ** ** 4   51   51 1018.2 ***** ****** *** *** ***** ***** ***** ***** **
480010 ***** 201501230900 040   1 *** *** SCT * * *  3.8 ** ** ** ** ** ** ** ** *   73   58 1012.6 ***** ****** *** *** ***** ***** ***** ***** **
480010 ***** 201501231200 230   1 *** *** BKN * * *  3.1 03 ** ** ** ** ** ** ** 2   64   58 1015.4 ***** ******  74 *** ***** ***** ***** ***** **
480010 ***** 201501240000 ***   0 *** *** OVC * * *  1.2 05 ** ** ** ** ** ** ** 2   52   51 1018.1 ***** ****** ***  46 ***** ***** ***** ***** **
480010 ***** 201501240300 ***   0 *** *** BKN * * *  3.1 40 ** ** ** ** ** ** ** 2   56   55 1017.6 ***** ****** *** *** ***** ***** ***** ***** **
480010 ***** 201501240900 270   1 *** *** BKN * * *  3.1 03 ** ** ** ** ** ** ** 2   73   58 1013.6 ***** ****** *** *** ***** ***** ***** ***** **
480010 ***** 201501250900 230   1 *** *** *** * * *  3.8 ** ** ** ** ** ** ** ** *   72   60 1014.1 ***** ****** *** *** ***** ***** ***** ***** **
480010 ***** 201501260300 ***   0 ***   4 OBS * * *  0.4 47 ** ** ** ** ** ** ** 4   54   53 1019.7 ***** ****** *** *** ***** ***** ***** ***** **
480010 ***** 201501260900 040   1 *** *** SCT * * *  3.1 ** ** ** ** ** ** ** ** *   75   60 1013.2 ***** ****** *** *** ***** ***** ***** ***** **
480010 ***** 201501261200 270   1 *** *** SCT * * *  2.5 ** ** ** ** ** ** ** ** *   67   62 1014.6 ***** ******  76 *** ***** ***** ***** ***** **
480010 ***** 201501270600 040   1 *** *** SCT * * *  3.8 ** ** ** ** ** ** ** ** *   63   56 1016.6 ***** ****** *** *** ***** ***** ***** ***** **
480010 ***** 201501270900 320   1 *** *** SCT * * *  3.8 ** ** ** ** ** ** ** ** *   74   56 1012.2 ***** ****** *** *** ***** ***** ***** ***** **
480010 ***** 201501280300 180   1 *** *** OVC * * *  2.5 42 ** ** ** ** ** ** ** 2   58   56 1016.4 ***** ****** *** *** ***** ***** ***** ***** **
480010 ***** 201501280600 360   1 *** *** SCT * * *  3.8 ** ** ** ** ** ** ** ** *   70   58 1014.6 ***** ****** *** *** ***** ***** ***** ***** **
480010 ***** 201501290300 180   1 *** *** BKN * * *  2.5 40 ** ** ** ** ** ** ** 2   60   59 1016.8 ***** ****** *** *** ***** ***** ***** ***** **
480010 ***** 201501290600 130   1 *** *** SCT * * *  3.8 ** ** ** ** ** ** ** ** *   71   60 1015.3 ***** ****** *** *** ***** ***** ***** ***** **
480010 ***** 201501290900 230   1 *** *** BKN * * *  3.1 ** ** ** ** ** ** ** ** *   75   60 1012.6 ***** ****** *** *** ***** ***** ***** ***** **
480010 ***** 201501300300 ***   0 *** *** OVC * * *  2.5 14 ** ** ** ** ** ** ** 2   59   58 1016.0 ***** ****** *** *** ***** ***** ***** ***** **
480010 ***** 201501300900 230   1 *** *** BKN * * *  2.5 ** ** ** ** ** ** ** ** *   69   55 1013.8 ***** ****** *** *** ***** ***** ***** ***** **
480010 ***** 201501310300 ***   0 ***   8 OBS * * *  1.2 42 ** ** ** ** ** ** ** 4   56   51 1017.4 ***** ****** *** *** ***** ***** ***** ***** **
480010 ***** 201502010300 ***   0 *** *** SCT * * *  3.1 42 ** ** ** ** ** ** ** 4   54   50 1019.7 ***** ****** *** *** ***** ***** ***** ***** **
480010 ***** 201502010900 270   1 *** *** SCT * * *  4.4 ** ** ** ** ** ** ** ** *   77   55 1012.8 ***** ****** *** *** ***** ***** ***** ***** **
480010 ***** 201502020300 090   1 *** *** OVC * * *  0.3 42 ** ** ** ** ** ** ** 4   49   46 1021.4 ***** ****** *** *** ***** ***** ***** ***** **
480010 ***** 201502020900 130   6 *** *** SCT * * *  4.4 ** ** ** ** ** ** ** ** *   76   51 1014.3 ***** ****** *** *** ***** ***** ***** ***** **
480010 ***** 201502030300 040   1 ***   8 OBS * * *  1.2 41 ** ** ** ** ** ** ** 4   51   49 1022.6 ***** ****** *** *** ***** ***** ***** ***** **
480010 ***** 201502030900 040   1 *** *** SCT * * *  3.1 ** ** ** ** ** ** ** ** *   75   53 1017.2 ***** ****** *** *** ***** ***** ***** ***** **
480010 ***** 201502040300 130   1 *** *** BKN * * *  2.5 42 ** ** ** ** ** ** ** 4   52   48 1020.8 ***** ****** *** *** ***** ***** ***** ***** **
480010 ***** 201502040900 040   1 *** *** BKN * * *  2.5 03 ** ** ** ** ** ** ** 2   70   58 1015.5 ***** ****** *** *** ***** ***** ***** ***** **
480010 ***** 201502050300 180   1 ***   8 OBS * * *  0.4 45 ** ** ** ** ** ** ** 4   55   52 1017.8 ***** ****** *** *** ***** ***** ***** ***** **
480010 ***** 201502050900 130   1 *** *** BKN * * *  2.5 ** ** ** ** ** ** ** ** *   75   56 1014.9 ***** ****** *** *** ***** ***** ***** ***** **
480010 ***** 201502060300 ***   0 ***   8 OBS * * *  1.2 42 ** ** ** ** ** ** ** 4   57   54 1020.4 ***** ****** *** *** ***** ***** ***** ***** **
480010 ***** 201502070300 ***   0 ***   8 OBS * * *  1.2 42 ** ** ** ** ** ** ** 4   58   56 1017.1 ***** ****** *** *** ***** ***** ***** ***** **
480010 ***** 201502070600 040   1 *** *** SCT * * *  3.8 ** ** ** ** ** ** ** ** *   69   58 1014.6 ***** ****** *** *** ***** ***** ***** ***** **
480010 ***** 201502070900 320   1 *** *** BKN * * *  2.5 ** ** ** ** ** ** ** ** *   73   58 1012.4 ***** ****** *** *** ***** ***** ***** ***** **
480010 ***** 201502080300 ***   0 *** *** SCT * * *  3.1 28 ** ** ** ** ** ** ** 4   61   58 1018.6 ***** ****** *** *** ***** ***** ***** ***** **
480010 ***** 201502080900 230   1 *** *** BKN * * *  2.5 03 ** ** ** ** ** ** ** 2   74   56 1013.3 ***** ****** *** *** ***** ***** ***** ***** **
480010 ***** 201502090300 270   1 *** *** SCT * * *  3.1 28 ** ** ** ** ** ** ** 4   57   54 1019.1 ***** ****** *** *** ***** ***** ***** ***** **
480010 ***** 201502091200 ***   0 *** *** SCT * * *  2.5 ** ** ** ** ** ** ** ** *   69   64 1013.2 ***** ******  77 *** ***** ***** ***** ***** **
480010 ***** 201502100300 ***   0 *** *** OVC * * *  2.5 42 ** ** ** ** ** ** ** 4   56   52 1019.4 ***** ****** *** *** ***** ***** ***** ***** **
480010 ***** 201502100600 360   1 *** *** BKN * * *  3.1 04 ** ** ** ** ** ** ** 2   70   54 1017.2 ***** ****** *** *** ***** ***** ***** ***** **
480010 ***** 201502101200 ***   0 *** *** BKN * * *  2.5 05 ** ** ** ** ** ** ** 2   70   61 1013.2 ***** ******  76 *** ***** ***** ***** ***** **
480010 ***** 201502110300 230   1 ***   8 OBS * * *  1.2 42 ** ** ** ** ** ** ** 4   59   56 1017.0 ***** ****** *** *** ***** ***** ***** ***** **
480010 ***** 201502110600 320   1 *** *** BKN * * *  3.8 ** ** ** ** ** ** ** ** *   72   56 1014.2 ***** ****** *** *** ***** ***** ***** ***** **
480010 ***** 201502110900 130   1 *** *** SCT * * *  3.8 ** ** ** ** ** ** ** ** *   77   55 1009.9 ***** ****** *** *** ***** ***** ***** ***** **
480010 ***** 201502120300 ***   0 ***   8 OBS * * *  0.4 05 ** ** ** ** ** ** ** 4   55   55 1016.6 ***** ****** *** *** ***** ***** ***** ***** **
480010 ***** 201502120900 090   1 *** *** SCT * * *  5.0 ** ** ** ** ** ** ** ** *   77   59 1008.4 ***** ****** *** *** ***** ***** ***** ***** **
480010 ***** 201502130300 ***   0 ***   4 OBS * * *  0.3 45 ** ** ** ** ** ** ** 4   55   55 1015.2 ***** ****** *** *** ***** ***** ***** ***** **
480010 ***** 201502131200 320   2 *** *** OVC * * *  1.9 95 ** ** ** ** ** ** ** 5   61   51 1011.4 ***** ******  72 *** ***** ***** ***** ***** **
480010 ***** 201502140300 ***   0 ***   8 OBS * * *  1.2 45 ** ** ** ** ** ** ** 4   53   53 1015.3 ***** ****** *** *** ***** ***** ***** ***** **
480010 ***** 201502141200 130   1 *** *** BKN * * *  3.1 03 ** ** ** ** ** ** ** 2   66   61 1011.5 ***** ******  73 *** ***** ***** ***** ***** **
480010 ***** 201502150300 ***   0 ***   4 OBS * * *  0.2 47 ** ** ** ** ** ** ** 4   51   51 1017.4 ***** ****** *** *** ***** ***** ***** ***** **
480010 ***** 201502150600 250 *** *** *** SCT * * *  0.2 ** ** ** ** ** ** ** ** *   74   58 ****** ***** ****** *** *** ***** ***** ***** ***** **
480010 ***** 201502150900 040   1 *** *** BKN * * *  3.8 ** ** ** ** ** ** ** ** *   74   54 1010.6 ***** ****** *** *** ***** ***** ***** ***** **
480010 ***** 201502160300 ***   0 ***   4 OBS * * *  0.3 45 ** ** ** ** ** ** ** 4   53   50 1017.8 ***** ****** *** *** ***** ***** ***** ***** **
480010 ***** 201502170300 230   1 ***   8 OBS * * *  0.5 47 ** ** ** ** ** ** ** 4   52   48 1017.4 ***** ****** *** *** ***** ***** ***** ***** **
480010 ***** 201502180300 180   1 *** *** BKN * * *  3.8 ** ** ** ** ** ** ** ** *   57   54 1016.5 ***** ****** *** *** ***** ***** ***** ***** **
480010 ***** 201502180600 090   1 *** *** BKN * * *  3.8 ** ** ** ** ** ** ** ** *   72   56 1014.2 ***** ****** *** *** ***** ***** ***** ***** **
480010 ***** 201502180900 090   1 *** *** BKN * * *  3.8 ** ** ** ** ** ** ** ** *   79   56 1010.3 ***** ****** *** *** ***** ***** ***** ***** **
480010 ***** 201502181200 180   1 *** *** OVC * * *  3.1 ** ** ** ** ** ** ** ** *   68   59 1011.5 ***** ******  80 *** ***** ***** *****  0.00 **
480010 ***** 201502190300 130   1 *** *** BKN * * *  3.1 01 ** ** ** ** ** ** ** 6   58   57 1015.8 ***** ****** *** *** ***** ***** ***** ***** **
480010 ***** 201502191200 270   1 *** *** OVC * * *  3.1 50 ** ** ** ** ** ** ** 5   64   58 1014.5 ***** ******  70 *** ***** ***** *****  0.08 **
480010 ***** 201502201200 ***   0 *** *** BKN * * *  3.8 ** ** ** ** ** ** ** ** *   71   61 1011.3 ***** ******  75 *** ***** ***** ***** ***** **
480010 ***** 201502210300 270   1 ***   8 OBS * * *  0.5 43 ** ** ** ** ** ** ** 4   54   53 1017.5 ***** ****** *** *** ***** ***** ***** ***** **
480010 ***** 201502210600 090   2 *** *** BKN * * *  3.1 ** ** ** ** ** ** ** ** *   70   58 1013.9 ***** ****** *** *** ***** ***** ***** ***** **
480010 ***** 201502210900 040   1 *** *** BKN * * *  3.1 ** ** ** ** ** ** ** ** *   75   60 1011.2 ***** ****** *** *** ***** ***** ***** ***** **
480010 ***** 201502211200 ***   0 *** *** BKN * * *  5.0 ** ** ** ** ** ** ** ** *   71   64 1011.5 ***** ******  77 *** ***** ***** ***** ***** **
480010 ***** 201502220300 090   1 *** *** OVC * * *  3.1 03 ** ** ** ** ** ** ** 2   59   58 1016.7 ***** ****** *** *** ***** ***** ***** ***** **
480010 ***** 201502221200 180   1 *** *** BKN * * *  3.1 ** ** ** ** ** ** ** ** *   69   62 1014.0 ***** ******  76 *** ***** ***** ***** ***** **
480010 ***** 201502230300 ***   0 *** *** BKN * * *  3.8 ** ** ** ** ** ** ** ** *   57   55 1018.8 ***** ****** *** *** ***** ***** ***** ***** **
480010 ***** 201502230600 040   1 *** *** BKN * * *  3.1 ** ** ** ** ** ** ** ** *   71   58 1015.5 ***** ****** *** *** ***** ***** ***** ***** **
480010 ***** 201502240300 ***   0 *** *** BKN * * *  3.1 01 ** ** ** ** ** ** ** 2   63   58 1016.9 ***** ****** *** *** ***** ***** ***** ***** **
480010 ***** 201502240600 090   1 *** *** BKN * * *  3.8 ** ** ** ** ** ** ** ** *   73   60 1014.3 ***** ****** *** *** ***** ***** ***** ***** **
480010 ***** 201502241200 ***   0 *** *** OVC * * *  3.1 ** ** ** ** ** ** ** ** *   72   63 1011.0 ***** ******  77 *** ***** ***** ***** ***** **
480010 ***** 201502250300 230   1 *** *** BKN * * *  3.8 ** ** ** ** ** ** ** ** *   64   56 1015.1 ***** ****** *** *** ***** ***** ***** ***** **
480010 ***** 201502251200 ***   0 *** *** OVC * * *  3.1 ** ** ** ** ** ** ** ** *   75   70 1009.4 ***** ******  82 *** ***** ***** *****  0.00 **
480010 ***** 201502260900 090   1 *** *** OVC * * *  3.1 ** ** ** ** ** ** ** ** *   64   64 1012.6 ***** ****** *** *** ***** ***** ***** ***** **
480010 ***** 201502261200 ***   0 *** *** OVC * * *  3.1 03 ** ** ** ** ** ** ** 2   64   64 1011.1 ***** ******  66 *** ***** ***** *****  0.00 **
480010 ***** 201502270300 270   1 *** *** OVC * * *  2.5 50 ** ** ** ** ** ** ** 5   63   62 1011.6 ***** ****** *** *** ***** ***** ***** ***** **
480010 ***** 201502270600 270   2 *** *** BKN * * *  3.1 01 ** ** ** ** ** ** ** 5   65   64 ****** ***** ****** *** *** ***** ***** ***** ***** **
480010 ***** 201502271200 ***   0 *** *** OVC * * *  3.1 50 ** ** ** ** ** ** ** 5   66   65 1011.5 ***** ******  70 *** ***** ***** *****  0.08 **
480010 ***** 201502280300 ***   0 *** *** BKN * * *  3.8 01 ** ** ** ** ** ** ** 4   60 **** ****** ***** ****** *** *** ***** ***** ***** ***** **
480010 ***** 201503020300 ***   0 *** *** BKN * * *  3.8 ** ** ** ** ** ** ** ** *   64   60 1017.6 ***** ****** *** *** ***** ***** ***** ***** **
480010 ***** 201503021200 ***   0 *** *** BKN * * *  3.1 03 ** ** ** ** ** ** ** 2   76   66 1011.3 ***** ******  80 *** ***** ***** ***** ***** **
480010 ***** 201503030300 270   1 *** *** BKN * * *  3.8 ** ** ** ** ** ** ** ** *   68   62 1012.7 ***** ****** *** *** ***** ***** ***** ***** **
480010 ***** 201503030600 120   1 *** *** BKN * * *  5.0 ** ** ** ** ** ** ** ** *   79   64 1010.5 ***** ****** *** *** ***** ***** ***** ***** **
480010 ***** 201503031200 270   1 *** *** BKN * * *  3.1 ** ** ** ** ** ** ** ** *   92   65 1007.3 ***** ****** *** *** ***** ***** ***** ***** **
480010 ***** 201503040300 130   1 *** *** BKN * * *  3.1 01 ** ** ** ** ** ** ** 2   67   65 1013.4 ***** ****** *** *** ***** ***** ***** ***** **
480010 ***** 201503041200 270   1 *** *** OVC * * *  2.5 15 ** ** ** ** ** ** ** 9   71   65 1007.8 ***** ******  79 *** ***** ***** ***** ***** **
480010 ***** 201503050300 ***   0 *** *** OVC * * *  2.5 14 ** ** ** ** ** ** ** 5   61   60 1015.5 ***** ****** *** *** ***** ***** ***** ***** **
480010 ***** 201503060300 040   1 *** *** SCT * * *  3.1 02 ** ** ** ** ** ** ** 2   64   55 1015.8 ***** ****** *** *** ***** ***** ***** ***** **
480010 ***** 201503070600 040   2 *** *** SCT * * *  3.8 ** ** ** ** ** ** ** ** *   73   58 1014.4 ***** ****** *** *** ***** ***** ***** ***** **
480010 ***** 201503080900 040   1 *** *** SCT * * *  4.4 ** ** ** ** ** ** ** ** *   84   53 1010.6 ***** ****** *** *** ***** ***** ***** ***** **
480010 ***** 201503090300 040   1 ***   8 OBS * * *  1.9 42 ** ** ** ** ** ** ** 4   63   56 1018.1 ***** ****** *** *** ***** ***** ***** ***** **
480010 ***** 201503090600 040   1 *** *** SCT * * *  4.4 ** ** ** ** ** ** ** ** *   69   64 1016.7 ***** ****** *** *** ***** ***** ***** ***** **
480010 ***** 201503100300 040   1 *** *** BKN * * *  2.5 42 ** ** ** ** ** ** ** 2   63   56 1016.3 ***** ****** *** *** ***** ***** ***** ***** **
480010 ***** 201503100600 040   1 *** *** SCT * * *  2.5 ** ** ** ** ** ** ** ** *   80   60 1013.7 ***** ****** *** *** ***** ***** ***** ***** **
480010 ***** 201503100900 040   1 *** *** SCT * * *  4.4 ** ** ** ** ** ** ** ** *   86   62 1010.7 ***** ****** *** *** ***** ***** ***** ***** **
480010 ***** 201503110000 ***   0 ***   8 OBS * * *  0.4 42 ** ** ** ** ** ** ** 4   54   54 1016.4 ***** ****** ***  53 ***** ***** ***** ***** **
480010 ***** 201503110300 ***   0 ***   8 OBS * * *  1.9 42 ** ** ** ** ** ** ** 4   63   56 1016.2 ***** ****** *** *** ***** ***** ***** ***** **
480010 ***** 201503110900 040   1 *** *** SCT * * *  4.4 ** ** ** ** ** ** ** ** *   85   78 1009.6 ***** ****** *** *** ***** ***** ***** ***** **
480010 ***** 201503120000 ***   0 ***   8 OBS * * *  0.4 42 ** ** ** ** ** ** ** 4   54   54 1016.4 ***** ****** ***  53 ***** ***** ***** ***** **
480010 ***** 201503120300 360   1 ***   8 OBS * * *  1.2 ** ** ** ** ** ** ** ** *   62   56 1016.3 ***** ****** *** *** ***** ***** ***** ***** **
480010 ***** 201503130300 ***   0 ***   8 OBS * * *  1.2 43 ** ** ** ** ** ** ** 4   65   61 1014.8 ***** ****** *** *** ***** ***** ***** ***** **
480010 ***** 201503131200 360   1 *** *** SCT * * *  3.8 04 ** ** ** ** ** ** ** 0   82   69 1007.8 ***** ******  87 *** ***** ***** *****  0.00 **
480010 ***** 201503140300 ***   0 ***   8 OBS * * *  0.6 40 ** ** ** ** ** ** ** 4   64   62 1015.8 ***** ****** *** *** ***** ***** ***** ***** **
480010 ***** 201503150300 270   1 *** *** OVC * * *  2.5 05 ** ** ** ** ** ** ** 2   68   62 1015.3 ***** ****** *** *** ***** ***** ***** ***** **
480010 ***** 201503150900 ***   0 *** *** OVC * * *  3.1 ** ** ** ** ** ** ** ** *   81   66 1012.6 ***** ****** *** *** ***** ***** ***** ***** **
480010 ***** 201503160300 230   1 *** *** BKN * * *  3.1 05 ** ** ** ** ** ** ** 4   66   61 1015.6 ***** ****** *** *** ***** ***** ***** ***** **
480010 ***** 201503170300 040   1 *** *** SCT * * *  4.4 ** ** ** ** ** ** ** ** *   72   60 1013.2 ***** ****** *** *** ***** ***** ***** ***** **
480010 ***** 201503170600 040   1 *** *** SCT * * *  5.0 ** ** ** ** ** ** ** ** *   82   58 1010.8 ***** ****** *** *** ***** ***** ***** ***** **
480010 ***** 201503180300 230   1 *** *** BKN * * *  2.5 03 ** ** ** ** ** ** ** 2   65   62 1013.2 ***** ****** *** *** ***** ***** ***** ***** **
480010 ***** 201503180900 040   1 *** *** BKN * * *  3.8 ** ** ** ** ** ** ** ** *   82   60 1008.1 ***** ****** *** *** ***** ***** ***** ***** **
480010 ***** 201503190300 090   1 *** *** SCT * * *  3.8 ** ** ** ** ** ** ** ** *   67   59 1014.5 ***** ****** *** *** ***** ***** ***** ***** **
480010 ***** 201503200300 180   1 *** *** BKN * * *  3.8 ** ** ** ** ** ** ** ** *   65   55 1016.1 ***** ****** *** *** ***** ***** ***** ***** **
480010 ***** 201503210300 230   1 *** *** SCT * * *  3.1 40 ** ** ** ** ** ** ** 4   67   59 1015.8 ***** ****** *** *** ***** ***** ***** ***** **
480010 ***** 201503211200 180   1 *** *** SCT * * *  3.8 ** ** ** ** ** ** ** ** *   84   67 1007.6 ***** ******  90 *** ***** ***** ***** ***** **
480010 ***** 201503220300 040   1 *** *** BKN * * *  2.9 05 ** ** ** ** ** ** ** 4   67   57 1015.1 ***** ****** *** *** ***** ***** ***** ***** **
480010 ***** 201503220900 040   1 *** *** SCT * * *  6.2 ** ** ** ** ** ** ** ** *   89   61 1005.5 ***** ****** *** *** ***** ***** ***** ***** **
480010 ***** 201503230300 270   1 ***   8 OBS * * *  0.6 42 ** ** ** ** ** ** ** 4   66   61 1013.2 ***** ****** *** *** ***** ***** ***** ***** **
480010 ***** 201503230600 130   1 *** *** SCT * * *  4.4 ** ** ** ** ** ** ** ** *   82   55 1008.9 ***** ****** *** *** ***** ***** ***** ***** **
480010 ***** 201503230900 360   1 *** *** BKN * * *  3.8 ** ** ** ** ** ** ** ** *   88   62 1005.7 ***** ****** *** *** ***** ***** ***** ***** **
480010 ***** 201503231200 270   1 *** *** BKN * * *  3.1 04 ** ** ** ** ** ** ** 1   79   69 1006.6 ***** ******  89 *** ***** ***** ***** ***** **
480010 ***** 201503240300 180   1 *** *** BKN * * *  2.5 03 ** ** ** ** ** ** ** 2   68   62 1015.2 ***** ****** *** *** ***** ***** ***** ***** **
480010 ***** 201503240900 040   1 *** *** OVC * * *  2.5 17 ** ** ** ** ** ** ** 2   80   65 1008.8 ***** ****** *** *** ***** ***** ***** ***** **
480010 ***** 201503250300 ***   0 *** *** OVC * * *  3.1 05 ** ** ** ** ** ** ** 2   66   61 1015.6 ***** ****** *** *** ***** ***** ***** ***** **
480010 ***** 201503250900 ***   0 *** *** BKN * * *  2.5 03 ** ** ** ** ** ** ** 2   77   62 1012.1 ***** ****** *** *** ***** ***** ***** ***** **
480010 ***** 201503260300 ***   0 *** *** OVC * * *  1.9 53 ** ** ** ** ** ** ** 2   64   62 1019.1 ***** ****** *** *** ***** ***** ***** ***** **
480010 ***** 201503260600 ***   0 *** *** OVC * * *  2.5 10 ** ** ** ** ** ** ** 6   65   64 1019.2 ***** ****** *** *** ***** ***** ***** ***** **
480010 ***** 201503260900 ***   0 *** *** BKN * * *  3.8 03 ** ** ** ** ** ** ** 2   70   64 1016.8 ***** ****** *** *** ***** ***** ***** ***** **
480010 ***** 201503261200 ***   0 *** *** BKN * * *  3.1 14 ** ** ** ** ** ** ** 1   70   64 1016.7 ***** ******  72 *** ***** ***** ***** ***** **
480010 ***** 201503270300 090   1 *** *** OVC * * *  1.9 10 ** ** ** ** ** ** ** 2   66   64 1018.2 ***** ****** *** *** ***** ***** ***** ***** **
480010 ***** 201503270900 040   1 *** *** BKN * * *  3.1 ** ** ** ** ** ** ** ** *   73   65 1014.4 ***** ****** *** *** ***** ***** ***** ***** **
480010 ***** 201503271200 ***   0 *** *** BKN * * *  3.1 ** ** ** ** ** ** ** ** *   73   65 1013.6 ***** ******  75 *** ***** ***** ***** ***** **
480010 ***** 201503280300 ***   0 *** *** OVC * * *  2.5 15 ** ** ** ** ** ** ** 2   66   64 1015.5 ***** ****** *** *** ***** ***** ***** ***** **
480010 ***** 201503281200 ***   0 *** *** OVC * * *  1.9 20 ** ** ** ** ** ** ** 5   69   67 1013.2 ***** ******  71 *** ***** ***** ***** ***** **
480010 ***** 201503290300 090   1 *** *** BKN * * *  2.5 03 ** ** ** ** ** ** ** 2   66   64 1015.6 ***** ****** *** *** ***** ***** ***** ***** **
480010 ***** 201503291200 ***   0 *** *** SCT * * *  3.8 ** ** ** ** ** ** ** ** *   82   69 1007.2 ***** ******  88 *** ***** ***** *****  0.00 **
480010 ***** 201503300300 ***   0 *** *** SCT * * *  3.8 ** ** ** ** ** ** ** ** *   73   65 1012.9 ***** ****** *** *** ***** ***** ***** ***** **
480010 ***** 201503300900 130   2 *** *** BKN * * *  4.4 ** ** ** ** ** ** ** ** *   88   62 1005.6 ***** ****** *** *** ***** ***** ***** ***** **
480010 ***** 201503310300 ***   0 *** *** BKN * * *  3.1 03 ** ** ** ** ** ** ** 2   68   65 1010.9 ***** ****** *** *** ***** ***** ***** ***** **
480010 ***** 201503310900 ***   0 *** *** OVC * * *  1.9 20 ** ** ** ** ** ** ** 5   73   68 1007.8 ***** ****** *** *** ***** ***** ***** ***** **
480010 ***** 201504010300 090   1 *** *** OVC * * *  1.9 20 ** ** ** ** ** ** ** 5   67   65 1012.8 ***** ****** *** *** ***** ***** ***** ***** **
480010 ***** 201504010900 ***   0 *** *** BKN * * *  3.1 20 ** ** ** ** ** ** ** 9   73   65 1008.7 ***** ****** *** *** ***** ***** ***** ***** **
480010 ***** 201504011200 ***   0 *** *** OVC * * *  2.5 05 ** ** ** ** ** ** ** 2   72   65 1008.8 ***** ******  73 *** ***** ***** *****  0.04 **
480010 ***** 201504020300 ***   0 *** *** OVC * * *  2.5 20 ** ** ** ** ** ** ** 2   66   64 1011.8 ***** ****** *** *** ***** ***** ***** ***** **
480010 ***** 201504020600 120   1 *** *** OVC * * *  1.9 50 ** ** ** ** ** ** ** 5   68   65 1010.5 ***** ****** *** *** ***** ***** ***** ***** **
480010 ***** 201504020900 130   1 *** *** OVC * * *  1.2 60 ** ** ** ** ** ** ** 5   67   65 1008.3 ***** ****** *** *** ***** ***** ***** ***** **
480010 ***** 201504021200 ***   0 *** *** OVC * * *  2.5 03 ** ** ** ** ** ** ** 5   66   64 1009.0 ***** ******  70 *** ***** ***** *****  0.16 **
480010 ***** 201504030300 130   1 *** *** BKN * * *  2.5 05 ** ** ** ** ** ** ** 2   64   62 1013.5 ***** ****** *** *** ***** ***** ***** ***** **
480010 ***** 201504030600 040   1 *** *** BKN * * *  3.1 03 ** ** ** ** ** ** ** 2   73   62 1010.6 ***** ****** *** *** ***** ***** ***** ***** **
480010 ***** 201504030900 130   1 *** *** BKN * * *  3.8 ** ** ** ** ** ** ** ** *   74   60 1008.5 ***** ****** *** *** ***** ***** ***** ***** **
480010 ***** 201504040300 ***   0 *** *** BKN * * *  2.5 14 ** ** ** ** ** ** ** 5   67   65 1010.2 ***** ****** *** *** ***** ***** ***** ***** **
480010 ***** 201504041200 270   1 *** *** OVC * * *  1.9 20 ** ** ** ** ** ** ** 5   68   65 1008.6 ***** ******  72 *** ***** ***** *****  0.16 **
480010 ***** 201504041800 270   1 *** *** OVC * * *  1.9 20 ** ** ** ** ** ** ** 5   68   65 1008.6 ***** ******  72 *** ***** ***** ***** ***** **
480010 ***** 201504050300 ***   0 *** *** OVC * * *  2.5 05 ** ** ** ** ** ** ** 2   65   64 1014.2 ***** ****** *** *** ***** ***** ***** ***** **
480010 ***** 201504060300 ***   0 *** *** OVC * * *  1.2 53 ** ** ** ** ** ** ** 5   65   64 1014.0 ***** ****** *** *** ***** ***** ***** ***** **
480010 ***** 201504060600 ***   0 *** *** OVC * * *  1.9 52 ** ** ** ** ** ** ** 5   67   64 1014.0 ***** ****** *** *** ***** ***** ***** ***** **
480010 ***** 201504070300 320   1 *** *** SCT * * *  3.8 28 ** ** ** ** ** ** ** 2   67   62 1013.9 ***** ****** *** *** ***** ***** ***** ***** **
480010 ***** 201504080300 230   1 *** *** BKN * * *  2.5 03 ** ** ** ** ** ** ** 1   67   62 1013.8 ***** ****** *** *** ***** ***** ***** ***** **
480010 ***** 201504080900 ***   0 *** *** OVC * * *  3.1 20 ** ** ** ** ** ** ** 5   73   65 1011.6 ***** ****** *** *** ***** ***** ***** ***** **
480010 ***** 201504081200 ***   0 *** *** BKN * * *  2.5 14 ** ** ** ** ** ** ** 6   68   65 1010.8 ***** ******  74 *** ***** ***** *****  0.08 **
480010 ***** 201504090300 130   1 *** *** BKN * * *  2.5 02 ** ** ** ** ** ** ** 5   65   64 1014.2 ***** ****** *** *** ***** ***** ***** ***** **
480010 ***** 201504090600 040   1 *** *** SCT * * *  3.8 ** ** ** ** ** ** ** ** *   76 **** 1013.4 ***** ****** *** *** ***** ***** ***** ***** **
480010 ***** 201504090900 270   1 *** *** BKN * * *  4.4 ** ** ** ** ** ** ** ** *   80   63 1009.1 ***** ****** *** *** ***** ***** ***** ***** **
480010 ***** 201504100300 ***   0 *** *** OVC * * *  2.5 15 ** ** ** ** ** ** ** 2   64   62 1015.8 ***** ****** *** *** ***** ***** ***** ***** **
480010 ***** 201504101200 ***   0 *** *** OVC * * *  3.1 14 ** ** ** ** ** ** ** 2   66   64 1013.6 ***** ******  69 *** ***** ***** *****  0.04 **
480010 ***** 201504110300 040   1 *** *** OVC * * *  3.1 03 ** ** ** ** ** ** ** 2   68   55 1015.4 ***** ****** *** *** ***** ***** ***** ***** **
480010 ***** 201504110600 040   1 *** *** BKN * * *  2.5 03 ** ** ** ** ** ** ** 2   72   60 1014.8 ***** ****** *** *** ***** ***** ***** ***** **
480010 ***** 201504110900 230   1 *** *** BKN * * *  2.5 03 ** ** ** ** ** ** ** 2   70   67 1014.1 ***** ****** *** *** ***** ***** ***** ***** **
480010 ***** 201504111200 270   1 *** *** OVC * * *  2.5 20 ** ** ** ** ** ** ** 5   70   67 1013.2 ***** ******  73 *** ***** ***** *****  0.00T**
480010 ***** 201504120000 ***   0 *** *** BKN * * *  2.5 05 ** ** ** ** ** ** ** 5   61   60 1016.4 ***** ****** ***  58 ***** ***** *****  0.04 **
480010 ***** 201504120300 270   1 *** *** BKN * * *  3.1 03 ** ** ** ** ** ** ** 2   68   62 1017.2 ***** ****** *** *** ***** ***** ***** ***** **
480010 ***** 201504121200 220   6 *** *** OVC * * *  4.4 ** ** ** ** ** ** ** ** *   82   69 1013.4 ***** ******  86 *** ***** ***** ***** ***** **
480010 ***** 201504130300 090   1 *** *** SCT * * *  3.8 ** ** ** ** ** ** ** ** *   70   61 1017.1 ***** ****** *** *** ***** ***** ***** ***** **
480010 ***** 201504130600 040   1 *** *** SCT * * *  3.1 ** ** ** ** ** ** ** ** *   82   65 1015.0 ***** ****** *** *** ***** ***** ***** ***** **
480010 ***** 201504130900 040   1 *** *** BKN * * *  2.5 ** ** ** ** ** ** ** ** *   87   85 1011.5 ***** ****** *** *** ***** ***** ***** ***** **
480010 ***** 201504131200 230   1 *** *** OVC * * *  2.5 50 ** ** ** ** ** ** ** 2   82   74 1011.1 ***** ******  89 *** ***** ***** *****  0.00T**
480010 ***** 201504140300 320   1 *** *** BKN * * *  3.1 ** ** ** ** ** ** ** ** *   73   65 1014.4 ***** ****** *** *** ***** ***** ***** ***** **
480010 ***** 201504140600 230   1 *** *** BKN * * *  3.1 03 ** ** ** ** ** ** ** 2   79   69 1012.6 ***** ****** *** *** ***** ***** ***** ***** **
480010 ***** 201504140900 040   1 *** *** BKN * * *  3.8 ** ** ** ** ** ** ** ** *   84   64 1010.4 ***** ****** *** *** ***** ***** ***** ***** **
480010 ***** 201504150300 090   1 *** *** SCT * * *  3.8 ** ** ** ** ** ** ** ** *   74   63 1014.4 ***** ****** *** *** ***** ***** ***** ***** **
480010 ***** 201504150900 040   1 *** *** BKN * * *  3.1 ** ** ** ** ** ** ** ** *   91   63 1007.4 ***** ****** *** *** ***** ***** ***** ***** **
480010 ***** 201504151200 040   1 *** *** SCT * * *  3.8 ** ** ** ** ** ** ** ** *   90   71 1006.7 ***** ******  93 *** ***** ***** ***** ***** **
480010 ***** 201504160300 230   1 *** *** SCT * * *  3.1 ** ** ** ** ** ** ** ** *   77   65 1013.1 ***** ****** *** *** ***** ***** ***** ***** **
480010 ***** 201504160600 180   1 *** *** SCT * * *  3.8 ** ** ** ** ** ** ** ** *   88   66 1010.3 ***** ****** *** *** ***** ***** ***** ***** **
480010 ***** 201504161200 040   1 *** *** BKN * * *  3.1 04 ** ** ** ** ** ** ** 1   82   69 1006.7 ***** ******  93 *** ***** ***** ***** ***** **
480010 ***** 201504170300 230   1 *** *** OVC * * *  2.5 01 ** ** ** ** ** ** ** 2   72   69 1012.0 ***** ****** *** *** ***** ***** ***** ***** **
480010 ***** 201504180000 ***   0 *** *** OVC * * *  1.9 10 ** ** ** ** ** ** ** 6   66   66 1008.8 ***** ****** ***  64 ***** ***** *****  0.08 **
480010 ***** 201504180300 040   1 *** *** OVC * * *  2.5 14 ** ** ** ** ** ** ** 2   69   64 1009.8 ***** ****** *** *** ***** ***** ***** ***** **
480010 ***** 201504180900 040   1 *** *** OVC * * *  1.9 21 ** ** ** ** ** ** ** 5   71   65 1007.7 ***** ****** *** *** ***** ***** ***** ***** **
480010 ***** 201504181200 ***   0 *** *** OVC * * *  2.5 50 ** ** ** ** ** ** ** 6   70   67 1006.5 ***** ******  78 *** ***** ***** *****  0.43 **
480010 ***** 201504190300 ***   0 *** *** OVC * * *  1.9 15 ** ** ** ** ** ** ** 5   67   65 1012.9 ***** ****** *** *** ***** ***** ***** ***** **
480010 ***** 201504191200 270   1 *** *** BKN * * *  2.5 03 ** ** ** ** ** ** ** 5   70   67 1010.6 ***** ******  73 *** ***** ***** *****  0.08 **
480010 ***** 201504200300 090   1 *** *** SCT * * *  3.1 ** ** ** ** ** ** ** ** *   68   62 1015.5 ***** ****** *** *** ***** ***** ***** ***** **
480010 ***** 201504200600 230   1 *** *** SCT * * *  3.8 ** ** ** ** ** ** ** ** *   78   64 1012.9 ***** ****** *** *** ***** ***** ***** ***** **
480010 ***** 201504200900 040   1 *** *** SCT * * *  4.4 ** ** ** ** ** ** ** ** *   86   59 1009.2 ***** ****** *** *** ***** ***** ***** ***** **
480010 ***** 201504210300 230   1 *** *** BKN * * *  3.1 03 ** ** ** ** ** ** ** 2   70   64 1010.7 ***** ****** *** *** ***** ***** ***** ***** **
480010 ***** 201504211200 360   0 ***  10 OVC * * *  2.5 50 ** ** ** ** ** ** ** 2   73   68 1007.8 ***** ****** *** *** ***** ***** ***** ***** **
480010 ***** 201504220300 ***   0 *** *** OVC * * *  2.5 53 ** ** ** ** ** ** ** 5   69   67 1012.6 ***** ****** *** *** ***** ***** ***** ***** **
480010 ***** 201504220600 130   1 *** *** OVC * * *  2.5 50 ** ** ** ** ** ** ** 5   72   69 1011.7 ***** ****** *** *** ***** ***** ***** ***** **
480010 ***** 201504220900 ***   0 *** *** OVC * * *  1.9 53 ** ** ** ** ** ** ** 6   70   67 1009.6 ***** ****** *** *** ***** ***** ***** ***** **
480010 ***** 201504230300 ***   0 *** *** OVC * * *  2.5 50 ** ** ** ** ** ** ** 5   68   65 1014.4 ***** ****** *** *** ***** ***** ***** ***** **
480010 ***** 201504230600 090   1 *** *** OVC * * *  3.1 03 ** ** ** ** ** ** ** 6   71   65 1013.9 ***** ****** *** *** ***** ***** ***** ***** **
480010 ***** 201504230900 ***   0 *** *** OVC * * *  3.1 03 ** ** ** ** ** ** ** 2   74   63 1011.7 ***** ****** *** *** ***** ***** ***** ***** **
480010 ***** 201504240300 ***   0 *** *** OVC * * *  2.5 20 ** ** ** ** ** ** ** 5   67   65 1017.1 ***** ****** *** *** ***** ***** ***** ***** **
480010 ***** 201504250300 270   1 *** *** SCT * * *  4.4 ** ** ** ** ** ** ** ** *   71   63 1014.9 ***** ****** *** *** ***** ***** ***** ***** **
480010 ***** 201504250600 090   1 *** *** BKN * * *  3.8 ** ** ** ** ** ** ** ** *   81   63 1012.4 ***** ****** *** *** ***** ***** ***** ***** **
480010 ***** 201504251200 ***   0 *** *** BKN * * *  3.1 03 ** ** ** ** ** ** ** 5   83   71 1008.4 ***** ******  88 *** ***** ***** ***** ***** **
480010 ***** 201504260300 320   1 *** *** OVC * * *  1.2 63 ** ** ** ** ** ** ** 6   66   64 1017.2 ***** ****** *** *** ***** ***** ***** ***** **
480010 ***** 201504260900 090   1 *** *** BKN * * *  3.8 03 ** ** ** ** ** ** ** 5   76   63 1014.1 ***** ****** *** *** ***** ***** ***** ***** **
480010 ***** 201504261200 ***   0 *** *** BKN * * *  3.1 02 ** ** ** ** ** ** ** 6   74   64 1012.4 ***** ******  77 *** ***** ***** *****  0.43 **
480010 ***** 201504270300 090   1 *** *** BKN * * *  3.1 03 ** ** ** ** ** ** ** 4   72   65 1014.8 ***** ****** *** *** ***** ***** ***** ***** **
480010 ***** 201504270600 090   2 *** *** SCT * * *  5.0 ** ** ** ** ** ** ** ** *   80   63 1012.3 ***** ****** *** *** ***** ***** ***** ***** **
480010 ***** 201504270900 180   1 *** *** BKN * * *  5.0 17 ** ** ** ** ** ** ** 2   73   71 1010.9 ***** ****** *** *** ***** ***** ***** ***** **
480010 ***** 201504271200 ***   0 *** *** OVC * * *  3.8 03 ** ** ** ** ** ** ** 5   75   66 1009.6 ***** ******  82 *** ***** ***** *****  0.00 **
480010 ***** 201504280300 360   1 *** *** BKN * * *  2.5 ** ** ** ** ** ** ** ** *   71   65 1013.6 ***** ****** *** *** ***** ***** ***** ***** **
480010 ***** 201504280600 040   1 *** *** SCT * * *  3.1 ** ** ** ** ** ** ** ** *   82   60 1011.1 ***** ****** *** *** ***** ***** ***** ***** **
480010 ***** 201504280900 230   1 *** *** SCT * * *  3.8 ** ** ** ** ** ** ** ** *   85   65 1009.2 ***** ****** *** *** ***** ***** ***** ***** **
480010 ***** 201504281200 270   1 *** *** SCT * * *  4.4 ** ** ** ** ** ** ** ** *   79   69 1006.6 ***** ******  87 *** ***** ***** ***** ***** **
480010 ***** 201504290300 040   1 *** *** SCT * * *  3.8 02 ** ** ** ** ** ** ** 4   74   63 1011.9 ***** ****** *** *** ***** ***** ***** ***** **
480010 ***** 201504290600 040   1 *** *** BKN * * *  3.8 ** ** ** ** ** ** ** ** *   83   67 1009.9 ***** ****** *** *** ***** ***** ***** ***** **
480010 ***** 201504290900 270   1 *** *** OVC * * *  3.1 05 ** ** ** ** ** ** ** 2   84   71 1007.2 ***** ****** *** *** ***** ***** ***** ***** **
480010 ***** 201504291200 ***   0 *** *** OVC * * *  1.2 14 ** ** ** ** ** ** ** 5   76   66 1007.1 ***** ******  87 *** ***** ***** *****  0.00 **
480010 ***** 201504300300 070   1 *** *** BKN * * *  2.5 02 ** ** ** ** ** ** ** 5   72   69 1012.4 ***** ****** *** *** ***** ***** ***** ***** **
480010 ***** 201504300600 040   1 *** *** OVC * * *  3.1 50 ** ** ** ** ** ** ** 2   76   69 1012.6 ***** ****** *** *** ***** ***** ***** ***** **
480010 ***** 201505010300 040   1 *** *** SCT * * * **** ** ** ** ** ** ** ** ** *   76   69 1011.1 ***** ****** *** *** ***** ***** ***** ***** **
480010 ***** 201505010600 040   1 *** *** BKN * * *  3.1 ** ** ** ** ** ** ** ** *   82   65 1010.2 ***** ****** *** *** ***** ***** ***** ***** **
480010 ***** 201505010900 360   1 *** *** BKN * * *  2.5 ** ** ** ** ** ** ** ** *   87   62 1006.1 ***** ****** *** *** ***** ***** ***** ***** **
480010 ***** 201505011200 ***   0 *** *** BKN * * *  3.1 ** ** ** ** ** ** ** ** *   82   69 1006.1 ***** ******  88 *** ***** ***** ***** ***** **
480010 ***** 201505020300 040   1 *** *** BKN * * *  5.0 ** ** ** ** ** ** ** ** *   77   65 1009.6 ***** ****** *** *** ***** ***** ***** ***** **
480010 ***** 201505020900 270   1 *** *** OVC * * *  3.8 03 ** ** ** ** ** ** ** 5   84   71 1009.4 ***** ****** *** *** ***** ***** ***** ***** **
480010 ***** 201505021200 270   1 *** *** OVC * * *  3.1 ** ** ** ** ** ** ** ** *   82   74 1006.6 ***** ******  87 *** ***** ***** *****  0.00 **
480010 ***** 201505030300 130   1 *** *** OVC * * *  3.0 14 ** ** ** ** ** ** ** 2   72   65 1012.7 ***** ****** *** *** ***** ***** ***** ***** **
480010 ***** 201505031200 ***   0 *** *** BKN * * *  3.8 ** ** ** ** ** ** ** ** *   80   71 1006.9 ***** ******  82 *** ***** ***** *****  0.00 **
480010 ***** 201505040300 ***   0 *** *** OVC * * *  1.2 ** ** ** ** ** ** ** ** *   67   65 1012.2 ***** ****** *** *** ***** ***** ***** ***** **
480010 ***** 201505040600 ***   0 *** *** OVC * * *  3.1 ** ** ** ** ** ** ** ** *   74   70 1011.9 ***** ****** *** *** ***** ***** ***** ***** **
480010 ***** 201505040900 ***   0 *** *** OVC * * *  2.5 ** ** ** ** ** ** ** ** *   74   70 1011.0 ***** ****** *** *** ***** ***** ***** ***** **
480010 ***** 201505041200 ***   0 *** *** SCT * * *  3.8 ** ** ** ** ** ** ** ** *   77   69 1009.3 ***** ******  81 *** ***** ***** ***** ***** **
480010 ***** 201505050300 090   1 *** *** OVC * * *  3.1 03 ** ** ** ** ** ** ** 2   71   67 1010.4 ***** ****** *** *** ***** ***** ***** ***** **
480010 ***** 201505050600 ***   0 *** *** BKN * * *  3.8 ** ** ** ** ** ** ** ** *   77   69 1008.6 ***** ****** *** *** ***** ***** ***** ***** **
480010 ***** 201505050900 140   1 *** *** BKN * * *  3.1 ** ** ** ** ** ** ** ** *   81   73 1007.1 ***** ****** *** *** ***** ***** ***** ***** **
480010 ***** 201505060300 220   1 *** *** BKN * * *  3.1 ** ** ** ** ** ** ** ** *   75   66 1009.0 ***** ****** *** *** ***** ***** ***** ***** **
480010 ***** 201505060900 ***   0 *** *** BKN * * *  2.5 17 ** ** ** ** ** ** ** 2   88   69 1004.0 ***** ****** *** *** ***** ***** ***** ***** **
480010 ***** 201505061200 220   1 *** *** BKN * * *  2.5 ** ** ** ** ** ** ** ** *   79   69 1002.8 ***** ******  90 *** ***** ***** *****  0.00 **
480010 ***** 201505070600 220   1 *** *** BKN * * *  2.5 ** ** ** ** ** ** ** ** *   79   71 1009.0 ***** ****** *** *** ***** ***** ***** ***** **
480010 ***** 201505070900 ***   0 *** *** BKN * * *  2.5 ** ** ** ** ** ** ** ** *   84   67 1006.6 ***** ****** *** *** ***** ***** ***** ***** **
480010 ***** 201505080300 040   1 *** *** SCT * * *  3.1 ** ** ** ** ** ** ** ** *   76   66 1009.6 ***** ****** *** *** ***** ***** ***** ***** **
480010 ***** 201505080900 130   2 *** *** BKN * * *  2.5 03 ** ** ** ** ** ** ** 2   90   65 1002.3 ***** ****** *** *** ***** ***** ***** ***** **
480010 ***** 201505081200 ***   0 *** *** BKN * * *  2.5 ** ** ** ** ** ** ** ** *   84   67 1000.8 ***** ******  93 *** ***** ***** ***** ***** **
480010 ***** 201505090300 140   1 *** *** SCT * * *  3.1 ** ** ** ** ** ** ** ** *   77   65 1010.4 ***** ****** *** *** ***** ***** ***** ***** **
480010 ***** 201505090600 040   2 *** *** BKN * * *  3.1 ** ** ** ** ** ** ** ** *   86   62 1007.4 ***** ****** *** *** ***** ***** ***** ***** **
480010 ***** 201505090900 140   1 *** *** BKN * * *  3.1 ** ** ** ** ** ** ** ** *   88   69 1002.7 ***** ****** *** *** ***** ***** ***** ***** **
480010 ***** 201505100300 ***   0 *** *** BKN * * *  2.5 ** ** ** ** ** ** ** ** *   77   69 1008.5 ***** ****** *** *** ***** ***** ***** ***** **
480010 ***** 201505101200 ***   0 *** *** BKN * * *  2.5 ** ** ** ** ** ** ** ** *   86   62 1006.0 ***** ******  90 *** ***** ***** ***** ***** **
480010 ***** 201505110300 040   1 *** *** SCT * * *  3.1 ** ** ** ** ** ** ** ** *   80   66 1008.3 ***** ****** *** *** ***** ***** ***** ***** **
480010 ***** 201505110600 040   1 *** *** SCT * * *  3.8 ** ** ** ** ** ** ** ** *   90   71 1006.6 ***** ****** *** *** ***** ***** ***** ***** **
480010 ***** 201505110900 140   1 *** *** BKN * * *  3.1 ** ** ** ** ** ** ** ** *   91   70 1004.8 ***** ****** *** *** ***** ***** ***** ***** **
480010 ***** 201505120300 ***   0 *** *** BKN * * *  3.1 ** ** ** ** ** ** ** ** *   81   70 1008.6 ***** ****** *** *** ***** ***** ***** ***** **
480010 ***** 201505120600 ***   0 *** *** OVC * * *  3.1 03 ** ** ** ** ** ** ** 2   82   72 1007.7 ***** ****** *** *** ***** ***** ***** ***** **
480010 ***** 201505121200 040   1 *** *** OVC * * *  2.5 ** ** ** ** ** ** ** ** *   81   73 1005.9 ***** ******  84 *** ***** ***** *****  0.00 **
480010 ***** 201505130300 090   1 *** *** BKN * * *  3.1 ** ** ** ** ** ** ** ** *   77   69 1009.2 ***** ****** *** *** ***** ***** ***** ***** **
480010 ***** 201505130600 ***   0 *** *** BKN * * *  3.8 ** ** ** ** ** ** ** ** *   82   72 1007.7 ***** ****** *** *** ***** ***** ***** ***** **
480010 ***** 201505131200 ***   0 *** *** OVC * * *  2.5 ** ** ** ** ** ** ** ** *   86   75 1004.9 ***** ******  90 *** ***** ***** ***** ***** **
480010 ***** 201505140300 ***   0 *** *** BKN * * *  3.1 ** ** ** ** ** ** ** ** *   82   72 1008.4 ***** ****** *** *** ***** ***** ***** ***** **
480010 ***** 201505140600 130   1 *** *** BKN * * *  3.8 ** ** ** ** ** ** ** ** *   88   73 1006.8 ***** ****** *** *** ***** ***** ***** ***** **
480010 ***** 201505140900 090   1 *** *** OVC * * *  2.5 03 ** ** ** ** ** ** ** 2   89   74 1005.1 ***** ****** *** *** ***** ***** ***** ***** **
480010 ***** 201505141200 ***   0 *** *** BKN * * *  2.5 ** ** ** ** ** ** ** ** *   85   79 1003.2 ***** ******  90 *** ***** ***** ***** ***** **
480010 ***** 201505150300 140   1 *** *** OVC * * *  1.9 50 ** ** ** ** ** ** ** 5   79   73 1010.7 ***** ****** *** *** ***** ***** ***** ***** **
480010 ***** 201505150600 ***   0 *** *** OVC * * *  2.5 50 ** ** ** ** ** ** ** 5   84   73 1008.9 ***** ****** *** *** ***** ***** ***** ***** **
480010 ***** 201505150900 040   1 *** *** OVC * * *  1.9 15 ** ** ** ** ** ** ** 5   83   73 1007.2 ***** ****** *** *** ***** ***** ***** ***** **
480010 ***** 201505151200 320   1 *** *** BKN * * *  1.9 ** ** ** ** ** ** ** ** *   82   74 1007.4 ***** ******  85 *** ***** ***** *****  0.00T**
480010 ***** 201505160300 040   1 *** *** OVC * * *  1.9 02 ** ** ** ** ** ** ** 6   74   73 1009.6 ***** ****** *** *** ***** ***** ***** ***** **
480010 ***** 201505160600 040   1 *** *** BKN * * *  2.5 ** ** ** ** ** ** ** ** *   76   70 1009.7 ***** ****** *** *** ***** ***** ***** ***** **
480010 ***** 201505161200 ***   0 *** *** BKN * * *  2.5 01 ** ** ** ** ** ** ** 5   78   73 1006.4 ***** ******  79 *** ***** ***** *****  0.00 **
480010 ***** 201505170300 040   1 *** *** BKN * * *  1.9 01 ** ** ** ** ** ** ** 6   74   73 1007.6 ***** ****** *** *** ***** ***** ***** ***** **
480010 ***** 201505170600 140   1 *** *** BKN * * *  2.5 ** ** ** ** ** ** ** ** *   79   71 1007.4 ***** ****** *** *** ***** ***** ***** ***** **
480010 ***** 201505170900 320   1 *** *** BKN * * *  2.5 ** ** ** ** ** ** ** ** *   79   73 1005.8 ***** ****** *** *** ***** ***** ***** ***** **
480010 ***** 201505171200 ***   0 *** *** OVC * * *  1.9 ** ** ** ** ** ** ** ** *   80   71 1004.6 ***** ******  81 *** ***** ***** ***** ***** **
480010 ***** 201505180300 ***   0 *** *** OVC * * *  1.9 02 ** ** ** ** ** ** ** 5   73   71 1008.4 ***** ****** *** *** ***** ***** ***** ***** **
480010 ***** 201505180600 140   1 *** *** OVC * * *  2.5 ** ** ** ** ** ** ** ** *   79   71 1007.8 ***** ****** *** *** ***** ***** ***** ***** **
480010 ***** 201505180900 140   1 *** *** OVC * * *  2.5 ** ** ** ** ** ** ** ** *   78   71 1006.6 ***** ****** *** *** ***** ***** ***** ***** **
480010 ***** 201505181200 ***   0 *** *** BKN * * *  2.5 ** ** ** ** ** ** ** ** *   77   71 1005.9 ***** ******  80 *** ***** ***** ***** ***** **
480010 ***** 201505190300 360   1 *** *** BKN * * *  2.5 ** ** ** ** ** ** ** ** *   74   70 1008.4 ***** ****** *** *** ***** ***** ***** ***** **
480010 ***** 201505190600 090   1 *** *** SCT * * *  2.5 ** ** ** ** ** ** ** ** *   85   72 1004.4 ***** ****** *** *** ***** ***** ***** ***** **
480010 ***** 201505190900 040   1 *** *** BKN * * *  2.5 ** ** ** ** ** ** ** ** *   91   70 1000.1 ***** ****** *** *** ***** ***** ***** ***** **
480010 ***** 201505200300 040   1 *** *** SCT * * *  2.5 ** ** ** ** ** ** ** ** *   80   71 1006.6 ***** ****** *** *** ***** ***** ***** ***** **
480010 ***** 201505200600 040   1 *** *** SCT * * *  2.5 ** ** ** ** ** ** ** ** *   87   73 1003.3 ***** ****** *** *** ***** ***** ***** ***** **
480010 ***** 201505200900 140   1 *** *** SCT * * *  2.5 ** ** ** ** ** ** ** ** *   93   75  998.4 ***** ****** *** *** ***** ***** ***** ***** **
480010 ***** 201505201200 ***   0 *** *** SCT * * *  2.5 ** ** ** ** ** ** ** ** *   93   75  996.9 ***** ******  95 *** ***** ***** ***** ***** **
480010 ***** 201505210300 ***   0 *** *** BKN * * *  2.5 ** ** ** ** ** ** ** ** *   78   73 1006.4 ***** ****** *** *** ***** ***** ***** ***** **
480010 ***** 201505210600 360   1 *** *** OVC * * *  1.9 ** ** ** ** ** ** ** ** *   82   74 1004.1 ***** ****** *** *** ***** ***** ***** ***** **
480010 ***** 201505210900 040   1 *** *** BKN * * *  3.1 ** ** ** ** ** ** ** ** *   86   75 1001.5 ***** ****** *** *** ***** ***** ***** ***** **
480010 ***** 201505211200 ***   0 *** *** BKN * * *  1.9 50 ** ** ** ** ** ** ** 5   84   77 1001.8 ***** ******  88 *** ***** ***** *****  0.00T**
480010 ***** 201505220300 040   1 *** *** BKN * * *  2.5 ** ** ** ** ** ** ** ** *   81   73 1005.1 ***** ****** *** *** ***** ***** ***** ***** **
480010 ***** 201505220600 180   1 *** *** BKN * * *  2.5 ** ** ** ** ** ** ** ** *   86   73 1003.4 ***** ****** *** *** ***** ***** ***** ***** **
480010 ***** 201505221200 ***   0 *** *** BKN * * *  1.9 01 ** ** ** ** ** ** ** 6   76   73 1001.9 ***** ******  90 *** ***** ***** *****  0.47 **
480010 ***** 201505230300 ***   0 *** *** BKN * * *  2.5 ** ** ** ** ** ** ** ** *   78   73 1004.6 ***** ****** *** *** ***** ***** ***** ***** **
480010 ***** 201505230600 360   1 *** *** OVC * * *  2.5 ** ** ** ** ** ** ** ** *   81   75 1004.0 ***** ****** *** *** ***** ***** ***** ***** **
480010 ***** 201505230900 360   1 *** *** OVC * * *  1.9 20 ** ** ** ** ** ** ** 5   78   76 1003.7 ***** ****** *** *** ***** ***** ***** ***** **
480010 ***** 201505231200 ***   0 *** *** BKN * * *  1.9 ** ** ** ** ** ** ** ** *   78   74 1002.8 ***** ******  82 *** ***** ***** *****  0.04 **
480010 ***** 201505240300 ***   0 *** *** OVC * * *  1.2 51 ** ** ** ** ** ** ** 5   72   69 1003.4 ***** ****** *** *** ***** ***** ***** ***** **
480010 ***** 201505240600 140   1 *** *** OVC * * *  1.2 50 ** ** ** ** ** ** ** 5   73   71 1008.3 ***** ****** *** *** ***** ***** ***** ***** **
480010 ***** 201505240900 ***   0 *** *** OVC * * *  1.2 50 ** ** ** ** ** ** ** 5   76   70 1007.2 ***** ****** *** *** ***** ***** ***** ***** **
480010 ***** 201505241200 ***   0 *** *** OVC * * *  1.2 ** ** ** ** ** ** ** ** *   74   70 1005.9 ***** ******  76 *** ***** ***** *****  0.04 **
480010 ***** 201505250300 ***   0 *** *** OVC * * *  1.2 50 ** ** ** ** ** ** ** 5   72   69 1008.5 ***** ****** *** *** ***** ***** ***** ***** **
480010 ***** 201505250600 040   1 *** *** OVC * * *  1.9 02 ** ** ** ** ** ** ** 5   78   71 1007.7 ***** ****** *** *** ***** ***** ***** ***** **
480010 ***** 201505251200 ***   0 *** *** SCT * * *  1.9 ** ** ** ** ** ** ** ** *   78   73 1005.4 ***** ******  80 *** ***** ***** *****  0.04 **
480010 ***** 201505260300 ***   0 *** *** OVC * * *  1.2 50 ** ** ** ** ** ** ** 5   73   71 1010.3 ***** ****** *** *** ***** ***** ***** ***** **
480010 ***** 201505260600 ***   0 *** *** OVC * * *  2.5 50 ** ** ** ** ** ** ** 5   77   74 1009.3 ***** ****** *** *** ***** ***** ***** ***** **
480010 ***** 201505260900 ***   0 *** *** OVC * * *  3.8 02 ** ** ** ** ** ** ** 5   78   73 1007.5 ***** ****** *** *** ***** ***** ***** ***** **
480010 ***** 201505261200 090   1 *** *** SCT * * *  2.5 ** ** ** ** ** ** ** ** *   80   71 1006.5 ***** ******  81 *** ***** ***** *****  0.00T**
480010 ***** 201505270300 090   1 *** *** BKN * * *  2.5 ** ** ** ** ** ** ** ** *   79   71 1007.3 ***** ****** *** *** ***** ***** ***** ***** **
480010 ***** 201505270900 ***   0 *** *** OVC * * *  3.1 03 ** ** ** ** ** ** ** 2   82   74 1006.1 ***** ****** *** *** ***** ***** ***** ***** **
480010 ***** 201505271200 ***   0 *** *** OVC * * *  2.5 ** ** ** ** ** ** ** ** *   82   77 1006.0 ***** ******  82 *** ***** ***** *****  0.00 **
480010 ***** 201505280300 180   1 *** *** BKN * * *  3.1 ** ** ** ** ** ** ** ** *   79   71 1006.6 ***** ****** *** *** ***** ***** ***** ***** **
480010 ***** 201505280600 140   1 *** *** BKN * * *  5.0 05 ** ** ** ** ** ** ** 2   82   80 1006.2 ***** ****** *** *** ***** ***** ***** ***** **
480010 ***** 201505280900 140   1 *** *** OVC * * *  3.1 02 ** ** ** ** ** ** ** 2   82   74 1003.5 ***** ****** *** *** ***** ***** ***** ***** **
480010 ***** 201505281200 ***   0 *** *** BKN * * *  1.9 ** ** ** ** ** ** ** ** *   83   74 1005.0 ***** ******  85 *** ***** ***** ***** ***** **
480010 ***** 201505290300 ***   0 *** *** OVC * * *  1.9 ** ** ** ** ** ** ** ** *   75   73 1009.9 ***** ****** *** *** ***** ***** ***** ***** **
480010 ***** 201505290600 140   1 *** *** OVC * * *  2.5 03 ** ** ** ** ** ** ** 2   81   75 1007.7 ***** ****** *** *** ***** ***** ***** ***** **
480010 ***** 201506010900 140   1 *** *** BKN * * *  3.1 ** ** ** ** ** ** ** ** *   81   75 1004.7 ***** ****** *** *** ***** ***** ***** ***** **
480010 ***** 201506011200 ***   0 *** *** OVC * * *  1.2 50 ** ** ** ** ** ** ** 5   80   71 1006.1 ***** ******  82 *** ***** ***** *****  0.00T**
480010 ***** 201506020300 ***   0 *** *** OVC * * *  2.5 ** ** ** ** ** ** ** ** *   78   71 1007.8 ***** ****** *** *** ***** ***** ***** ***** **
480010 ***** 201506021200 ***   0 *** *** BKN * * *  3.1 ** ** ** ** ** ** ** ** *   84   73 1003.6 ***** ******  86 *** ***** ***** *****  0.00 **
480010 ***** 201506030300 ***   0 *** *** OVC * * *  2.5 ** ** ** ** ** ** ** ** *   78   73 1008.1 ***** ****** *** *** ***** ***** ***** ***** **
480010 ***** 201506030600 140   1 *** *** OVC * * *  3.1 ** ** ** ** ** ** ** ** *   82   74 1006.5 ***** ****** *** *** ***** ***** ***** ***** **
480010 ***** 201506030900 140   1 *** *** BKN * * *  3.8 ** ** ** ** ** ** ** ** *   86   75 1006.2 ***** ****** *** *** ***** ***** ***** ***** **
480010 ***** 201506031200 ***   0 *** *** BKN * * *  2.5 ** ** ** ** ** ** ** ** *   84   73 1006.2 ***** ******  87 *** ***** ***** ***** ***** **
480010 ***** 201506040300 ***   0 *** *** BKN * * *  2.5 ** ** ** ** ** ** ** ** *   82   74 1007.7 ***** ****** *** *** ***** ***** ***** ***** **
480010 ***** 201506040600 140   1 *** *** BKN * * * **** ** ** ** ** ** ** ** ** *   88   75 1006.7 ***** ****** *** *** ***** ***** ***** ***** **
480010 ***** 201506040900 360   1 *** *** BKN * * *  3.8 ** ** ** ** ** ** ** ** *   91   78 1004.1 ***** ****** *** *** ***** ***** ***** ***** **
480010 ***** 201506041200 ***   0 *** *** BKN * * *  3.1 ** ** ** ** ** ** ** ** *   90   80 1003.6 ***** ******  92 *** ***** ***** ***** ***** **
480010 ***** 201506050300 040   1 *** *** BKN * * *  2.5 ** ** ** ** ** ** ** ** *   80   75 1007.8 ***** ****** *** *** ***** ***** ***** ***** **
480010 ***** 201506050600 090   1 *** *** BKN * * *  3.1 ** ** ** ** ** ** ** ** *   87   75 1005.4 ***** ****** *** *** ***** ***** ***** ***** **
480010 ***** 201506050900 040   1 *** *** OVC * * *  1.2 60 ** ** ** ** ** ** ** 6   83   77 1006.2 ***** ****** *** *** ***** ***** ***** ***** **
480010 ***** 201506051200 090   1 *** *** OVC * * *  1.2 50 ** ** ** ** ** ** ** 5   81   78 1003.0 ***** ******  91 *** ***** ***** *****  0.12 **
480010 ***** 201506060300 ***   0 *** *** OVC * * *  2.5 ** ** ** ** ** ** ** ** *   81   75 1006.1 ***** ****** *** *** ***** ***** ***** ***** **
480010 ***** 201506060600 320   1 *** *** OVC * * *  2.5 ** ** ** ** ** ** ** ** *   82   77 1005.9 ***** ****** *** *** ***** ***** ***** ***** **
480010 ***** 201506061200 ***   0 *** *** BKN * * *  1.9 ** ** ** ** ** ** ** ** *   82   74 1002.1 ***** ******  84 *** ***** ***** ***** ***** **
480010 ***** 201506070600 ***   0 *** *** OVC * * *  2.5 02 ** ** ** ** ** ** ** 5   79   76 1007.1 ***** ****** *** *** ***** ***** ***** ***** **
480010 ***** 201506070900 ***   0 *** *** BKN * * *  2.5 ** ** ** ** ** ** ** ** *   83   74 1006.0 ***** ****** *** *** ***** ***** ***** ***** **
480010 ***** 201506080900 320   1 *** *** OVC * * *  2.5 51 ** ** ** ** ** ** ** 5   79   76 1004.4 ***** ****** *** *** ***** ***** ***** ***** **
480010 ***** 201506081200 ***   0 *** *** OVC * * *  1.9 02 ** ** ** ** ** ** ** 5   77   74 1003.8 ***** ******  80 *** ***** ***** *****  0.08 **
480010 ***** 201506090300 ***   0 *** *** OVC * * *  1.9 50 ** ** ** ** ** ** ** 5   74   73 1007.4 ***** ****** *** *** ***** ***** ***** ***** **
480010 ***** 201506090900 320   1 *** *** OVC * * *  1.9 63 ** ** ** ** ** ** ** 6   75   73 1005.6 ***** ****** *** *** ***** ***** ***** ***** **
480010 ***** 201506091200 ***   0 *** *** OVC * * *  1.9 21 ** ** ** ** ** ** ** 6   74   71 1004.9 ***** ******  78 *** ***** ***** *****  0.35 **
480010 ***** 201506100300 220   1 *** *** OVC * * *  2.5 03 ** ** ** ** ** ** ** 5   76   71 1007.4 ***** ****** *** *** ***** ***** ***** ***** **
480010 ***** 201506100900 140   1 *** *** OVC * * *  3.8 02 ** ** ** ** ** ** ** 5   82   74 1004.6 ***** ****** *** *** ***** ***** ***** ***** **
480010 ***** 201506110300 ***   0 *** *** OVC * * *  2.5 ** ** ** ** ** ** ** ** *   75   73 1007.7 ***** ****** *** *** ***** ***** ***** ***** **
480010 ***** 201506110600 ***   0 *** *** OVC * * *  2.5 ** ** ** ** ** ** ** ** *   80   71 1009.5 ***** ****** *** *** ***** ***** ***** ***** **
480010 ***** 201506110900 220   1 *** *** BKN * * *  3.8 ** ** ** ** ** ** ** ** *   80   75 1004.7 ***** ****** *** *** ***** ***** ***** ***** **
480010 ***** 201506111200 ***   0 *** *** OVC * * *  2.5 ** ** ** ** ** ** ** ** *   79   76 1006.4 ***** ******  82 *** ***** ***** *****  0.00 **
480010 ***** 201506120300 320   1 *** *** OVC * * *  1.2 60 ** ** ** ** ** ** ** 6   74   73 1008.0 ***** ****** *** *** ***** ***** ***** ***** **
480010 ***** 201506120600 140   1 ***  10 OVC * * *  1.9 61 ** ** ** ** ** ** ** 6   75   73 1007.7 ***** ****** *** *** ***** ***** ***** ***** **
480010 ***** 201506120900 270   1 *** *** OVC * * *  2.5 50 ** ** ** ** ** ** ** 6   77   71 1005.6 ***** ****** *** *** ***** ***** ***** ***** **
480010 ***** 201506150300 320   1 *** *** OVC * * *  1.9 ** ** ** ** ** ** ** ** *   77   74 1005.4 ***** ****** *** *** ***** ***** ***** ***** **
480010 ***** 201506150600 140   1 *** *** OVC * * *  1.9 63 ** ** ** ** ** ** ** 6   79   76 1004.4 ***** ****** *** *** ***** ***** ***** ***** **
480010 ***** 201506180300 ***   0 *** *** OVC * * *  1.9 61 ** ** ** ** ** ** ** 6   76   73 1004.6 ***** ****** *** *** ***** ***** ***** ***** **
480010 ***** 201506180600 320   1 *** *** OVC * * *  2.5 ** ** ** ** ** ** ** ** *   83   77 1003.9 ***** ****** *** *** ***** ***** ***** ***** **
480010 ***** 201506190300 140   1 *** *** OVC * * *  2.5 ** ** ** ** ** ** ** ** *   76   74 1004.7 ***** ****** *** *** ***** ***** ***** ***** **
480010 ***** 201506190600 320   1 *** *** BKN * * *  2.5 ** ** ** ** ** ** ** ** *   81   75 1004.9 ***** ****** *** *** ***** ***** ***** ***** **
480010 ***** 201506190900 310   1 *** *** OVC * * *  1.9 62 ** ** ** ** ** ** ** 6   78   77 1003.5 ***** ****** *** *** ***** ***** ***** ***** **
480010 ***** 201506191200 360   0 *** *** OVC * * *  1.9 02 ** ** ** ** ** ** ** 9   79   73 1003.4 ***** ****** *** *** ***** ***** ***** ***** **
480010 ***** 201506200300 140   1 *** *** BKN * * *  2.5 ** ** ** ** ** ** ** ** *   81   75 1005.0 ***** ****** *** *** ***** ***** ***** ***** **
480010 ***** 201506200600 140   1 *** *** OVC * * *  2.5 ** ** ** ** ** ** ** ** *   84   77 1005.3 ***** ****** *** *** ***** ***** ***** ***** **
480010 ***** 201506200900 320   1 *** *** OVC * * *  2.5 02 ** ** ** ** ** ** ** 6   84   79 1004.7 ***** ****** *** *** ***** ***** ***** ***** **
480010 ***** 201506210900 360   1 *** *** BKN * * *  2.5 ** ** ** ** ** ** ** ** *   85   75 1003.4 ***** ****** *** *** ***** ***** ***** ***** **
480010 ***** 201506211200 360   0 ***   3 OVC * * *  1.2 63 ** ** ** ** ** ** ** 2   79   76 1002.1 ***** ****** *** *** ***** ***** ***** ***** **
480010 ***** 201506220600 040   1 *** *** OVC * * *  2.5 50 ** ** ** ** ** ** ** 5   82   77 1003.4 ***** ****** *** *** ***** ***** ***** ***** **
480010 ***** 201506220900 ***   0 *** *** OVC * * *  1.2 63 ** ** ** ** ** ** ** 6   80   78 1000.1 ***** ****** *** *** ***** ***** ***** ***** **
480010 ***** 201506230600 040   1 *** *** OVC * * *  2.5 60 ** ** ** ** ** ** ** 6   80   77 1000.3 ***** ****** *** *** ***** ***** ***** ***** **
480010 ***** 201506230900 040   1 *** *** OVC * * *  1.9 63 ** ** ** ** ** ** ** 6   79   76 1000.6 ***** ****** *** *** ***** ***** ***** ***** **
480010 ***** 201506240900 140   1 *** *** OVC * * *  2.5 60 ** ** ** ** ** ** ** 6   82   77  998.6 ***** ****** *** *** ***** ***** ***** ***** **
480010 ***** 201506241200 360   0 *** *** OVC * * *  1.9 02 ** ** ** ** ** ** ** 6   80   78  997.3 ***** ****** *** *** ***** ***** ***** ***** **
480010 ***** 201506250300 320   1 *** *** OVC * * *  1.2 62 ** ** ** ** ** ** ** 6   76   76 1000.0 ***** ****** *** *** ***** ***** ***** ***** **
480010 ***** 201506250600 130   1 ***  10 BKN * * *  3.8 ** ** ** ** ** ** ** ** *   83   79  998.0 ***** ****** *** *** ***** ***** ***** ***** **
480010 ***** 201506260300 360   1 *** *** OVC * * *  1.2 60 ** ** ** ** ** ** ** 2   78   76 1004.2 ***** ****** *** *** ***** ***** ***** ***** **
480010 ***** 201506260600 320   1 *** *** BKN * * *  3.8 09 ** ** ** ** ** ** ** 7   87   75  997.5 ***** ****** *** *** ***** ***** ***** ***** **
480010 ***** 201506260900 040   1 *** *** BKN * * *  3.8 50 ** ** ** ** ** ** ** 5   86   78  996.9 ***** ****** *** *** ***** ***** ***** ***** **
480010 ***** 201506270300 140   1 *** *** OVC * * *  1.2 61 ** ** ** ** ** ** ** 6   78   76 1004.3 ***** ****** *** *** ***** ***** ***** ***** **
480010 ***** 201506280600 320   1 *** *** OVC * * *  1.2 62 ** ** ** ** ** ** ** 6   77   77 1007.4 ***** ****** *** *** ***** ***** ***** ***** **
480010 ***** 201506280900 ***   0 *** *** BKN * * *  2.5 01 ** ** ** ** ** ** ** 6   85   78 1005.7 ***** ****** *** *** ***** ***** ***** ***** **
480010 ***** 201506290900 230   1 *** *** OVC * * *  2.5 50 ** ** ** ** ** ** ** 5   80   78 1003.7 ***** ****** *** *** ***** ***** ***** ***** **
480010 ***** 201506300300 ***   0 *** *** OVC * * *  2.5 ** ** ** ** ** ** ** ** *   77   74 1005.1 ***** ****** *** *** ***** ***** ***** ***** **
480010 ***** 201506300600 090   1 *** *** OVC * * *  2.5 50 ** ** ** ** ** ** ** 6   82   77 1004.6 ***** ****** *** *** ***** ***** ***** ***** **
480010 ***** 201507020300 ***   0 *** *** OVC * * *  2.5 ** ** ** ** ** ** ** ** *   78   76 1004.3 ***** ****** *** *** ***** ***** ***** ***** **
480010 ***** 201507020600 360   2 *** *** OVC * * *  1.9 02 ** ** ** ** ** ** ** 5   81   78 1004.5 ***** ****** *** *** ***** ***** ***** ***** **
480010 ***** 201507030900 ***   0 *** *** BKN * * *  3.8 ** ** ** ** ** ** ** ** *   87   78  998.3 ***** ****** *** *** ***** ***** ***** ***** **
480010 ***** 201507040600 360   1 *** *** OVC * * *  1.9 61 ** ** ** ** ** ** ** 6   80   73 1002.8 ***** ****** *** *** ***** ***** ***** ***** **
480010 ***** 201507050000 ***   0 *** *** OVC * * *  1.9 02 ** ** ** ** ** ** ** 5   77   71 1000.9 ***** ******  78 *** ***** ***** *****  0.43 **
480010 ***** 201507050300 ***   0 *** *** OVC * * *  1.2 63 ** ** ** ** ** ** ** 6   73   73 1004.1 ***** ****** *** *** ***** ***** ***** ***** **
480010 ***** 201507050600 320   1 *** *** OVC * * *  2.5 02 ** ** ** ** ** ** ** 6   77   74 1004.3 ***** ****** *** *** ***** ***** ***** ***** **
480010 ***** 201507050900 180   1 *** *** OVC * * *  3.1 ** ** ** ** ** ** ** ** *   81   73 1000.4 ***** ****** *** *** ***** ***** ***** ***** **
480010 ***** 201507051200 270   1 *** *** BKN * * *  2.5 ** ** ** ** ** ** ** ** *   81   75 1000.4 ***** ******  82 *** ***** ***** *****  0.39 **
480010 ***** 201507060600 040   1 *** *** SCT * * *  3.1 ** ** ** ** ** ** ** ** *   86   75 1001.8 ***** ****** *** *** ***** ***** ***** ***** **
480010 ***** 201507060900 090   1 *** *** SCT * * *  3.1 ** ** ** ** ** ** ** ** *   93   75  997.3 ***** ****** *** *** ***** ***** ***** ***** **
480010 ***** 201507061200 ***   0 *** *** BKN * * *  3.8 ** ** ** ** ** ** ** ** *   91   78  996.9 ***** ******  95 *** ***** ***** ***** ***** **
480010 ***** 201507070300 360   1 *** *** OVC * * *  2.5 50 ** ** ** ** ** ** ** 5   78   76 1004.3 ***** ****** *** *** ***** ***** ***** ***** **
480010 ***** 201507070600 090   1 *** *** OVC * * *  2.5 ** ** ** ** ** ** ** ** *   83   77 1003.8 ***** ****** *** *** ***** ***** ***** ***** **
480010 ***** 201507070900 040   1 *** *** SCT * * *  2.5 ** ** ** ** ** ** ** ** *   88   77  998.0 ***** ****** *** *** ***** ***** ***** ***** **
480010 ***** 201507080300 040   1 *** *** BKN * * *  2.5 ** ** ** ** ** ** ** ** *   83   73 1003.2 ***** ****** *** *** ***** ***** ***** ***** **
480010 ***** 201507080900 ***   0 *** *** BKN * * *  6.2 ** ** ** ** ** ** ** ** *   93   81  999.2 ***** ****** *** *** ***** ***** ***** ***** **
480010 ***** 201507100600 ***   0 *** *** BKN * * *  2.5 ** ** ** ** ** ** ** ** *   83   77 1003.6 ***** ****** *** *** ***** ***** ***** ***** **
480010 ***** 201507110300 ***   0 *** *** SCT * * *  3.8 ** ** ** ** ** ** ** ** *   82   74 1006.1 ***** ****** *** *** ***** ***** ***** ***** **
480010 ***** 201507120900 270   1 *** *** BKN * * *  3.8 ** ** ** ** ** ** ** ** *   88   80  999.8 ***** ****** *** *** ***** ***** ***** ***** **
480010 ***** 201507130300 ***   0 *** *** OVC * * *  1.2 51 ** ** ** ** ** ** ** 6   77   77 1004.3 ***** ****** *** *** ***** ***** ***** ***** **
480010 ***** 201507130600 320   1 *** *** OVC * * *  1.9 50 ** ** ** ** ** ** ** 5   80   78 1001.8 ***** ****** *** *** ***** ***** ***** ***** **
480010 ***** 201507140300 ***   0 *** *** OVC * * *  2.5 50 ** ** ** ** ** ** ** 5   79   79 1000.4 ***** ****** *** *** ***** ***** ***** ***** **
480010 ***** 201507140600 040   1 *** *** OVC * * *  3.1 02 ** ** ** ** ** ** ** 5   83   77  999.9 ***** ****** *** *** ***** ***** ***** ***** **
480010 ***** 201507140900 270   1 *** *** BKN * * *  3.1 ** ** ** ** ** ** ** ** *   87   80  998.6 ***** ****** *** *** ***** ***** ***** ***** **
480010 ***** 201507141200 ***   0 *** *** OVC * * *  3.1 14 ** ** ** ** ** ** ** 2   82   77  995.7 ***** ******  90 *** ***** ***** *****  0.00T**
480010 ***** 201507150300 320   1 *** *** OVC * * *  2.5 60 ** ** ** ** ** ** ** 6   73   73 1001.8 ***** ****** *** *** ***** ***** ***** ***** **
480010 ***** 201507150600 270   1 *** *** OVC * * *  2.5 50 ** ** ** ** ** ** ** 5   77   74 1002.6 ***** ****** *** *** ***** ***** ***** ***** **
480010 ***** 201507150900 040   1 *** *** BKN * * *  3.1 ** ** ** ** ** ** ** ** *   79   73 1000.5 ***** ****** *** *** ***** ***** ***** ***** **
480010 ***** 201507160300 ***   0 *** *** OVC * * *  1.9 61 ** ** ** ** ** ** ** 5   77   74 1001.5 ***** ****** *** *** ***** ***** ***** ***** **
480010 ***** 201507160600 140   1 *** *** OVC * * *  2.5 50 ** ** ** ** ** ** ** 5   81   75 1002.1 ***** ****** *** *** ***** ***** ***** ***** **
480010 ***** 201507170300 ***   0 *** *** OVC * * *  1.9 50 ** ** ** ** ** ** ** 6   75   75 1002.7 ***** ****** *** *** ***** ***** ***** ***** **
480010 ***** 201507170600 140   1 *** *** BKN * * *  3.1 ** ** ** ** ** ** ** ** *   85   75 1001.7 ***** ****** *** *** ***** ***** ***** ***** **
480010 ***** 201507170900 140   1 *** *** BKN * * *  3.1 ** ** ** ** ** ** ** ** *   90   77  998.2 ***** ****** *** *** ***** ***** ***** ***** **
480010 ***** 201507190300 ***   0 *** *** BKN * * *  2.9 20 ** ** ** ** ** ** ** 5   77   71 1003.6 ***** ****** *** *** ***** ***** ***** ***** **
480010 ***** 201507200900 040   1 *** *** BKN * * *  3.1 ** ** ** ** ** ** ** ** *   87   78 1000.3 ***** ****** *** *** ***** ***** ***** ***** **
480010 ***** 201507210300 120   1 *** *** OVC * * *  2.5 ** ** ** ** ** ** ** ** *   79   76 1001.1 ***** ****** *** *** ***** ***** ***** ***** **
480010 ***** 201507210600 130   1 *** *** BKN * * *  3.1 ** ** ** ** ** ** ** ** *   82   74 1004.3 ***** ****** *** *** ***** ***** ***** ***** **
480010 ***** 201507210900 130   1 *** *** OVC * * *  3.1 ** ** ** ** ** ** ** ** *   87   78 1001.8 ***** ****** *** *** ***** ***** ***** ***** **
480010 ***** 201507220000 ***   0 *** *** OVC * * *  2.5 03 ** ** ** ** ** ** ** 6   77   74 1004.1 ***** ****** ***  74 ***** ***** *****  0.16 **
480010 ***** 201507220300 150   1 *** *** OVC * * *  2.5 02 ** ** ** ** ** ** ** 2   79   76 1005.9 ***** ****** *** *** ***** ***** ***** ***** **
480010 ***** 201507220600 320   1 ***   7 OVC * * *  1.9 65 ** ** ** ** ** ** ** 6   79   76 ****** ***** ****** *** *** ***** ***** ***** ***** **
480010 ***** 201507220900 130   1 *** *** OVC * * *  1.9 61 ** ** ** ** ** ** ** 6   79   79 1003.8 ***** ****** *** *** ***** ***** ***** ***** **
480010 ***** 201507221200 270   2 *** *** OVC * * *  0.6 63 ** ** ** ** ** ** ** 6   76   75 1003.6 ***** ******  81 *** ***** ***** *****  2.52 **
480010 ***** 201507240600 180   2 *** *** BKN * * *  2.5 ** ** ** ** ** ** ** ** *   82   74 1006.2 ***** ****** *** *** ***** ***** ***** ***** **
480010 ***** 201507240900 130   1 *** *** SCT * * *  3.8 ** ** ** ** ** ** ** ** *   87   75 1002.9 ***** ****** *** *** ***** ***** ***** ***** **
480010 ***** 201507260300 090   1 *** *** SCT * * *  3.1 01 ** ** ** ** ** ** ** 6   81   75 1004.6 ***** ****** *** *** ***** ***** ***** ***** **
480010 ***** 201507260900 090   1 *** *** SCT * * *  4.4 ** ** ** ** ** ** ** ** *   92   78 1000.4 ***** ****** *** *** ***** ***** ***** ***** **
480010 ***** 201507271200 ***   0 *** *** BKN * * *  3.8 ** ** ** ** ** ** ** ** *   86   75 1002.2 ***** ******  91 *** ***** ***** ***** ***** **
480010 ***** 201507280300 320   1 *** *** BKN * * *  2.5 ** ** ** ** ** ** ** ** *   77   74 1006.9 ***** ****** *** *** ***** ***** ***** ***** **
480010 ***** 201507280600 090   1 *** *** SCT * * *  3.8 ** ** ** ** ** ** ** ** *   84   73 1002.9 ***** ****** *** *** ***** ***** ***** ***** **
480010 ***** 201507280900 320   1 *** *** SCT * * *  3.8 ** ** ** ** ** ** ** ** *   89   74 1000.9 ***** ****** *** *** ***** ***** ***** ***** **
480010 ***** 201507290300 040   1 *** *** BKN * * *  2.5 50 ** ** ** ** ** ** ** 5   78   73 1006.4 ***** ****** *** *** ***** ***** ***** ***** **
480010 ***** 201507290600 180   1 *** *** SCT * * *  3.1 ** ** ** ** ** ** ** ** *   86   75 1003.5 ***** ****** *** *** ***** ***** ***** ***** **
480010 ***** 201507290900 090   2 *** *** BKN * * *  3.8 ** ** ** ** ** ** ** ** *   87   75 1001.9 ***** ****** *** *** ***** ***** ***** ***** **
480010 ***** 201507291200 230   1 *** *** BKN * * *  2.5 ** ** ** ** ** ** ** ** *   82   74 1002.4 ***** ******  88 *** ***** ***** ***** ***** **
480010 ***** 201507310300 270   1 *** *** BKN * * *  3.1 ** ** ** ** ** ** ** ** *   79   73 1005.2 ***** ****** *** *** ***** ***** ***** ***** **
480010 ***** 201507310600 ***   0 *** *** BKN * * *  3.8 ** ** ** ** ** ** ** ** *   86   75 1003.8 ***** ****** *** *** ***** ***** ***** ***** **
480010 ***** 201507310900 090   1 *** *** BKN * * *  3.8 ** ** ** ** ** ** ** ** *   87   75 1003.1 ***** ****** *** *** ***** ***** ***** ***** **
480010 ***** 201508010300 090   1 *** *** SCT * * *  3.1 ** ** ** ** ** ** ** ** *   81   75 1007.0 ***** ****** *** *** ***** ***** ***** ***** **
480010 ***** 201508010900 090   1 *** *** SCT * * *  4.4 ** ** ** ** ** ** ** ** *   92   75 1001.8 ***** ****** *** *** ***** ***** ***** ***** **
480010 ***** 201508020300 360   1 *** *** BKN * * *  3.1 ** ** ** ** ** ** ** ** *   81   75 1006.2 ***** ****** *** *** ***** ***** ***** ***** **
480010 ***** 201508020900 130   1 *** *** SCT * * *  6.2 ** ** ** ** ** ** ** ** *   92   78 1000.1 ***** ****** *** *** ***** ***** ***** ***** **
480010 ***** 201508030300 360   1 *** *** BKN * * *  2.5 ** ** ** ** ** ** ** ** *   77   74 1006.7 ***** ****** *** *** ***** ***** ***** ***** **
480010 ***** 201508030600 040   1 *** *** SCT * * *  3.1 ** ** ** ** ** ** ** ** *   86   70 1002.9 ***** ****** *** *** ***** ***** ***** ***** **
480010 ***** 201508030900 140   2 *** *** SCT * * *  3.8 ** ** ** ** ** ** ** ** *   91   78  998.5 ***** ****** *** *** ***** ***** ***** ***** **
480010 ***** 201508040900 130   1 *** *** BKN * * *  2.5 ** ** ** ** ** ** ** ** *   84   79  999.6 ***** ****** *** *** ***** ***** ***** ***** **
480010 ***** 201508060600 ***   0 *** *** OVC * * *  0.6 61 ** ** ** ** ** ** ** 6   76   68 1004.3 ***** ****** *** *** ***** ***** ***** ***** **
480010 ***** 201508061200 ***   0 *** *** SCT * * *  6.2 ** ** ** ** ** ** ** ** *   86   80 ****** ***** ******  90 *** ***** ***** *****  0.98 **
480010 ***** 201508070300 ***   0 *** *** OVC * * *  1.2 50 ** ** ** ** ** ** ** 5   78   77 1005.1 ***** ****** *** *** ***** ***** ***** ***** **
480010 ***** 201508070600 130   1 *** *** OVC * * *  1.9 50 ** ** ** ** ** ** ** 6   82   77 1004.2 ***** ****** *** *** ***** ***** ***** ***** **
480010 ***** 201508070900 270   1 *** *** OVC * * *  1.2 53 ** ** ** ** ** ** ** 6   80   78 1004.2 ***** ****** *** *** ***** ***** ***** ***** **
480010 ***** 201508080900 090   1 *** *** OVC * * *  2.5 54 ** ** ** ** ** ** ** 5   79   78 1003.0 ***** ****** *** *** ***** ***** ***** ***** **
480010 ***** 201508090300 ***   0 *** *** OVC * * *  3.1 03 ** ** ** ** ** ** ** 5   79   76 1003.4 ***** ****** *** *** ***** ***** ***** ***** **
480010 ***** 201508090900 ***   0 *** *** BKN * * *  3.8 ** ** ** ** ** ** ** ** *   88   78  997.2 ***** ****** *** *** ***** ***** ***** ***** **
480010 ***** 201508100600 130   1 *** *** BKN * * *  2.5 ** ** ** ** ** ** ** ** *   81   75 1005.8 ***** ****** *** *** ***** ***** ***** ***** **
480010 ***** 201508100900 130   2 *** *** SCT * * *  3.1 ** ** ** ** ** ** ** ** *   87   80 1002.3 ***** ****** *** *** ***** ***** ***** ***** **
480010 ***** 201508101200 130   1 *** *** SCT * * *  3.8 ** ** ** ** ** ** ** ** *   87   78 1002.2 ***** ****** *** *** ***** ***** ***** ***** **
480010 ***** 201508110600 040   1 *** *** SCT * * *  3.8 ** ** ** ** ** ** ** ** *   88   78  999.7 ***** ****** *** *** ***** ***** ***** ***** **
480010 ***** 201508110900 130   2 *** *** SCT * * *  3.8 ** ** ** ** ** ** ** ** *   93   76 1001.9 ***** ****** *** *** ***** ***** ***** ***** **
480010 ***** 201508120300 230   1 *** *** OVC * * *  2.5 50 ** ** ** ** ** ** ** 5   78   76 1008.2 ***** ****** *** *** ***** ***** ***** ***** **
480010 ***** 201508120600 130   1 *** *** BKN * * *  4.4 ** ** ** ** ** ** ** ** *   84   77 1007.3 ***** ****** *** *** ***** ***** ***** ***** **
480010 ***** 201508140300 130   1 *** *** OVC * * *  2.5 50 ** ** ** ** ** ** ** 5   80   75 1006.3 ***** ****** *** *** ***** ***** ***** ***** **
480010 ***** 201508140600 040   1 *** *** OVC * * *  1.9 50 ** ** ** ** ** ** ** 6   79   76 1006.5 ***** ****** *** *** ***** ***** ***** ***** **
480010 ***** 201508140900 320   1 *** *** OVC * * *  1.9 63 ** ** ** ** ** ** ** 6   81   78 1002.7 ***** ****** *** *** ***** ***** ***** ***** **
480010 ***** 201508150300 ***   0 *** *** OVC * * *  1.2 50 ** ** ** ** ** ** ** 5   77   76 1005.2 ***** ****** *** *** ***** ***** ***** ***** **
480010 ***** 201508150900 ***   0 *** *** BKN * * *  3.1 03 ** ** ** ** ** ** ** 2   83   77 1002.7 ***** ****** *** *** ***** ***** ***** ***** **
480010 ***** 201508170300 ***   0 *** *** OVC * * *  2.5 03 ** ** ** ** ** ** ** 5   77   74 1005.1 ***** ****** *** *** ***** ***** ***** ***** **
480010 ***** 201508170600 130   1 ***  10 OVC * * *  2.5 50 ** ** ** ** ** ** ** 5   80   78 1004.5 ***** ****** *** *** ***** ***** ***** ***** **
480010 ***** 201508170900 130   3 *** *** BKN * * *  2.5 ** ** ** ** ** ** ** ** *   82   77 1002.5 ***** ****** *** *** ***** ***** ***** ***** **
480010 ***** 201508171200 130   2 ***  10 BKN * * *  2.5 ** ** ** ** ** ** ** ** *   79   73 1002.4 ***** ****** *** *** ***** ***** ***** ***** **
480010 ***** 201508180300 130   1 *** *** OVC * * *  1.9 51 ** ** ** ** ** ** ** 5   77   76 1005.1 ***** ****** *** *** ***** ***** ***** ***** **
480010 ***** 201508180600 130   3 *** *** OVC * * *  2.5 ** ** ** ** ** ** ** ** *   83   77 1003.9 ***** ****** *** *** ***** ***** ***** ***** **
480010 ***** 201508180900 130   3 *** *** OVC * * *  2.5 ** ** ** ** ** ** ** ** *   81   75 1002.9 ***** ****** *** *** ***** ***** ***** ***** **
480010 ***** 201508190300 230   1 *** *** OVC * * *  1.9 50 ** ** ** ** ** ** ** 5   76   75 1005.8 ***** ****** *** *** ***** ***** ***** ***** **
480010 ***** 201508190600 130   1 *** *** OVC * * *  2.5 50 ** ** ** ** ** ** ** 1   78   76 1005.3 ***** ****** *** *** ***** ***** ***** ***** **
480010 ***** 201508191200 130   1 *** *** OVC * * *  1.9 61 ** ** ** ** ** ** ** 6   77   77 1004.3 ***** ******  81 *** ***** ***** *****  0.28 **
480010 ***** 201508200300 ***   0 *** *** OVC * * *  1.2 63 ** ** ** ** ** ** ** 6   75   73 1003.4 ***** ****** *** *** ***** ***** ***** ***** **
480010 ***** 201508200600 320   1 *** *** OVC * * *  1.9 61 ** ** ** ** ** ** ** 6   76   74 1003.4 ***** ****** *** *** ***** ***** ***** ***** **
480010 ***** 201508200900 ***   0 *** *** OVC * * *  2.5 21 ** ** ** ** ** ** ** 6   78   76 1006.5 ***** ****** *** *** ***** ***** ***** ***** **
480010 ***** 201508201200 ***   0 *** *** OVC * * *  2.5 50 ** ** ** ** ** ** ** 5   80   78 1004.2 ***** ******  82 *** ***** ***** *****  0.94 **
480010 ***** 201508210300 ***   0 *** *** OVC * * *  2.5 ** ** ** ** ** ** ** ** *   79   76 1007.4 ***** ****** *** *** ***** ***** ***** ***** **
480010 ***** 201508230300 ***   0 *** *** OVC * * *  1.9 61 ** ** ** ** ** ** ** 5   74   74 1005.4 ***** ****** *** *** ***** ***** ***** ***** **
480010 ***** 201508230900 270   1 *** *** OVC * * *  3.1 50 ** ** ** ** ** ** ** 2   81   75 1003.0 ***** ****** *** *** ***** ***** ***** ***** **
480010 ***** 201508250300 040   1 *** *** OVC * * *  1.9 17 ** ** ** ** ** ** ** 5   77   76 1005.1 ***** ****** *** *** ***** ***** ***** ***** **
480010 ***** 201508250900 320   1 *** *** OVC * * *  1.2 21 ** ** ** ** ** ** ** 6   80   78 1002.1 ***** ****** *** *** ***** ***** ***** ***** **
480010 ***** 201508251200 270   1 *** *** BKN * * *  2.5 60 ** ** ** ** ** ** ** 6   78   77 1001.2 ***** ******  83 *** ***** ***** *****  2.36 **
480010 ***** 201508260300 270   1 *** *** OVC * * *  1.9 50 ** ** ** ** ** ** ** 5   74   74 1006.5 ***** ****** *** *** ***** ***** ***** ***** **
480010 ***** 201508260600 040   1 *** *** BKN * * *  2.5 ** ** ** ** ** ** ** ** *   82   77 1004.4 ***** ****** *** *** ***** ***** ***** ***** **
480010 ***** 201508260900 360   2 *** *** BKN * * *  2.5 ** ** ** ** ** ** ** ** *   85   80 1002.1 ***** ****** *** *** ***** ***** ***** ***** **
480010 ***** 201508261200 230   1 ***   7 BKN * * *  1.9 95 ** ** ** ** ** ** ** 9   77   77 1002.6 ***** ****** *** *** ***** ***** ***** ***** **
480010 ***** 201508270300 320   1 *** *** OVC * * *  2.5 01 ** ** ** ** ** ** ** 6   76   74 1006.9 ***** ****** *** *** ***** ***** ***** ***** **
480010 ***** 201508270600 ***   0 *** *** OVC * * *  2.5 02 ** ** ** ** ** ** ** 6   76   74 1006.9 ***** ****** *** *** ***** ***** ***** ***** **
480010 ***** 201508270900 360   1 *** *** OVC * * *  0.6 60 ** ** ** ** ** ** ** 6   77   76 1003.7 ***** ****** *** *** ***** ***** ***** ***** **
480010 ***** 201508280300 ***   0 *** *** OVC * * *  1.2 51 ** ** ** ** ** ** ** 5   75   75 1007.1 ***** ****** *** *** ***** ***** ***** ***** **
480010 ***** 201508280600 270   1 *** *** OVC * * *  1.9 50 ** ** ** ** ** ** ** 5   77   74 1005.0 ***** ****** *** *** ***** ***** ***** ***** **
480010 ***** 201508281200 ***   0 *** *** OVC * * *  0.6 61 ** ** ** ** ** ** ** 6   75   74 1003.0 ***** ******  78 *** ***** ***** *****  0.79 **
480010 ***** 201508290300 ***   0 *** *** OVC * * *  1.2 61 ** ** ** ** ** ** ** 6   75   74 1004.6 ***** ****** *** *** ***** ***** ***** ***** **
480010 ***** 201508290900 130   1 *** *** OVC * * *  2.5 50 ** ** ** ** ** ** ** 5   79   76 1003.4 ***** ****** *** *** ***** ***** ***** ***** **
480010 ***** 201508300300 ***   0 *** *** OVC * * *  1.9 61 ** ** ** ** ** ** ** 6   73   73 1007.6 ***** ****** *** *** ***** ***** ***** ***** **
480010 ***** 201508310300 130   1 *** *** OVC * * *  1.2 50 ** ** ** ** ** ** ** 5   73   73 1007.1 ***** ****** *** *** ***** ***** ***** ***** **
480010 ***** 201508310600 130   1 *** *** OVC * * *  1.2 21 ** ** ** ** ** ** ** 6   75 **** 1007.2 ***** ****** *** *** ***** ***** ***** ***** **
480010 ***** 201508310900 130   1 *** *** OVC * * *  1.9 61 ** ** ** ** ** ** ** 5   76   75 1005.2 ***** ****** *** *** ***** ***** ***** ***** **
480010 ***** 201508311200 360   0 ***  10 BKN * * *  1.9 21 ** ** ** ** ** ** ** 6   76   75 1005.4 ***** ****** *** *** ***** ***** ***** ***** **
480010 ***** 201509010300 ***   0 *** *** OVC * * *  1.9 ** ** ** ** ** ** ** ** *   75   74 1005.1 ***** ****** *** *** ***** ***** ***** ***** **
480010 ***** 201509010600 090   1 *** *** OVC * * *  2.5 21 ** ** ** ** ** ** ** 6   78   73 1005.0 ***** ****** *** *** ***** ***** ***** ***** **
480010 ***** 201509010900 ***   0 *** *** OVC * * *  1.2 63 ** ** ** ** ** ** ** 6   75   74 1004.0 ***** ****** *** *** ***** ***** ***** ***** **
480010 ***** 201509011200 ***   0 *** *** OVC * * *  1.2 63 ** ** ** ** ** ** ** 6   75   75 1004.8 ***** ******  79 *** ***** ***** *****  1.77 **
480010 ***** 201509020600 ***   0 *** *** OVC * * *  1.2 63 ** ** ** ** ** ** ** 6   76   74 1007.7 ***** ****** *** *** ***** ***** ***** ***** **
480010 ***** 201509030300 130   1 *** *** OVC * * *  1.9 50 ** ** ** ** ** ** ** 6   78   73 1009.0 ***** ****** *** *** ***** ***** ***** ***** **
480010 ***** 201509030600 360   0 *** *** OVC * * *  1.9 02 ** ** ** ** ** ** ** 5   77   74 1008.2 ***** ****** *** *** ***** ***** ***** ***** **
480010 ***** 201509030900 ***   0 *** *** OVC * * *  2.5 50 ** ** ** ** ** ** ** 6   78   77 1007.8 ***** ****** *** *** ***** ***** ***** ***** **
480010 ***** 201509040300 ***   0 *** *** OVC * * *  1.9 21 ** ** ** ** ** ** ** 6   76   76 1010.8 ***** ****** *** *** ***** ***** ***** ***** **
480010 ***** 201509040600 130   1 *** *** BKN * * *  3.1 ** ** ** ** ** ** ** ** *   84   73 1009.6 ***** ****** *** *** ***** ***** ***** ***** **
480010 ***** 201509040900 130   1 *** *** SCT * * *  3.8 ** ** ** ** ** ** ** ** *   88   80 1006.1 ***** ****** *** *** ***** ***** ***** ***** **
480010 ***** 201509041200 ***   0 *** *** BKN * * *  3.1 ** ** ** ** ** ** ** ** *   86   80 1003.8 ***** ******  90 *** ***** ***** *****  0.04 **
480010 ***** 201509050300 ***   0 *** *** OVC * * *  1.9 61 ** ** ** ** ** ** ** 6   76   75 1008.7 ***** ****** *** *** ***** ***** ***** ***** **
480010 ***** 201509060300 ***   0 *** *** OVC * * *  1.9 51 ** ** ** ** ** ** ** 6   78   77 1007.7 ***** ****** *** *** ***** ***** ***** ***** **
480010 ***** 201509060900 270   1 *** *** BKN * * *  3.8 03 ** ** ** ** ** ** ** 6   78   77 1005.2 ***** ****** *** *** ***** ***** ***** ***** **
480010 ***** 201509070300 160   2 *** *** OVC * * *  2.5 03 ** ** ** ** ** ** ** 5   77   74 1007.8 ***** ****** *** *** ***** ***** ***** ***** **
480010 ***** 201509070600 270   1 *** *** OVC * * *  1.9 63 ** ** ** ** ** ** ** 5   77   76 1005.9 ***** ****** *** *** ***** ***** ***** ***** **
480010 ***** 201509071200 360   0 *** *** OVC * * *  1.9 50 ** ** ** ** ** ** ** 6   78   76 1004.1 ***** ****** *** *** ***** ***** ***** ***** **
480010 ***** 201509080300 ***   0 *** *** OVC * * *  0.6 54 ** ** ** ** ** ** ** 6   76   75 1007.2 ***** ****** *** *** ***** ***** ***** ***** **
480010 ***** 201509080600 360   0 ***  10 OVC * * *  1.9 50 ** ** ** ** ** ** ** 6   79   78 1004.9 ***** ****** *** *** ***** ***** ***** ***** **
480010 ***** 201509080900 040   1 *** *** SCT * * *  2.5 ** ** ** ** ** ** ** ** *   83   77 1002.1 ***** ****** *** *** ***** ***** ***** ***** **
480010 ***** 201509090300 270   1 *** *** OVC * * *  2.5 20 ** ** ** ** ** ** ** 6   78   76 1007.4 ***** ****** *** *** ***** ***** ***** ***** **
480010 ***** 201509090600 270   1 *** *** SCT * * *  3.1 ** ** ** ** ** ** ** ** *   86   75 1007.2 ***** ****** *** *** ***** ***** ***** ***** **
480010 ***** 201509090900 270   1 *** *** SCT * * *  3.1 ** ** ** ** ** ** ** ** *   89   78 1003.4 ***** ****** *** *** ***** ***** ***** ***** **
480010 ***** 201509100300 270   1 *** *** OVC * * *  1.2 61 ** ** ** ** ** ** ** 6   77   76 1011.8 ***** ****** *** *** ***** ***** ***** ***** **
480010 ***** 201509100600 270   1 *** *** OVC * * *  2.5 ** ** ** ** ** ** ** ** *   83   77 1010.0 ***** ****** *** *** ***** ***** ***** ***** **
480010 ***** 201509100900 090   1 *** *** SCT * * *  3.8 ** ** ** ** ** ** ** ** *   89   78 1006.1 ***** ****** *** *** ***** ***** ***** ***** **
480010 ***** 201509101200 ***   0 *** *** BKN * * *  4.4 ** ** ** ** ** ** ** ** *   86   80 1005.8 ***** ******  90 *** ***** ***** ***** ***** **
480010 ***** 201509110300 320   1 *** *** OVC * * *  1.9 50 ** ** ** ** ** ** ** 6   77   74 1011.6 ***** ****** *** *** ***** ***** ***** ***** **
480010 ***** 201509110600 270   1 *** *** OVC * * *  2.5 ** ** ** ** ** ** ** ** *   78   75 1010.7 ***** ****** *** *** ***** ***** ***** ***** **
480010 ***** 201509110900 040   1 *** *** BKN * * *  3.1 ** ** ** ** ** ** ** ** *   80   78 1007.6 ***** ****** *** *** ***** ***** ***** ***** **
480010 ***** 201509120300 ***   0 *** *** OVC * * *  2.5 21 ** ** ** ** ** ** ** 6   77   74 1011.8 ***** ****** *** *** ***** ***** ***** ***** **
480010 ***** 201509121200 ***   0 *** *** BKN * * *  3.1 ** ** ** ** ** ** ** ** *   85   78 1008.5 ***** ******  88 *** ***** ***** ***** ***** **
480010 ***** 201509130300 ***   0 *** *** OVC * * *  3.8 ** ** ** ** ** ** ** ** *   79   76 1010.8 ***** ****** *** *** ***** ***** ***** ***** **
480010 ***** 201509130900 230   1 *** *** BKN * * *  3.8 ** ** ** ** ** ** ** ** *   88   78 1006.2 ***** ****** *** *** ***** ***** ***** ***** **
480010 ***** 201509140300 040   1 *** *** BKN * * *  3.1 ** ** ** ** ** ** ** ** *   78   76 1011.6 ***** ****** *** *** ***** ***** ***** ***** **
480010 ***** 201509140600 320   1 *** *** BKN * * *  3.8 ** ** ** ** ** ** ** ** *   84   77 1009.9 ***** ****** *** *** ***** ***** ***** ***** **
480010 ***** 201509140900 230   1 *** *** BKN * * *  3.1 ** ** ** ** ** ** ** ** *   86   80 1005.3 ***** ****** *** *** ***** ***** ***** ***** **
480010 ***** 201509141200 040   2 *** *** BKN * * *  3.1 ** ** ** ** ** ** ** ** *   79   73 1006.4 ***** ******  89 *** ***** ***** ***** ***** **
480010 ***** 201509150300 320   1 *** *** OVC * * *  1.9 21 ** ** ** ** ** ** ** 6   75   74 1011.4 ***** ****** *** *** ***** ***** ***** ***** **
480010 ***** 201509150600 320   1 *** *** BKN * * *  3.1 ** ** ** ** ** ** ** ** *   81   75 1010.4 ***** ****** *** *** ***** ***** ***** ***** **
480010 ***** 201509151200 ***   0 *** *** BKN * * *  3.8 ** ** ** ** ** ** ** ** *   86   78 1003.0 ***** ******  89 *** ***** ***** *****  0.00 **
480010 ***** 201509160300 320   1 *** *** OVC * * *  1.9 21 ** ** ** ** ** ** ** 6   77   76 1009.6 ***** ****** *** *** ***** ***** ***** ***** **
480010 ***** 201509160600 320   1 *** *** OVC * * *  1.9 51 ** ** ** ** ** ** ** 6   79   76 1009.2 ***** ****** *** *** ***** ***** ***** ***** **
480010 ***** 201509161200 ***   0 *** *** SCT * * *  3.8 ** ** ** ** ** ** ** ** *   82   77 1004.2 ***** ******  87 *** ***** ***** *****  0.63 **
480010 ***** 201509170300 ***   0 *** *** BKN * * *  2.5 50 ** ** ** ** ** ** ** 5   78   76 1009.3 ***** ****** *** *** ***** ***** ***** ***** **
480010 ***** 201509170600 320   1 *** *** BKN * * *  2.5 ** ** ** ** ** ** ** ** *   82   74 1008.5 ***** ****** *** *** ***** ***** ***** ***** **
480010 ***** 201509180300 130   1 *** *** SCT * * *  2.5 ** ** ** ** ** ** ** ** *   83   73 1010.9 ***** ****** *** *** ***** ***** ***** ***** **
480010 ***** 201509180600 320   1 *** *** SCT * * *  3.1 ** ** ** ** ** ** ** ** *   89   77 1007.8 ***** ****** *** *** ***** ***** ***** ***** **
480010 ***** 201509180900 320   1 *** *** SCT * * *  3.8 ** ** ** ** ** ** ** ** *   90   78 1005.2 ***** ****** *** *** ***** ***** ***** ***** **
480010 ***** 201509181200 ***   0 *** *** SCT * * *  3.8 ** ** ** ** ** ** ** ** *   88   80 1003.2 ***** ******  95 *** ***** ***** *****  0.00 **
480010 ***** 201509190300 ***   0 *** *** OVC * * *  2.5 52 ** ** ** ** ** ** ** 5   75   73 1011.9 ***** ****** *** *** ***** ***** ***** ***** **
480010 ***** 201509190600 ***   0 *** *** BKN * * *  3.1 15 ** ** ** ** ** ** ** 5   78   74 1011.8 ***** ****** *** *** ***** ***** ***** ***** **
