  USAF  WBAN YR--MODAHRMN DIR SPD GUS CLG SKC L M H  VSB MW MW MW MW AW AW AW AW W TEMP DEWP    SLP   ALT    STP MAX MIN PCP01 PCP06 PCP24 PCPXX SD
586590 ***** 201502091600 010   4 *** *** *** * * * **** ** ** ** ** ** ** ** ** *   36   27 ****** 30.42 ****** *** *** ***** ***** ***** ***** **
586590 ***** 201503221100 990   4 *** *** *** * * *  6.2 ** ** ** ** ** ** ** ** *   59   36 ****** 30.24 ****** *** *** ***** ***** ***** ***** **
