  USAF  WBAN YR--MODAHRMN DIR SPD GUS CLG SKC L M H  VSB MW MW MW MW AW AW AW AW W TEMP DEWP    SLP   ALT    STP MAX MIN PCP01 PCP06 PCP24 PCPXX SD
601900 ***** 201501010900 100   6 *** *** *** * * * 12.5 ** ** ** ** ** ** ** ** *   44   32 1032.2 ***** ****** *** *** ***** ***** ***** ***** **
601900 ***** 201501011200 020   5 *** *** *** * * * 12.5 ** ** ** ** ** ** ** ** *   59   34 1030.5 ***** ****** *** *** ***** ***** ***** ***** **
601900 ***** 201501011500 ***   0 *** *** *** * * * 12.5 ** ** ** ** ** ** ** ** *   65   29 1027.5 ***** ****** *** *** ***** ***** ***** ***** **
601900 ***** 201501020900 100   2 *** *** *** * * *  6.2 ** ** ** ** ** ** ** ** *   41   35 1036.4 ***** ****** *** *** ***** ***** ***** ***** **
601900 ***** 201501021200 080   3 *** *** *** * * *  7.5 ** ** ** ** ** ** ** ** *   59   39 1034.3 ***** ****** *** *** ***** ***** ***** ***** **
601900 ***** 201501030900 080   2 *** *** *** * * * 12.5 ** ** ** ** ** ** ** ** *   45   35 1036.1 ***** ****** *** *** ***** ***** ***** ***** **
601900 ***** 201501031200 280   2 *** *** *** * * * 12.5 ** ** ** ** ** ** ** ** *   59   34 1033.7 ***** ****** *** *** ***** ***** ***** ***** **
601900 ***** 201501031500 260   7 *** *** *** * * * 12.5 ** ** ** ** ** ** ** ** *   62   38 1031.0 ***** ****** *** *** ***** ***** ***** ***** **
601900 ***** 201501040900 080   6 *** *** *** * * *  9.4 ** ** ** ** ** ** ** ** *   43   35 1035.2 ***** ****** *** *** ***** ***** ***** ***** **
601900 ***** 201501041200 080   3 *** *** *** * * * 12.5 ** ** ** ** ** ** ** ** *   62   36 1032.5 ***** ****** *** *** ***** ***** ***** ***** **
601900 ***** 201501041500 280   5 *** *** *** * * * 12.5 ** ** ** ** ** ** ** ** *   67   36 1029.9 ***** ****** *** *** ***** ***** ***** ***** **
601900 ***** 201501050900 100   8 *** *** *** * * *  9.4 ** ** ** ** ** ** ** ** *   43   32 1032.6 ***** ****** *** *** ***** ***** ***** ***** **
601900 ***** 201501051200 260   2 *** *** *** * * *  9.4 ** ** ** ** ** ** ** ** *   60   36 1030.2 ***** ****** *** *** ***** ***** ***** ***** **
601900 ***** 201501051500 300   2 *** *** *** * * *  9.4 ** ** ** ** ** ** ** ** *   66   36 1026.9 ***** ****** *** *** ***** ***** ***** ***** **
601900 ***** 201501060900 ***   0 ***   2 OBS * * *  0.1 47 ** ** ** ** ** ** ** 4   44   42 1030.0 ***** ****** *** *** ***** ***** ***** ***** **
601900 ***** 201501061200 340   2 *** *** SCT * * *  3.8 28 ** ** ** ** ** ** ** 4   52   46 1028.0 ***** ****** *** *** ***** ***** ***** ***** **
601900 ***** 201501061500 300   7 *** *** SCT * * *  5.0 ** ** ** ** ** ** ** ** *   56   46 1025.3 ***** ****** *** *** ***** ***** ***** ***** **
601900 ***** 201501070900 080   2 *** *** SCT * * *  5.0 ** ** ** ** ** ** ** ** *   40   35 1029.4 ***** ****** *** *** ***** ***** ***** ***** **
601900 ***** 201501071200 360   2 *** *** SCT * * *  6.2 ** ** ** ** ** ** ** ** *   57   38 1026.6 ***** ****** *** *** ***** ***** ***** ***** **
601900 ***** 201501080900 360   2 *** *** SCT * * *  5.0 ** ** ** ** ** ** ** ** *   41   35 1032.2 ***** ****** *** *** ***** ***** ***** ***** **
601900 ***** 201501081200 280   2 *** *** SCT * * *  6.2 ** ** ** ** ** ** ** ** *   58   43 1030.5 ***** ****** *** *** ***** ***** ***** ***** **
601900 ***** 201501081500 320   2 *** *** SCT * * *  7.5 ** ** ** ** ** ** ** ** *   62   43 1029.0 ***** ****** *** *** ***** ***** ***** ***** **
601900 ***** 201501090900 180   2 ***  79 BKN * * *  5.0 ** ** ** ** ** ** ** ** *   46   42 1035.6 ***** ****** *** *** ***** ***** ***** ***** **
601900 ***** 201501091200 080   5 *** 217 BKN * * *  6.2 ** ** ** ** ** ** ** ** *   59   47 1033.4 ***** ****** *** *** ***** ***** ***** ***** **
601900 ***** 201501091500 280   2 ***  79 BKN * * *  9.4 ** ** ** ** ** ** ** ** *   63   43 1032.5 ***** ****** *** *** ***** ***** ***** ***** **
601900 ***** 201501120900 120   5 ***  79 BKN * * *  9.4 ** ** ** ** ** ** ** ** *   50   43 1029.9 ***** ****** *** *** ***** ***** ***** ***** **
601900 ***** 201501121200 020   5 *** 217 BKN * * *  9.4 ** ** ** ** ** ** ** ** *   67   48 1026.9 ***** ****** *** *** ***** ***** ***** ***** **
601900 ***** 201501130900 100   8 ***  79 BKN * * * 12.5 ** ** ** ** ** ** ** ** *   56   45 1025.6 ***** ****** *** *** ***** ***** ***** ***** **
601900 ***** 201501131200 080   7 ***  79 BKN * * * 12.5 ** ** ** ** ** ** ** ** *   67   49 1023.8 ***** ****** *** *** ***** ***** ***** ***** **
601900 ***** 201501131500 240   9 ***  79 OVC * * * 12.5 ** ** ** ** ** ** ** ** *   66   53 1022.9 ***** ****** *** *** ***** ***** ***** ***** **
601900 ***** 201501140900 320   5 ***  79 BKN * * *  3.8 ** ** ** ** ** ** ** ** *   52   48 1026.1 ***** ****** *** *** ***** ***** ***** ***** **
601900 ***** 201501141200 360   3 *** 217 BKN * * *  5.6 ** ** ** ** ** ** ** ** *   57   50 1025.7 ***** ****** *** *** ***** ***** ***** ***** **
601900 ***** 201501150900 100   3 *** *** *** * * *  5.0 ** ** ** ** ** ** ** ** *   46   40 1027.0 ***** ****** *** *** ***** ***** ***** ***** **
601900 ***** 201501151200 280   6 *** *** *** * * *  5.6 ** ** ** ** ** ** ** ** *   61   47 1024.3 ***** ****** *** *** ***** ***** ***** ***** **
601900 ***** 201501151500 300   7 *** *** *** * * *  6.2 ** ** ** ** ** ** ** ** *   67   47 1021.1 ***** ****** *** *** ***** ***** ***** ***** **
601900 ***** 201501160900 240   5 ***  16 OVC * * *  1.2 10 ** ** ** ** ** ** ** 2   48   46 1024.7 ***** ****** *** *** ***** ***** ***** ***** **
601900 ***** 201501161200 220   9 ***  26 OVC * * *  4.4 03 ** ** ** ** ** ** ** 4   52   46 1024.4 ***** ****** *** *** ***** ***** ***** ***** **
601900 ***** 201501161500 280  14 ***  79 OVC * * *  5.0 ** ** ** ** ** ** ** ** *   55   48 1021.8 ***** ****** *** *** ***** ***** ***** ***** **
601900 ***** 201501190900 320  14 ***  26 BKN * * *  6.2 25 ** ** ** ** ** ** ** 8   48   43 1014.1 ***** ****** *** *** ***** ***** ***** ***** **
601900 ***** 201501191200 320  15 ***  30 BKN * * *  7.5 01 ** ** ** ** ** ** ** 8   50   41 1017.0 ***** ****** *** *** *****  0.12 ***** ***** **
601900 ***** 201501191500 300  15 ***  26 BKN * * *  6.2 ** ** ** ** ** ** ** ** *   52 **** 1016.3 ***** ****** *** *** ***** ***** ***** ***** **
601900 ***** 201501200900 100   3 ***  16 OVC * * *  0.1 46 ** ** ** ** ** ** ** 4   37   36 1022.3 ***** ****** *** *** ***** ***** ***** ***** **
601900 ***** 201501201200 280   2 *** *** SCT * * *  7.5 03 ** ** ** ** ** ** ** 4   50   42 1018.8 ***** ****** *** *** ***** ***** ***** ***** **
601900 ***** 201501201500 280  14 *** *** SCT * * * 11.2 ** ** ** ** ** ** ** ** *   54   40 1015.1 ***** ****** *** *** ***** ***** ***** ***** **
601900 ***** 201501210900 260   7 ***  26 BKN * * *  5.6 ** ** ** ** ** ** ** ** *   42   39 1022.0 ***** ****** *** *** ***** ***** ***** ***** **
601900 ***** 201501211200 260   9 ***  26 BKN * * *  6.2 01 ** ** ** ** ** ** ** 8   48   41 1022.5 ***** ****** *** *** ***** ***** *****  0.04 **
601900 ***** 201501211500 260  14 ***  26 BKN * * *  9.4 03 ** ** ** ** ** ** ** 8   51   42 1021.8 ***** ****** *** *** ***** ***** ***** ***** **
601900 ***** 201501220900 280   6 ***  26 BKN * * *  7.5 ** ** ** ** ** ** ** ** *   45   39 1065.0 ***** ****** *** *** ***** ***** ***** ***** **
601900 ***** 201501221200 220   7 ***  26 OVC * * *  5.0 25 ** ** ** ** ** ** ** 8   47   42 1027.8 ***** ****** *** *** *****  0.02 ***** ***** **
601900 ***** 201501230900 080   2 *** *** BKN * * *  6.2 00 ** ** ** ** ** ** ** 8   51   46 1027.4 ***** ****** *** *** ***** ***** ***** ***** **
601900 ***** 201501231200 080   2 ***  79 BKN * * *  7.5 03 ** ** ** ** ** ** ** 8   56   46 1026.7 ***** ****** *** *** *****  0.01 ***** ***** **
601900 ***** 201501231500 040   6 ***  26 BKN * * * 11.2 ** ** ** ** ** ** ** ** *   60   47 1025.0 ***** ****** *** *** ***** ***** ***** ***** **
601900 ***** 201501240900 040   2 *** *** SCT * * * 12.5 ** ** ** ** ** ** ** ** *   46   39 1027.2 ***** ****** *** *** ***** ***** ***** ***** **
601900 ***** 201501260900 060   5 *** *** *** * * *  9.4 ** ** ** ** ** ** ** ** *   44   37 1028.1 ***** ****** *** *** ***** ***** ***** ***** **
601900 ***** 201501261200 360   5 *** *** *** * * * 15.6 ** ** ** ** ** ** ** ** *   59   40 1026.3 ***** ****** *** *** ***** ***** ***** ***** **
601900 ***** 201501261500 060   5 *** *** *** * * * 15.6 ** ** ** ** ** ** ** ** *   64   42 1024.7 ***** ****** *** *** ***** ***** ***** ***** **
601900 ***** 201501270900 080   7 *** *** *** * * *  7.5 ** ** ** ** ** ** ** ** *   45   38 1029.4 ***** ****** *** *** ***** ***** ***** ***** **
601900 ***** 201501271200 360   2 *** *** *** * * * 11.2 ** ** ** ** ** ** ** ** *   63   44 1026.9 ***** ****** *** *** ***** ***** ***** ***** **
601900 ***** 201501271500 320   6 *** *** *** * * * 12.5 ** ** ** ** ** ** ** ** *   65   42 1025.4 ***** ****** *** *** ***** ***** ***** ***** **
601900 ***** 201501280900 100   7 *** *** *** * * * 12.5 ** ** ** ** ** ** ** ** *   46   39 1027.8 ***** ****** *** *** ***** ***** ***** ***** **
601900 ***** 201501281200 320   2 *** *** *** * * * 12.5 ** ** ** ** ** ** ** ** *   62   44 1025.4 ***** ****** *** *** ***** ***** ***** ***** **
601900 ***** 201501290900 280   2 ***  16 OVC * * *  0.2 46 ** ** ** ** ** ** ** 4   38   35 1027.2 ***** ****** *** *** ***** ***** ***** ***** **
601900 ***** 201501291200 260   7 *** *** SCT * * *  3.8 28 ** ** ** ** ** ** ** 4   48   44 1026.3 ***** ****** *** *** ***** ***** ***** ***** **
601900 ***** 201501300900 100   2 ***  16 BKN * * *  0.2 46 ** ** ** ** ** ** ** 4   45   44 1023.1 ***** ****** *** *** ***** ***** ***** ***** **
601900 ***** 201501301200 ***   0 *** *** SCT * * *  5.0 28 ** ** ** ** ** ** ** 4   59   49 1021.9 ***** ****** *** *** ***** ***** ***** ***** **
601900 ***** 201501301500 320   6 *** *** SCT * * *  6.2 ** ** ** ** ** ** ** ** *   62   48 1018.2 ***** ****** *** *** ***** ***** ***** ***** **
601900 ***** 201501310900 260   6 ***  30 BKN * * *  5.0 ** ** ** ** ** ** ** ** *   51   47 1019.5 ***** ****** *** *** ***** ***** ***** ***** **
601900 ***** 201501311200 260   9 ***  30 OVC * * *  5.6 ** ** ** ** ** ** ** ** *   55   48 1019.4 ***** ****** *** *** ***** ***** ***** ***** **
601900 ***** 201501311500 220   6 ***  30 OVC * * *  5.6 ** ** ** ** ** ** ** ** *   56   48 1017.3 ***** ****** *** *** ***** ***** ***** ***** **
601900 ***** 201502010900 100   7 ***  26 BKN * * *  6.2 ** ** ** ** ** ** ** ** *   49   43 1022.0 ***** ****** *** *** ***** ***** ***** ***** **
601900 ***** 201502011200 060   7 *** *** SCT * * *  6.2 ** ** ** ** ** ** ** ** *   56   41 1021.4 ***** ****** *** *** ***** ***** ***** ***** **
601900 ***** 201502020900 140   2 *** *** *** * * *  9.4 ** ** ** ** ** ** ** ** *   43   37 1021.1 ***** ****** *** *** ***** ***** ***** ***** **
601900 ***** 201502021200 160   3 *** *** *** * * *  9.4 ** ** ** ** ** ** ** ** *   54   43 1019.5 ***** ****** *** *** ***** ***** ***** ***** **
601900 ***** 201502030900 080   7 *** *** SCT * * *  9.4 ** ** ** ** ** ** ** ** *   42   38 1018.8 ***** ****** *** *** ***** ***** ***** ***** **
601900 ***** 201502031200 120   5 *** *** SCT * * *  7.5 ** ** ** ** ** ** ** ** *   53   40 1017.6 ***** ****** *** *** ***** ***** ***** ***** **
601900 ***** 201502040900 240   7 ***  26 BKN * * *  6.2 ** ** ** ** ** ** ** ** *   50   43 1017.5 ***** ****** *** *** ***** ***** ***** ***** **
601900 ***** 201502041200 280  16 ***  26 BKN * * *  6.2 ** ** ** ** ** ** ** ** *   55   41 1016.2 ***** ****** *** *** ***** ***** ***** ***** **
601900 ***** 201502041500 280  16 ***  26 OVC * * *  6.2 25 ** ** ** ** ** ** ** 8   51   46 1015.7 ***** ****** *** *** ***** ***** ***** ***** **
601900 ***** 201502050900 280   3 *** *** SCT * * *  6.2 ** ** ** ** ** ** ** ** *   44   41 1022.9 ***** ****** *** *** ***** ***** ***** ***** **
601900 ***** 201502051200 040   5 *** *** SCT * * *  6.2 ** ** ** ** ** ** ** ** *   50   38 1021.6 ***** ****** *** *** ***** ***** ***** ***** **
601900 ***** 201502060900 060   5 *** 217 BKN * * *  6.2 ** ** ** ** ** ** ** ** *   38   36 1020.7 ***** ****** *** *** ***** ***** ***** ***** **
601900 ***** 201502061200 080   5 *** 217 BKN * * *  6.2 ** ** ** ** ** ** ** ** *   49   37 1018.2 ***** ****** *** *** ***** ***** ***** ***** **
601900 ***** 201502090900 080   5 *** 217 BKN * * *  6.2 ** ** ** ** ** ** ** ** *   45   42 1014.7 ***** ****** *** *** ***** ***** ***** ***** **
601900 ***** 201502091200 080   2 *** 217 BKN * * *  6.2 ** ** ** ** ** ** ** ** *   57   43 1013.5 ***** ****** *** *** ***** ***** ***** ***** **
601900 ***** 201502100900 ***   0 *** *** *** * * *  5.0 ** ** ** ** ** ** ** ** *   50   43 1018.6 ***** ****** *** *** ***** ***** ***** ***** **
601900 ***** 201502101200 060   2 *** *** *** * * *  5.6 ** ** ** ** ** ** ** ** *   59   45 1001.6 ***** ****** *** *** ***** ***** ***** ***** **
601900 ***** 201502110900 120   5 *** *** SCT * * *  6.2 ** ** ** ** ** ** ** ** *   45   39 1018.0 ***** ****** *** *** ***** ***** ***** ***** **
601900 ***** 201502111200 ***   0 *** *** SCT * * *  6.2 ** ** ** ** ** ** ** ** *   67   45 1015.3 ***** ****** *** *** ***** ***** ***** ***** **
601900 ***** 201502120900 340   3 ***  26 OVC * * *  6.2 02 ** ** ** ** ** ** ** 8   50   44 1020.4 ***** ****** *** *** ***** ***** ***** ***** **
601900 ***** 201502121200 020   2 ***  26 BKN * * *  6.2 01 ** ** ** ** ** ** ** 8   58   47 1020.3 ***** ****** *** *** *****  0.02 ***** ***** **
601900 ***** 201502121500 360   2 ***  26 BKN * * *  6.2 ** ** ** ** ** ** ** ** *   60   45 1022.3 ***** ****** *** *** ***** ***** ***** ***** **
601900 ***** 201502130900 280   7 ***  26 BKN * * *  6.2 ** ** ** ** ** ** ** ** *   45   42 1025.6 ***** ****** *** *** ***** ***** ***** ***** **
601900 ***** 201502131200 340   2 *** *** SCT * * *  6.2 ** ** ** ** ** ** ** ** *   56   45 1024.3 ***** ****** *** *** ***** ***** ***** ***** **
601900 ***** 201502160900 120   5 ***  26 OVC * * *  6.2 ** ** ** ** ** ** ** ** *   51   49 1025.6 ***** ****** *** *** ***** ***** ***** ***** **
601900 ***** 201502161200 240   5 ***  26 BKN * * *  6.2 ** ** ** ** ** ** ** ** *   58   46 1023.2 ***** ****** *** *** ***** ***** ***** ***** **
601900 ***** 201502170900 240   9 ***  26 OVC * * *  6.2 ** ** ** ** ** ** ** ** *   46   45 1024.6 ***** ****** *** *** ***** ***** ***** ***** **
601900 ***** 201502171200 240   9 ***  26 OVC * * *  6.2 80 ** ** ** ** ** ** ** 8   48   43 1023.3 ***** ****** *** *** *****  0.08 ***** ***** **
601900 ***** 201502171500 340   7 ***  30 BKN * * *  6.2 03 ** ** ** ** ** ** ** 8   55   38 1020.0 ***** ****** *** *** ***** ***** ***** ***** **
601900 ***** 201502180900 100   5 ***  79 BKN * * *  6.2 00 ** ** ** ** ** ** ** 6   43   40 1019.6 ***** ****** *** *** ***** ***** ***** ***** **
601900 ***** 201502181200 360   7 ***  26 BKN * * *  6.2 03 ** ** ** ** ** ** ** 2   50   39 1017.6 ***** ****** *** *** *****  0.03 ***** ***** **
601900 ***** 201502190900 180   5 ***  79 BKN * * *  6.2 00 ** ** ** ** ** ** ** 6   46   44 1018.2 ***** ****** *** *** ***** ***** ***** ***** **
601900 ***** 201502191200 240   7 ***  79 BKN * * *  7.5 03 ** ** ** ** ** ** ** 6   53   45 1017.1 ***** ****** *** *** *****  0.01 ***** ***** **
601900 ***** 201502191500 020  14 *** 217 BKN * * * 12.5 ** ** ** ** ** ** ** ** *   59   39 1014.5 ***** ****** *** *** ***** ***** ***** ***** **
601900 ***** 201502200900 100   5 *** 217 BKN * * *  6.2 ** ** ** ** ** ** ** ** *   47   41 1019.2 ***** ****** *** *** ***** ***** ***** ***** **
601900 ***** 201502201200 240   5 *** *** BKN * * *  6.2 ** ** ** ** ** ** ** ** *   55   43 1018.3 ***** ****** *** *** ***** ***** ***** ***** **
601900 ***** 201502201500 260   8 ***  30 BKN * * *  6.2 25 ** ** ** ** ** ** ** 8   52   46 1016.9 ***** ****** *** *** ***** ***** ***** ***** **
601900 ***** 201502210900 200   5 ***  26 BKN * * *  3.8 ** ** ** ** ** ** ** ** *   47   45 1020.1 ***** ****** *** *** ***** ***** ***** ***** **
601900 ***** 201502211200 200   7 ***  26 OVC * * *  5.0 03 ** ** ** ** ** ** ** 8   50   46 1019.5 ***** ****** *** *** *****  0.01 ***** ***** **
601900 ***** 201502211500 240  14 ***  26 OVC * * *  4.4 25 ** ** ** ** ** ** ** 8   52   47 1017.4 ***** ****** *** *** ***** ***** ***** ***** **
601900 ***** 201502220900 ***   0 ***  26 OVC * * *  6.2 ** ** ** ** ** ** ** ** *   51   48 1022.8 ***** ****** *** *** ***** ***** ***** ***** **
601900 ***** 201502221200 040   2 ***  26 BKN * * *  6.2 ** ** ** ** ** ** ** ** *   56   47 1022.7 ***** ****** *** *** ***** ***** ***** ***** **
601900 ***** 201502221500 340   2 ***  26 BKN * * *  6.2 ** ** ** ** ** ** ** ** *   58   46 1020.9 ***** ****** *** *** ***** ***** ***** ***** **
601900 ***** 201502230900 100   5 *** *** *** * * * 12.5 ** ** ** ** ** ** ** ** *   50   43 1023.8 ***** ****** *** *** ***** ***** ***** ***** **
601900 ***** 201502231200 080   2 *** *** *** * * * 15.6 ** ** ** ** ** ** ** ** *   64   47 1022.2 ***** ****** *** *** ***** ***** ***** ***** **
601900 ***** 201502231500 ***   0 *** *** *** * * * 15.6 ** ** ** ** ** ** ** ** *   72   49 1019.7 ***** ****** *** *** ***** ***** ***** ***** **
601900 ***** 201502240900 080   5 *** *** *** * * *  5.6 00 ** ** ** ** ** ** ** 4   50   46 1028.9 ***** ****** *** *** ***** ***** ***** ***** **
601900 ***** 201502241200 060   3 *** *** *** * * *  7.5 ** ** ** ** ** ** ** ** *   60   53 1027.5 ***** ****** *** *** ***** ***** ***** ***** **
601900 ***** 201502241500 120   2 *** *** SCT * * *  7.5 ** ** ** ** ** ** ** ** *   66   49 1024.8 ***** ****** *** *** ***** ***** ***** ***** **
601900 ***** 201502250900 080   7 *** *** *** * * * 12.5 ** ** ** ** ** ** ** ** *   48   39 1032.1 ***** ****** *** *** ***** ***** ***** ***** **
601900 ***** 201502251200 080   5 *** *** *** * * * 15.6 ** ** ** ** ** ** ** ** *   59   38 1030.5 ***** ****** *** *** ***** ***** ***** ***** **
601900 ***** 201502251500 340   2 *** *** *** * * * 15.6 ** ** ** ** ** ** ** ** *   65   32 1028.4 ***** ****** *** *** ***** ***** ***** ***** **
601900 ***** 201502260900 060   5 *** *** *** * * *  9.4 ** ** ** ** ** ** ** ** *   50   37 1028.4 ***** ****** *** *** ***** ***** ***** ***** **
601900 ***** 201502261200 200   5 *** *** *** * * * 15.6 ** ** ** ** ** ** ** ** *   62   43 1026.7 ***** ****** *** *** ***** ***** ***** ***** **
601900 ***** 201502270900 240   5 ***  16 OVC * * *  0.2 46 ** ** ** ** ** ** ** 4   43   43 1029.5 ***** ****** *** *** ***** ***** ***** ***** **
601900 ***** 201502271200 180   7 ***  26 BKN * * *  3.8 28 ** ** ** ** ** ** ** 4   48   46 1029.0 ***** ****** *** *** ***** ***** ***** ***** **
601900 ***** 201502271500 260   5 *** *** SCT * * *  7.5 ** ** ** ** ** ** ** ** *   58   49 1025.9 ***** ****** *** *** ***** ***** ***** ***** **
601900 ***** 201502280900 120   2 *** *** SCT * * *  7.5 ** ** ** ** ** ** ** ** *   49   44 1028.6 ***** ****** *** *** ***** ***** ***** ***** **
601900 ***** 201502281200 200   5 *** *** SCT * * *  7.5 ** ** ** ** ** ** ** ** *   62   49 1026.2 ***** ****** *** *** ***** ***** ***** ***** **
601900 ***** 201502281500 200   5 *** *** SCT * * *  7.5 ** ** ** ** ** ** ** ** *   67   47 1024.0 ***** ****** *** *** ***** ***** ***** ***** **
601900 ***** 201503010900 360   2 *** *** SCT * * *  7.5 ** ** ** ** ** ** ** ** *   50   45 1028.7 ***** ****** *** *** ***** ***** ***** ***** **
601900 ***** 201503011200 360   2 *** *** SCT * * *  9.4 ** ** ** ** ** ** ** ** *   64   49 1025.7 ***** ****** *** *** ***** ***** ***** ***** **
601900 ***** 201503020900 080   5 *** *** *** * * *  9.4 ** ** ** ** ** ** ** ** *   53   48 1026.9 ***** ****** *** *** ***** ***** ***** ***** **
601900 ***** 201503021200 240   5 *** *** *** * * *  9.4 ** ** ** ** ** ** ** ** *   69   45 1024.7 ***** ****** *** *** ***** ***** ***** ***** **
601900 ***** 201503021500 200   5 *** *** *** * * * 15.6 ** ** ** ** ** ** ** ** *   76   50 1021.2 ***** ****** *** *** ***** ***** ***** ***** **
601900 ***** 201503030900 340   2 *** *** SCT * * *  7.5 ** ** ** ** ** ** ** ** *   57   47 1026.3 ***** ****** *** *** ***** ***** ***** ***** **
601900 ***** 201503031200 ***   0 *** *** SCT * * *  9.4 ** ** ** ** ** ** ** ** *   73   44 1024.1 ***** ****** *** *** ***** ***** ***** ***** **
601900 ***** 201503031500 320   5 *** 217 BKN * * * 12.5 ** ** ** ** ** ** ** ** *   77   42 1021.9 ***** ****** *** *** ***** ***** ***** ***** **
601900 ***** 201503040900 080   7 *** 217 BKN * * *  7.5 ** ** ** ** ** ** ** ** *   62   46 1024.3 ***** ****** *** *** ***** ***** ***** ***** **
601900 ***** 201503041200 100   5 *** 217 BKN * * *  7.5 ** ** ** ** ** ** ** ** *   74   50 1022.0 ***** ****** *** *** ***** ***** ***** ***** **
601900 ***** 201503050900 080   2 *** *** *** * * *  9.4 ** ** ** ** ** ** ** ** *   57   44 1022.0 ***** ****** *** *** ***** ***** ***** ***** **
601900 ***** 201503051200 320   2 *** *** *** * * * 12.5 ** ** ** ** ** ** ** ** *   71   48 1020.2 ***** ****** *** *** ***** ***** ***** ***** **
601900 ***** 201503051500 280   2 *** *** *** * * * 15.6 ** ** ** ** ** ** ** ** *   76   45 1017.1 ***** ****** *** *** ***** ***** ***** ***** **
601900 ***** 201503060900 080   5 *** *** SCT * * *  6.2 ** ** ** ** ** ** ** ** *   63   46 1022.0 ***** ****** *** *** ***** ***** ***** ***** **
601900 ***** 201503061200 100   2 *** *** SCT * * *  7.5 ** ** ** ** ** ** ** ** *   77   49 1019.9 ***** ****** *** *** ***** ***** ***** ***** **
601900 ***** 201503070900 080   5 *** *** *** * * *  9.4 ** ** ** ** ** ** ** ** *   61   44 1024.3 ***** ****** *** *** ***** ***** ***** ***** **
601900 ***** 201503071200 ***   0 *** *** SCT * * *  9.4 ** ** ** ** ** ** ** ** *   76   49 1022.3 ***** ****** *** *** ***** ***** ***** ***** **
601900 ***** 201503071500 320   2 *** *** SCT * * * 13.8 ** ** ** ** ** ** ** ** *   80   48 1019.3 ***** ****** *** *** ***** ***** ***** ***** **
601900 ***** 201503080900 080   2 *** *** SCT * * *  7.5 ** ** ** ** ** ** ** ** *   59   51 1022.3 ***** ****** *** *** ***** ***** ***** ***** **
601900 ***** 201503081200 ***   0 *** *** SCT * * *  7.5 ** ** ** ** ** ** ** ** *   71   49 1020.7 ***** ****** *** *** ***** ***** ***** ***** **
601900 ***** 201503090900 080   2 *** *** SCT * * *  7.5 ** ** ** ** ** ** ** ** *   58   44 1022.3 ***** ****** *** *** ***** ***** ***** ***** **
601900 ***** 201503091200 280   2 *** *** SCT * * * 11.2 ** ** ** ** ** ** ** ** *   71   49 1020.7 ***** ****** *** *** ***** ***** ***** ***** **
601900 ***** 201503091500 300   2 *** *** SCT * * * 13.8 ** ** ** ** ** ** ** ** *   77   45 1017.9 ***** ****** *** *** ***** ***** ***** ***** **
601900 ***** 201503100900 080   2 *** *** SCT * * *  7.5 ** ** ** ** ** ** ** ** *   62   45 1023.6 ***** ****** *** *** ***** ***** ***** ***** **
601900 ***** 201503101200 200   2 *** *** *** * * *  7.5 ** ** ** ** ** ** ** ** *   73   46 1022.4 ***** ****** *** *** ***** ***** ***** ***** **
601900 ***** 201503101500 200   7 *** *** *** * * *  7.5 ** ** ** ** ** ** ** ** *   78   44 1019.7 ***** ****** *** *** ***** ***** ***** ***** **
601900 ***** 201503110900 020   2 *** *** SCT * * *  9.4 ** ** ** ** ** ** ** ** *   58   45 1025.4 ***** ****** *** *** ***** ***** ***** ***** **
601900 ***** 201503111200 280   2 *** *** SCT * * * 11.2 ** ** ** ** ** ** ** ** *   74   48 1023.4 ***** ****** *** *** ***** ***** ***** ***** **
601900 ***** 201503111500 280   2 *** *** SCT * * * 12.5 ** ** ** ** ** ** ** ** *   78   44 1020.6 ***** ****** *** *** ***** ***** ***** ***** **
601900 ***** 201503120900 200   2 *** *** *** * * *  7.5 ** ** ** ** ** ** ** ** *   61   51 1023.8 ***** ****** *** *** ***** ***** ***** ***** **
601900 ***** 201503121200 200   5 *** *** *** * * *  7.5 ** ** ** ** ** ** ** ** *   69   50 1023.3 ***** ****** *** *** ***** ***** ***** ***** **
601900 ***** 201503130900 320   2 ***  16 OVC * * *  0.1 46 ** ** ** ** ** ** ** 4   47   47 1024.3 ***** ****** *** *** ***** ***** ***** ***** **
601900 ***** 201503131200 280   2 ***  16 OVC * * *  1.2 10 ** ** ** ** ** ** ** 4   50   49 1023.9 ***** ****** *** *** ***** ***** ***** ***** **
601900 ***** 201503131500 240   5 *** 217 BKN * * *  5.0 ** ** ** ** ** ** ** ** *   60   48 1019.8 ***** ****** *** *** ***** ***** ***** ***** **
601900 ***** 201503140900 080   5 *** *** SCT * * *  5.0 ** ** ** ** ** ** ** ** *   53   49 1019.7 ***** ****** *** *** ***** ***** ***** ***** **
601900 ***** 201503141200 120   2 *** *** SCT * * *  5.0 ** ** ** ** ** ** ** ** *   63   51 1017.8 ***** ****** *** *** ***** ***** ***** ***** **
601900 ***** 201503150900 300   5 ***  16 OVC * * *  0.2 46 ** ** ** ** ** ** ** 4   50   50 1018.0 ***** ****** *** *** ***** ***** ***** ***** **
601900 ***** 201503151200 320   5 *** 217 BKN * * *  5.0 03 ** ** ** ** ** ** ** 4   61   51 1016.5 ***** ****** *** *** ***** ***** ***** ***** **
601900 ***** 201503151500 280   2 *** 217 BKN * * *  6.2 ** ** ** ** ** ** ** ** *   67   49 1014.0 ***** ****** *** *** ***** ***** ***** ***** **
601900 ***** 201503160900 100   2 *** *** *** * * *  5.6 ** ** ** ** ** ** ** ** *   53   47 1018.1 ***** ****** *** *** ***** ***** ***** ***** **
601900 ***** 201503161200 240   5 *** *** *** * * *  6.2 ** ** ** ** ** ** ** ** *   64   48 1016.5 ***** ****** *** *** ***** ***** ***** ***** **
601900 ***** 201503170900 240   5 ***  16 OVC * * *  0.2 46 ** ** ** ** ** ** ** 4   49   49 1019.6 ***** ****** *** *** ***** ***** ***** ***** **
601900 ***** 201503171200 220   7 ***  16 OVC * * *  3.8 03 ** ** ** ** ** ** ** 4   53   48 1018.6 ***** ****** *** *** ***** ***** ***** ***** **
601900 ***** 201503171500 200   9 *** *** SCT * * *  5.6 ** ** ** ** ** ** ** ** *   62   47 1014.6 ***** ****** *** *** ***** ***** ***** ***** **
601900 ***** 201503180900 240   5 ***  30 BKN * * *  6.2 ** ** ** ** ** ** ** ** *   51   46 1015.9 ***** ****** *** *** ***** ***** ***** ***** **
601900 ***** 201503181200 240   5 ***  30 BKN * * *  6.2 ** ** ** ** ** ** ** ** *   58   43 1013.9 ***** ****** *** *** ***** ***** ***** ***** **
601900 ***** 201503181500 240   9 ***  30 BKN * * *  6.2 ** ** ** ** ** ** ** ** *   61   40 1011.4 ***** ****** *** *** ***** ***** ***** ***** **
601900 ***** 201503190900 260   2 ***  16 OVC * * *  4.4 00 ** ** ** ** ** ** ** 6   48   46 1010.5 ***** ****** *** *** ***** ***** ***** ***** **
601900 ***** 201503191200 260   7 ***  26 BKN * * *  9.4 03 ** ** ** ** ** ** ** 6   55   46 1009.0 ***** ****** *** *** *****  0.04 ***** ***** **
601900 ***** 201503191500 260   5 ***  79 BKN * * * 11.2 ** ** ** ** ** ** ** ** *   56   45 1006.7 ***** ****** *** *** ***** ***** ***** ***** **
601900 ***** 201503200900 080   2 *** *** SCT * * *  6.2 ** ** ** ** ** ** ** ** *   51   44 1007.6 ***** ****** *** *** ***** ***** ***** ***** **
601900 ***** 201503201200 240   7 ***  26 BKN * * *  6.2 ** ** ** ** ** ** ** ** *   55   43 1007.9 ***** ****** *** *** ***** ***** ***** ***** **
601900 ***** 201503210900 260   2 ***  26 BKN * * *  7.5 ** ** ** ** ** ** ** ** *   51   48 1010.5 ***** ****** *** *** ***** ***** ***** ***** **
601900 ***** 201503211200 240   9 ***  26 BKN * * * 11.2 ** ** ** ** ** ** ** ** *   58   46 1009.1 ***** ****** *** *** ***** ***** ***** ***** **
601900 ***** 201503211500 240   9 ***  26 BKN * * * 12.5 ** ** ** ** ** ** ** ** *   61   44 1007.6 ***** ****** *** *** ***** ***** ***** ***** **
601900 ***** 201503220900 240   2 ***  26 BKN * * *  6.2 00 ** ** ** ** ** ** ** 8   53   50 1010.5 ***** ****** *** *** ***** ***** ***** ***** **
601900 ***** 201503221200 240   5 ***  26 BKN * * *  6.2 02 ** ** ** ** ** ** ** 8   61   49 1009.1 ***** ****** *** *** *****  0.00 ***** ***** **
601900 ***** 201503230900 260   5 ***  26 OVC * * *  6.2 25 ** ** ** ** ** ** ** 8   50   47 1010.4 ***** ****** *** *** ***** ***** ***** ***** **
601900 ***** 201503231200 260   2 ***  26 BKN * * *  9.4 02 ** ** ** ** ** ** ** 8   53   48 1010.3 ***** ****** *** *** *****  0.12 ***** ***** **
601900 ***** 201503231500 260   7 ***  26 BKN * * * 12.5 ** ** ** ** ** ** ** ** *   56   48 1009.1 ***** ****** *** *** ***** ***** ***** ***** **
601900 ***** 201503240900 240   9 ***  26 OVC * * *  6.2 00 ** ** ** ** ** ** ** 8   47   45 1011.2 ***** ****** *** *** ***** ***** ***** ***** **
601900 ***** 201503241200 260   9 ***  30 BKN * * *  6.2 25 ** ** ** ** ** ** ** 8   51   47 1010.4 ***** ****** *** *** *****  0.12 ***** ***** **
601900 ***** 201503241500 260  18 ***  26 OVC * * *  6.2 80 ** ** ** ** ** ** ** 8   51   46 1008.8 ***** ****** *** *** ***** ***** ***** ***** **
601900 ***** 201503250900 260  11 ***  16 OVC * * *  3.8 20 ** ** ** ** ** ** ** 5   47   46 1014.4 ***** ****** *** *** ***** ***** ***** ***** **
601900 ***** 201503251200 240  11 ***  26 OVC * * *  4.4 80 ** ** ** ** ** ** ** 8   47   45 1015.2 ***** ****** *** *** *****  0.12 ***** ***** **
601900 ***** 201503251500 300  11 ***  30 BKN * * *  6.2 02 ** ** ** ** ** ** ** 8   55   49 1013.6 ***** ****** *** *** ***** ***** ***** ***** **
601900 ***** 201503260900 080   2 *** *** SCT * * *  9.4 ** ** ** ** ** ** ** ** *   50   43 1023.8 ***** ****** *** *** ***** ***** ***** ***** **
601900 ***** 201503261200 200   5 *** *** SCT * * *  9.4 ** ** ** ** ** ** ** ** *   57   40 1023.0 ***** ****** *** *** ***** ***** ***** ***** **
601900 ***** 201503270900 040   9 *** *** *** * * * 13.8 ** ** ** ** ** ** ** ** *   55   47 1028.0 ***** ****** *** *** ***** ***** ***** ***** **
601900 ***** 201503271200 080   5 *** *** *** * * * 15.6 ** ** ** ** ** ** ** ** *   67   48 1025.7 ***** ****** *** *** ***** ***** ***** ***** **
601900 ***** 201503280900 080   5 *** *** *** * * *  9.4 ** ** ** ** ** ** ** ** *   60   53 1026.0 ***** ****** *** *** ***** ***** ***** ***** **
601900 ***** 201503281200 360   5 *** *** *** * * * 12.5 ** ** ** ** ** ** ** ** *   71   53 1023.8 ***** ****** *** *** ***** ***** ***** ***** **
601900 ***** 201503290900 080   2 *** *** SCT * * * 12.5 ** ** ** ** ** ** ** ** *   64   53 1026.4 ***** ****** *** *** ***** ***** ***** ***** **
601900 ***** 201503291200 ***   0 *** *** SCT * * * 12.5 ** ** ** ** ** ** ** ** *   73   56 1025.2 ***** ****** *** *** ***** ***** ***** ***** **
601900 ***** 201503291500 ***   0 *** *** SCT * * * 15.6 ** ** ** ** ** ** ** ** *   79   52 1023.4 ***** ****** *** *** ***** ***** ***** ***** **
601900 ***** 201503300900 080   5 *** *** SCT * * * 12.5 ** ** ** ** ** ** ** ** *   64   54 1027.6 ***** ****** *** *** ***** ***** ***** ***** **
601900 ***** 201503301200 100   2 *** *** SCT * * * 12.5 ** ** ** ** ** ** ** ** *   74   56 1025.5 ***** ****** *** *** ***** ***** ***** ***** **
601900 ***** 201503301500 200   2 *** *** SCT * * * 12.5 ** ** ** ** ** ** ** ** *   80   46 1023.5 ***** ****** *** *** ***** ***** ***** ***** **
601900 ***** 201503310900 ***   0 *** *** SCT * * * 12.5 ** ** ** ** ** ** ** ** *   64   54 1025.4 ***** ****** *** *** ***** ***** ***** ***** **
601900 ***** 201503311200 280   2 *** *** SCT * * * 13.8 ** ** ** ** ** ** ** ** *   75   60 1023.5 ***** ****** *** *** ***** ***** ***** ***** **
601900 ***** 201503311500 260   2 *** *** SCT * * * 13.8 ** ** ** ** ** ** ** ** *   81   55 1021.1 ***** ****** *** *** ***** ***** ***** ***** **
601900 ***** 201504010900 080   5 *** *** *** * * * 15.6 ** ** ** ** ** ** ** ** *   69   58 1021.5 ***** ****** *** *** ***** ***** ***** ***** **
601900 ***** 201504011200 200   2 *** *** *** * * * 15.6 ** ** ** ** ** ** ** ** *   80   57 1019.3 ***** ****** *** *** ***** ***** ***** ***** **
601900 ***** 201504020900 360   2 *** *** SCT * * * 12.5 ** ** ** ** ** ** ** ** *   69   56 1020.3 ***** ****** *** *** ***** ***** ***** ***** **
601900 ***** 201504021200 ***   0 *** *** SCT * * * 12.5 ** ** ** ** ** ** ** ** *   81   52 1018.2 ***** ****** *** *** ***** ***** ***** ***** **
601900 ***** 201504021500 320   2 *** *** SCT * * * 12.5 ** ** ** ** ** ** ** ** *   85   51 1015.6 ***** ****** *** *** ***** ***** ***** ***** **
601900 ***** 201504030900 120   5 *** 217 BKN * * *  6.2 ** ** ** ** ** ** ** ** *   68   58 1016.9 ***** ****** *** *** ***** ***** ***** ***** **
601900 ***** 201504031200 240   5 *** 217 BKN * * *  6.2 ** ** ** ** ** ** ** ** *   82   55 1014.5 ***** ****** *** *** ***** ***** ***** ***** **
601900 ***** 201504031500 120   5 *** 217 BKN * * *  6.2 ** ** ** ** ** ** ** ** *   86   58 1011.3 ***** ****** *** *** ***** ***** ***** ***** **
601900 ***** 201504040900 080   5 *** *** SCT * * *  9.4 ** ** ** ** ** ** ** ** *   72   54 1009.3 ***** ****** *** *** ***** ***** ***** ***** **
601900 ***** 201504041200 040   2 *** 217 BKN * * *  9.4 ** ** ** ** ** ** ** ** *   82   57 1006.5 ***** ****** *** *** ***** ***** ***** ***** **
601900 ***** 201504041500 300   2 *** 217 BKN * * * 12.5 ** ** ** ** ** ** ** ** *   87   53 1004.4 ***** ****** *** *** ***** ***** ***** ***** **
601900 ***** 201504050900 240   5 ***  26 OVC * * *  5.6 00 ** ** ** ** ** ** ** 5   57   55 1011.5 ***** ****** *** *** ***** ***** ***** ***** **
601900 ***** 201504051200 260   7 ***  26 OVC * * *  5.6 02 ** ** ** ** ** ** ** 5   58   53 1011.6 ***** ****** *** *** *****  0.00 ***** ***** **
601900 ***** 201504060900 260   6 ***  16 OVC * * *  1.2 10 ** ** ** ** ** ** ** 2   57   55 1010.9 ***** ****** *** *** ***** ***** ***** ***** **
601900 ***** 201504061200 220  14 ***  30 OVC * * *  4.4 ** ** ** ** ** ** ** ** *   60   55 1010.6 ***** ****** *** *** ***** ***** ***** ***** **
601900 ***** 201504061500 140   3 ***  79 BKN * * *  6.2 ** ** ** ** ** ** ** ** *   62   55 1010.3 ***** ****** *** *** ***** ***** ***** ***** **
601900 ***** 201504070900 240   7 ***  16 OVC * * *  0.2 46 ** ** ** ** ** ** ** 4   53   52 1015.0 ***** ****** *** *** ***** ***** ***** ***** **
601900 ***** 201504071200 260   5 *** *** SCT * * *  6.2 01 ** ** ** ** ** ** ** 4   64   55 1012.7 ***** ****** *** *** ***** ***** ***** ***** **
601900 ***** 201504071500 240   5 *** *** SCT * * *  6.2 ** ** ** ** ** ** ** ** *   71   56 1011.1 ***** ****** *** *** ***** ***** ***** ***** **
601900 ***** 201504080900 220   7 ***  16 OVC * * *  1.2 10 ** ** ** ** ** ** ** 2   57   54 1017.6 ***** ****** *** *** ***** ***** ***** ***** **
601900 ***** 201504081200 220   7 ***  16 OVC * * *  1.2 10 ** ** ** ** ** ** ** 2   61   55 1017.7 ***** ****** *** *** ***** ***** ***** ***** **
601900 ***** 201504081500 220   5 *** *** SCT * * *  5.0 ** ** ** ** ** ** ** ** *   66   55 1016.5 ***** ****** *** *** ***** ***** ***** ***** **
601900 ***** 201504090900 200   2 *** 217 BKN * * *  6.2 ** ** ** ** ** ** ** ** *   61   52 1020.7 ***** ****** *** *** ***** ***** ***** ***** **
601900 ***** 201504091200 240   5 *** *** SCT * * *  6.2 ** ** ** ** ** ** ** ** *   67   49 1019.6 ***** ****** *** *** ***** ***** ***** ***** **
601900 ***** 201504100900 260   7 *** *** SCT * * *  5.0 ** ** ** ** ** ** ** ** *   59   54 1020.1 ***** ****** *** *** ***** ***** ***** ***** **
601900 ***** 201504101200 ***   0 *** *** *** * * *  5.6 ** ** ** ** ** ** ** ** *   69   57 1017.2 ***** ****** *** *** ***** ***** ***** ***** **
601900 ***** 201504101500 220   2 *** *** SCT * * *  6.2 ** ** ** ** ** ** ** ** *   73   56 1016.5 ***** ****** *** *** ***** ***** ***** ***** **
601900 ***** 201504110900 200   2 *** *** SCT * * *  5.6 ** ** ** ** ** ** ** ** *   60   53 1021.4 ***** ****** *** *** ***** ***** ***** ***** **
601900 ***** 201504111200 240   5 ***  30 BKN * * *  6.2 ** ** ** ** ** ** ** ** *   66   54 1019.6 ***** ****** *** *** ***** ***** ***** ***** **
601900 ***** 201504120900 340   5 *** *** *** * * *  6.2 ** ** ** ** ** ** ** ** *   64   52 1015.2 ***** ****** *** *** ***** ***** ***** ***** **
601900 ***** 201504121200 ***   0 *** *** *** * * *  6.2 ** ** ** ** ** ** ** ** *   75   53 1013.3 ***** ****** *** *** ***** ***** ***** ***** **
601900 ***** 201504121500 260   2 *** *** SCT * * *  9.4 ** ** ** ** ** ** ** ** *   82   49 1011.6 ***** ****** *** *** ***** ***** ***** ***** **
601900 ***** 201504130900 080   2 *** *** *** * * *  6.2 ** ** ** ** ** ** ** ** *   66   55 1017.1 ***** ****** *** *** ***** ***** ***** ***** **
601900 ***** 201504131200 200   2 *** *** *** * * *  6.2 ** ** ** ** ** ** ** ** *   77   55 1014.7 ***** ****** *** *** ***** ***** ***** ***** **
601900 ***** 201504140900 300   5 ***  16 OVC * * *  1.2 10 ** ** ** ** ** ** ** 2   58   56 1016.8 ***** ****** *** *** ***** ***** ***** ***** **
601900 ***** 201504141200 280   5 ***  16 OVC * * *  1.2 10 ** ** ** ** ** ** ** 2   59   56 1018.0 ***** ****** *** *** ***** ***** ***** ***** **
601900 ***** 201504141500 180   7 ***  26 BKN * * *  5.6 ** ** ** ** ** ** ** ** *   65   56 1016.5 ***** ****** *** *** ***** ***** ***** ***** **
601900 ***** 201504150900 180   5 *** *** SCT * * *  6.2 ** ** ** ** ** ** ** ** *   62   53 1016.8 ***** ****** *** *** ***** ***** ***** ***** **
601900 ***** 201504151200 240   5 ***  30 BKN * * *  6.2 ** ** ** ** ** ** ** ** *   69   52 1015.7 ***** ****** *** *** ***** ***** ***** ***** **
601900 ***** 201504151500 240   5 ***  30 BKN * * *  6.2 ** ** ** ** ** ** ** ** *   72   50 1014.7 ***** ****** *** *** ***** ***** ***** ***** **
601900 ***** 201504160900 ***   0 *** *** SCT * * *  5.6 ** ** ** ** ** ** ** ** *   60   53 1019.4 ***** ****** *** *** ***** ***** ***** ***** **
601900 ***** 201504161500 340   2 *** *** *** * * *  9.4 ** ** ** ** ** ** ** ** *   77   40 1014.9 ***** ****** *** *** ***** ***** ***** ***** **
601900 ***** 201504170900 200   5 *** 217 BKN * * *  6.2 ** ** ** ** ** ** ** ** *   63   53 1015.8 ***** ****** *** *** ***** ***** ***** ***** **
601900 ***** 201504171200 200   2 *** 217 BKN * * *  6.2 ** ** ** ** ** ** ** ** *   74   53 1013.9 ***** ****** *** *** ***** ***** ***** ***** **
601900 ***** 201504171500 200   2 *** 217 BKN * * *  6.2 ** ** ** ** ** ** ** ** *   81   53 1011.8 ***** ****** *** *** ***** ***** ***** ***** **
601900 ***** 201504180900 360   2 *** 217 BKN * * *  5.6 ** ** ** ** ** ** ** ** *   62   55 1016.2 ***** ****** *** *** ***** ***** ***** ***** **
601900 ***** 201504181200 300   2 *** *** SCT * * *  6.2 ** ** ** ** ** ** ** ** *   76   57 1013.3 ***** ****** *** *** ***** ***** ***** ***** **
601900 ***** 201504181500 260   7 *** *** *** * * *  6.2 ** ** ** ** ** ** ** ** *   82   57 1010.9 ***** ****** *** *** ***** ***** ***** ***** **
601900 ***** 201504190900 240   5 *** *** *** * * *  5.6 ** ** ** ** ** ** ** ** *   61   55 1015.3 ***** ****** *** *** ***** ***** ***** ***** **
601900 ***** 201504191200 200   5 *** *** *** * * *  6.2 ** ** ** ** ** ** ** ** *   72   57 1013.2 ***** ****** *** *** ***** ***** ***** ***** **
601900 ***** 201504191500 200   5 *** *** *** * * *  6.2 ** ** ** ** ** ** ** ** *   78   57 1011.0 ***** ****** *** *** ***** ***** ***** ***** **
601900 ***** 201504200900 ***   0 *** *** *** * * *  6.2 ** ** ** ** ** ** ** ** *   63   54 1016.2 ***** ****** *** *** ***** ***** ***** ***** **
601900 ***** 201504201200 300   2 *** *** SCT * * *  7.5 ** ** ** ** ** ** ** ** *   75   58 1012.7 ***** ****** *** *** ***** ***** ***** ***** **
601900 ***** 201504210900 240   7 ***  30 BKN * * *  6.2 ** ** ** ** ** ** ** ** *   57   53 1015.6 ***** ****** *** *** ***** ***** ***** ***** **
601900 ***** 201504211200 120  11 ***  30 OVC * * *  6.2 ** ** ** ** ** ** ** ** *   60   54 1016.1 ***** ****** *** *** ***** ***** ***** ***** **
601900 ***** 201504211500 180   9 ***  30 OVC * * *  6.2 ** ** ** ** ** ** ** ** *   83   45 1010.3 ***** ****** *** *** ***** ***** ***** ***** **
601900 ***** 201504220900 120   2 ***  79 OVC * * *  4.4 ** ** ** ** ** ** ** ** *   60   55 1019.7 ***** ****** *** *** ***** ***** ***** ***** **
601900 ***** 201504221200 320   2 *** 217 BKN * * *  5.0 ** ** ** ** ** ** ** ** *   72   57 1017.8 ***** ****** *** *** ***** ***** ***** ***** **
601900 ***** 201504221500 240   7 *** 217 BKN * * *  6.2 ** ** ** ** ** ** ** ** *   78   59 1015.4 ***** ****** *** *** ***** ***** ***** ***** **
601900 ***** 201504231500 240   5 *** *** SCT * * *  6.2 ** ** ** ** ** ** ** ** *   83   59 1012.9 ***** ****** *** *** ***** ***** ***** ***** **
601900 ***** 201504240900 200   2 *** 217 BKN * * *  6.2 ** ** ** ** ** ** ** ** *   66   55 1016.9 ***** ****** *** *** ***** ***** ***** ***** **
601900 ***** 201504241200 240   5 *** 217 BKN * * *  7.5 ** ** ** ** ** ** ** ** *   76   51 1015.6 ***** ****** *** *** ***** ***** ***** ***** **
601900 ***** 201504241500 240   5 *** 217 BKN * * *  7.5 ** ** ** ** ** ** ** ** *   82   50 1013.5 ***** ****** *** *** ***** ***** ***** ***** **
601900 ***** 201504250900 200   5 *** 217 BKN * * *  6.2 ** ** ** ** ** ** ** ** *   67   48 1017.6 ***** ****** *** *** ***** ***** ***** ***** **
601900 ***** 201504251200 200   2 *** 217 BKN * * *  6.2 ** ** ** ** ** ** ** ** *   75   46 1015.6 ***** ****** *** *** ***** ***** ***** ***** **
601900 ***** 201504251500 200   5 *** 217 BKN * * *  6.2 ** ** ** ** ** ** ** ** *   83   49 1013.5 ***** ****** *** *** ***** ***** ***** ***** **
601900 ***** 201504260900 240   2 *** *** SCT * * * 18.1 ** ** ** ** ** ** ** ** *   64   53 1017.6 ***** ****** *** *** ***** ***** ***** ***** **
601900 ***** 201504261500 240   9 *** 217 BKN * * *  9.4 ** ** ** ** ** ** ** ** *   78   47 1014.3 ***** ****** *** *** ***** ***** ***** ***** **
601900 ***** 201504270900 ***   0 *** *** SCT * * *  5.6 ** ** ** ** ** ** ** ** *   65   52 1018.3 ***** ****** *** *** ***** ***** ***** ***** **
601900 ***** 201504271200 240   7 *** *** SCT * * *  5.6 ** ** ** ** ** ** ** ** *   73   48 1017.2 ***** ****** *** *** ***** ***** ***** ***** **
601900 ***** 201504271500 200   2 *** *** *** * * *  9.4 ** ** ** ** ** ** ** ** *   78   44 1014.7 ***** ****** *** *** ***** ***** ***** ***** **
601900 ***** 201504280900 300   2 *** *** SCT * * *  9.4 ** ** ** ** ** ** ** ** *   65   48 1017.0 ***** ****** *** *** ***** ***** ***** ***** **
601900 ***** 201504281200 260   5 *** 217 BKN * * * 11.2 ** ** ** ** ** ** ** ** *   77   49 1015.9 ***** ****** *** *** ***** ***** ***** ***** **
601900 ***** 201504281500 220   5 *** 217 BKN * * * 12.5 ** ** ** ** ** ** ** ** *   82   41 1014.6 ***** ****** *** *** ***** ***** ***** ***** **
601900 ***** 201504290900 100   5 *** *** *** * * *  6.2 ** ** ** ** ** ** ** ** *   66   52 1019.3 ***** ****** *** *** ***** ***** ***** ***** **
601900 ***** 201504291200 220  46 *** *** SCT * * *  9.4 ** ** ** ** ** ** ** ** *   80   47 1017.7 ***** ****** *** *** ***** ***** ***** ***** **
601900 ***** 201504291500 200   5 *** 217 BKN * * *  9.4 ** ** ** ** ** ** ** ** *   85   42 1014.7 ***** ****** *** *** ***** ***** ***** ***** **
601900 ***** 201504300900 260   2 *** *** SCT * * *  7.5 ** ** ** ** ** ** ** ** *   68   53 1017.9 ***** ****** *** *** ***** ***** ***** ***** **
601900 ***** 201504301200 300   2 *** *** SCT * * *  9.4 ** ** ** ** ** ** ** ** *   78   48 1016.0 ***** ****** *** *** ***** ***** ***** ***** **
601900 ***** 201504301500 260   2 *** *** SCT * * * 11.2 ** ** ** ** ** ** ** ** *   87   47 1013.1 ***** ****** *** *** ***** ***** ***** ***** **
601900 ***** 201505011200 200   5 *** *** SCT * * *  6.2 ** ** ** ** ** ** ** ** *   87   50 1013.3 ***** ****** *** *** ***** ***** ***** ***** **
601900 ***** 201505011500 200   7 *** *** SCT * * *  6.2 ** ** ** ** ** ** ** ** *   94   47 1010.3 ***** ****** *** *** ***** ***** ***** ***** **
601900 ***** 201505020900 ***   0 *** *** SCT * * *  7.5 ** ** ** ** ** ** ** ** *   84   49 1011.6 ***** ****** *** *** ***** ***** ***** ***** **
601900 ***** 201505021200 ***   0 *** *** SCT * * *  7.5 ** ** ** ** ** ** ** ** *   98   44 1009.8 ***** ****** *** *** ***** ***** ***** ***** **
601900 ***** 201505021500 260   5 *** *** SCT * * *  9.4 ** ** ** ** ** ** ** ** *  101   33 1006.8 ***** ****** *** *** ***** ***** ***** ***** **
601900 ***** 201505031200 200   2 *** 217 BKN * * *  9.4 ** ** ** ** ** ** ** ** *   94   51 1008.3 ***** ****** *** *** ***** ***** ***** ***** **
601900 ***** 201505040900 320   2 ***  79 BKN * * *  6.2 ** ** ** ** ** ** ** ** *   76   53 1010.9 ***** ****** *** *** ***** ***** ***** ***** **
601900 ***** 201505041200 260   7 *** *** BKN * * *  6.2 ** ** ** ** ** ** ** ** *   83   53 1010.3 ***** ****** *** *** ***** ***** ***** ***** **
601900 ***** 201505041500 280   9 ***  79 BKN * * *  6.2 ** ** ** ** ** ** ** ** *   85   49 1010.2 ***** ****** *** *** ***** ***** ***** ***** **
601900 ***** 201505050900 200   2 *** *** SCT * * *  5.6 ** ** ** ** ** ** ** ** *   69   53 1014.7 ***** ****** *** *** ***** ***** ***** ***** **
601900 ***** 201505051200 240   5 *** 226 BKN * * *  6.2 ** ** ** ** ** ** ** ** *   80   53 1013.0 ***** ****** *** *** ***** ***** ***** ***** **
601900 ***** 201505051500 200   5 *** 226 BKN * * *  6.2 ** ** ** ** ** ** ** ** *   85   49 1011.3 ***** ****** *** *** ***** ***** ***** ***** **
601900 ***** 201505060900 160   2 *** *** *** * * *  6.2 ** ** ** ** ** ** ** ** *   74   58 1014.8 ***** ****** *** *** ***** ***** ***** ***** **
601900 ***** 201505061200 320   2 *** *** *** * * *  7.5 ** ** ** ** ** ** ** ** *   84   57 1013.0 ***** ****** *** *** ***** ***** ***** ***** **
601900 ***** 201505061500 220   5 *** *** SCT * * *  0.3 ** ** ** ** ** ** ** ** *   90   48 1011.6 ***** ****** *** *** ***** ***** ***** ***** **
601900 ***** 201505070900 080   2 *** *** *** * * *  6.2 ** ** ** ** ** ** ** ** *   78   56 1015.3 ***** ****** *** *** ***** ***** ***** ***** **
601900 ***** 201505071200 240   5 *** *** *** * * *  6.2 ** ** ** ** ** ** ** ** *   87   53 1014.0 ***** ****** *** *** ***** ***** ***** ***** **
601900 ***** 201505080900 360   2 *** *** *** * * *  9.4 ** ** ** ** ** ** ** ** *   73   50 1021.3 ***** ****** *** *** ***** ***** ***** ***** **
601900 ***** 201505081200 320   2 *** *** *** * * *  9.4 ** ** ** ** ** ** ** ** *   85   43 1019.4 ***** ****** *** *** ***** ***** ***** ***** **
601900 ***** 201505081500 240   5 *** *** *** * * * 11.2 ** ** ** ** ** ** ** ** *   91   38 1016.0 ***** ****** *** *** ***** ***** ***** ***** **
601900 ***** 201505090900 100   2 *** *** *** * * *  6.2 ** ** ** ** ** ** ** ** *   75   56 1018.5 ***** ****** *** *** ***** ***** ***** ***** **
601900 ***** 201505091200 200   2 *** *** *** * * *  7.5 ** ** ** ** ** ** ** ** *   89   49 1015.4 ***** ****** *** *** ***** ***** ***** ***** **
601900 ***** 201505091500 200   2 *** *** SCT * * *  7.5 ** ** ** ** ** ** ** ** *   96   47 1012.3 ***** ****** *** *** ***** ***** ***** ***** **
601900 ***** 201505100900 240   2 *** *** *** * * *  7.5 ** ** ** ** ** ** ** ** *   76   55 1016.6 ***** ****** *** *** ***** ***** ***** ***** **
601900 ***** 201505101200 220   2 *** *** *** * * *  9.4 ** ** ** ** ** ** ** ** *   90   57 1014.0 ***** ****** *** *** ***** ***** ***** ***** **
601900 ***** 201505101500 240   5 *** *** SCT * * *  9.4 ** ** ** ** ** ** ** ** *   96   49 1012.1 ***** ****** *** *** ***** ***** ***** ***** **
601900 ***** 201505110900 160   2 *** *** *** * * *  5.0 ** ** ** ** ** ** ** ** *   80   54 1016.4 ***** ****** *** *** ***** ***** ***** ***** **
601900 ***** 201505111200 020   5 *** *** *** * * *  6.2 ** ** ** ** ** ** ** ** *   96   53 1014.2 ***** ****** *** *** ***** ***** ***** ***** **
601900 ***** 201505111500 200   5 *** *** *** * * *  6.2 ** ** ** ** ** ** ** ** *  103   41 1012.2 ***** ****** *** *** ***** ***** ***** ***** **
601900 ***** 201505120900 060   2 *** *** *** * * *  7.5 ** ** ** ** ** ** ** ** *   90   51 1017.0 ***** ****** *** *** ***** ***** ***** ***** **
601900 ***** 201505121200 340   2 *** *** SCT * * *  7.5 ** ** ** ** ** ** ** ** *  102   42 1015.7 ***** ****** *** *** ***** ***** ***** ***** **
601900 ***** 201505121500 320   5 *** *** SCT * * *  9.4 ** ** ** ** ** ** ** ** *  106   35 1013.5 ***** ****** *** *** ***** ***** ***** ***** **
601900 ***** 201505130900 200   2 *** *** *** * * *  6.2 ** ** ** ** ** ** ** ** *   91   38 1017.4 ***** ****** *** *** ***** ***** ***** ***** **
601900 ***** 201505131200 200   5 *** *** *** * * *  6.2 ** ** ** ** ** ** ** ** *  103   39 1015.4 ***** ****** *** *** ***** ***** ***** ***** **
601900 ***** 201505131500 200   7 *** *** SCT * * *  6.2 ** ** ** ** ** ** ** ** *  106   34 1013.3 ***** ****** *** *** ***** ***** ***** ***** **
601900 ***** 201505140900 220   2 *** 217 BKN * * *  6.2 ** ** ** ** ** ** ** ** *   91   50 1016.0 ***** ****** *** *** ***** ***** ***** ***** **
601900 ***** 201505141200 320   3 *** *** SCT * * *  6.2 ** ** ** ** ** ** ** ** *   99   42 1015.1 ***** ****** *** *** ***** ***** ***** ***** **
601900 ***** 201505141500 220   5 *** *** BKN * * *  7.5 ** ** ** ** ** ** ** ** *  104   40 1012.1 ***** ****** *** *** ***** ***** ***** ***** **
601900 ***** 201505150900 200   5 *** *** *** * * *  6.2 ** ** ** ** ** ** ** ** *   76   54 1019.2 ***** ****** *** *** ***** ***** ***** ***** **
601900 ***** 201505151200 240   5 *** *** *** * * *  6.2 ** ** ** ** ** ** ** ** *   89   51 1016.6 ***** ****** *** *** ***** ***** ***** ***** **
601900 ***** 201505151500 200   5 *** *** *** * * *  6.2 ** ** ** ** ** ** ** ** *   95   44 1014.0 ***** ****** *** *** ***** ***** ***** ***** **
601900 ***** 201505160900 ***   0 *** *** *** * * *  6.2 ** ** ** ** ** ** ** ** *   75   51 1016.6 ***** ****** *** *** ***** ***** ***** ***** **
601900 ***** 201505161200 340   2 *** *** *** * * *  6.2 ** ** ** ** ** ** ** ** *   89   46 1013.6 ***** ****** *** *** ***** ***** ***** ***** **
601900 ***** 201505161500 260   2 *** *** *** * * *  9.4 ** ** ** ** ** ** ** ** *   96   44 1011.0 ***** ****** *** *** ***** ***** ***** ***** **
601900 ***** 201505171200 240   5 *** *** *** * * *  5.6 ** ** ** ** ** ** ** ** *   89   50 1010.3 ***** ****** *** *** ***** ***** ***** ***** **
601900 ***** 201505171500 200   5 *** *** SCT * * *  5.6 ** ** ** ** ** ** ** ** *   93   51 1008.0 ***** ****** *** *** ***** ***** ***** ***** **
601900 ***** 201505180900 260   5 *** *** *** * * *  5.0 ** ** ** ** ** ** ** ** *   71   57 1013.5 ***** ****** *** *** ***** ***** ***** ***** **
601900 ***** 201505181200 240   9 *** *** *** * * *  5.6 ** ** ** ** ** ** ** ** *   79   49 1011.9 ***** ****** *** *** ***** ***** ***** ***** **
601900 ***** 201505190900 260   7 ***  20 OVC * * *  5.6 ** ** ** ** ** ** ** ** *   61   56 1015.0 ***** ****** *** *** ***** ***** ***** ***** **
601900 ***** 201505191200 200   5 ***  26 OVC * * *  5.6 ** ** ** ** ** ** ** ** *   67   56 1014.2 ***** ****** *** *** ***** ***** ***** ***** **
601900 ***** 201505200900 260   5 ***  79 OVC * * *  5.6 ** ** ** ** ** ** ** ** *   60   51 1017.3 ***** ****** *** *** ***** ***** ***** ***** **
601900 ***** 201505201200 340   2 *** *** SCT * * *  5.6 ** ** ** ** ** ** ** ** *   69   54 1016.2 ***** ****** *** *** ***** ***** ***** ***** **
601900 ***** 201505210900 200   2 *** *** *** * * *  6.2 ** ** ** ** ** ** ** ** *   71   52 1016.7 ***** ****** *** *** ***** ***** ***** ***** **
601900 ***** 201505220900 260   5 *** *** BKN * * *  7.5 ** ** ** ** ** ** ** ** *   73   54 1014.7 ***** ****** *** *** ***** ***** ***** ***** **
601900 ***** 201505221200 260   9 *** *** BKN * * *  7.5 ** ** ** ** ** ** ** ** *   80   55 1012.6 ***** ****** *** *** ***** ***** ***** ***** **
601900 ***** 201505230900 260   7 ***  30 BKN * * *  5.6 ** ** ** ** ** ** ** ** *   65   59 1014.2 ***** ****** *** *** ***** ***** ***** ***** **
601900 ***** 201505231200 260   7 ***  30 BKN * * *  5.6 28 ** ** ** ** ** ** ** *   70   55 1013.3 ***** ****** *** *** *****  0.01 ***** ***** **
601900 ***** 201505240900 240   5 ***  30 BKN * * *  5.6 ** ** ** ** ** ** ** ** *   62   55 1012.3 ***** ****** *** *** ***** ***** ***** ***** **
601900 ***** 201505241200 260   5 ***  30 BKN * * *  6.2 ** ** ** ** ** ** ** ** *   67   55 1012.3 ***** ****** *** *** ***** ***** ***** ***** **
601900 ***** 201505250900 240   5 ***  30 BKN * * *  5.6 ** ** ** ** ** ** ** ** *   62   56 1014.7 ***** ****** *** *** ***** ***** ***** ***** **
601900 ***** 201505251200 240   7 ***  30 BKN * * *  5.6 ** ** ** ** ** ** ** ** *   68   52 1014.2 ***** ****** *** *** ***** ***** ***** ***** **
601900 ***** 201505260900 240   5 *** *** SCT * * *  6.2 ** ** ** ** ** ** ** ** *   67   54 1014.7 ***** ****** *** *** ***** ***** ***** ***** **
601900 ***** 201505261200 320   5 *** *** SCT * * *  7.5 ** ** ** ** ** ** ** ** *   78   53 1013.1 ***** ****** *** *** ***** ***** ***** ***** **
601900 ***** 201505270900 080   7 *** *** *** * * *  7.5 ** ** ** ** ** ** ** ** *   78   53 1011.7 ***** ****** *** *** ***** ***** ***** ***** **
601900 ***** 201505271200 100   2 *** *** SCT * * *  7.5 ** ** ** ** ** ** ** ** *   87   50 1010.2 ***** ****** *** *** ***** ***** ***** ***** **
601900 ***** 201505280900 040   5 *** *** SCT * * *  6.2 ** ** ** ** ** ** ** ** *   69   59 1012.9 ***** ****** *** *** ***** ***** ***** ***** **
601900 ***** 201505281200 240   7 *** *** SCT * * *  7.5 ** ** ** ** ** ** ** ** *   79   58 1011.0 ***** ****** *** *** ***** ***** ***** ***** **
601900 ***** 201505290900 200   7 ***  30 OVC * * *  5.6 02 ** ** ** ** ** ** ** 8   63   58 1017.0 ***** ****** *** *** ***** ***** ***** ***** **
601900 ***** 201505291200 240   5 ***  30 BKN * * *  5.6 01 ** ** ** ** ** ** ** 8   69   55 1017.0 ***** ****** *** *** *****  0.02 ***** ***** **
601900 ***** 201505300900 100   2 *** *** *** * * *  9.4 ** ** ** ** ** ** ** ** *   73   55 1016.6 ***** ****** *** *** ***** ***** ***** ***** **
601900 ***** 201505301200 ***   0 *** *** *** * * *  9.4 ** ** ** ** ** ** ** ** *   85   48 1014.3 ***** ****** *** *** ***** ***** ***** ***** **
601900 ***** 201505310900 200   5 *** *** *** * * *  5.6 ** ** ** ** ** ** ** ** *   73   60 1014.9 ***** ****** *** *** ***** ***** ***** ***** **
601900 ***** 201505311200 270   9 *** *** SCT * * *  5.6 ** ** ** ** ** ** ** ** *   81   60 1014.0 ***** ****** *** *** ***** ***** ***** ***** **
601900 ***** 201506010900 220   5 *** *** SCT * * *  5.6 ** ** ** ** ** ** ** ** *   68   61 1016.4 ***** ****** *** *** ***** ***** ***** ***** **
601900 ***** 201506011200 260   2 *** *** SCT * * *  7.5 ** ** ** ** ** ** ** ** *   76   58 1014.4 ***** ****** *** *** ***** ***** ***** ***** **
601900 ***** 201506020900 200   2 *** *** SCT * * *  5.6 ** ** ** ** ** ** ** ** *   73   61 1012.2 ***** ****** *** *** ***** ***** ***** ***** **
601900 ***** 201506021200 200   5 *** *** SCT * * *  5.6 ** ** ** ** ** ** ** ** *   86   56 1010.2 ***** ****** *** *** ***** ***** ***** ***** **
601900 ***** 201506030900 140   7 *** *** SCT * * *  7.5 ** ** ** ** ** ** ** ** *   88   48 1011.7 ***** ****** *** *** ***** ***** ***** ***** **
601900 ***** 201506031200 320   5 *** *** SCT * * *  7.5 ** ** ** ** ** ** ** ** *   93   48 1010.8 ***** ****** *** *** ***** ***** ***** ***** **
601900 ***** 201506040900 080   5 *** *** SCT * * *  6.2 ** ** ** ** ** ** ** ** *   84   55 1013.9 ***** ****** *** *** ***** ***** ***** ***** **
601900 ***** 201506041200 ***   0 *** *** *** * * *  6.2 ** ** ** ** ** ** ** ** *   94   50 1012.2 ***** ****** *** *** ***** ***** ***** ***** **
601900 ***** 201506050900 080   5 *** *** SCT * * *  5.6 ** ** ** ** ** ** ** ** *   88   55 1012.2 ***** ****** *** *** ***** ***** ***** ***** **
601900 ***** 201506051200 260   2 *** *** SCT * * *  6.2 ** ** ** ** ** ** ** ** *   97   53 1011.5 ***** ****** *** *** ***** ***** ***** ***** **
601900 ***** 201506060900 080   5 *** *** *** * * *  9.4 ** ** ** ** ** ** ** ** *   92   52 1011.9 ***** ****** *** *** ***** ***** ***** ***** **
601900 ***** 201506061200 080   5 *** *** *** * * *  7.5 ** ** ** ** ** ** ** ** *  100   47 1010.8 ***** ****** *** *** ***** ***** ***** ***** **
601900 ***** 201506070900 140   7 *** *** *** * * *  5.6 ** ** ** ** ** ** ** ** *   92   48 1009.9 ***** ****** *** *** ***** ***** ***** ***** **
601900 ***** 201506071200 260   7 *** *** SCT * * *  6.2 ** ** ** ** ** ** ** ** *  100   46 1008.2 ***** ****** *** *** ***** ***** ***** ***** **
601900 ***** 201506080900 240   7 *** *** *** * * *  5.0 ** ** ** ** ** ** ** ** *   73   55 1014.0 ***** ****** *** *** ***** ***** ***** ***** **
601900 ***** 201506081200 240   7 *** *** SCT * * *  5.6 ** ** ** ** ** ** ** ** *   78   57 1013.2 ***** ****** *** *** ***** ***** ***** ***** **
601900 ***** 201506090900 240   2 ***  79 BKN * * *  5.6 ** ** ** ** ** ** ** ** *   69   60 1014.8 ***** ****** *** *** ***** ***** ***** ***** **
601900 ***** 201506091200 240   2 ***  32 BKN * * *  5.6 ** ** ** ** ** ** ** ** *   75   60 1013.9 ***** ****** *** *** ***** ***** ***** ***** **
601900 ***** 201506100900 200   5 ***  30 OVC * * *  5.6 ** ** ** ** ** ** ** ** *   67   59 1013.6 ***** ****** *** *** ***** ***** ***** ***** **
601900 ***** 201506101200 240   7 ***  30 OVC * * *  5.6 ** ** ** ** ** ** ** ** *   72   59 1014.0 ***** ****** *** *** ***** ***** ***** ***** **
601900 ***** 201506110900 240   5 ***  16 OVC * * *  1.9 10 ** ** ** ** ** ** ** 5   64   62 1015.2 ***** ****** *** *** ***** ***** ***** ***** **
601900 ***** 201506111200 180   5 ***  26 BKN * * *  4.4 03 ** ** ** ** ** ** ** 5   70   60 1015.1 ***** ****** *** *** *****  0.02 ***** ***** **
601900 ***** 201506120900 240   5 ***  30 BKN * * *  6.2 ** ** ** ** ** ** ** ** *   67   53 1016.5 ***** ****** *** *** ***** ***** ***** ***** **
601900 ***** 201506121200 200   5 ***  30 BKN * * *  6.2 ** ** ** ** ** ** ** ** *   73   53 1016.1 ***** ****** *** *** ***** ***** ***** ***** **
601900 ***** 201506130900 300   7 ***  79 BKN * * *  9.4 ** ** ** ** ** ** ** ** *   66   53 1017.2 ***** ****** *** *** ***** ***** ***** ***** **
601900 ***** 201506131200 240  11 ***  26 BKN * * *  3.8 ** ** ** ** ** ** ** ** *   72   52 1016.6 ***** ****** *** *** ***** ***** ***** ***** **
601900 ***** 201506140900 200   5 ***  98 BKN * * *  6.2 ** ** ** ** ** ** ** ** *   65   52 1016.3 ***** ****** *** *** ***** ***** ***** ***** **
601900 ***** 201506141200 240   5 *** *** BKN * * *  6.2 ** ** ** ** ** ** ** ** *   74   49 1016.7 ***** ****** *** *** ***** ***** ***** ***** **
601900 ***** 201506150900 260   2 ***  79 BKN * * *  7.5 ** ** ** ** ** ** ** ** *   65   51 1019.4 ***** ****** *** *** ***** ***** ***** ***** **
601900 ***** 201506151200 ***   0 *** *** SCT * * *  7.5 ** ** ** ** ** ** ** ** *   75   49 1018.5 ***** ****** *** *** ***** ***** ***** ***** **
601900 ***** 201506160900 080   5 *** *** *** * * *  6.2 ** ** ** ** ** ** ** ** *   72   53 1017.9 ***** ****** *** *** ***** ***** ***** ***** **
601900 ***** 201506161200 200   5 *** *** *** * * *  6.2 ** ** ** ** ** ** ** ** *   83   51 1015.8 ***** ****** *** *** ***** ***** ***** ***** **
601900 ***** 201506170900 260   2 *** *** *** * * *  7.5 ** ** ** ** ** ** ** ** *   73   54 1015.2 ***** ****** *** *** ***** ***** ***** ***** **
601900 ***** 201506171200 ***   0 *** *** SCT * * *  9.4 ** ** ** ** ** ** ** ** *   83   54 1013.5 ***** ****** *** *** ***** ***** ***** ***** **
601900 ***** 201506180900 240   7 *** *** *** * * *  6.2 ** ** ** ** ** ** ** ** *   78   48 1013.1 ***** ****** *** *** ***** ***** ***** ***** **
601900 ***** 201506181200 240   5 *** *** *** * * *  7.5 ** ** ** ** ** ** ** ** *   87   50 1011.7 ***** ****** *** *** ***** ***** ***** ***** **
601900 ***** 201506190900 220   2 *** *** *** * * *  9.4 ** ** ** ** ** ** ** ** *   79   46 1013.0 ***** ****** *** *** ***** ***** ***** ***** **
601900 ***** 201506191200 220   5 *** *** *** * * *  9.4 ** ** ** ** ** ** ** ** *   87   53 1011.9 ***** ****** *** *** ***** ***** ***** ***** **
601900 ***** 201506200900 240   5 *** *** *** * * *  7.5 ** ** ** ** ** ** ** ** *   74   64 1015.5 ***** ****** *** *** ***** ***** ***** ***** **
601900 ***** 201506201200 240   9 *** 217 BKN * * *  7.5 ** ** ** ** ** ** ** ** *   83   58 1014.7 ***** ****** *** *** ***** ***** ***** ***** **
601900 ***** 201506210900 220   7 *** *** *** * * *  9.4 ** ** ** ** ** ** ** ** *   79   55 1016.7 ***** ****** *** *** ***** ***** ***** ***** **
601900 ***** 201506211200 220   7 *** *** *** * * *  9.4 ** ** ** ** ** ** ** ** *   87   51 1014.9 ***** ****** *** *** ***** ***** ***** ***** **
601900 ***** 201506220900 080   5 *** *** *** * * *  9.4 ** ** ** ** ** ** ** ** *   85   56 1015.1 ***** ****** *** *** ***** ***** ***** ***** **
601900 ***** 201506221200 240   2 *** *** *** * * *  7.5 ** ** ** ** ** ** ** ** *   93   54 1013.6 ***** ****** *** *** ***** ***** ***** ***** **
601900 ***** 201506230900 220   5 *** *** *** * * *  9.4 ** ** ** ** ** ** ** ** *   72   55 1018.4 ***** ****** *** *** ***** ***** ***** ***** **
601900 ***** 201506231200 320   7 *** *** *** * * *  9.4 ** ** ** ** ** ** ** ** *   81   53 1016.6 ***** ****** *** *** ***** ***** ***** ***** **
601900 ***** 201506240900 200   5 *** *** *** * * *  7.5 ** ** ** ** ** ** ** ** *   71   58 1017.3 ***** ****** *** *** ***** ***** ***** ***** **
601900 ***** 201506241200 300   5 *** *** SCT * * *  7.5 ** ** ** ** ** ** ** ** *   81   58 1016.1 ***** ****** *** *** ***** ***** ***** ***** **
601900 ***** 201506250900 240   2 *** *** *** * * *  9.4 ** ** ** ** ** ** ** ** *   73   58 1017.4 ***** ****** *** *** ***** ***** ***** ***** **
601900 ***** 201506251200 260   7 *** *** *** * * *  9.4 ** ** ** ** ** ** ** ** *   83   58 1015.9 ***** ****** *** *** ***** ***** ***** ***** **
601900 ***** 201506260900 200   5 *** *** *** * * *  9.4 ** ** ** ** ** ** ** ** *   75   59 1017.1 ***** ****** *** *** ***** ***** ***** ***** **
601900 ***** 201506261200 200   5 *** *** *** * * *  9.4 ** ** ** ** ** ** ** ** *   88   60 1013.9 ***** ****** *** *** ***** ***** ***** ***** **
601900 ***** 201506270900 320   2 *** *** *** * * *  6.2 ** ** ** ** ** ** ** ** *   83   64 1013.6 ***** ****** *** *** ***** ***** ***** ***** **
601900 ***** 201506271200 220   2 *** *** *** * * *  6.2 ** ** ** ** ** ** ** ** *   97   62 1011.3 ***** ****** *** *** ***** ***** ***** ***** **
601900 ***** 201506280900 200   2 *** *** *** * * *  7.5 ** ** ** ** ** ** ** ** *   83   59 1015.9 ***** ****** *** *** ***** ***** ***** ***** **
601900 ***** 201506281200 200   2 *** *** *** * * *  7.5 ** ** ** ** ** ** ** ** *   96   62 1013.5 ***** ****** *** *** ***** ***** ***** ***** **
601900 ***** 201506290900 240   2 *** *** *** * * *  6.2 ** ** ** ** ** ** ** ** *   82   60 1016.3 ***** ****** *** *** ***** ***** ***** ***** **
601900 ***** 201506291200 340   5 *** *** *** * * *  7.5 ** ** ** ** ** ** ** ** *   96   56 1013.5 ***** ****** *** *** ***** ***** ***** ***** **
601900 ***** 201506300900 080   5 *** *** *** * * *  6.2 ** ** ** ** ** ** ** ** *   82   59 1015.1 ***** ****** *** *** ***** ***** ***** ***** **
601900 ***** 201506301200 200   5 *** *** *** * * *  6.2 ** ** ** ** ** ** ** ** *   96   51 1012.9 ***** ****** *** *** ***** ***** ***** ***** **
601900 ***** 201507010900 ***   0 *** *** *** * * *  5.6 ** ** ** ** ** ** ** ** *   74   61 1015.0 ***** ****** *** *** ***** ***** ***** ***** **
601900 ***** 201507011200 240   6 *** *** *** * * *  7.5 ** ** ** ** ** ** ** ** *   88   60 1013.0 ***** ****** *** *** ***** ***** ***** ***** **
601900 ***** 201507020900 240   7 *** *** *** * * *  6.2 ** ** ** ** ** ** ** ** *   74   60 1017.1 ***** ****** *** *** ***** ***** ***** ***** **
601900 ***** 201507021200 240   2 *** *** *** * * *  6.2 ** ** ** ** ** ** ** ** *   85   58 1015.6 ***** ****** *** *** ***** ***** ***** ***** **
601900 ***** 201507030900 260   5 *** *** *** * * *  6.2 ** ** ** ** ** ** ** ** *   76   62 1019.0 ***** ****** *** *** ***** ***** ***** ***** **
601900 ***** 201507031200 320   5 *** *** *** * * *  7.5 ** ** ** ** ** ** ** ** *   88   63 1014.8 ***** ****** *** *** ***** ***** ***** ***** **
601900 ***** 201507040900 200   2 *** *** *** * * *  6.2 ** ** ** ** ** ** ** ** *   79   61 1016.4 ***** ****** *** *** ***** ***** ***** ***** **
601900 ***** 201507041200 200   5 *** *** SCT * * *  6.2 ** ** ** ** ** ** ** ** *   93   62 1014.2 ***** ****** *** *** ***** ***** ***** ***** **
601900 ***** 201507050900 ***   0 *** *** SCT * * *  7.5 ** ** ** ** ** ** ** ** *   81   64 1014.7 ***** ****** *** *** ***** ***** ***** ***** **
601900 ***** 201507051200 360   2 *** *** SCT * * *  7.5 ** ** ** ** ** ** ** ** *   95   62 1012.9 ***** ****** *** *** ***** ***** ***** ***** **
601900 ***** 201507060900 080   5 *** *** *** * * *  7.5 ** ** ** ** ** ** ** ** *   93   53 1012.6 ***** ****** *** *** ***** ***** ***** ***** **
601900 ***** 201507070900 100   2 *** *** SCT * * *  9.4 ** ** ** ** ** ** ** ** *   89   61 1014.1 ***** ****** *** *** ***** ***** ***** ***** **
601900 ***** 201507071200 200   3 *** *** SCT * * *  9.4 ** ** ** ** ** ** ** ** *  101   58 1012.1 ***** ****** *** *** ***** ***** ***** ***** **
601900 ***** 201507080900 080   2 *** *** *** * * *  6.2 ** ** ** ** ** ** ** ** *   87   58 1014.7 ***** ****** *** *** ***** ***** ***** ***** **
601900 ***** 201507081200 200   5 *** *** SCT * * *  7.5 ** ** ** ** ** ** ** ** *   96   59 1012.4 ***** ****** *** *** ***** ***** ***** ***** **
601900 ***** 201507090900 ***   0 *** *** *** * * *  9.4 ** ** ** ** ** ** ** ** *   83   62 1014.6 ***** ****** *** *** ***** ***** ***** ***** **
601900 ***** 201507091200 300   3 *** *** SCT * * *  9.4 ** ** ** ** ** ** ** ** *   95   62 1013.1 ***** ****** *** *** ***** ***** ***** ***** **
601900 ***** 201507100900 240   2 *** *** *** * * *  9.4 ** ** ** ** ** ** ** ** *   82   62 1016.6 ***** ****** *** *** ***** ***** ***** ***** **
601900 ***** 201507101200 260   2 *** *** SCT * * *  9.4 ** ** ** ** ** ** ** ** *   93   60 1015.4 ***** ****** *** *** ***** ***** ***** ***** **
601900 ***** 201507130900 080   5 *** *** SCT * * * 11.2 ** ** ** ** ** ** ** ** *   92   58 1013.6 ***** ****** *** *** ***** ***** ***** ***** **
601900 ***** 201507131200 300   2 *** *** SCT * * * 12.5 ** ** ** ** ** ** ** ** *  103   55 1012.1 ***** ****** *** *** ***** ***** ***** ***** **
601900 ***** 201507141200 140   2 *** *** SCT * * * 11.2 ** ** ** ** ** ** ** ** *  107   53 1010.2 ***** ****** *** *** ***** ***** ***** ***** **
601900 ***** 201507150900 080   5 *** *** SCT * * *  9.4 ** ** ** ** ** ** ** ** *   93   55 1011.1 ***** ****** *** *** ***** ***** ***** ***** **
601900 ***** 201507151200 300   5 *** *** SCT * * *  9.4 ** ** ** ** ** ** ** ** *  104   52 1009.1 ***** ****** *** *** ***** ***** ***** ***** **
601900 ***** 201507160900 080   2 *** *** SCT * * *  9.4 ** ** ** ** ** ** ** ** *   91   56 1010.7 ***** ****** *** *** ***** ***** ***** ***** **
601900 ***** 201507161200 260   5 ***  98 BKN * * *  9.4 ** ** ** ** ** ** ** ** *   99   52 1010.1 ***** ****** *** *** ***** ***** ***** ***** **
601900 ***** 201507170900 260   5 *** *** SCT * * *  9.4 ** ** ** ** ** ** ** ** *   80   66 1012.6 ***** ****** *** *** ***** ***** ***** ***** **
601900 ***** 201507171200 260   5 *** *** SCT * * *  9.4 ** ** ** ** ** ** ** ** *   93   63 1011.5 ***** ****** *** *** ***** ***** ***** ***** **
601900 ***** 201507200900 080   6 *** *** *** * * *  7.5 ** ** ** ** ** ** ** ** *   97   52 1011.0 ***** ****** *** *** ***** ***** ***** ***** **
601900 ***** 201507201200 340   5 *** *** SCT * * *  7.5 ** ** ** ** ** ** ** ** *  105   52 1010.0 ***** ****** *** *** ***** ***** ***** ***** **
601900 ***** 201507210900 080   2 *** *** *** * * *  7.5 ** ** ** ** ** ** ** ** *   96   54 1011.9 ***** ****** *** *** ***** ***** ***** ***** **
601900 ***** 201507211200 080   5 *** *** SCT * * *  9.4 ** ** ** ** ** ** ** ** *  108   48 1010.0 ***** ****** *** *** ***** ***** ***** ***** **
601900 ***** 201507220900 200   2 *** *** *** * * *  7.5 ** ** ** ** ** ** ** ** *   96   52 1012.8 ***** ****** *** *** ***** ***** ***** ***** **
601900 ***** 201507221200 240   5 ***  98 BKN * * *  7.5 ** ** ** ** ** ** ** ** *  106   46 1011.9 ***** ****** *** *** ***** ***** ***** ***** **
601900 ***** 201507230900 080   5 *** *** *** * * *  7.5 ** ** ** ** ** ** ** ** *   91   56 1013.7 ***** ****** *** *** ***** ***** ***** ***** **
601900 ***** 201507231200 300   2 *** *** *** * * *  7.5 ** ** ** ** ** ** ** ** *  104   50 1011.4 ***** ****** *** *** ***** ***** ***** ***** **
601900 ***** 201507241200 260   2 *** *** *** * * *  9.4 ** ** ** ** ** ** ** ** *   93   53 1013.0 ***** ****** *** *** ***** ***** ***** ***** **
601900 ***** 201507270900 200   2 *** *** *** * * *  9.4 ** ** ** ** ** ** ** ** *   84   59 1013.3 ***** ****** *** *** ***** ***** ***** ***** **
601900 ***** 201507271200 260   2 *** *** *** * * *  9.4 ** ** ** ** ** ** ** ** *   96   60 1011.7 ***** ****** *** *** ***** ***** ***** ***** **
601900 ***** 201507280900 200   2 *** *** SCT * * *  6.2 ** ** ** ** ** ** ** ** *   88   60 1010.8 ***** ****** *** *** ***** ***** ***** ***** **
601900 ***** 201507281200 200   5 *** *** SCT * * *  6.2 ** ** ** ** ** ** ** ** *   94   60 1009.6 ***** ****** *** *** ***** ***** ***** ***** **
601900 ***** 201507290900 300   2 *** *** SCT * * *  7.5 ** ** ** ** ** ** ** ** *   81   61 1013.8 ***** ****** *** *** ***** ***** ***** ***** **
601900 ***** 201507291200 260   2 *** *** SCT * * *  7.5 ** ** ** ** ** ** ** ** *   89   61 1012.8 ***** ****** *** *** ***** ***** ***** ***** **
601900 ***** 201507300900 200   2 *** *** *** * * *  5.6 ** ** ** ** ** ** ** ** *   78   64 1012.2 ***** ****** *** *** ***** ***** ***** ***** **
601900 ***** 201507301200 240   5 *** *** SCT * * *  5.6 ** ** ** ** ** ** ** ** *   89   63 1010.2 ***** ****** *** *** ***** ***** ***** ***** **
601900 ***** 201507310900 260   7 *** *** SCT * * *  6.2 ** ** ** ** ** ** ** ** *   76   64 1010.2 ***** ****** *** *** ***** ***** ***** ***** **
601900 ***** 201507311200 240   7 *** *** SCT * * *  7.5 ** ** ** ** ** ** ** ** *   84   64 1009.5 ***** ****** *** *** ***** ***** ***** ***** **
601900 ***** 201508010900 200   2 *** *** *** * * *  6.2 ** ** ** ** ** ** ** ** *   76   64 1009.5 ***** ****** *** *** ***** ***** ***** ***** **
601900 ***** 201508011200 240   5 *** *** *** * * *  6.2 ** ** ** ** ** ** ** ** *   88   63 1008.0 ***** ****** *** *** ***** ***** ***** ***** **
601900 ***** 201508020900 240   5 *** *** SCT * * *  6.2 ** ** ** ** ** ** ** ** *   76   63 1011.9 ***** ****** *** *** ***** ***** ***** ***** **
601900 ***** 201508021200 260   5 *** *** SCT * * *  6.2 ** ** ** ** ** ** ** ** *   85   64 1011.3 ***** ****** *** *** ***** ***** ***** ***** **
601900 ***** 201508030900 240   7 *** 128 BKN * * *  6.2 ** ** ** ** ** ** ** ** *   71   64 1015.5 ***** ****** *** *** ***** ***** ***** ***** **
601900 ***** 201508031200 240   5 *** *** SCT * * *  6.2 ** ** ** ** ** ** ** ** *   79   65 1015.1 ***** ****** *** *** ***** ***** ***** ***** **
601900 ***** 201508040900 260   2 *** *** SCT * * *  5.0 ** ** ** ** ** ** ** ** *   76   65 1015.0 ***** ****** *** *** ***** ***** ***** ***** **
601900 ***** 201508041200 020   5 *** *** SCT * * *  6.2 ** ** ** ** ** ** ** ** *   87   67 1013.3 ***** ****** *** *** ***** ***** ***** ***** **
601900 ***** 201508050900 100   5 *** 128 OVC * * *  6.2 ** ** ** ** ** ** ** ** *   88   67 1010.2 ***** ****** *** *** ***** ***** ***** ***** **
601900 ***** 201508051200 240   5 ***  98 BKN * * *  6.2 ** ** ** ** ** ** ** ** *   92   65 1010.0 ***** ****** *** *** ***** ***** ***** ***** **
601900 ***** 201508060900 080   2 *** *** SCT * * *  9.4 ** ** ** ** ** ** ** ** *  100   57 1009.2 ***** ****** *** *** ***** ***** ***** ***** **
601900 ***** 201508061200 200   5 *** *** *** * * *  6.2 ** ** ** ** ** ** ** ** *  109   51 1008.2 ***** ****** *** *** ***** ***** ***** ***** **
601900 ***** 201508070900 080   5 *** *** *** * * *  6.2 ** ** ** ** ** ** ** ** *   96   61 1009.3 ***** ****** *** *** ***** ***** ***** ***** **
601900 ***** 201508071200 080   5 *** *** SCT * * *  6.2 ** ** ** ** ** ** ** ** *  106   54 1007.7 ***** ****** *** *** ***** ***** ***** ***** **
601900 ***** 201508100900 200   5 *** *** *** * * *  6.2 ** ** ** ** ** ** ** ** *   83   66 1015.4 ***** ****** *** *** ***** ***** ***** ***** **
601900 ***** 201508101200 240   5 *** *** SCT * * *  6.2 ** ** ** ** ** ** ** ** *   93   65 1014.3 ***** ****** *** *** ***** ***** ***** ***** **
601900 ***** 201508110900 080   5 *** 128 BKN * * *  6.2 ** ** ** ** ** ** ** ** *   87   67 1012.6 ***** ****** *** *** ***** ***** ***** ***** **
601900 ***** 201508111200 080   5 *** *** *** * * *  6.2 ** ** ** ** ** ** ** ** *   98   62 1011.7 ***** ****** *** *** ***** ***** ***** ***** **
601900 ***** 201508120900 080   5 *** *** *** * * *  6.2 ** ** ** ** ** ** ** ** *   91   64 1013.3 ***** ****** *** *** ***** ***** ***** ***** **
601900 ***** 201508121200 200   5 *** *** *** * * *  6.2 ** ** ** ** ** ** ** ** *  105   58 1012.0 ***** ****** *** *** ***** ***** ***** ***** **
601900 ***** 201508130900 100   2 *** 226 BKN * * *  6.2 ** ** ** ** ** ** ** ** *   83   65 1020.6 ***** ****** *** *** ***** ***** ***** ***** **
601900 ***** 201508141200 080   2 *** *** *** * * *  6.2 ** ** ** ** ** ** ** ** *   87   63 1016.1 ***** ****** *** *** ***** ***** ***** ***** **
601900 ***** 201508171200 240   5 *** *** *** * * * 12.5 ** ** ** ** ** ** ** ** *   82   61 1011.8 ***** ****** *** *** ***** ***** ***** ***** **
601900 ***** 201508180900 280   9 ***  30 OVC * * *  6.2 ** ** ** ** ** ** ** ** *   69   62 1014.2 ***** ****** *** *** ***** ***** ***** ***** **
601900 ***** 201508181200 240   5 ***  30 BKN * * *  6.2 ** ** ** ** ** ** ** ** *   76   62 1013.9 ***** ****** *** *** ***** ***** ***** ***** **
601900 ***** 201508190900 260   5 *** *** *** * * *  9.4 ** ** ** ** ** ** ** ** *   72   62 1014.1 ***** ****** *** *** ***** ***** ***** ***** **
601900 ***** 201508191200 240   5 *** *** *** * * *  9.4 ** ** ** ** ** ** ** ** *   82   64 1012.8 ***** ****** *** *** ***** ***** ***** ***** **
601900 ***** 201508200900 240   5 *** *** SCT * * *  6.2 ** ** ** ** ** ** ** ** *   76   61 1016.8 ***** ****** *** *** ***** ***** ***** ***** **
601900 ***** 201508201200 240   5 *** 217 BKN * * *  6.2 ** ** ** ** ** ** ** ** *   83   62 1016.1 ***** ****** *** *** ***** ***** ***** ***** **
601900 ***** 201508210900 080   2 *** 217 BKN * * *  6.2 ** ** ** ** ** ** ** ** *   80   64 1016.9 ***** ****** *** *** ***** ***** ***** ***** **
601900 ***** 201508211200 200   5 *** *** SCT * * *  6.2 ** ** ** ** ** ** ** ** *   91   64 1015.0 ***** ****** *** *** ***** ***** ***** ***** **
601900 ***** 201508241200 240   7 *** *** *** * * * 12.5 ** ** ** ** ** ** ** ** *   82   59 1014.4 ***** ****** *** *** ***** ***** ***** ***** **
601900 ***** 201508250900 240   5 *** *** *** * * * 12.5 ** ** ** ** ** ** ** ** *   72   59 1015.4 ***** ****** *** *** ***** ***** ***** ***** **
601900 ***** 201508251200 260   7 *** *** *** * * * 12.5 ** ** ** ** ** ** ** ** *   83   59 1014.0 ***** ****** *** *** ***** ***** ***** ***** **
601900 ***** 201508281200 200   2 *** *** *** * * *  5.6 ** ** ** ** ** ** ** ** *   90   65 1009.5 ***** ****** *** *** ***** ***** ***** ***** **
601900 ***** 201508290900 200  18 ***  32 BKN * * *  6.2 ** ** ** ** ** ** ** ** *   88   55 1011.4 ***** ****** *** *** ***** ***** ***** ***** **
601900 ***** 201508291200 200   9 *** 226 BKN * * *  6.2 ** ** ** ** ** ** ** ** *  100   51 1009.8 ***** ****** *** *** ***** ***** ***** ***** **
601900 ***** 201508300900 200  11 *** *** SCT * * *  5.0 ** ** ** ** ** ** ** ** *   81   62 1012.1 ***** ****** *** *** ***** ***** ***** ***** **
601900 ***** 201508301200 260   5 *** *** *** * * *  5.0 ** ** ** ** ** ** ** ** *   91   64 1011.3 ***** ****** *** *** ***** ***** ***** ***** **
601900 ***** 201508310900 240   5 *** *** *** * * *  6.2 ** ** ** ** ** ** ** ** *   78   67 1015.3 ***** ****** *** *** ***** ***** ***** ***** **
601900 ***** 201508311200 240   5 *** *** *** * * *  6.2 ** ** ** ** ** ** ** ** *   87   66 1014.3 ***** ****** *** *** ***** ***** ***** ***** **
601900 ***** 201509010900 240   3 *** *** SCT * * *  6.2 ** ** ** ** ** ** ** ** *   73   67 1017.5 ***** ****** *** *** ***** ***** ***** ***** **
601900 ***** 201509011200 260   7 *** 207 BKN * * *  7.5 ** ** ** ** ** ** ** ** *   81   68 1016.3 ***** ****** *** *** ***** ***** ***** ***** **
601900 ***** 201509020900 240   5 *** *** *** * * *  6.2 ** ** ** ** ** ** ** ** *   73   62 1015.7 ***** ****** *** *** ***** ***** ***** ***** **
601900 ***** 201509021200 240   5 *** *** *** * * *  6.2 ** ** ** ** ** ** ** ** *   81   62 1014.4 ***** ****** *** *** ***** ***** ***** ***** **
601900 ***** 201509030900 240   2 *** *** SCT * * *  6.2 ** ** ** ** ** ** ** ** *   69   59 1017.5 ***** ****** *** *** ***** ***** ***** ***** **
601900 ***** 201509040900 240   5 *** *** *** * * *  7.5 ** ** ** ** ** ** ** ** *   68   55 1017.0 ***** ****** *** *** ***** ***** ***** ***** **
601900 ***** 201509041200 240   5 *** *** SCT * * *  7.5 ** ** ** ** ** ** ** ** *   77   53 1015.5 ***** ****** *** *** ***** ***** ***** ***** **
601900 ***** 201509050900 260   2 *** *** SCT * * *  7.5 ** ** ** ** ** ** ** ** *   69   56 1015.6 ***** ****** *** *** ***** ***** ***** ***** **
601900 ***** 201509051200 260   2 *** *** SCT * * *  9.4 ** ** ** ** ** ** ** ** *   81   57 1014.4 ***** ****** *** *** ***** ***** ***** ***** **
601900 ***** 201509060900 240   5 *** *** *** * * *  7.5 ** ** ** ** ** ** ** ** *   72   57 1016.6 ***** ****** *** *** ***** ***** ***** ***** **
601900 ***** 201509061200 200   2 *** *** *** * * *  7.5 ** ** ** ** ** ** ** ** *   83   56 1014.9 ***** ****** *** *** ***** ***** ***** ***** **
601900 ***** 201509070900 240   2 *** *** SCT * * *  7.5 ** ** ** ** ** ** ** ** *   74   57 1017.2 ***** ****** *** *** ***** ***** ***** ***** **
601900 ***** 201509071200 260   7 *** *** SCT * * *  9.4 ** ** ** ** ** ** ** ** *   83   59 1015.8 ***** ****** *** *** ***** ***** ***** ***** **
601900 ***** 201509080900 200   5 *** *** SCT * * *  7.5 ** ** ** ** ** ** ** ** *   73   59 1016.3 ***** ****** *** *** ***** ***** ***** ***** **
601900 ***** 201509081200 240   5 *** *** SCT * * *  7.5 ** ** ** ** ** ** ** ** *   82   58 1014.6 ***** ****** *** *** ***** ***** ***** ***** **
601900 ***** 201509090900 ***   0 *** *** *** * * *  7.5 ** ** ** ** ** ** ** ** *   70   60 1014.7 ***** ****** *** *** ***** ***** ***** ***** **
601900 ***** 201509091200 260   3 *** *** SCT * * *  9.4 ** ** ** ** ** ** ** ** *   81   61 1012.8 ***** ****** *** *** ***** ***** ***** ***** **
601900 ***** 201509100900 200   3 *** *** SCT * * *  9.4 ** ** ** ** ** ** ** ** *   76   65 1013.4 ***** ****** *** *** ***** ***** ***** ***** **
601900 ***** 201509101200 240   5 *** *** *** * * *  6.2 ** ** ** ** ** ** ** ** *   88   63 1011.9 ***** ****** *** *** ***** ***** ***** ***** **
601900 ***** 201509110900 240   2 *** 207 BKN * * *  6.2 ** ** ** ** ** ** ** ** *   76   58 1012.6 ***** ****** *** *** ***** ***** ***** ***** **
601900 ***** 201509111200 100   2 *** 207 BKN * * *  6.2 ** ** ** ** ** ** ** ** *   92   60 1010.6 ***** ****** *** *** ***** ***** ***** ***** **
601900 ***** 201509120900 100   5 *** *** *** * * *  6.2 ** ** ** ** ** ** ** ** *   71   61 1014.7 ***** ****** *** *** ***** ***** ***** ***** **
601900 ***** 201509121200 240   7 *** *** SCT * * *  6.2 ** ** ** ** ** ** ** ** *   82   60 1013.4 ***** ****** *** *** ***** ***** ***** ***** **
601900 ***** 201509130900 240   2 *** *** SCT * * *  6.2 ** ** ** ** ** ** ** ** *   73   60 1012.6 ***** ****** *** *** ***** ***** ***** ***** **
601900 ***** 201509131200 300   2 *** *** SCT * * *  6.2 ** ** ** ** ** ** ** ** *   85   56 1013.5 ***** ****** *** *** ***** ***** ***** ***** **
601900 ***** 201509140900 260   9 *** *** *** * * *  7.5 ** ** ** ** ** ** ** ** *   72   58 1016.1 ***** ****** *** *** ***** ***** ***** ***** **
601900 ***** 201509141200 260   7 *** *** *** * * *  9.4 ** ** ** ** ** ** ** ** *   81   57 1015.0 ***** ****** *** *** ***** ***** ***** ***** **
601900 ***** 201509150900 220   3 *** *** *** * * *  9.4 ** ** ** ** ** ** ** ** *   70   59 1015.3 ***** ****** *** *** ***** ***** ***** ***** **
601900 ***** 201509151200 320   3 *** *** *** * * *  9.4 ** ** ** ** ** ** ** ** *   80   57 1013.8 ***** ****** *** *** ***** ***** ***** ***** **
601900 ***** 201509160900 260   2 *** *** SCT * * *  9.4 ** ** ** ** ** ** ** ** *   71   58 1013.0 ***** ****** *** *** ***** ***** ***** ***** **
601900 ***** 201509161200 240   2 *** *** SCT * * *  9.4 ** ** ** ** ** ** ** ** *   79   61 1012.1 ***** ****** *** *** ***** ***** ***** ***** **
601900 ***** 201509170900 ***   0 *** *** *** * * *  7.5 ** ** ** ** ** ** ** ** *   71   60 1013.6 ***** ****** *** *** ***** ***** ***** ***** **
601900 ***** 201509171200 260   2 *** *** *** * * *  9.4 ** ** ** ** ** ** ** ** *   80   59 1012.3 ***** ****** *** *** ***** ***** ***** ***** **
601900 ***** 201509180900 260   3 *** *** *** * * *  9.4 ** ** ** ** ** ** ** ** *   71   61 1013.1 ***** ****** *** *** ***** ***** ***** ***** **
601900 ***** 201509181200 ***   0 *** *** *** * * *  9.4 ** ** ** ** ** ** ** ** *   81   61 1011.2 ***** ****** *** *** ***** ***** ***** ***** **
