  USAF  WBAN YR--MODAHRMN DIR SPD GUS CLG SKC L M H  VSB MW MW MW MW AW AW AW AW W TEMP DEWP    SLP   ALT    STP MAX MIN PCP01 PCP06 PCP24 PCPXX SD
621030 ***** 201503120600 ***   0 *** *** *** * * * 12.5 ** ** ** ** ** ** ** ** *   34 **** ****** *****  981.8 *** *** ***** ***** ***** ***** **
621030 ***** 201503120900 180   9 *** *** *** * * *  6.2 ** ** ** ** ** ** ** ** *   57   32 ****** *****  982.3 *** *** ***** ***** ***** ***** **
621030 ***** 201503121800 ***   0 *** *** *** * * * 12.5 ** ** ** ** ** ** ** ** *   64   38 ****** *****  977.8  70 *** ***** ***** ***** ***** **
621030 ***** 201503130600 ***   0 *** *** *** * * * 12.5 ** ** ** ** ** ** ** ** *   44   29 ****** *****  978.1 ***  43 ***** ***** ***** ***** **
621030 ***** 201503130900 ***   0 *** *** *** * * * 12.5 ** ** ** ** ** ** ** ** *   59   38 ****** *****  978.8 *** *** ***** ***** ***** ***** **
621030 ***** 201503131200 ***   0 *** *** *** * * * 12.5 ** ** ** ** ** ** ** ** *   73   40 ****** *****  978.3 *** *** ***** ***** ***** ***** **
621030 ***** 201503131500 ***   0 *** *** *** * * * 12.5 ** ** ** ** ** ** ** ** *   74   44 ****** *****  976.4 *** *** ***** ***** ***** ***** **
621030 ***** 201503140600 070   6 *** *** *** * * * 12.5 ** ** ** ** ** ** ** ** *   47   31 ****** *****  977.9 ***  47 ***** ***** ***** ***** **
621030 ***** 201503140900 100   6 *** *** *** * * * 12.5 ** ** ** ** ** ** ** ** *   59   28 ****** *****  978.9 *** *** ***** ***** ***** ***** **
621030 ***** 201503141200 120  14 *** *** *** * * * 12.5 ** ** ** ** ** ** ** ** *   78   34 ****** *****  977.2 *** *** ***** ***** ***** ***** **
621030 ***** 201503141500 120   7 *** *** *** * * * 12.5 ** ** ** ** ** ** ** ** *   81   38 ****** *****  975.1 *** *** ***** ***** ***** ***** **
621030 ***** 201503150600 160  16 *** *** SCT * * *  9.4 06 ** ** ** ** ** ** ** 0   66   36 ****** *****  970.8 ***  63 ***** ***** ***** ***** **
621030 ***** 201503150900 160  21 *** *** SCT * * *  5.0 07 ** ** ** ** ** ** ** 0   72   27 ****** *****  970.8 *** *** ***** ***** ***** ***** **
621030 ***** 201503151200 180  23 *** *** SCT * * * **** 07 ** ** ** ** ** ** ** 0   84   19 ****** *****  969.9 *** *** ***** ***** ***** ***** **
621030 ***** 201503151800 240  23 ***  98 OVC * * * **** 07 ** ** ** ** ** ** ** 2   83   36 ****** *****  968.6  88 *** ***** ***** ***** ***** **
621030 ***** 201503170900 ***   0 *** *** *** * * *  9.4 ** ** ** ** ** ** ** ** *   64   41 ****** *****  977.3 *** *** ***** ***** ***** ***** **
621030 ***** 201503171200 080   5 *** *** *** * * *  9.4 ** ** ** ** ** ** ** ** *   78   41 ****** *****  977.0 *** *** ***** ***** ***** ***** **
621030 ***** 201503171500 360   8 *** *** *** * * *  9.4 ** ** ** ** ** ** ** ** *   82   43 ****** *****  975.0 *** *** ***** ***** ***** ***** **
621030 ***** 201503171800 020   2 *** *** *** * * *  9.4 ** ** ** ** ** ** ** ** *   79   37 ****** *****  975.4  83 *** ***** ***** ***** ***** **
621030 ***** 201503180600 090   7 *** *** *** * * * 12.5 ** ** ** ** ** ** ** ** *   53   46 ****** *****  975.4 ***  53 ***** ***** ***** ***** **
621030 ***** 201503180900 080  11 *** *** *** * * * 12.5 ** ** ** ** ** ** ** ** *   62   38 ****** *****  976.6 *** *** ***** ***** ***** ***** **
621030 ***** 201503181200 080   9 *** *** *** * * * 12.5 ** ** ** ** ** ** ** ** *   83   37 ****** *****  975.3 *** *** ***** ***** ***** ***** **
621030 ***** 201503181500 080   7 *** *** *** * * * 12.5 ** ** ** ** ** ** ** ** *   88   43 ****** *****  972.8 *** *** ***** ***** ***** ***** **
621030 ***** 201503190600 090  17 *** *** SCT * * * 12.5 ** ** ** ** ** ** ** ** *   58   52 ****** *****  977.6 ***  57 ***** ***** ***** ***** **
621030 ***** 201503190900 090  22 *** *** SCT * * * 12.5 07 ** ** ** ** ** ** ** 0   67   50 ****** *****  972.7 *** *** ***** ***** ***** ***** **
621030 ***** 201503191200 170  26 *** 197 BKN * * *  3.8 07 ** ** ** ** ** ** ** 0   81   39 ****** *****  971.1 *** *** ***** ***** ***** ***** **
621030 ***** 201503191500 190  21 *** 197 BKN * * *  3.8 01 ** ** ** ** ** ** ** 0   89   26 ****** *****  969.5 *** *** ***** ***** ***** ***** **
621030 ***** 201503191800 170   7 *** 197 BKN * * *  3.8 06 ** ** ** ** ** ** ** 0   85   40 ****** *****  968.7  90 *** ***** ***** ***** ***** **
621030 ***** 201503200600 ***   0 ***  98 OVC * * *  9.4 ** ** ** ** ** ** ** ** *   66   45 ****** *****  969.7 ***  54 ***** ***** ***** ***** **
621030 ***** 201503200900 210  16 *** *** *** * * *  5.0 06 ** ** ** ** ** ** ** 0   79   41 ****** *****  971.8 *** *** ***** ***** ***** ***** **
621030 ***** 201506070900 070   7 *** *** *** * * * 12.5 ** ** ** ** ** ** ** ** *   82   52 ****** *****  979.0 *** *** ***** ***** ***** ***** **
621030 ***** 201506080900 100   9 *** *** *** * * * 12.5 ** ** ** ** ** ** ** ** *   85   55 ****** *****  977.3 *** *** ***** ***** ***** ***** **
621030 ***** 201506081200 310   5 *** *** SCT * * * 12.5 ** ** ** ** ** ** ** ** *   91   56 ****** *****  976.5 *** *** ***** ***** ***** ***** **
621030 ***** 201506081500 360  13 *** *** SCT * * * 12.5 ** ** ** ** ** ** ** ** *   93   57 ****** *****  974.8 *** *** ***** ***** ***** ***** **
621030 ***** 201506081800 360   6 *** *** SCT * * * 12.5 ** ** ** ** ** ** ** ** *   91   58 ****** *****  973.9  93 *** ***** ***** ***** ***** **
621030 ***** 201506090900 190  15 *** *** SCT * * * 12.5 ** ** ** ** ** ** ** ** *   90   60 ****** *****  974.8 *** *** ***** ***** ***** ***** **
621030 ***** 201506091200 ***   0 *** *** *** * * * 12.5 ** ** ** ** ** ** ** ** *   96   66 ****** *****  974.2 *** *** ***** ***** ***** ***** **
621030 ***** 201506091500 ***   0 *** *** SCT * * * 12.5 ** ** ** ** ** ** ** ** *  100   69 ****** *****  972.2 *** *** ***** ***** ***** ***** **
621030 ***** 201506091800 ***   0 *** *** *** * * * 12.5 ** ** ** ** ** ** ** ** *   98   67 ****** *****  971.5 100 *** ***** ***** ***** ***** **
621030 ***** 201506100900 070   9 *** *** SCT * * * 12.5 ** ** ** ** ** ** ** ** *   91   52 ****** *****  973.7 *** *** ***** ***** ***** ***** **
621030 ***** 201506101200 030   6 *** *** SCT * * * 12.5 ** ** ** ** ** ** ** ** *  102   51 ****** *****  973.0 *** *** ***** ***** ***** ***** **
621030 ***** 201506101800 060   9 *** *** *** * * * 12.5 ** ** ** ** ** ** ** ** *  100   54 ****** *****  971.6 104 *** ***** ***** ***** ***** **
621030 ***** 201506110600 100  11 *** *** SCT * * *  9.4 06 ** ** ** ** ** ** ** 0   82   56 ****** *****  973.5 ***  80 ***** ***** ***** ***** **
621030 ***** 201506110900 120  15 *** *** SCT * * *  3.8 06 ** ** ** ** ** ** ** 0   94   57 ****** *****  973.7 *** *** ***** ***** ***** ***** **
621030 ***** 201506111500 090  13 *** *** SCT * * *  6.2 ** ** ** ** ** ** ** ** *  107   60 ****** *****  970.8 *** *** ***** ***** ***** ***** **
621030 ***** 201506111800 070   9 *** *** *** * * *  9.4 ** ** ** ** ** ** ** ** *  104   51 ****** *****  970.3 107 *** ***** ***** ***** ***** **
621030 ***** 201506140900 090  10 *** *** *** * * *  9.4 ** ** ** ** ** ** ** ** *   97   62 ****** *****  972.1 *** *** ***** ***** ***** ***** **
621030 ***** 201506141200 ***   0 *** *** *** * * *  9.4 ** ** ** ** ** ** ** ** *  105   60 ****** *****  971.8 *** *** ***** ***** ***** ***** **
621030 ***** 201506240900 190  29 *** *** *** * * *  5.0 07 ** ** ** ** ** ** ** 0  100   56 ****** *****  972.5 *** *** ***** ***** ***** ***** **
621030 ***** 201506241200 190  23 *** *** *** * * *  4.4 07 ** ** ** ** ** ** ** 0   94   60 ****** *****  971.7 *** *** ***** ***** ***** ***** **
621030 ***** 201506251200 240  31 *** *** SCT * * *  3.8 07 ** ** ** ** ** ** ** 2  113   57 ****** *****  971.4 *** *** ***** ***** ***** ***** **
621030 ***** 201506290900 170  11 *** *** *** * * * 12.5 ** ** ** ** ** ** ** ** *   91   55 ****** *****  979.1 *** *** ***** ***** ***** ***** **
621030 ***** 201506291800 060   7 *** *** *** * * * 12.5 ** ** ** ** ** ** ** ** *   98   55 ****** *****  975.4 101 *** ***** ***** ***** ***** **
621030 ***** 201506300900 090  10 *** *** *** * * * 12.5 ** ** ** ** ** ** ** ** *   91   51 ****** *****  977.0 *** *** ***** ***** ***** ***** **
621030 ***** 201506301500 060  14 *** *** *** * * * 12.5 ** ** ** ** ** ** ** ** *  100   48 ****** *****  975.2 *** *** ***** ***** ***** ***** **
621030 ***** 201507010900 090   9 *** *** *** * * * 12.5 ** ** ** ** ** ** ** ** *   90   53 ****** *****  976.4 *** *** ***** ***** ***** ***** **
621030 ***** 201507011200 070  11 *** *** *** * * * 12.5 ** ** ** ** ** ** ** ** *   96   50 ****** *****  975.8 *** *** ***** ***** ***** ***** **
621030 ***** 201507050900 120   6 *** *** *** * * * 12.5 ** ** ** ** ** ** ** ** *   85   56 ****** *****  976.4 *** *** ***** ***** ***** ***** **
621030 ***** 201507051200 060  11 *** *** SCT * * * 12.5 ** ** ** ** ** ** ** ** *   95   53 ****** *****  975.9 *** *** ***** ***** ***** ***** **
621030 ***** 201507061200 090  16 *** *** *** * * * 12.5 ** ** ** ** ** ** ** ** *   97   50 ****** *****  975.5 *** *** ***** ***** ***** ***** **
621030 ***** 201507061500 090  11 *** *** *** * * * 12.5 ** ** ** ** ** ** ** ** *  100   48 ****** *****  973.3 *** *** ***** ***** ***** ***** **
621030 ***** 201507061800 050  17 *** *** *** * * * 12.5 ** ** ** ** ** ** ** ** *   98   44 ****** *****  972.7 101 *** ***** ***** ***** ***** **
621030 ***** 201507070900 120  21 *** *** *** * * *  5.0 07 ** ** ** ** ** ** ** 0   92   50 ****** *****  975.0 *** *** ***** ***** ***** ***** **
621030 ***** 201507071200 030  86 *** *** SCT * * *  5.0 07 ** ** ** ** ** ** ** 0 ****   50 ****** *****  974.2 *** *** ***** ***** ***** ***** **
621030 ***** 201507081200 ***   0 *** *** *** * * *  5.0 ** ** ** ** ** ** ** ** *   97   58 ****** *****  972.5 *** *** ***** ***** ***** ***** **
621030 ***** 201507081500 290   7 *** *** SCT * * *  6.2 ** ** ** ** ** ** ** ** *  101   53 ****** *****  970.6 *** *** ***** ***** ***** ***** **
621030 ***** 201507081800 350   7 *** *** SCT * * *  7.5 ** ** ** ** ** ** ** ** *  100   53 ****** *****  969.5 102 *** ***** ***** ***** ***** **
621030 ***** 201507091200 360  11 *** *** *** * * *  9.4 ** ** ** ** ** ** ** ** *   99   42 ****** *****  972.6 *** *** ***** ***** ***** ***** **
621030 ***** 201507091500 350  10 *** *** *** * * *  9.4 ** ** ** ** ** ** ** ** *  100   45 ****** *****  971.3 *** *** ***** ***** ***** ***** **
621030 ***** 201507091800 150  10 *** *** *** * * *  9.4 ** ** ** ** ** ** ** ** *   98   46 ****** *****  972.1 102 *** ***** ***** ***** ***** **
621030 ***** 201507100600 ***   0 *** *** SCT * * * 12.5 ** ** ** ** ** ** ** ** *   78   55 ****** *****  974.1 ***  75 ***** ***** ***** ***** **
621030 ***** 201507100900 100   7 *** *** SCT * * * 12.5 ** ** ** ** ** ** ** ** *   90   52 ****** *****  975.0 *** *** ***** ***** ***** ***** **
621030 ***** 201507101200 080   8 *** *** SCT * * * 12.5 ** ** ** ** ** ** ** ** *  100   52 ****** *****  974.9 *** *** ***** ***** ***** ***** **
621030 ***** 201507101500 050   9 *** *** SCT * * * 12.5 ** ** ** ** ** ** ** ** *  104   55 ****** *****  973.2 *** *** ***** ***** ***** ***** **
621030 ***** 201507101800 030   7 *** 197 BKN * * * 12.5 ** ** ** ** ** ** ** ** *  102   50 ****** *****  973.0 105 *** ***** ***** ***** ***** **
621030 ***** 201507110900 260   7 *** *** *** * * * 12.5 ** ** ** ** ** ** ** ** *   96   47 ****** *****  975.1 *** *** ***** ***** ***** ***** **
621030 ***** 201507111200 260  11 *** *** *** * * * 12.5 ** ** ** ** ** ** ** ** *  105   49 ****** *****  974.5 *** *** ***** ***** ***** ***** **
621030 ***** 201507111500 270  17 *** *** SCT * * * 11.2 ** ** ** ** ** ** ** ** * ****   47 ****** *****  972.9 *** *** ***** ***** ***** ***** **
621030 ***** 201507111800 260   6 *** *** SCT * * * 11.2 ** ** ** ** ** ** ** ** *  104   50 ****** *****  972.1 108 *** ***** ***** ***** ***** **
621030 ***** 201507120900 330   8 *** *** *** * * *  9.4 ** ** ** ** ** ** ** ** *   79   58 ****** *****  972.8 ***  78 ***** ***** ***** ***** **
621030 ***** 201507130900 030   9 *** *** SCT * * * 11.2 ** ** ** ** ** ** ** ** *   85   63 ****** *****  973.7 *** *** ***** ***** ***** ***** **
621030 ***** 201507131200 260  13 *** *** SCT * * * 11.2 ** ** ** ** ** ** ** ** *   94   62 ****** *****  973.2 *** *** ***** ***** ***** ***** **
621030 ***** 201507140900 090   8 *** *** *** * * * 11.2 ** ** ** ** ** ** ** ** *   92   54 ****** *****  973.7 *** *** ***** ***** ***** ***** **
621030 ***** 201507150900 080  23 *** *** *** * * * 11.2 ** ** ** ** ** ** ** ** *   91   51 ****** *****  972.7 *** *** ***** ***** ***** ***** **
621030 ***** 201507160900 090  18 *** *** SCT * * *  6.2 ** ** ** ** ** ** ** ** *   95   48 ****** *****  972.9 *** *** ***** ***** ***** ***** **
621030 ***** 201507161200 090  11 *** *** *** * * * 11.2 ** ** ** ** ** ** ** ** *  107   47 ****** *****  972.1 *** *** ***** ***** ***** ***** **
621030 ***** 201507161500 090  10 *** *** *** * * * 11.2 ** ** ** ** ** ** ** ** * ****   48 ****** *****  970.4 *** *** ***** ***** ***** ***** **
621030 ***** 201507161800 070  11 *** *** SCT * * * 11.2 ** ** ** ** ** ** ** ** *  104   47 ****** *****  970.3 109 *** ***** ***** ***** ***** **
621030 ***** 201507180900 120   6 *** *** *** * * * 12.5 ** ** ** ** ** ** ** ** *   91   48 ****** *****  975.1 *** *** ***** ***** ***** ***** **
621030 ***** 201507181200 330   6 *** *** *** * * * 12.5 ** ** ** ** ** ** ** ** *  101   47 ****** *****  973.7 *** *** ***** ***** ***** ***** **
621030 ***** 201507181500 ***   0 *** *** SCT * * * 12.5 ** ** ** ** ** ** ** ** *  103   47 ****** *****  972.0 *** *** ***** ***** ***** ***** **
621030 ***** 201507181800 040  11 *** *** *** * * * 12.5 ** ** ** ** ** ** ** ** *  100   51 ****** *****  971.5 104 *** ***** ***** ***** ***** **
621030 ***** 201507200900 120   9 *** *** *** * * * 12.5 ** ** ** ** ** ** ** ** *   90   52 ****** *****  973.4 *** *** ***** ***** ***** ***** **
621030 ***** 201507201200 080  16 *** *** *** * * * 12.5 ** ** ** ** ** ** ** ** *   99   45 ****** *****  972.9 *** *** ***** ***** ***** ***** **
621030 ***** 201507210900 120   7 *** *** *** * * * 12.5 ** ** ** ** ** ** ** ** *   92   51 ****** *****  974.7 *** *** ***** ***** ***** ***** **
621030 ***** 201507211800 020   7 *** *** *** * * * 12.5 ** ** ** ** ** ** ** ** *  100   46 ****** *****  972.0 102 *** ***** ***** ***** ***** **
621030 ***** 201507230600 100  11 *** *** SCT * * * 12.5 ** ** ** ** ** ** ** ** *   83   47 ****** *****  972.1 ***  82 ***** ***** ***** ***** **
621030 ***** 201507300900 070  11 *** *** *** * * * 12.5 ** ** ** ** ** ** ** ** *   95   59 ****** *****  972.0 *** *** ***** ***** ***** ***** **
621030 ***** 201507301200 080  11 *** *** *** * * * 12.5 ** ** ** ** ** ** ** ** *  103   53 ****** *****  971.6 *** *** ***** ***** ***** ***** **
621030 ***** 201507301500 060   9 *** *** *** * * * 12.5 ** ** ** ** ** ** ** ** *  105   57 ****** *****  969.7 *** *** ***** ***** ***** ***** **
621030 ***** 201507301800 060  14 *** *** *** * * * 12.5 ** ** ** ** ** ** ** ** *  104   55 ****** *****  968.8 106 *** ***** ***** ***** ***** **
621030 ***** 201508030900 120   9 *** *** *** * * * 12.5 ** ** ** ** ** ** ** ** *   95   68 ****** *****  975.6 *** *** ***** ***** ***** ***** **
621030 ***** 201508031200 120   7 *** *** *** * * * 12.5 ** ** ** ** ** ** ** ** *  107   75 ****** *****  975.2 *** *** ***** ***** ***** ***** **
621030 ***** 201508031500 060   9 *** *** SCT * * * 12.5 ** ** ** ** ** ** ** ** *  109   77 ****** *****  973.7 *** *** ***** ***** ***** ***** **
621030 ***** 201508031800 060   7 *** *** SCT * * * 12.5 ** ** ** ** ** ** ** ** *  107   74 ****** *****  972.7 110 *** ***** ***** ***** ***** **
621030 ***** 201508041500 300   7 *** *** SCT * * * 12.5 ** ** ** ** ** ** ** ** *  110   65 ****** *****  971.8 *** *** ***** ***** ***** ***** **
621030 ***** 201508081200 360   7 *** *** *** * * * 12.5 ** ** ** ** ** ** ** ** *   96   67 ****** *****  973.7 *** *** ***** ***** ***** ***** **
621030 ***** 201508081500 030   7 *** *** *** * * * 12.5 ** ** ** ** ** ** ** ** *   98   65 ****** *****  972.5 *** *** ***** ***** ***** ***** **
621030 ***** 201508120900 ***   0 *** *** SCT * * * 12.5 ** ** ** ** ** ** ** ** *   93   62 ****** *****  976.9 *** *** ***** ***** ***** ***** **
621030 ***** 201508121200 ***   0 *** *** SCT * * * 11.2 ** ** ** ** ** ** ** ** *  103   60 ****** *****  975.5 *** *** ***** ***** ***** ***** **
621030 ***** 201508150900 170  15 *** *** SCT * * * 11.2 ** ** ** ** ** ** ** ** *   97   58 ****** *****  973.2 *** *** ***** ***** ***** ***** **
621030 ***** 201508151200 240  14 *** *** SCT * * *  6.2 ** ** ** ** ** ** ** ** *  104   61 ****** *****  972.7 *** *** ***** ***** ***** ***** **
621030 ***** 201508151500 270   7 *** *** SCT * * *  6.2 ** ** ** ** ** ** ** ** *  106   64 ****** *****  971.1 *** *** ***** ***** ***** ***** **
621030 ***** 201508160900 180  34 *** *** *** * * *  0.5 34 ** ** ** ** ** ** ** 3  102   62 ****** *****  968.8 *** *** ***** ***** ***** ***** **
621030 ***** 201508181200 200  10 *** *** *** * * *  9.4 ** ** ** ** ** ** ** ** *  108   58 ****** *****  971.0 *** *** ***** ***** ***** ***** **
621030 ***** 201508181500 360   8 *** *** *** * * *  9.4 ** ** ** ** ** ** ** ** *  111   56 ****** *****  969.3 *** *** ***** ***** ***** ***** **
621030 ***** 201508181800 330   8 *** *** *** * * *  9.4 ** ** ** ** ** ** ** ** *  109   55 ****** *****  968.6 113 *** ***** ***** ***** ***** **
621030 ***** 201508190900 120   9 ***  98 BKN * * * 11.2 ** ** ** ** ** ** ** ** *   97   56 ****** *****  972.9 *** *** ***** ***** ***** ***** **
621030 ***** 201508191200 ***   0 ***  98 BKN * * * 11.2 ** ** ** ** ** ** ** ** *  106   62 ****** *****  972.9 *** *** ***** ***** ***** ***** **
621030 ***** 201508191500 270  11 ***  98 BKN * * * 11.2 ** ** ** ** ** ** ** ** *  109   57 ****** *****  971.6 *** *** ***** ***** ***** ***** **
621030 ***** 201508241800 360   6 *** *** SCT * * * 12.5 ** ** ** ** ** ** ** ** *  105   53 ****** *****  972.0 109 *** ***** ***** ***** ***** **
621030 ***** 201508260900 190  15 *** *** *** * * * 12.5 ** ** ** ** ** ** ** ** *   98   45 ****** *****  975.8 *** *** ***** ***** ***** ***** **
621030 ***** 201508261200 170   7 *** *** *** * * * 12.5 ** ** ** ** ** ** ** ** *  104   37 ****** *****  974.9 *** *** ***** ***** ***** ***** **
621030 ***** 201508261800 070   8 *** *** SCT * * * 12.5 ** ** ** ** ** ** ** ** *  101   49 ****** *****  972.3 108 *** ***** ***** ***** ***** **
621030 ***** 201508270900 080  16 ***  98 BKN * * * 11.2 ** ** ** ** ** ** ** ** *   90   47 ****** *****  975.3 *** *** ***** ***** ***** ***** **
621030 ***** 201508271800 030   9 *** *** SCT * * * 11.2 ** ** ** ** ** ** ** ** *   99   52 ****** *****  972.9 101 *** ***** ***** ***** ***** **
621030 ***** 201508280900 110   8 *** *** *** * * * 12.5 ** ** ** ** ** ** ** ** *   92   53 ****** *****  975.6 *** *** ***** ***** ***** ***** **
621030 ***** 201508281200 290   7 *** *** SCT * * * 12.5 ** ** ** ** ** ** ** ** *  101   55 ****** *****  975.3 *** *** ***** ***** ***** ***** **
621030 ***** 201508281500 050  14 *** *** SCT * * * 12.5 ** ** ** ** ** ** ** ** *  102   56 ****** *****  973.9 *** *** ***** ***** ***** ***** **
621030 ***** 201508281800 030  11 *** *** SCT * * * 12.5 ** ** ** ** ** ** ** ** *   97   56 ****** *****  973.6 103 *** ***** ***** ***** ***** **
621030 ***** 201508310900 090  16 ***  98 BKN * * * 12.5 ** ** ** ** ** ** ** ** *   85   55 ****** *****  976.3 *** *** ***** ***** ***** ***** **
621030 ***** 201508311200 140  11 *** *** SCT * * * 12.5 ** ** ** ** ** ** ** ** *   94   55 ****** *****  976.2 *** *** ***** ***** ***** ***** **
621030 ***** 201508311500 060   6 *** *** SCT * * * 12.5 ** ** ** ** ** ** ** ** *   98   55 ****** *****  974.0 *** *** ***** ***** ***** ***** **
621030 ***** 201508311800 060   9 *** *** SCT * * * 12.5 ** ** ** ** ** ** ** ** *   94   55 ****** *****  973.8  98 *** ***** ***** ***** ***** **
621030 ***** 201509021200 070   7 *** *** *** * * * 12.5 ** ** ** ** ** ** ** ** *   99   48 ****** *****  975.5 *** *** ***** ***** ***** ***** **
621030 ***** 201509021500 ***   0 *** *** *** * * * 12.5 ** ** ** ** ** ** ** ** *  101   51 ****** *****  973.6 *** *** ***** ***** ***** ***** **
621030 ***** 201509021800 070   9 *** *** *** * * * 12.5 ** ** ** ** ** ** ** ** *   98   55 ****** *****  973.3 102 *** ***** ***** ***** ***** **
621030 ***** 201509030900 170  15 *** *** *** * * * 12.5 ** ** ** ** ** ** ** ** *   93   43 ****** *****  974.8 *** *** ***** ***** ***** ***** **
621030 ***** 201509031800 170  15 *** *** *** * * * 12.5 ** ** ** ** ** ** ** ** *  103   48 ****** *****  970.8 108 *** ***** ***** ***** ***** **
621030 ***** 201509040600 090  10 *** *** *** * * * 12.5 ** ** ** ** ** ** ** ** *   85   45 ****** *****  973.5 ***  85 ***** ***** ***** ***** **
621030 ***** 201509040900 190  17 *** *** *** * * *  5.0 06 ** ** ** ** ** ** ** 0   96   56 ****** *****  973.9 *** *** ***** ***** ***** ***** **
621030 ***** 201509041200 270  15 *** 197 BKN * * *  5.0 06 ** ** ** ** ** ** ** 0  102   55 ****** *****  973.4 *** *** ***** ***** ***** ***** **
621030 ***** 201509041500 270  15 *** 197 BKN * * *  5.0 06 ** ** ** ** ** ** ** 0  106   60 ****** *****  971.7 *** *** ***** ***** ***** ***** **
621030 ***** 201509041800 330   8 *** *** *** * * *  6.2 ** ** ** ** ** ** ** ** *  103   57 ****** *****  971.5 108 *** ***** ***** ***** ***** **
621030 ***** 201509060900 ***   0 ***  98 OVC * * *  5.0 06 ** ** ** ** ** ** ** 2   95   57 ****** *****  976.9 *** *** ***** ***** ***** ***** **
621030 ***** 201509061200 010   8 ***  98 BKN * * *  5.0 06 ** ** ** ** ** ** ** 2  102   58 ****** *****  975.9 *** *** ***** ***** ***** ***** **
621030 ***** 201509070900 ***   0 *** *** SCT * * *  5.0 06 ** ** ** ** ** ** ** 2   96   82 ****** *****  974.0 *** *** ***** ***** ***** ***** **
621030 ***** 201509071200 360   7 *** *** SCT * * *  5.0 ** ** ** ** ** ** ** ** *   97   80 ****** *****  974.0 *** *** ***** ***** ***** ***** **
621030 ***** 201509071500 340  11 *** 197 BKN * * *  5.0 06 ** ** ** ** ** ** ** 2  103   70 ****** *****  972.2 *** *** ***** ***** ***** ***** **
621030 ***** 201509100900 340   9 *** *** *** * * * 11.2 ** ** ** ** ** ** ** ** *   79   60 ****** *****  974.6 *** *** ***** ***** ***** ***** **
621030 ***** 201509101200 330  11 *** *** SCT * * * 11.2 ** ** ** ** ** ** ** ** *   89   64 ****** *****  974.3 *** *** ***** ***** ***** ***** **
621030 ***** 201509101500 330   6 *** *** SCT * * * 11.2 ** ** ** ** ** ** ** ** *   91   62 ****** *****  973.1 *** *** ***** ***** ***** ***** **
621030 ***** 201509101800 320   9 *** *** *** * * * 12.5 ** ** ** ** ** ** ** ** *   90   53 ****** *****  972.9  92 *** ***** ***** ***** ***** **
621030 ***** 201509110900 120  11 *** *** *** * * * 12.5 ** ** ** ** ** ** ** ** *   82   63 ****** *****  977.0 *** *** ***** ***** ***** ***** **
621030 ***** 201509111200 100  11 *** *** *** * * * 12.5 ** ** ** ** ** ** ** ** *   89   65 ****** *****  977.1 *** *** ***** ***** ***** ***** **
621030 ***** 201509111500 100   3 *** *** *** * * * 12.5 ** ** ** ** ** ** ** ** *   93   64 ****** *****  975.1 *** *** ***** ***** ***** ***** **
621030 ***** 201509111800 330   8 *** *** *** * * * 12.5 ** ** ** ** ** ** ** ** *   91   63 ****** *****  975.1  94 *** ***** ***** ***** ***** **
621030 ***** 201509120600 070  13 *** *** *** * * * 12.5 ** ** ** ** ** ** ** ** *   76   66 ****** *****  976.2 ***  76 ***** ***** ***** ***** **
621030 ***** 201509121200 060  11 *** *** *** * * * 12.5 ** ** ** ** ** ** ** ** *   92   68 ****** *****  977.3 *** *** ***** ***** ***** ***** **
621030 ***** 201509121500 100   6 *** *** *** * * * 12.5 ** ** ** ** ** ** ** ** *   99   70 ****** *****  974.8 *** *** ***** ***** ***** ***** **
621030 ***** 201509130600 060  16 *** *** *** * * *  9.4 ** ** ** ** ** ** ** ** *   78   76 ****** *****  973.9 ***  77 ***** ***** ***** ***** **
621030 ***** 201509130900 090  17 *** *** SCT * * *  9.4 ** ** ** ** ** ** ** ** *   87   68 ****** *****  975.0 *** *** ***** ***** ***** ***** **
621030 ***** 201509131800 060   7 *** *** SCT * * *  9.4 ** ** ** ** ** ** ** ** *  100   59 ****** *****  971.3 108 *** ***** ***** ***** ***** **
621030 ***** 201509140600 090  13 *** *** SCT * * * 12.5 ** ** ** ** ** ** ** ** *   76   76 ****** *****  972.3 *** *** ***** ***** ***** ***** **
621030 ***** 201509141200 330   8 *** *** SCT * * * 12.5 ** ** ** ** ** ** ** ** *  102   56 ****** *****  972.8 *** *** ***** ***** ***** ***** **
621030 ***** 201509151800 270   8 *** *** SCT * * * 11.2 ** ** ** ** ** ** ** ** *  103   52 ****** *****  969.9 108 *** ***** ***** ***** ***** **
621030 ***** 201509160900 100   9 *** *** *** * * * 12.5 ** ** ** ** ** ** ** ** *   92   51 ****** *****  972.2 *** *** ***** ***** ***** ***** **
621030 ***** 201509161200 230  14 *** *** SCT * * * 12.5 ** ** ** ** ** ** ** ** *  108   53 ****** *****  971.2 *** *** ***** ***** ***** ***** **
621030 ***** 201509170900 ***   0 *** *** SCT * * * 12.5 ** ** ** ** ** ** ** ** *   94   60 ****** *****  972.2 *** *** ***** ***** ***** ***** **
