  USAF  WBAN YR--MODAHRMN DIR SPD GUS CLG SKC L M H  VSB MW MW MW MW AW AW AW AW W TEMP DEWP    SLP   ALT    STP MAX MIN PCP01 PCP06 PCP24 PCPXX SD
627600 ***** 201501031500 050   3 *** 246 BKN * * * 11.2 07 ** ** ** ** ** ** ** 2   84   35 1012.2 *****  932.6  86  55 ***** ***** ***** ***** **
627600 ***** 201501070900 040   7 *** 246 BKN * * * 12.5 ** ** ** ** ** ** ** ** *   65   18 1021.8 *****  938.6 *** *** ***** ***** ***** ***** **
627600 ***** 201501080600 040   7 *** 246 BKN * * *  9.4 06 ** ** ** ** ** ** ** 2   51   25 1026.3 *****  940.6  75  46 ***** ***** ***** ***** **
627600 ***** 201501090600 320   7 *** 246 BKN * * *  3.1 06 ** ** ** ** ** ** ** 2   47   23 1026.6 *****  940.1  73  46 ***** ***** ***** ***** **
627600 ***** 201501170900 040   7 *** 246 BKN * * * 12.5 ** ** ** ** ** ** ** ** *   64   24 1020.3 *****  937.2 *** *** ***** ***** ***** ***** **
627600 ***** 201501221200 070   7 *** *** BKN * * * 12.5 ** ** ** ** ** ** ** ** *   87   30 1010.6 *****  931.4 *** *** ***** ***** ***** ***** **
627600 ***** 201501230600 320   7 *** 246 BKN * * * 12.5 ** ** ** ** ** ** ** ** *   58   30 1010.1 *****  962.2  92  48 ***** ***** ***** ***** **
627600 ***** 201501230900 040   7 *** 246 BKN * * * 12.5 ** ** ** ** ** ** ** ** *   81   35 1012.3 *****  932.2 *** *** ***** ***** ***** ***** **
627600 ***** 201501270600 320   3 *** 246 BKN * * * 12.5 ** ** ** ** ** ** ** ** *   61   31 1015.4 *****  932.1  95  60 ***** ***** ***** ***** **
627600 ***** 201501270900 320   3 *** 246 BKN * * * 12.5 ** ** ** ** ** ** ** ** *   84   42 1011.5 *****  931.9 *** *** ***** ***** ***** ***** **
627600 ***** 201501280600 320   7 *** 246 BKN * * * 12.5 ** ** ** ** ** ** ** ** *   65   34 1013.2 *****  930.7  95  57 ***** ***** ***** ***** **
627600 ***** 201501280900 040   7 *** 246 BKN * * * 12.5 ** ** ** ** ** ** ** ** *   87   45 1010.0 *****  930.9 *** *** ***** ***** ***** ***** **
627600 ***** 201502020900 070   7 *** 246 BKN * * * 12.5 ** ** ** ** ** ** ** ** *   88   38 1010.9 *****  931.8 *** *** ***** ***** ***** ***** **
627600 ***** 201502081500 050   3 *** 246 BKN * * * 12.5 ** ** ** ** ** ** ** ** *   95   39 1004.7 *****  926.9  97  56 ***** ***** ***** ***** **
627600 ***** 201502110600 320   3 *** 246 BKN * * * 12.5 ** ** ** ** ** ** ** ** *   67   29 1015.6 *****  933.1  97  64 ***** ***** ***** ***** **
627600 ***** 201502121200 050   7 *** 246 BKN * * *  6.2 06 ** ** ** ** ** ** ** 2   83   36 1012.1 *****  932.2 *** *** ***** ***** ***** ***** **
627600 ***** 201502121500 050   9 *** 246 BKN * * *  9.4 06 ** ** ** ** ** ** ** 2   84   25 1010.6 *****  931.1  86  58 ***** ***** ***** ***** **
627600 ***** 201502250600 050  13 ***   4 OBS * * *  0.3 32 ** ** ** ** ** ** ** 3   69   30 1012.2 *****  930.3 101  65 ***** ***** ***** ***** **
627600 ***** 201502250900 050  15 ***   4 OBS * * *  0.3 32 ** ** ** ** ** ** ** 3   79   35 1010.8 *****  930.6 *** *** ***** ***** ***** ***** **
627600 ***** 201503030600 040   9 *** 246 BKN * * *  5.0 06 ** ** ** ** ** ** ** 2   73   30 1011.1 *****  929.8  99  67 ***** ***** ***** ***** **
627600 ***** 201503030900 320   7 *** 246 BKN * * *  1.9 06 ** ** ** ** ** ** ** 2   82   35 1011.6 *****  931.7 *** *** ***** ***** ***** ***** **
627600 ***** 201503091200 090  11 *** 246 BKN * * * 11.2 06 ** ** ** ** ** ** ** 2  100   36 1003.1 *****  926.4 *** *** ***** ***** ***** ***** **
627600 ***** 201503241200 040   7 *** 246 BKN * * * 11.2 06 ** ** ** ** ** ** ** 2   92   31 1006.5 *****  928.5 *** *** ***** ***** ***** ***** **
627600 ***** 201503291200 320   3 *** 246 BKN * * *  9.4 06 ** ** ** ** ** ** ** 2   99   45 1001.6 *****  924.9 *** *** ***** ***** ***** ***** **
627600 ***** 201504031200 040   7 *** 246 BKN * * *  9.4 06 ** ** ** ** ** ** ** 2   95   36 1004.7 *****  927.0 *** *** ***** ***** ***** ***** **
627600 ***** 201504081500 320   7 *** 246 BKN * * * 12.5 ** ** ** ** ** ** ** ** *   97   28 1003.0 *****  925.8 100  68 ***** ***** ***** ***** **
627600 ***** 201505131500 070   7 *** 246 BKN * * * 11.2 06 ** ** ** ** ** ** ** 2   97   42 1005.6 *****  928.2 101  76 ***** ***** ***** ***** **
627600 ***** 201505191200 070  13 *** *** BKN * * * 12.5 ** ** ** ** ** ** ** ** *  104   30 1004.3 *****  979.5 *** *** ***** ***** ***** ***** **
627600 ***** 201505281500 090   9 *** *** BKN * * *  5.0 ** ** ** ** ** ** ** ** *  102 **** ****** ***** ****** *** *** ***** ***** ***** ***** **
627600 ***** 201506020900 130  13 *** 246 BKN * * * 12.5 ** ** ** ** ** ** ** ** *   95   62 1007.5 *****  929.8 *** *** ***** ***** ***** ***** **
627600 ***** 201506021200 070   6 *** *** BKN * * * 12.5 ** ** ** ** ** ** ** ** *  100   54 1004.7 *****  927.8 *** *** ***** ***** ***** ***** **
627600 ***** 201506080600 130   7 *** *** BKN * * * 11.2 ** ** ** ** ** ** ** ** *   87   62 ****** ***** ****** *** *** ***** ***** ***** ***** **
627600 ***** 201506110600 090   7 *** *** BKN * * *  2.5 ** ** ** ** ** ** ** ** *   88   55 ****** ***** ****** *** *** ***** ***** ***** ***** **
627600 ***** 201506160600 180   7 *** 246 BKN * * * 12.5 ** ** ** ** ** ** ** ** *   86   41 1009.3 *****  960.2 104  76 ***** ***** ***** ***** **
627600 ***** 201506231200 180   9 *** 246 BKN * * * 12.5 ** ** ** ** ** ** ** ** *  103   48 1005.0 *****  928.3 *** *** ***** ***** ***** ***** **
627600 ***** 201506241200 210   7 *** *** BKN * * * 12.5 ** ** ** ** ** ** ** ** *   99   52 1007.8 *****  930.1 *** *** ***** ***** ***** ***** **
627600 ***** 201507071200 320   7 *** *** BKN * * * 12.5 ** ** ** ** ** ** ** ** *  100   54 1006.8 *****  929.8 *** *** ***** ***** ***** ***** **
627600 ***** 201507090900 050  13 *** *** BKN * * * 12.5 ** ** ** ** ** ** ** ** *  101   45 1007.0 *****  930.0 *** *** ***** ***** ***** ***** **
627600 ***** 201507091200 070   9 *** *** BKN * * * 12.5 ** ** ** ** ** ** ** ** *  103   40 1004.3 *****  927.9 *** *** ***** ***** ***** ***** **
627600 ***** 201507140900 210  18 *** 246 BKN * * * 12.5 ** ** ** ** ** ** ** ** *   94   63 1007.4 *****  929.3 *** *** ***** ***** ***** ***** **
627600 ***** 201507170900 180   2 *** 246 BKN * * * 12.5 ** ** ** ** ** ** ** ** *   90   63 1009.5 *****  936.9 *** *** ***** ***** ***** ***** **
627600 ***** 201507171200 180   9 *** 246 BKN * * * 12.5 ** ** ** ** ** ** ** ** *   97   57 1006.4 *****  928.9 *** *** ***** ***** ***** ***** **
627600 ***** 201507251200 320   2 *** *** BKN * * *  9.4 ** ** ** ** ** ** ** ** *   95   64 1007.5 *****  929.4 *** *** ***** ***** ***** ***** **
627600 ***** 201508061200 180   9 *** 246 BKN * * * 12.5 ** ** ** ** ** ** ** ** *   92   66 1006.3 *****  928.3 *** *** ***** ***** ***** ***** **
627600 ***** 201508161500 050   3 *** 246 BKN * * *  9.4 06 ** ** ** ** ** ** ** 2   93   66 1005.0 *****  927.1  97  73 ***** ***** ***** ***** **
627600 ***** 201508201200 270   3 *** *** BKN * * *  9.4 ** ** ** ** ** ** ** ** *   98   64 1005.0 *****  927.6 *** *** ***** ***** ***** ***** **
627600 ***** 201508201500 050   9 *** *** BKN * * * 11.2 ** ** ** ** ** ** ** ** *  100   53 ****** ***** ****** *** *** ***** ***** ***** ***** **
