  USAF  WBAN YR--MODAHRMN DIR SPD GUS CLG SKC L M H  VSB MW MW MW MW AW AW AW AW W TEMP DEWP    SLP   ALT    STP MAX MIN PCP01 PCP06 PCP24 PCPXX SD
637260 ***** 201502070700 090   3 *** *** *** * * *  1.9 10 ** ** ** ** ** ** ** *   64   57 ****** ***** ****** *** *** ***** ***** ***** ***** **
637260 ***** 201502070800 110   2 *** 130 *** * * *  6.2 ** ** ** ** ** ** ** ** *   72   57 ****** ***** ****** *** *** ***** ***** ***** ***** **
637260 ***** 201502070900 140   3 *** 128 BKN * * *  8.8 02 ** ** ** ** ** ** ** 4   76   55 ****** *****  815.1 *** *** ***** ***** ***** ***** **
637260 ***** 201502070900 140   3 *** 130 *** * * *  6.2 ** ** ** ** ** ** ** ** *   77   55 ****** ***** ****** *** *** ***** ***** ***** ***** **
637260 ***** 201502090400 ***   0 *** *** OBS * * *  0.1 44 ** ** ** ** ** ** ** *   55   55 ****** ***** ****** *** *** ***** ***** ***** ***** **
637260 ***** 201502090500 ***   0 *** *** OBS * * *  0.1 44 ** ** ** ** ** ** ** *   55   55 ****** ***** ****** *** *** ***** ***** ***** ***** **
637260 ***** 201502090600 ***   0 ***   1 OBS * * *  0.1 45 ** ** ** ** ** ** ** 4   57   57 ****** *****  814.6 ***  54 ***** *****  0.03 ***** **
637260 ***** 201502090600 ***   0 *** *** OBS * * *  0.1 44 ** ** ** ** ** ** ** *   57   57 ****** ***** ****** *** *** ***** ***** ***** ***** **
637260 ***** 201502091000 090   2 *** *** *** * * *  6.2 ** ** ** ** ** ** ** ** *   77   57 ****** ***** ****** *** *** ***** ***** ***** ***** **
637260 ***** 201502091100 140   2 *** *** *** * * *  6.2 ** ** ** ** ** ** ** ** *   79   57 ****** ***** ****** *** *** ***** ***** ***** ***** **
637260 ***** 201502091200 140   2 *** *** SCT * * *  8.8 ** ** ** ** ** ** ** ** *   81   56 ****** *****  811.4 *** *** ***** ***** ***** ***** **
637260 ***** 201502091200 140   2 *** *** *** * * *  6.2 ** ** ** ** ** ** ** ** *   81   59 ****** ***** ****** *** *** ***** ***** ***** ***** **
637260 ***** 201502091300 110   2 *** 130 *** * * *  6.2 ** ** ** ** ** ** ** ** *   77   57 ****** ***** ****** *** *** ***** ***** ***** ***** **
637260 ***** 201502091400 140   2 ***  20 *** * * *  6.2 17 ** ** ** ** ** ** ** *   73   57 ****** ***** ****** *** *** ***** ***** ***** ***** **
637260 ***** 201502091500 180   2 *** 128 BKN * * *  7.5 02 ** ** ** ** ** ** ** 9   71   60 ****** *****  810.7  82 *** ***** ***** *****  0.01 **
637260 ***** 201502091500 180   2 *** *** *** * * *  6.2 ** ** ** ** ** ** ** ** *   72   59 ****** ***** ****** *** *** ***** ***** ***** ***** **
637260 ***** 201502100400 ***   0 *** *** OBS * * *  0.1 44 ** ** ** ** ** ** ** *   55   55 ****** ***** ****** *** *** ***** ***** ***** ***** **
637260 ***** 201502100500 ***   0 *** *** OBS * * *  0.2 44 ** ** ** ** ** ** ** *   57   55 ****** ***** ****** *** *** ***** ***** ***** ***** **
637260 ***** 201502100600 ***   0 *** *** SCT * * *  1.9 10 ** ** ** ** ** ** ** 4   58   57 ****** *****  815.5 ***  51 ***** *****  0.01 ***** **
637260 ***** 201502100600 ***   0 *** *** *** * * *  0.8 10 ** ** ** ** ** ** ** *   59   57 ****** ***** ****** *** *** ***** ***** ***** ***** **
637260 ***** 201502100700 ***   0 *** 300 *** * * *  2.5 05 ** ** ** ** ** ** ** *   63   59 ****** ***** ****** *** *** ***** ***** ***** ***** **
637260 ***** 201502100800 180   2 *** 300 *** * * *  5.0 ** ** ** ** ** ** ** ** *   70   57 ****** ***** ****** *** *** ***** ***** ***** ***** **
637260 ***** 201502100900 180   2 ***  20 BKN * * *  9.4 03 ** ** ** ** ** ** ** 4   74   58 ****** *****  815.2 *** *** ***** ***** ***** ***** **
637260 ***** 201502100900 180   2 ***  20 *** * * *  6.2 ** ** ** ** ** ** ** ** *   75   57 ****** ***** ****** *** *** ***** ***** ***** ***** **
637260 ***** 201502110400 ***   0 *** *** *** * * *  0.1 44 ** ** ** ** ** ** ** * **** **** ****** ***** ****** *** *** ***** ***** ***** ***** **
637260 ***** 201502110500 ***   0 *** *** *** * * *  0.2 44 ** ** ** ** ** ** ** * **** **** ****** ***** ****** *** *** ***** ***** ***** ***** **
637260 ***** 201502110600 ***   0 *** *** SCT * * *  0.5 44 ** ** ** ** ** ** ** 4   58   57 ****** *****  817.5 ***  55 ***** *****  0.24 ***** **
637260 ***** 201502110600 ***   0 *** 130 *** * * *  0.5 44 ** ** ** ** ** ** ** *   59   57 ****** ***** ****** *** *** ***** ***** ***** ***** **
637260 ***** 201502111000 090   2 *** 130 *** * * *  6.2 ** ** ** ** ** ** ** ** *   77   57 ****** ***** ****** *** *** ***** ***** ***** ***** **
637260 ***** 201502111100 050   2 *** *** *** * * *  6.2 ** ** ** ** ** ** ** ** *   79   55 ****** ***** ****** *** *** ***** ***** ***** ***** **
637260 ***** 201502111200 090   2 *** *** SCT * * *  9.4 ** ** ** ** ** ** ** ** *   81   57 ****** *****  813.8 *** *** ***** ***** ***** ***** **
637260 ***** 201502111200 090   2 *** *** *** * * *  6.2 ** ** ** ** ** ** ** ** *   81   57 ****** ***** ****** *** *** ***** ***** ***** ***** **
637260 ***** 201502120400 ***   0 *** *** *** * * *  0.5 44 ** ** ** ** ** ** ** *   55   55 ****** ***** ****** *** *** ***** ***** ***** ***** **
637260 ***** 201502120500 ***   0 *** 130 *** * * *  0.9 10 ** ** ** ** ** ** ** *   57   55 ****** ***** ****** *** *** ***** ***** ***** ***** **
637260 ***** 201502120600 ***   0 *** 128 BKN * * *  1.2 10 ** ** ** ** ** ** ** 4   59   56 ****** *****  816.3 ***  54 ***** ***** ***** ***** **
637260 ***** 201502120600 ***   0 *** 130 *** * * *  2.5 10 ** ** ** ** ** ** ** *   59   55 ****** ***** ****** *** *** ***** ***** ***** ***** **
637260 ***** 201502120700 ***   0 *** 130 *** * * *  2.5 10 ** ** ** ** ** ** ** *   63   57 ****** ***** ****** *** *** ***** ***** ***** ***** **
637260 ***** 201502120800 050   6 ***  20 *** * * *  6.2 ** ** ** ** ** ** ** ** *   70   57 ****** ***** ****** *** *** ***** ***** ***** ***** **
637260 ***** 201502120900 090   3 ***  20 *** * * *  6.2 ** ** ** ** ** ** ** ** *   73   61 ****** ***** ****** *** *** ***** ***** ***** ***** **
637260 ***** 201502121000 140   2 ***  20 *** * * *  6.2 ** ** ** ** ** ** ** ** *   75   59 ****** ***** ****** *** *** ***** ***** ***** ***** **
637260 ***** 201502121100 090   2 ***  20 *** * * *  6.2 ** ** ** ** ** ** ** ** *   77   57 ****** ***** ****** *** *** ***** ***** ***** ***** **
637260 ***** 201502121200 090   2 *** *** SCT * * *  9.4 ** ** ** ** ** ** ** ** *   78   56 ****** *****  812.7 *** *** ***** ***** ***** ***** **
637260 ***** 201502121200 090   2 ***  20 *** * * *  6.2 ** ** ** ** ** ** ** ** *   79   57 ****** ***** ****** *** *** ***** ***** ***** ***** **
637260 ***** 201502130400 ***   0 *** 130 *** * * *  0.4 44 ** ** ** ** ** ** ** *   55   55 ****** ***** ****** *** *** ***** ***** ***** ***** **
637260 ***** 201502130500 ***   0 *** 130 *** * * *  0.4 44 ** ** ** ** ** ** ** *   57   57 ****** ***** ****** *** *** ***** ***** ***** ***** **
637260 ***** 201502130600 ***   0 *** 128 BKN * * *  0.5 42 ** ** ** ** ** ** ** 4   60   57 ****** *****  815.6 ***  55 ***** ***** ***** ***** **
637260 ***** 201502130600 ***   0 *** 130 *** * * *  0.5 44 ** ** ** ** ** ** ** *   61   57 ****** ***** ****** *** *** ***** ***** ***** ***** **
637260 ***** 201502130700 ***   0 *** 130 *** * * *  1.9 10 ** ** ** ** ** ** ** *   66   59 ****** ***** ****** *** *** ***** ***** ***** ***** **
637260 ***** 201502130800 ***   0 *** 130 *** * * *  3.1 05 ** ** ** ** ** ** ** *   70   59 ****** ***** ****** *** *** ***** ***** ***** ***** **
637260 ***** 201502130900 140   2 ***  20 BKN * * *  6.2 01 ** ** ** ** ** ** ** 4   74   57 ****** *****  814.5 *** *** ***** ***** ***** ***** **
637260 ***** 201502130900 140   2 ***  20 *** * * *  6.2 ** ** ** ** ** ** ** ** *   73   57 ****** ***** ****** *** *** ***** ***** ***** ***** **
637260 ***** 201502131000 090   2 ***  20 *** * * *  6.2 ** ** ** ** ** ** ** ** *   72   59 ****** ***** ****** *** *** ***** ***** ***** ***** **
637260 ***** 201502131100 090   2 *** 120 *** * * *  6.2 17 ** ** ** ** ** ** ** *   68   61 ****** ***** ****** *** *** ***** ***** ***** ***** **
637260 ***** 201502131200 110   2 *** 118 BKN * * *  8.8 02 ** ** ** ** ** ** ** 9   71   61 ****** *****  812.2 *** *** ***** ***** *****  0.08 **
637260 ***** 201502131200 110   2 *** 120 *** * * *  6.2 ** ** ** ** ** ** ** ** *   72   61 ****** ***** ****** *** *** ***** ***** ***** ***** **
637260 ***** 201502140400 ***   0 *** *** *** * * *  1.1 10 ** ** ** ** ** ** ** *   55   55 ****** ***** ****** *** *** ***** ***** ***** ***** **
637260 ***** 201502140500 ***   0 *** *** *** * * *  1.2 10 ** ** ** ** ** ** ** *   57   55 ****** ***** ****** *** *** ***** ***** ***** ***** **
637260 ***** 201502140600 ***   0 *** 128 BKN * * *  0.2 10 ** ** ** ** ** ** ** 4   60   57 ****** *****  815.4 ***  54 ***** *****  0.16 ***** **
637260 ***** 201502140600 ***   0 *** 130 *** * * *  1.9 10 ** ** ** ** ** ** ** *   59   57 ****** ***** ****** *** *** ***** ***** ***** ***** **
637260 ***** 201502140700 030   2 *** 120 *** * * *  2.5 05 ** ** ** ** ** ** ** *   68   59 ****** ***** ****** *** *** ***** ***** ***** ***** **
637260 ***** 201502140800 030   2 *** 130 *** * * *  5.0 ** ** ** ** ** ** ** ** *   72   55 ****** ***** ****** *** *** ***** ***** ***** ***** **
637260 ***** 201502140900 320   2 *** 128 BKN * * *  5.0 05 ** ** ** ** ** ** ** 4   74   56 ****** *****  814.8 *** *** ***** ***** ***** ***** **
637260 ***** 201502140900 320   2 *** 130 *** * * *  5.0 ** ** ** ** ** ** ** ** *   73   55 ****** ***** ****** *** *** ***** ***** ***** ***** **
637260 ***** 201502141000 180   2 *** 130 *** * * *  6.2 ** ** ** ** ** ** ** ** *   75   55 ****** ***** ****** *** *** ***** ***** ***** ***** **
637260 ***** 201502141100 230   2 *** 130 *** * * *  6.2 ** ** ** ** ** ** ** ** *   77   55 ****** ***** ****** *** *** ***** ***** ***** ***** **
637260 ***** 201502141200 220 *** *** *** BKN * * *  6.2 ** ** ** ** ** ** ** ** *   79   56 ****** *****  812.9 *** *** ***** ***** ***** ***** **
637260 ***** 201502141200 270   2 *** 130 *** * * *  6.2 ** ** ** ** ** ** ** ** *   79   55 ****** ***** ****** *** *** ***** ***** ***** ***** **
637260 ***** 201502150400 ***   0 *** *** OBS * * *  0.1 44 ** ** ** ** ** ** ** *   55   55 ****** ***** ****** *** *** ***** ***** ***** ***** **
637260 ***** 201502150500 ***   0 *** *** OBS * * *  0.1 44 ** ** ** ** ** ** ** *   57   57 ****** ***** ****** *** *** ***** ***** ***** ***** **
637260 ***** 201502150600 ***   0 *** *** SCT * * *  0.4 42 ** ** ** ** ** ** ** 4   59   56 ****** *****  815.9 ***  54 ***** ***** ***** ***** **
637260 ***** 201502150600 ***   0 *** *** *** * * *  0.4 44 ** ** ** ** ** ** ** * **** **** ****** ***** ****** *** *** ***** ***** ***** ***** **
637260 ***** 201502150700 ***   0 *** *** *** * * *  1.2 10 ** ** ** ** ** ** ** *   64   57 ****** ***** ****** *** *** ***** ***** ***** ***** **
637260 ***** 201502150800 180   2 *** *** *** * * *  3.1 05 ** ** ** ** ** ** ** *   70   55 ****** ***** ****** *** *** ***** ***** ***** ***** **
637260 ***** 201502150900 230   2 *** *** SCT * * *  5.0 25 ** ** ** ** ** ** ** 4   75   55 ****** *****  815.8 *** *** ***** ***** ***** ***** **
637260 ***** 201502150900 230   2 *** *** *** * * *  5.0 ** ** ** ** ** ** ** ** *   75   55 ****** ***** ****** *** *** ***** ***** ***** ***** **
637260 ***** 201502151000 180   2 ***  20 *** * * *  6.2 ** ** ** ** ** ** ** ** *   77   55 ****** ***** ****** *** *** ***** ***** ***** ***** **
637260 ***** 201502151100 ***   0 ***  20 *** * * *  6.2 ** ** ** ** ** ** ** ** *   75   57 ****** ***** ****** *** *** ***** ***** ***** ***** **
637260 ***** 201502151200 270   3 ***  25 OVC * * *  6.2 95 ** ** ** ** ** ** ** 2   66   58 ****** *****  813.9 *** *** *****  0.01 ***** ***** **
637260 ***** 201502151200 270   3 *** 110 *** * * *  6.2 95 ** ** ** ** ** ** ** *   66   59 ****** ***** ****** *** *** ***** ***** ***** ***** **
637260 ***** 201502160600 ***   0 ***   2 OBS * * *  0.2 45 ** ** ** ** ** ** ** 4   59   59 ****** *****  817.0 ***  57 ***** *****  0.51 ***** **
637260 ***** 201502160900 020  11 *** *** SCT * * *  5.0 05 ** ** ** ** ** ** ** 4 ****   62 ****** *****  816.7 *** *** ***** ***** ***** ***** **
637260 ***** 201502161000 180   9 *** 120 *** * * *  6.2 ** ** ** ** ** ** ** ** *   72   61 ****** ***** ****** *** *** ***** ***** ***** ***** **
637260 ***** 201502161100 090   5 *** 120 *** * * *  3.8 61 ** ** ** ** ** ** ** *   68   59 ****** ***** ****** *** *** ***** ***** ***** ***** **
637260 ***** 201502161200 090   2 *** 118 OVC * * *  7.5 02 ** ** ** ** ** ** ** 6   73   58 ****** *****  813.7 *** *** *****  0.24 ***** ***** **
637260 ***** 201502161200 090   2 *** 120 *** * * *  6.2 ** ** ** ** ** ** ** ** *   73   59 ****** ***** ****** *** *** ***** ***** ***** ***** **
637260 ***** 201502170400 ***   0 *** *** OBS * * *  0.1 44 ** ** ** ** ** ** ** *   55   55 ****** ***** ****** *** *** ***** ***** ***** ***** **
637260 ***** 201502170500 ***   0 *** *** OBS * * *  0.1 44 ** ** ** ** ** ** ** *   55   55 ****** ***** ****** *** *** ***** ***** ***** ***** **
637260 ***** 201502170600 ***   0 ***   1 OBS * * *  0.1 45 ** ** ** ** ** ** ** 4   56   56 ****** *****  816.1 ***  54 ***** *****  0.24 ***** **
637260 ***** 201502170600 ***   0 *** *** OBS * * *  0.1 44 ** ** ** ** ** ** ** *   55   55 ****** ***** ****** *** *** ***** ***** ***** ***** **
637260 ***** 201502170700 ***   0 *** 130 *** * * *  0.5 44 ** ** ** ** ** ** ** *   61   59 ****** ***** ****** *** *** ***** ***** ***** ***** **
637260 ***** 201502170800 180   2 *** 130 *** * * *  2.5 05 ** ** ** ** ** ** ** *   68   61 ****** ***** ****** *** *** ***** ***** ***** ***** **
637260 ***** 201502170900 ***   0 *** *** SCT * * *  6.2 05 ** ** ** ** ** ** ** 4   74   59 ****** *****  815.6 *** *** ***** ***** ***** ***** **
637260 ***** 201502170900 ***   0 *** *** *** * * *  3.1 05 ** ** ** ** ** ** ** *   75   59 ****** ***** ****** *** *** ***** ***** ***** ***** **
637260 ***** 201502171000 110   2 *** 130 *** * * *  5.0 ** ** ** ** ** ** ** ** *   75   59 ****** ***** ****** *** *** ***** ***** ***** ***** **
637260 ***** 201502171100 110   2 *** 130 *** * * *  6.2 ** ** ** ** ** ** ** ** *   75   59 ****** ***** ****** *** *** ***** ***** ***** ***** **
637260 ***** 201502171200 090   2 *** 128 BKN * * *  6.2 02 ** ** ** ** ** ** ** 4   77   58 ****** *****  812.4 *** *** ***** ***** ***** ***** **
637260 ***** 201502171200 090   2 *** 130 *** * * *  6.2 ** ** ** ** ** ** ** ** *   77   59 ****** ***** ****** *** *** ***** ***** ***** ***** **
637260 ***** 201502171400 140   2 *** 120 *** * * *  6.2 ** ** ** ** ** ** ** ** *   73   59 ****** ***** ****** *** *** ***** ***** ***** ***** **
637260 ***** 201502171500 180   2 *** 118 OVC * * *  6.9 ** ** ** ** ** ** ** ** *   71   59 ****** *****  812.1  78 *** ***** ***** ***** ***** **
637260 ***** 201502171500 180   2 *** 120 *** * * *  6.2 ** ** ** ** ** ** ** ** *   72   59 ****** ***** ****** *** *** ***** ***** ***** ***** **
637260 ***** 201502180400 ***   0 *** 130 *** * * *  1.2 10 ** ** ** ** ** ** ** *   55   55 ****** ***** ****** *** *** ***** ***** ***** ***** **
637260 ***** 201502180500 ***   0 *** 130 *** * * *  1.9 10 ** ** ** ** ** ** ** *   57   57 ****** ***** ****** *** *** ***** ***** ***** ***** **
637260 ***** 201502180600 320   2 *** 128 BKN * * *  1.9 10 ** ** ** ** ** ** ** 4   58   57 ****** *****  815.8 ***  52 ***** *****  2.13 ***** **
637260 ***** 201502180600 320   2 *** 130 *** * * *  1.9 10 ** ** ** ** ** ** ** *   59   57 ****** ***** ****** *** *** ***** ***** ***** ***** **
637260 ***** 201502180800 ***   0 *** 130 *** * * *  6.2 ** ** ** ** ** ** ** ** *   72   61 ****** ***** ****** *** *** ***** ***** ***** ***** **
637260 ***** 201502180900 ***   0 *** 128 BKN * * *  6.2 02 ** ** ** ** ** ** ** 4   72   60 ****** *****  815.3 *** *** ***** ***** ***** ***** **
637260 ***** 201502180900 ***   0 *** 130 *** * * *  6.2 ** ** ** ** ** ** ** ** *   79   61 ****** ***** ****** *** *** ***** ***** ***** ***** **
637260 ***** 201502190400 ***   0 *** *** OBS * * *  0.1 44 ** ** ** ** ** ** ** * **** **** ****** ***** ****** *** *** ***** ***** ***** ***** **
637260 ***** 201502190500 ***   0 *** *** OBS * * *  0.1 44 ** ** ** ** ** ** ** * **** **** ****** ***** ****** *** *** ***** ***** ***** ***** **
637260 ***** 201502190600 ***   0 ***   2 OBS * * *  0.1 45 ** ** ** ** ** ** ** 4   59   59 ****** *****  813.7 ***  55 ***** *****  0.43 ***** **
637260 ***** 201502190600 ***   0 *** *** OBS * * *  0.1 44 ** ** ** ** ** ** ** * **** **** ****** ***** ****** *** *** ***** ***** ***** ***** **
637260 ***** 201502190700 ***   0 *** *** *** * * *  1.2 10 ** ** ** ** ** ** ** *   64   59 ****** ***** ****** *** *** ***** ***** ***** ***** **
637260 ***** 201502190800 090   5 *** *** *** * * *  6.2 ** ** ** ** ** ** ** ** *   70   59 ****** ***** ****** *** *** ***** ***** ***** ***** **
637260 ***** 201502190900 110   2 *** *** SCT * * *  8.8 02 ** ** ** ** ** ** ** 4   73   59 ****** *****  813.6 *** *** ***** ***** ***** ***** **
637260 ***** 201502190900 110   2 *** *** *** * * *  6.2 ** ** ** ** ** ** ** ** *   73   59 ****** ***** ****** *** *** ***** ***** ***** ***** **
637260 ***** 201502191000 230   2 *** *** *** * * *  6.2 ** ** ** ** ** ** ** ** *   75   59 ****** ***** ****** *** *** ***** ***** ***** ***** **
637260 ***** 201502191100 270   2 *** *** *** * * *  6.2 ** ** ** ** ** ** ** ** *   77   59 ****** ***** ****** *** *** ***** ***** ***** ***** **
637260 ***** 201502191200 090   2 ***  20 BKN * * *  9.4 ** ** ** ** ** ** ** ** *   78   57 ****** *****  811.2 *** *** ***** ***** ***** ***** **
637260 ***** 201502191200 090   2 ***  20 *** * * *  6.2 ** ** ** ** ** ** ** ** *   79   57 ****** ***** ****** *** *** ***** ***** ***** ***** **
637260 ***** 201504011000 090   2 ***  20 *** * * *  6.2 ** ** ** ** ** ** ** ** *   68   63 ****** ***** ****** *** *** ***** ***** ***** ***** **
637260 ***** 201504011100 140   2 *** 120 *** * * *  6.2 ** ** ** ** ** ** ** ** *   66   61 ****** ***** ****** *** *** ***** ***** ***** ***** **
637260 ***** 201504011200 140   2 *** 118 BKN * * * 12.5 ** ** ** ** ** ** ** ** *   67   59 ****** *****  814.5 *** *** ***** ***** ***** ***** **
637260 ***** 201504011200 140   2 *** *** *** * * * **** ** ** ** ** ** ** ** ** * **** **** ****** ***** ****** *** *** ***** ***** ***** ***** **
637260 ***** 201504020400 ***   0 *** *** OBS * * *  0.1 44 ** ** ** ** ** ** ** *   55   55 ****** ***** ****** *** *** ***** ***** ***** ***** **
637260 ***** 201504020500 ***   0 *** *** OBS * * *  0.1 44 ** ** ** ** ** ** ** *   55   55 ****** ***** ****** *** *** ***** ***** ***** ***** **
637260 ***** 201504020600 ***   0 ***   1 OBS * * *  0.1 45 ** ** ** ** ** ** ** 4   56   56 ****** *****  815.3 ***  55 ***** *****  0.31 ***** **
637260 ***** 201504020600 ***   0 *** *** OBS * * *  0.1 44 ** ** ** ** ** ** ** *   55   55 ****** ***** ****** *** *** ***** ***** ***** ***** **
637260 ***** 201504020700 ***   0 *** 130 *** * * *  0.6 10 ** ** ** ** ** ** ** *   59   57 ****** ***** ****** *** *** ***** ***** ***** ***** **
637260 ***** 201504020800 ***   0 *** *** *** * * * **** ** ** ** ** ** ** ** ** *   68   57 ****** ***** ****** *** *** ***** ***** ***** ***** **
637260 ***** 201504020900 140   2 *** *** SCT * * * 12.5 01 ** ** ** ** ** ** ** 4   74   58 ****** *****  814.9 *** *** ***** ***** ***** ***** **
637260 ***** 201504020900 140   2 *** *** *** * * *  6.2 ** ** ** ** ** ** ** ** *   73   57 ****** ***** ****** *** *** ***** ***** ***** ***** **
637260 ***** 201504021000 090   2 *** 130 *** * * *  6.2 ** ** ** ** ** ** ** ** *   75   57 ****** ***** ****** *** *** ***** ***** ***** ***** **
637260 ***** 201504021100 140   2 *** 130 *** * * *  6.2 ** ** ** ** ** ** ** ** *   75   57 ****** ***** ****** *** *** ***** ***** ***** ***** **
637260 ***** 201504021200 180   2 *** *** SCT * * * 18.8 ** ** ** ** ** ** ** ** *   76   58 ****** *****  812.6 *** *** ***** ***** ***** ***** **
637260 ***** 201504021200 180   2 *** *** *** * * *  6.2 ** ** ** ** ** ** ** ** *   77   57 ****** ***** ****** *** *** ***** ***** ***** ***** **
637260 ***** 201504021300 140   2 *** *** *** * * *  6.2 ** ** ** ** ** ** ** ** *   77   57 ****** ***** ****** *** *** ***** ***** ***** ***** **
637260 ***** 201504040900 ***   0 *** 128 BKN * * *  7.5 02 ** ** ** ** ** ** ** 4   67   59 ****** *****  815.0 *** *** ***** ***** ***** ***** **
637260 ***** 201504041000 ***   0 *** 130 *** * * *  6.2 ** ** ** ** ** ** ** ** *   68   59 ****** ***** ****** *** *** ***** ***** ***** ***** **
637260 ***** 201504041100 ***   0 *** 130 *** * * *  6.2 ** ** ** ** ** ** ** ** *   70   59 ****** ***** ****** *** *** ***** ***** ***** ***** **
637260 ***** 201504041200 050   2 *** 128 OVC * * *  9.4 ** ** ** ** ** ** ** ** * **** **** ****** *****  812.3 *** *** ***** ***** ***** ***** **
637260 ***** 201504041200 250   6 *** 130 *** * * *  6.2 ** ** ** ** ** ** ** ** *   72   57 ****** ***** ****** *** *** ***** ***** ***** ***** **
637260 ***** 201504050700 ***   0 *** 120 *** * * *  1.6 10 ** ** ** ** ** ** ** *   63   59 ****** ***** ****** *** *** ***** ***** ***** ***** **
637260 ***** 201504050800 140   2 *** 120 *** * * *  1.9 10 ** ** ** ** ** ** ** *   66   59 ****** ***** ****** *** *** ***** ***** ***** ***** **
637260 ***** 201504050900 ***   0 *** 120 *** * * *  5.0 ** ** ** ** ** ** ** ** *   68   59 ****** ***** ****** *** *** ***** ***** ***** ***** **
637260 ***** 201504051000 090   2 *** 120 *** * * *  6.2 ** ** ** ** ** ** ** ** *   70   59 ****** ***** ****** *** *** ***** ***** ***** ***** **
637260 ***** 201504051100 140   2 *** 130 *** * * *  6.2 ** ** ** ** ** ** ** ** *   72   57 ****** ***** ****** *** *** ***** ***** ***** ***** **
637260 ***** 201504051200 140   2 *** 128 BKN * * * 12.5 ** ** ** ** ** ** ** ** *   74   56 ****** *****  812.5 *** *** ***** ***** ***** ***** **
637260 ***** 201504051200 140   2 *** 130 *** * * *  6.2 ** ** ** ** ** ** ** ** *   73   55 ****** ***** ****** *** *** ***** ***** ***** ***** **
637260 ***** 201504060400 ***   0 *** *** OBS * * *  0.1 44 ** ** ** ** ** ** ** *   59   59 ****** ***** ****** *** *** ***** ***** ***** ***** **
637260 ***** 201504060500 ***   0 *** *** OBS * * *  0.1 44 ** ** ** ** ** ** ** *   59   59 ****** ***** ****** *** *** ***** ***** ***** ***** **
637260 ***** 201504060600 ***   0 ***   4 OBS * * *  0.2 43 ** ** ** ** ** ** ** 4   60   58 ****** *****  816.4 ***  58 ***** *****  1.54 ***** **
637260 ***** 201504060600 ***   0 *** *** OBS * * *  0.2 44 ** ** ** ** ** ** ** *   59   59 ****** ***** ****** *** *** ***** ***** ***** ***** **
637260 ***** 201504060700 ***   0 *** *** OBS * * *  0.2 44 ** ** ** ** ** ** ** *   61   59 ****** ***** ****** *** *** ***** ***** ***** ***** **
637260 ***** 201504060800 ***   0 *** 120 *** * * *  3.1 05 ** ** ** ** ** ** ** *   64   61 ****** ***** ****** *** *** ***** ***** ***** ***** **
637260 ***** 201504060900 ***   0 *** 128 BKN * * *  6.2 01 ** ** ** ** ** ** ** 4   69   60 ****** *****  816.4 *** *** ***** ***** ***** ***** **
637260 ***** 201504060900 ***   0 *** 130 *** * * *  6.2 ** ** ** ** ** ** ** ** *   70   61 ****** ***** ****** *** *** ***** ***** ***** ***** **
637260 ***** 201504061000 090   2 *** 130 *** * * *  6.2 ** ** ** ** ** ** ** ** *   73   61 ****** ***** ****** *** *** ***** ***** ***** ***** **
637260 ***** 201504061100 140   2 *** 130 *** * * *  6.2 ** ** ** ** ** ** ** ** *   73   61 ****** ***** ****** *** *** ***** ***** ***** ***** **
637260 ***** 201504061200 ***   0 *** 128 BKN * * *  8.8 ** ** ** ** ** ** ** ** *   75   60 ****** *****  813.5 *** *** ***** ***** ***** ***** **
637260 ***** 201504061200 ***   0 *** 130 *** * * *  6.2 ** ** ** ** ** ** ** ** *   75   61 ****** ***** ****** *** *** ***** ***** ***** ***** **
637260 ***** 201504070400 ***   0 *** *** OBS * * *  0.1 44 ** ** ** ** ** ** ** *   59   59 ****** ***** ****** *** *** ***** ***** ***** ***** **
637260 ***** 201504070500 ***   0 *** *** OBS * * *  0.4 44 ** ** ** ** ** ** ** *   59   59 ****** ***** ****** *** *** ***** ***** ***** ***** **
637260 ***** 201504070600 ***   0 *** 108 OVC * * *  1.2 10 ** ** ** ** ** ** ** 4   59   58 ****** *****  816.5 ***  58 ***** *****  0.00 ***** **
637260 ***** 201504070600 ***   0 ***  15 *** * * *  1.2 10 ** ** ** ** ** ** ** *   59   59 ****** ***** ****** *** *** ***** ***** ***** ***** **
637260 ***** 201504070700 ***   0 ***  15 *** * * *  1.9 61 ** ** ** ** ** ** ** *   61   59 ****** ***** ****** *** *** ***** ***** ***** ***** **
637260 ***** 201504070800 140   2 ***  20 *** * * *  3.8 ** ** ** ** ** ** ** ** *   68   63 ****** ***** ****** *** *** ***** ***** ***** ***** **
637260 ***** 201504070900 140   2 *** 128 BKN * * *  7.5 02 ** ** ** ** ** ** ** 0   73   60 ****** *****  816.3 *** *** ***** ***** *****  0.02 **
637260 ***** 201504070900 140   2 ***  20 *** * * *  6.2 ** ** ** ** ** ** ** ** *   73   61 ****** ***** ****** *** *** ***** ***** ***** ***** **
637260 ***** 201504080400 ***   0 *** *** *** * * *  0.1 44 ** ** ** ** ** ** ** * **** **** ****** ***** ****** *** *** ***** ***** ***** ***** **
637260 ***** 201504080500 ***   0 *** *** *** * * *  0.1 44 ** ** ** ** ** ** ** * **** **** ****** ***** ****** *** *** ***** ***** ***** ***** **
637260 ***** 201504080600 ***   0 ***   1 OBS * * *  0.1 45 ** ** ** ** ** ** ** 4   65   65 ****** *****  816.2 ***  54 ***** *****  0.12 ***** **
637260 ***** 201504080600 ***   0 *** *** *** * * *  0.1 ** ** ** ** ** ** ** ** * **** **** ****** ***** ****** *** *** ***** ***** ***** ***** **
637260 ***** 201504080700 ***   0 *** *** *** * * *  1.9 10 ** ** ** ** ** ** ** *   61 **** ****** ***** ****** *** *** ***** ***** ***** ***** **
637260 ***** 201504080800 140   2 *** *** *** * * *  6.2 ** ** ** ** ** ** ** ** *   64   59 ****** ***** ****** *** *** ***** ***** ***** ***** **
637260 ***** 201504080900 090   2 *** *** SCT * * *  2.5 02 ** ** ** ** ** ** ** 4   72   58 ****** *****  815.2 *** *** ***** ***** ***** ***** **
637260 ***** 201504080900 090   2 *** *** *** * * *  6.2 ** ** ** ** ** ** ** ** *   72   59 ****** ***** ****** *** *** ***** ***** ***** ***** **
637260 ***** 201504081000 050   2 *** *** *** * * *  6.2 ** ** ** ** ** ** ** ** *   73   59 ****** ***** ****** *** *** ***** ***** ***** ***** **
637260 ***** 201504081100 090   2 *** *** *** * * *  6.2 ** ** ** ** ** ** ** ** *   77   61 ****** ***** ****** *** *** ***** ***** ***** ***** **
637260 ***** 201504081200 ***   0 ***  20 BKN * * * 15.6 ** ** ** ** ** ** ** ** *   78   60 ****** *****  812.2 *** *** ***** ***** ***** ***** **
637260 ***** 201504081200 ***   0 ***  20 *** * * *  6.2 ** ** ** ** ** ** ** ** *   79   61 ****** ***** ****** *** *** ***** ***** ***** ***** **
637260 ***** 201504090400 ***   0 *** *** OBS * * *  0.1 44 ** ** ** ** ** ** ** *   57   57 ****** ***** ****** *** *** ***** ***** ***** ***** **
637260 ***** 201504090500 ***   0 *** *** OBS * * *  0.1 44 ** ** ** ** ** ** ** *   59   59 ****** ***** ****** *** *** ***** ***** ***** ***** **
637260 ***** 201504090600 ***   0 ***   4 OBS * * *  0.2 45 ** ** ** ** ** ** ** 4   60   59 ****** *****  815.4 ***  58 ***** ***** ***** ***** **
637260 ***** 201504090600 ***   0 *** *** OBS * * *  0.2 44 ** ** ** ** ** ** ** *   59   59 ****** ***** ****** *** *** ***** ***** ***** ***** **
637260 ***** 201504090700 ***   0 *** 120 *** * * *  0.5 44 ** ** ** ** ** ** ** *   63   61 ****** ***** ****** *** *** ***** ***** ***** ***** **
637260 ***** 201504090800 180   2 *** 120 *** * * *  6.2 ** ** ** ** ** ** ** ** *   68   61 ****** ***** ****** *** *** ***** ***** ***** ***** **
637260 ***** 201504090900 230   3 ***  20 BKN * * * 13.8 02 ** ** ** ** ** ** ** 4   71   61 ****** *****  815.3 *** *** ***** ***** ***** ***** **
637260 ***** 201504090900 230   3 ***  20 *** * * *  6.2 ** ** ** ** ** ** ** ** *   72   61 ****** ***** ****** *** *** ***** ***** ***** ***** **
637260 ***** 201504091000 140   9 ***  20 *** * * *  6.2 ** ** ** ** ** ** ** ** *   73   64 ****** ***** ****** *** *** ***** ***** ***** ***** **
637260 ***** 201504091100 140   9 ***  20 *** * * *  6.2 ** ** ** ** ** ** ** ** *   72   64 ****** ***** ****** *** *** ***** ***** ***** ***** **
637260 ***** 201504091200 090   9 ***  20 BKN * * * 12.5 02 ** ** ** ** ** ** ** 5   72   62 ****** *****  813.0 *** *** *****  0.00 ***** ***** **
637260 ***** 201504091200 090   9 ***  20 *** * * *  6.2 ** ** ** ** ** ** ** ** *   72   63 ****** ***** ****** *** *** ***** ***** ***** ***** **
637260 ***** 201504100400 ***   0 *** 130 *** * * *  0.6 10 ** ** ** ** ** ** ** *   59   59 ****** ***** ****** *** *** ***** ***** ***** ***** **
637260 ***** 201504100500 ***   0 *** 130 *** * * *  0.9 10 ** ** ** ** ** ** ** *   61   59 ****** ***** ****** *** *** ***** ***** ***** ***** **
637260 ***** 201504100600 ***   0 *** 128 BKN * * *  1.2 10 ** ** ** ** ** ** ** 4   62   60 ****** *****  816.3 ***  57 ***** *****  0.00 ***** **
637260 ***** 201504100600 ***   0 *** 130 *** * * *  1.2 10 ** ** ** ** ** ** ** *   63   59 ****** ***** ****** *** *** ***** ***** ***** ***** **
637260 ***** 201504101000 140   2 *** 130 *** * * *  6.2 ** ** ** ** ** ** ** ** *   75   61 ****** ***** ****** *** *** ***** ***** ***** ***** **
637260 ***** 201504101100 140   2 *** 130 *** * * *  6.2 17 ** ** ** ** ** ** ** *   73   61 ****** ***** ****** *** *** ***** ***** ***** ***** **
637260 ***** 201504101200 160   2 *** 118 BKN * * *  6.2 17 ** ** ** ** ** ** ** 9   70   62 ****** *****  813.6 *** *** *****  0.28 ***** ***** **
637260 ***** 201504101200 160   2 *** 120 *** * * *  6.2 17 ** ** ** ** ** ** ** *   70   61 ****** ***** ****** *** *** ***** ***** ***** ***** **
637260 ***** 201504110400 ***   0 *** 130 *** * * *  0.5 44 ** ** ** ** ** ** ** *   59   59 ****** ***** ****** *** *** ***** ***** ***** ***** **
637260 ***** 201504110500 ***   0 *** 130 *** * * *  0.8 10 ** ** ** ** ** ** ** *   61   61 ****** ***** ****** *** *** ***** ***** ***** ***** **
637260 ***** 201504110600 ***   0 *** 128 BKN * * *  1.1 10 ** ** ** ** ** ** ** 4   62   60 ****** *****  816.5 ***  57 ***** ***** ***** ***** **
637260 ***** 201504110600 ***   0 *** 130 *** * * *  1.1 10 ** ** ** ** ** ** ** *   63   61 ****** ***** ****** *** *** ***** ***** ***** ***** **
637260 ***** 201504110700 ***   0 *** 130 *** * * *  1.9 10 ** ** ** ** ** ** ** *   64   61 ****** ***** ****** *** *** ***** ***** ***** ***** **
637260 ***** 201504110800 ***   0 *** 130 *** * * *  6.2 ** ** ** ** ** ** ** ** *   68   61 ****** ***** ****** *** *** ***** ***** ***** ***** **
637260 ***** 201504110900 160   3 *** 130 *** * * *  6.2 ** ** ** ** ** ** ** ** *   72   59 ****** ***** ****** *** *** ***** ***** ***** ***** **
637260 ***** 201504120700 ***   0 *** *** *** * * *  6.2 ** ** ** ** ** ** ** ** *   66   61 ****** ***** ****** *** *** ***** ***** ***** ***** **
637260 ***** 201504120800 140   5 *** *** *** * * *  6.2 ** ** ** ** ** ** ** ** *   72   61 ****** ***** ****** *** *** ***** ***** ***** ***** **
637260 ***** 201504120900 140   2 ***  20 BKN * * * 15.6 ** ** ** ** ** ** ** ** *   76   59 ****** *****  813.5 *** *** ***** ***** ***** ***** **
637260 ***** 201504120900 140   2 ***  20 *** * * *  6.2 ** ** ** ** ** ** ** ** *   73   59 ****** ***** ****** *** *** ***** ***** ***** ***** **
637260 ***** 201504121100 090   2 ***  20 *** * * *  6.2 ** ** ** ** ** ** ** ** *   79   59 ****** ***** ****** *** *** ***** ***** ***** ***** **
637260 ***** 201504121200 140   2 ***  20 *** * * *  6.2 ** ** ** ** ** ** ** ** *   77   59 ****** ***** ****** *** *** ***** ***** ***** ***** **
637260 ***** 201504130400 ***   0 *** *** OBS * * *  0.1 44 ** ** ** ** ** ** ** *   59   59 ****** ***** ****** *** *** ***** ***** ***** ***** **
637260 ***** 201504130500 ***   0 *** *** OBS * * *  0.1 44 ** ** ** ** ** ** ** *   59   59 ****** ***** ****** *** *** ***** ***** ***** ***** **
637260 ***** 201504130600 ***   0 ***   4 OBS * * *  0.2 43 ** ** ** ** ** ** ** 2   60   59 ****** *****  818.0 ***  58 ***** ***** ***** ***** **
637260 ***** 201504130600 ***   0 *** *** OBS * * *  0.2 44 ** ** ** ** ** ** ** *   61   59 ****** ***** ****** *** *** ***** ***** ***** ***** **
637260 ***** 201504131000 140   2 ***  20 *** * * *  6.2 ** ** ** ** ** ** ** ** *   73   61 ****** ***** ****** *** *** ***** ***** ***** ***** **
637260 ***** 201504131100 140   2 ***  20 *** * * *  6.2 17 ** ** ** ** ** ** ** *   73   61 ****** ***** ****** *** *** ***** ***** ***** ***** **
637260 ***** 201504131200 090   5 ***  20 BKN * * *  9.4 95 ** ** ** ** ** ** ** 9   69   63 ****** *****  814.3 *** *** ***** ***** *****  0.00T**
637260 ***** 201504131200 090   5 ***  20 *** * * *  6.2 95 ** ** ** ** ** ** ** *   70   63 ****** ***** ****** *** *** ***** ***** ***** ***** **
637260 ***** 201504140500 ***   0 *** *** OBS * * *  0.1 44 ** ** ** ** ** ** ** *   61   61 ****** ***** ****** *** *** ***** ***** ***** ***** **
637260 ***** 201504140600 ***   0 ***   2 OBS * * *  0.1 ** ** ** ** ** ** ** ** *   62   60 ****** ***** ****** *** *** ***** ***** ***** ***** **
637260 ***** 201504140600 ***   0 *** *** OBS * * *  0.1 44 ** ** ** ** ** ** ** *   61   61 ****** ***** ****** *** *** ***** ***** ***** ***** **
637260 ***** 201504140700 ***   0 *** *** *** * * *  1.9 10 ** ** ** ** ** ** ** *   64   61 ****** ***** ****** *** *** ***** ***** ***** ***** **
637260 ***** 201504140800 ***   0 *** *** *** * * *  6.2 ** ** ** ** ** ** ** ** *   68   63 ****** ***** ****** *** *** ***** ***** ***** ***** **
637260 ***** 201504140900 ***   0 ***  20 BKN * * *  3.8 16 ** ** ** ** ** ** ** 4   69   63 ****** *****  815.4 *** *** ***** ***** *****  0.00 **
637260 ***** 201504140900 ***   0 ***  20 *** * * *  3.8 61 ** ** ** ** ** ** ** *   70   63 ****** ***** ****** *** *** ***** ***** ***** ***** **
637260 ***** 201504141000 140   3 *** 130 *** * * *  6.2 ** ** ** ** ** ** ** ** *   73   63 ****** ***** ****** *** *** ***** ***** ***** ***** **
637260 ***** 201504141100 160   2 *** 130 *** * * *  6.2 ** ** ** ** ** ** ** ** *   75   61 ****** ***** ****** *** *** ***** ***** ***** ***** **
637260 ***** 201504141200 140   2 *** 128 BKN * * * 12.5 ** ** ** ** ** ** ** ** *   78   60 ****** *****  812.1 *** *** ***** ***** ***** ***** **
637260 ***** 201504141200 140   2 *** 130 *** * * *  6.2 ** ** ** ** ** ** ** ** *   79   61 ****** ***** ****** *** *** ***** ***** ***** ***** **
637260 ***** 201504150400 ***   0 *** 120 *** * * *  5.0 44 ** ** ** ** ** ** ** *   61   61 ****** ***** ****** *** *** ***** ***** ***** ***** **
637260 ***** 201504150500 ***   0 *** 120 *** * * *  0.8 10 ** ** ** ** ** ** ** *   61   61 ****** ***** ****** *** *** ***** ***** ***** ***** **
637260 ***** 201504150600 ***   0 *** 120 *** * * *  1.2 10 ** ** ** ** ** ** ** *   63   61 ****** ***** ****** *** *** ***** ***** ***** ***** **
637260 ***** 201504150700 ***   0 ***  20 *** * * *  3.8 ** ** ** ** ** ** ** ** *   66   63 ****** ***** ****** *** *** ***** ***** ***** ***** **
637260 ***** 201504150800 320   2 ***  20 *** * * *  6.2 ** ** ** ** ** ** ** ** *   72   63 ****** ***** ****** *** *** ***** ***** ***** ***** **
637260 ***** 201504150900 050   2 ***  20 BKN * * *  6.2 02 ** ** ** ** ** ** ** 4   72   60 ****** *****  814.9 *** *** ***** ***** ***** ***** **
637260 ***** 201504160400 ***   0 *** 130 *** * * *  0.6 10 ** ** ** ** ** ** ** *   59   59 ****** ***** ****** *** *** ***** ***** ***** ***** **
637260 ***** 201504160500 ***   0 *** 130 *** * * *  0.9 ** ** ** ** ** ** ** ** *   59   59 ****** ***** ****** *** *** ***** ***** ***** ***** **
637260 ***** 201504160600 ***   0 *** 128 BKN * * *  1.2 42 ** ** ** ** ** ** ** 4   60   59 ****** *****  816.8 ***  57 ***** *****  0.12 ***** **
637260 ***** 201504160600 ***   0 *** 130 *** * * *  1.2 10 ** ** ** ** ** ** ** *   61   59 ****** ***** ****** *** *** ***** ***** ***** ***** **
637260 ***** 201504160700 ***   0 *** 130 *** * * *  6.2 ** ** ** ** ** ** ** ** *   63   59 ****** ***** ****** *** *** ***** ***** ***** ***** **
637260 ***** 201504160800 140   2 *** 130 *** * * *  6.2 ** ** ** ** ** ** ** ** *   64   61 ****** ***** ****** *** *** ***** ***** ***** ***** **
637260 ***** 201504160900 180   2 *** 128 BKN * * *  7.5 ** ** ** ** ** ** ** ** *   68   61 ****** *****  886.8 *** *** ***** ***** ***** ***** **
637260 ***** 201504160900 180   2 *** 130 *** * * *  6.2 ** ** ** ** ** ** ** ** *   70   61 ****** ***** ****** *** *** ***** ***** ***** ***** **
637260 ***** 201504161100 090   2 *** 130 *** * * *  6.2 ** ** ** ** ** ** ** ** *   73   63 ****** ***** ****** *** *** ***** ***** ***** ***** **
637260 ***** 201504161200 140   2 *** 128 BKN * * *  3.1 ** ** ** ** ** ** ** ** *   70   62 ****** *****  885.0 *** *** ***** ***** ***** ***** **
637260 ***** 201504161200 140   2 *** 130 *** * * *  6.2 ** ** ** ** ** ** ** ** *   70   61 ****** ***** ****** *** *** ***** ***** ***** ***** **
637260 ***** 201504180400 ***   0 *** *** OBS * * *  0.2 44 ** ** ** ** ** ** ** *   57   57 ****** ***** ****** *** *** ***** ***** ***** ***** **
637260 ***** 201504180500 ***   0 *** *** OBS * * *  0.2 44 ** ** ** ** ** ** ** *   57   57 ****** ***** ****** *** *** ***** ***** ***** ***** **
637260 ***** 201504180600 ***   0 ***   2 OBS * * *  0.2 61 ** ** ** ** ** ** ** 4   59   59 ****** *****  817.3 ***  56 ***** *****  0.12 ***** **
637260 ***** 201504180600 ***   0 *** *** OBS * * *  0.2 44 ** ** ** ** ** ** ** *   59   59 ****** ***** ****** *** *** ***** ***** ***** ***** **
637260 ***** 201504180700 140   2 *** *** OBS * * *  0.1 65 ** ** ** ** ** ** ** *   59   59 ****** ***** ****** *** *** ***** ***** ***** ***** **
637260 ***** 201504180800 ***   0 *** 100 *** * * *  1.2 61 ** ** ** ** ** ** ** *   59   59 ****** ***** ****** *** *** ***** ***** ***** ***** **
637260 ***** 201504180900 ***   0 ***  98 OVC * * *  1.2 61 ** ** ** ** ** ** ** 6   59   58 ****** *****  818.1 *** *** ***** ***** *****  0.67 **
637260 ***** 201504180900 ***   0 *** 100 *** * * *  1.2 61 ** ** ** ** ** ** ** *   59   59 ****** ***** ****** *** *** ***** ***** ***** ***** **
637260 ***** 201504181000 ***   0 ***  12 *** * * *  6.2 61 ** ** ** ** ** ** ** *   61   59 ****** ***** ****** *** *** ***** ***** ***** ***** **
637260 ***** 201504181100 140   2 ***  12 *** * * *  3.8 61 ** ** ** ** ** ** ** *   61   59 ****** ***** ****** *** *** ***** ***** ***** ***** **
637260 ***** 201504181200 160   2 ***  98 OVC * * *  6.2 02 ** ** ** ** ** ** ** 6   63   60 ****** *****  816.2 *** *** *****  0.08 ***** ***** **
637260 ***** 201504181200 160   2 *** 100 *** * * *  6.2 ** ** ** ** ** ** ** ** *   63   59 ****** ***** ****** *** *** ***** ***** ***** ***** **
637260 ***** 201504181300 110   2 *** 120 *** * * *  6.2 ** ** ** ** ** ** ** ** *   66   59 ****** ***** ****** *** *** ***** ***** ***** ***** **
637260 ***** 201504181400 090   2 *** 120 *** * * *  6.2 ** ** ** ** ** ** ** ** *   68   59 ****** ***** ****** *** *** ***** ***** ***** ***** **
637260 ***** 201504181500 140   2 *** 118 BKN * * * 12.5 ** ** ** ** ** ** ** ** *   70   58 ****** *****  813.7  71 *** ***** ***** ***** ***** **
637260 ***** 201504181500 140   2 *** 120 *** * * *  6.2 ** ** ** ** ** ** ** ** *   70   59 ****** ***** ****** *** *** ***** ***** ***** ***** **
637260 ***** 201504200200 *** *** ***   2 OBS * * *  0.1 45 ** ** ** ** ** ** ** 4   58   50 ****** *****  818.9 ***  55 ***** *****  0.08 ***** **
637260 ***** 201504200400 ***   0 *** *** OBS * * *  0.1 44 ** ** ** ** ** ** ** *   57   57 ****** ***** ****** *** *** ***** ***** ***** ***** **
637260 ***** 201504200500 ***   0 *** *** OBS * * *  0.1 44 ** ** ** ** ** ** ** *   57   57 ****** ***** ****** *** *** ***** ***** ***** ***** **
637260 ***** 201504200600 ***   0 ***   2 OBS * * *  0.1 45 ** ** ** ** ** ** ** 4   58   50 ****** *****  818.9 ***  55 ***** *****  0.08 ***** **
637260 ***** 201504200600 ***   0 *** *** OBS * * *  0.1 44 ** ** ** ** ** ** ** *   57   57 ****** ***** ****** *** *** ***** ***** ***** ***** **
637260 ***** 201504210700 140   2 ***  15 *** * * *  5.0 ** ** ** ** ** ** ** ** *   59   57 ****** ***** ****** *** *** ***** ***** ***** ***** **
637260 ***** 201504210800 ***   0 ***  18 *** * * *  6.2 ** ** ** ** ** ** ** ** *   63   59 ****** ***** ****** *** *** ***** ***** ***** ***** **
637260 ***** 201504210900 140   3 ***  17 OVC * * *  0.1 02 ** ** ** ** ** ** ** 6   65   60 ****** *****  817.4 *** *** ***** ***** ***** ***** **
637260 ***** 201504210900 140   3 ***  18 *** * * *  6.2 ** ** ** ** ** ** ** ** *   66   61 ****** ***** ****** *** *** ***** ***** ***** ***** **
637260 ***** 201504220400 ***   0 *** 120 *** * * *  1.2 10 ** ** ** ** ** ** ** *   55   55 ****** ***** ****** *** *** ***** ***** ***** ***** **
637260 ***** 201504220500 ***   0 *** 120 *** * * *  1.6 10 ** ** ** ** ** ** ** *   57   57 ****** ***** ****** *** *** ***** ***** ***** ***** **
637260 ***** 201504220600 ***   0 *** 118 OVC * * *  1.9 10 ** ** ** ** ** ** ** 4   58   57 ****** *****  817.6 ***  53 ***** *****  0.01 ***** **
637260 ***** 201504220600 ***   0 *** 120 *** * * *  1.9 10 ** ** ** ** ** ** ** *   57   57 ****** ***** ****** *** *** ***** ***** ***** ***** **
637260 ***** 201504220700 140   2 *** 120 *** * * *  6.2 ** ** ** ** ** ** ** ** *   61   59 ****** ***** ****** *** *** ***** ***** ***** ***** **
637260 ***** 201504220800 140   2 *** 120 *** * * *  6.2 ** ** ** ** ** ** ** ** *   64   59 ****** ***** ****** *** *** ***** ***** ***** ***** **
637260 ***** 201504220900 ***   0 *** 118 OVC * * *  9.4 ** ** ** ** ** ** ** ** *   68   59 ****** *****  817.2 *** *** ***** ***** ***** ***** **
637260 ***** 201504220900 ***   0 *** 120 *** * * *  6.2 ** ** ** ** ** ** ** ** *   68   59 ****** ***** ****** *** *** ***** ***** ***** ***** **
637260 ***** 201504221000 ***   0 ***  15 *** * * *  3.8 63 ** ** ** ** ** ** ** *   63   63 ****** ***** ****** *** *** ***** ***** ***** ***** **
637260 ***** 201504221100 ***   0 *** 120 *** * * *  6.2 ** ** ** ** ** ** ** ** *   64   61 ****** ***** ****** *** *** ***** ***** ***** ***** **
637260 ***** 201504221200 ***   0 *** 128 BKN * * * 15.6 01 ** ** ** ** ** ** ** 6   70   61 ****** *****  814.9 *** *** *****  0.28 ***** ***** **
637260 ***** 201504221200 ***   0 *** 130 *** * * *  6.2 ** ** ** ** ** ** ** ** *   70   61 ****** ***** ****** *** *** ***** ***** ***** ***** **
637260 ***** 201504230400 ***   0 *** 100 *** * * *  3.8 63 ** ** ** ** ** ** ** *   59   59 ****** ***** ****** *** *** ***** ***** ***** ***** **
637260 ***** 201504230500 ***   0 *** 100 *** * * *  2.5 63 ** ** ** ** ** ** ** *   59   59 ****** ***** ****** *** *** ***** ***** ***** ***** **
637260 ***** 201504230600 180   2 ***  10 OVC * * *  6.2 02 ** ** ** ** ** ** ** 6   60   59 ****** *****  817.9 ***  54 ***** *****  0.59 ***** **
637260 ***** 201504230600 180   2 ***  10 *** * * *  6.2 ** ** ** ** ** ** ** ** *   61   59 ****** ***** ****** *** *** ***** ***** ***** ***** **
637260 ***** 201504230800 140   2 *** 112 *** * * *  6.2 ** ** ** ** ** ** ** ** * **** **** ****** ***** ****** *** *** ***** ***** ***** ***** **
637260 ***** 201504230900 140   2 *** 118 BKN * * * 12.5 ** ** ** ** ** ** ** ** *   68   58 ****** *****  817.4 *** *** ***** ***** ***** ***** **
637260 ***** 201504230900 140   2 *** 112 *** * * *  6.2 ** ** ** ** ** ** ** ** * **** **** ****** ***** ****** *** *** ***** ***** ***** ***** **
637260 ***** 201504240400 ***   0 *** *** OBS * * *  0.1 44 ** ** ** ** ** ** ** *   55   55 ****** ***** ****** *** *** ***** ***** ***** ***** **
637260 ***** 201504240500 ***   0 *** *** OBS * * *  0.1 44 ** ** ** ** ** ** ** *   55   55 ****** ***** ****** *** *** ***** ***** ***** ***** **
637260 ***** 201504240600 ***   0 ***   1 OBS * * *  0.1 45 ** ** ** ** ** ** ** 4   56   56 ****** *****  887.1 ***  55 ***** ***** ***** ***** **
637260 ***** 201504240600 ***   0 *** *** OBS * * *  0.1 44 ** ** ** ** ** ** ** *   57   57 ****** ***** ****** *** *** ***** ***** ***** ***** **
637260 ***** 201504240700 ***   0 ***  15 *** * * *  1.9 10 ** ** ** ** ** ** ** *   61   59 ****** ***** ****** *** *** ***** ***** ***** ***** **
637260 ***** 201504240800 090   2 ***  15 *** * * *  6.2 ** ** ** ** ** ** ** ** *   64   61 ****** ***** ****** *** *** ***** ***** ***** ***** **
637260 ***** 201504240900 140   3 ***  18 BKN * * * 12.5 02 ** ** ** ** ** ** ** 4   67   63 ****** *****  817.4 *** *** ***** ***** ***** ***** **
637260 ***** 201504240900 140   3 ***  18 *** * * *  6.2 ** ** ** ** ** ** ** ** *   66   61 ****** ***** ****** *** *** ***** ***** ***** ***** **
637260 ***** 201504241000 090   2 *** 130 *** * * *  6.2 ** ** ** ** ** ** ** ** *   70   59 ****** ***** ****** *** *** ***** ***** ***** ***** **
637260 ***** 201504241100 140   2 *** 130 *** * * *  6.2 ** ** ** ** ** ** ** ** *   73   57 ****** ***** ****** *** *** ***** ***** ***** ***** **
637260 ***** 201504241200 090   2 *** 128 BKN * * * 18.8 ** ** ** ** ** ** ** ** *   73   59 ****** *****  814.5 *** *** ***** ***** ***** ***** **
637260 ***** 201504241200 090   2 *** 130 *** * * *  6.2 ** ** ** ** ** ** ** ** *   73   59 ****** ***** ****** *** *** ***** ***** ***** ***** **
637260 ***** 201504250400 ***   0 *** *** OBS * * *  0.1 44 ** ** ** ** ** ** ** *   55   55 ****** ***** ****** *** *** ***** ***** ***** ***** **
637260 ***** 201504250500 ***   0 *** *** OBS * * *  0.1 44 ** ** ** ** ** ** ** *   57   57 ****** ***** ****** *** *** ***** ***** ***** ***** **
637260 ***** 201504250600 ***   0 ***   1 OBS * * *  0.1 45 ** ** ** ** ** ** ** 4   59   59 ****** *****  816.0 ***  55 ***** ***** ***** ***** **
637260 ***** 201504250600 ***   0 *** *** OBS * * *  0.1 44 ** ** ** ** ** ** ** *   59   59 ****** ***** ****** *** *** ***** ***** ***** ***** **
637260 ***** 201504251000 010   2 *** 120 *** * * *  6.2 ** ** ** ** ** ** ** ** *   72   63 ****** ***** ****** *** *** ***** ***** ***** ***** **
637260 ***** 201504251100 140   2 *** 130 *** * * *  6.2 ** ** ** ** ** ** ** ** *   72   63 ****** ***** ****** *** *** ***** ***** ***** ***** **
637260 ***** 201504251200 140   2 *** 128 BKN * * * 12.5 ** ** ** ** ** ** ** ** *   72   61 ****** *****  813.9 *** *** ***** ***** ***** ***** **
637260 ***** 201504251200 140   2 *** 130 *** * * *  6.2 ** ** ** ** ** ** ** ** *   72   63 ****** ***** ****** *** *** ***** ***** ***** ***** **
637260 ***** 201505040400 ***   0 *** *** OBS * * *  0.1 44 ** ** ** ** ** ** ** *   57   57 ****** ***** ****** *** *** ***** ***** ***** ***** **
637260 ***** 201505040500 ***   0 *** *** OBS * * *  0.1 44 ** ** ** ** ** ** ** *   57   57 ****** ***** ****** *** *** ***** ***** ***** ***** **
637260 ***** 201505040600 ***   0 ***   4 OBS * * *  0.2 43 ** ** ** ** ** ** ** 4   60   59 ****** *****  816.9 ***  57 ***** *****  0.04 ***** **
637260 ***** 201505040600 ***   0 *** *** OBS * * *  0.2 44 ** ** ** ** ** ** ** *   59   59 ****** ***** ****** *** *** ***** ***** ***** ***** **
637260 ***** 201505040700 ***   0 *** *** *** * * *  6.2 ** ** ** ** ** ** ** ** *   64   59 ****** ***** ****** *** *** ***** ***** ***** ***** **
637260 ***** 201505040800 140   2 ***  20 *** * * *  6.2 ** ** ** ** ** ** ** ** *   68   59 ****** ***** ****** *** *** ***** ***** ***** ***** **
637260 ***** 201505040900 180   2 ***  20 BKN * * * 12.5 ** ** ** ** ** ** ** ** *   69   59 ****** *****  816.2 *** *** ***** ***** ***** ***** **
637260 ***** 201505040900 180   2 ***  20 *** * * *  6.2 ** ** ** ** ** ** ** ** *   70   59 ****** ***** ****** *** *** ***** ***** ***** ***** **
637260 ***** 201505050400 ***   0 *** *** *** * * *  1.2 10 ** ** ** ** ** ** ** *   55   55 ****** ***** ****** *** *** ***** ***** ***** ***** **
637260 ***** 201505050500 ***   0 *** 120 *** * * *  1.6 10 ** ** ** ** ** ** ** *   57   57 ****** ***** ****** *** *** ***** ***** ***** ***** **
637260 ***** 201505050600 ***   0 ***  18 BKN * * *  1.6 10 ** ** ** ** ** ** ** 4   58   57 ****** *****  816.0 ***  55 ***** ***** ***** ***** **
637260 ***** 201505050600 ***   0 ***  18 *** * * *  1.6 10 ** ** ** ** ** ** ** *   59   57 ****** ***** ****** *** *** ***** ***** ***** ***** **
637260 ***** 201505060400 ***   0 *** 100 *** * * *  6.2 ** ** ** ** ** ** ** ** *   61   59 ****** ***** ****** *** *** ***** ***** ***** ***** **
637260 ***** 201505060500 ***   0 *** 120 *** * * *  6.2 ** ** ** ** ** ** ** ** *   61   59 ****** ***** ****** *** *** ***** ***** ***** ***** **
637260 ***** 201505060600 ***   0 *** 118 BKN * * *  6.2 ** ** ** ** ** ** ** ** *   63   60 ****** *****  815.0 ***  56 ***** *****  0.28 ***** **
637260 ***** 201505060600 ***   0 *** 120 *** * * *  6.2 ** ** ** ** ** ** ** ** *   63   61 ****** ***** ****** *** *** ***** ***** ***** ***** **
637260 ***** 201505060700 140   2 *** 120 *** * * *  6.2 ** ** ** ** ** ** ** ** *   64   61 ****** ***** ****** *** *** ***** ***** ***** ***** **
637260 ***** 201505060800 180   2 *** 120 *** * * *  6.2 ** ** ** ** ** ** ** ** *   66   59 ****** ***** ****** *** *** ***** ***** ***** ***** **
637260 ***** 201505060900 140   2 *** 118 OVC * * * 12.5 ** ** ** ** ** ** ** ** *   67   58 ****** *****  814.9 *** *** ***** ***** ***** ***** **
637260 ***** 201505060900 140   2 *** 120 *** * * *  6.2 ** ** ** ** ** ** ** ** *   68   59 ****** ***** ****** *** *** ***** ***** ***** ***** **
637260 ***** 201505061000 090   2 ***  20 *** * * *  6.2 ** ** ** ** ** ** ** ** *   68   59 ****** ***** ****** *** *** ***** ***** ***** ***** **
637260 ***** 201505061100 140   2 ***  20 *** * * *  6.2 ** ** ** ** ** ** ** ** *   70   61 ****** ***** ****** *** *** ***** ***** ***** ***** **
637260 ***** 201505061200 090   2 ***  20 BKN * * * 12.5 ** ** ** ** ** ** ** ** *   72   62 ****** *****  812.9 *** *** ***** ***** ***** ***** **
637260 ***** 201505061200 090   2 ***  20 *** * * *  6.2 ** ** ** ** ** ** ** ** *   72   61 ****** ***** ****** *** *** ***** ***** ***** ***** **
637260 ***** 201505270700 *** *** *** *** *** * * *  7.0 10 ** ** ** ** ** ** ** * **** **** ****** ***** ****** *** *** ***** ***** ***** ***** **
637260 ***** 201505270800 ***   0 *** *** *** * * *  6.2 ** ** ** ** ** ** ** ** *   66   61 ****** ***** ****** *** *** ***** ***** ***** ***** **
637260 ***** 201505270900 230   3 *** *** SCT * * * 12.5 02 ** ** ** ** ** ** ** 4   71   60 ****** *****  817.2 *** *** ***** ***** ***** ***** **
637260 ***** 201505270900 230   3 *** *** *** * * *  6.2 05 ** ** ** ** ** ** ** *   72   61 ****** ***** ****** *** *** ***** ***** ***** ***** **
637260 ***** 201505280400 ***   0 *** *** OBS * * *  0.1 44 ** ** ** ** ** ** ** *   59   59 ****** ***** ****** *** *** ***** ***** ***** ***** **
637260 ***** 201505280500 ***   0 *** *** OBS * * *  0.1 44 ** ** ** ** ** ** ** *   57   57 ****** ***** ****** *** *** ***** ***** ***** ***** **
637260 ***** 201505280600 ***   0 ***   1 OBS * * *  0.1 45 ** ** ** ** ** ** ** 4   59   59 ****** *****  816.9 ***  55 ***** ***** ***** ***** **
637260 ***** 201505280600 ***   0 *** *** OBS * * *  0.1 44 ** ** ** ** ** ** ** *   55   55 ****** ***** ****** *** *** ***** ***** ***** ***** **
637260 ***** 201505280900 140   2 *** *** SCT * * *  9.4 02 ** ** ** ** ** ** ** 4   72   60 ****** *****  816.3 *** *** ***** ***** ***** ***** **
637260 ***** 201505281000 110   2 *** *** *** * * *  6.2 ** ** ** ** ** ** ** ** *   73   61 ****** ***** ****** *** *** ***** ***** ***** ***** **
637260 ***** 201505281100 140   2 *** 130 *** * * *  6.2 ** ** ** ** ** ** ** ** *   75   59 ****** ***** ****** *** *** ***** ***** ***** ***** **
637260 ***** 201505281200 160   2 *** 128 BKN * * * 12.5 ** ** ** ** ** ** ** ** *   77   57 ****** *****  813.5 *** *** ***** ***** ***** ***** **
637260 ***** 201505281200 160   2 *** 130 *** * * *  6.2 ** ** ** ** ** ** ** ** *   77   59 ****** ***** ****** *** *** ***** ***** ***** ***** **
637260 ***** 201505290600 ***   0 ***   2 OBS * * *  0.1 45 ** ** ** ** ** ** ** 4   57   57 ****** *****  815.3 ***  55 ***** ***** ***** ***** **
637260 ***** 201505290700 ***   0 *** 120 *** * * *  1.9 10 ** ** ** ** ** ** ** *   55   55 ****** ***** ****** *** *** ***** ***** ***** ***** **
637260 ***** 201505290800 240   2 ***  20 *** * * *  6.2 ** ** ** ** ** ** ** ** *   68   61 ****** ***** ****** *** *** ***** ***** ***** ***** **
637260 ***** 201505290900 140   7 *** *** SCT * * *  9.4 02 ** ** ** ** ** ** ** 4   72   59 ****** *****  815.7 *** *** ***** ***** ***** ***** **
637260 ***** 201505290900 140   7 ***  20 *** * * *  6.2 ** ** ** ** ** ** ** ** *   72   59 ****** ***** ****** *** *** ***** ***** ***** ***** **
637260 ***** 201505300700 140   2 *** 130 *** * * *  6.2 ** ** ** ** ** ** ** ** *   63   59 ****** ***** ****** *** *** ***** ***** ***** ***** **
637260 ***** 201505300800 140   2 *** 130 *** * * *  6.2 ** ** ** ** ** ** ** ** *   68   59 ****** ***** ****** *** *** ***** ***** ***** ***** **
637260 ***** 201505300900 180   3 *** *** BKN * * * 12.5 ** ** ** ** ** ** ** ** *   73   58 ****** *****  815.6 *** *** ***** ***** ***** ***** **
637260 ***** 201505300900 180   3 *** *** *** * * *  6.2 ** ** ** ** ** ** ** ** *   73   57 ****** ***** ****** *** *** ***** ***** ***** ***** **
637260 ***** 201505301000 180   2 *** *** *** * * *  6.2 ** ** ** ** ** ** ** ** *   75   59 ****** ***** ****** *** *** ***** ***** ***** ***** **
637260 ***** 201505301100 140   2 ***  20 *** * * *  6.2 ** ** ** ** ** ** ** ** *   75   55 ****** ***** ****** *** *** ***** ***** ***** ***** **
637260 ***** 201505301200 090   2 ***  20 BKN * * * 12.5 ** ** ** ** ** ** ** ** *   74   59 ****** *****  813.9 *** *** ***** ***** ***** ***** **
637260 ***** 201505301200 090   2 ***  20 *** * * *  6.2 ** ** ** ** ** ** ** ** *   75   59 ****** ***** ****** *** *** ***** ***** ***** ***** **
637260 ***** 201506010600 ***   0 ***   8 OBS * * *  0.9 05 ** ** ** ** ** ** ** 4   59   58 ****** *****  815.7 ***  55 ***** *****  0.08 ***** **
637260 ***** 201506011000 140   2 *** 130 *** * * *  6.2 ** ** ** ** ** ** ** ** *   72   61 ****** ***** ****** *** *** ***** ***** ***** ***** **
637260 ***** 201506011100 140   2 *** 130 *** * * *  6.2 ** ** ** ** ** ** ** ** *   72   61 ****** ***** ****** *** *** ***** ***** ***** ***** **
637260 ***** 201506011200 110   2 *** 128 BKN * * * 12.5 ** ** ** ** ** ** ** ** *   70   60 ****** *****  812.4 *** *** ***** ***** ***** ***** **
637260 ***** 201506011200 110   2 *** 130 *** * * *  6.2 ** ** ** ** ** ** ** ** *   70   61 ****** ***** ****** *** *** ***** ***** ***** ***** **
637260 ***** 201506020400 ***   0 *** *** OBS * * *  0.2 44 ** ** ** ** ** ** ** *   59   59 ****** ***** ****** *** *** ***** ***** ***** ***** **
637260 ***** 201506020500 ***   0 *** 110 *** * * *  0.4 44 ** ** ** ** ** ** ** *   59   59 ****** ***** ****** *** *** ***** ***** ***** ***** **
637260 ***** 201506020600 140   2 ***  15 BKN * * *  0.5 44 ** ** ** ** ** ** ** 4   62   60 ****** *****  816.3 ***  58 ***** *****  1.22 ***** **
637260 ***** 201506020600 140   2 ***  15 *** * * *  0.5 11 ** ** ** ** ** ** ** *   63   61 ****** ***** ****** *** *** ***** ***** ***** ***** **
637260 ***** 201506020900 ***   0 *** *** BKN * * * 12.5 17 ** ** ** ** ** ** ** 4   70   60 ****** *****  815.9 *** *** ***** ***** ***** ***** **
637260 ***** 201506030400 *** *** *** *** *** * * *  0.1 45 ** ** ** ** ** ** ** * **** **** ****** ***** ****** *** *** ***** ***** ***** ***** **
637260 ***** 201506030500 *** *** *** *** *** * * *  0.1 ** ** ** ** ** ** ** ** * **** **** ****** ***** ****** *** *** ***** ***** ***** ***** **
637260 ***** 201506030600 ***   0 *** *** OBS * * *  0.2 44 ** ** ** ** ** ** ** *   57   57 ****** ***** ****** *** *** ***** ***** ***** ***** **
637260 ***** 201506040400 ***   0 *** *** OBS * * *  0.1 44 ** ** ** ** ** ** ** *   57   34 ****** ***** ****** *** *** ***** ***** ***** ***** **
637260 ***** 201506040500 ***   0 *** *** OBS * * *  0.1 44 ** ** ** ** ** ** ** *   59   59 ****** ***** ****** *** *** ***** ***** ***** ***** **
637260 ***** 201506040600 ***   0 *** 118 BKN * * *  0.5 42 ** ** ** ** ** ** ** 4   62   60 ****** *****  815.9 ***  55 ***** ***** ***** ***** **
637260 ***** 201506040600 ***   0 *** 120 *** * * *  0.5 44 ** ** ** ** ** ** ** *   61   61 ****** ***** ****** *** *** ***** ***** ***** ***** **
637260 ***** 201506040700 ***   0 *** 120 *** * * *  1.2 ** ** ** ** ** ** ** ** *   64   61 ****** ***** ****** *** *** ***** ***** ***** ***** **
637260 ***** 201506040800 ***   0 ***  18 *** * * *  6.2 ** ** ** ** ** ** ** ** *   68   61 ****** ***** ****** *** *** ***** ***** ***** ***** **
637260 ***** 201506040900 050   2 *** 108 OVC * * *  6.2 61 ** ** ** ** ** ** ** 4   68   62 ****** *****  815.8 *** *** ***** ***** *****  0.01 **
637260 ***** 201506040900 050   2 *** 110 *** * * *  6.2 61 ** ** ** ** ** ** ** *   68   63 ****** ***** ****** *** *** ***** ***** ***** ***** **
637260 ***** 201506041000 090   9 *** 100 *** * * *  6.2 ** ** ** ** ** ** ** ** *   68   63 ****** ***** ****** *** *** ***** ***** ***** ***** **
637260 ***** 201506041100 140   2 *** 110 *** * * *  6.2 ** ** ** ** ** ** ** ** *   66   61 ****** ***** ****** *** *** ***** ***** ***** ***** **
637260 ***** 201506041200 020   2 *** 120 *** * * *  6.2 ** ** ** ** ** ** ** ** *   66   61 ****** ***** ****** *** *** ***** ***** ***** ***** **
637260 ***** 201506050400 ***   0 *** *** OBS * * *  0.1 44 ** ** ** ** ** ** ** *   59   59 ****** ***** ****** *** *** ***** ***** ***** ***** **
637260 ***** 201506050500 ***   0 *** *** OBS * * *  0.1 44 ** ** ** ** ** ** ** *   59   59 ****** ***** ****** *** *** ***** ***** ***** ***** **
637260 ***** 201506050600 ***   0 ***   1 OBS * * *  0.1 45 ** ** ** ** ** ** ** 4   59   59 ****** *****  815.3 ***  57 ***** *****  0.04 ***** **
637260 ***** 201506050600 ***   0 *** *** OBS * * *  0.1 44 ** ** ** ** ** ** ** *   57   57 ****** ***** ****** *** *** ***** ***** ***** ***** **
637260 ***** 201506050700 ***   0 *** *** *** * * *  1.9 10 ** ** ** ** ** ** ** *   64   61 ****** ***** ****** *** *** ***** ***** ***** ***** **
637260 ***** 201506050800 ***   0 *** *** *** * * *  6.2 ** ** ** ** ** ** ** ** *   68   61 ****** ***** ****** *** *** ***** ***** ***** ***** **
637260 ***** 201506050900 140   2 *** 128 BKN * * * 12.5 03 ** ** ** ** ** ** ** 4   75   60 ****** *****  815.0 *** *** ***** ***** ***** ***** **
637260 ***** 201506050900 ***   0 *** 130 *** * * *  6.2 ** ** ** ** ** ** ** ** *   75   61 ****** ***** ****** *** *** ***** ***** ***** ***** **
637260 ***** 201506060400 ***   0 *** 130 *** * * *  0.6 10 ** ** ** ** ** ** ** *   55   55 ****** ***** ****** *** *** ***** ***** ***** ***** **
637260 ***** 201506060500 ***   0 *** 130 *** * * *  0.8 10 ** ** ** ** ** ** ** *   55   55 ****** ***** ****** *** *** ***** ***** ***** ***** **
637260 ***** 201506060600 ***   0 *** 128 BKN * * *  1.2 42 ** ** ** ** ** ** ** 4   56   55 ****** *****  816.7 ***  54 ***** ***** ***** ***** **
637260 ***** 201506060600 ***   0 *** 130 *** * * *  0.8 10 ** ** ** ** ** ** ** *   57   55 ****** ***** ****** *** *** ***** ***** ***** ***** **
637260 ***** 201506060700 160   2 ***  20 *** * * *  6.2 ** ** ** ** ** ** ** ** *   64   54 ****** ***** ****** *** *** ***** ***** ***** ***** **
637260 ***** 201506060800 160   2 *** 130 *** * * *  6.2 ** ** ** ** ** ** ** ** *   66   57 ****** ***** ****** *** *** ***** ***** ***** ***** **
637260 ***** 201506060900 140   2 *** 128 BKN * * * 12.5 ** ** ** ** ** ** ** ** *   70   56 ****** *****  815.5 *** *** ***** ***** ***** ***** **
637260 ***** 201506060900 140   2 *** 130 *** * * *  6.2 ** ** ** ** ** ** ** ** *   70   59 ****** ***** ****** *** *** ***** ***** ***** ***** **
637260 ***** 201506070600 ***   0 *** *** SCT * * *  0.5 42 ** ** ** ** ** ** ** 4   58   56 ****** *****  770.7 ***  50 ***** ***** ***** ***** **
637260 ***** 201506070700 ***   0 *** *** *** * * *  1.6 10 ** ** ** ** ** ** ** *   63   55 ****** ***** ****** *** *** ***** ***** ***** ***** **
637260 ***** 201506070800 180   2 *** 130 *** * * *  6.2 ** ** ** ** ** ** ** ** *   68   55 ****** ***** ****** *** *** ***** ***** ***** ***** **
637260 ***** 201506070900 230   3 *** *** SCT * * * 12.5 02 ** ** ** ** ** ** ** 4   72   53 ****** *****  815.7 *** *** ***** ***** ***** ***** **
637260 ***** 201506070900 230   3 *** 130 *** * * *  6.2 ** ** ** ** ** ** ** ** *   73   54 ****** ***** ****** *** *** ***** ***** ***** ***** **
637260 ***** 201506071000 180   2 *** *** *** * * *  6.2 ** ** ** ** ** ** ** ** *   75   54 ****** ***** ****** *** *** ***** ***** ***** ***** **
637260 ***** 201506071100 200   2 *** *** *** * * *  6.2 ** ** ** ** ** ** ** ** *   77   54 ****** ***** ****** *** *** ***** ***** ***** ***** **
637260 ***** 201506071200 180   2 *** *** SCT * * * 12.5 ** ** ** ** ** ** ** ** *   77   54 ****** *****  813.9 *** *** ***** ***** ***** ***** **
637260 ***** 201506071200 180   2 *** *** *** * * *  6.2 ** ** ** ** ** ** ** ** *   77   54 ****** ***** ****** *** *** ***** ***** ***** ***** **
637260 ***** 201506080400 ***   0 *** *** OBS * * *  0.1 44 ** ** ** ** ** ** ** *   55   55 ****** ***** ****** *** *** ***** ***** ***** ***** **
637260 ***** 201506080500 ***   0 *** *** OBS * * *  0.1 44 ** ** ** ** ** ** ** *   57   57 ****** ***** ****** *** *** ***** ***** ***** ***** **
637260 ***** 201506080600 ***   0 ***   1 OBS * * *  0.1 45 ** ** ** ** ** ** ** 4   57   57 ****** *****  817.0 ***  54 ***** ***** ***** ***** **
637260 ***** 201506080600 ***   0 *** *** OBS * * *  0.1 44 ** ** ** ** ** ** ** *   57   57 ****** ***** ****** *** *** ***** ***** ***** ***** **
637260 ***** 201506080800 ***   0 *** *** *** * * *  1.9 10 ** ** ** ** ** ** ** *   66   57 ****** ***** ****** *** *** ***** ***** ***** ***** **
637260 ***** 201506080900 180   3 *** *** SCT * * *  7.5 02 ** ** ** ** ** ** ** 4   72   56 ****** *****  816.0 *** *** ***** ***** ***** ***** **
637260 ***** 201506080900 180   3 *** *** *** * * *  6.2 ** ** ** ** ** ** ** ** *   72   55 ****** ***** ****** *** *** ***** ***** ***** ***** **
637260 ***** 201506081000 180   2 *** *** *** * * *  6.2 ** ** ** ** ** ** ** ** *   73   57 ****** ***** ****** *** *** ***** ***** ***** ***** **
637260 ***** 201506081100 140   2 *** *** *** * * *  6.2 ** ** ** ** ** ** ** ** *   75   57 ****** ***** ****** *** *** ***** ***** ***** ***** **
637260 ***** 201506081200 ***   0 *** *** BKN * * * 12.5 ** ** ** ** ** ** ** ** *   75   55 ****** *****  838.9 *** *** ***** ***** ***** ***** **
637260 ***** 201506081200 ***   0 *** *** *** * * *  6.2 ** ** ** ** ** ** ** ** *   75   55 ****** ***** ****** *** *** ***** ***** ***** ***** **
637260 ***** 201506090400 ***   0 *** *** *** * * *  1.6 10 ** ** ** ** ** ** ** *   55   55 ****** ***** ****** *** *** ***** ***** ***** ***** **
637260 ***** 201506090500 ***   0 *** 300 *** * * *  1.6 10 ** ** ** ** ** ** ** *   57   55 ****** ***** ****** *** *** ***** ***** ***** ***** **
637260 ***** 201506090600 ***   0 *** 295 BKN * * *  1.9 42 ** ** ** ** ** ** ** 4   59   57 ****** *****  816.5 ***  53 ***** ***** ***** ***** **
637260 ***** 201506090600 ***   0 *** 300 *** * * *  1.9 10 ** ** ** ** ** ** ** *   59   57 ****** ***** ****** *** *** ***** ***** ***** ***** **
637260 ***** 201506090700 140   2 *** 300 *** * * *  6.2 ** ** ** ** ** ** ** ** *   63   55 ****** ***** ****** *** *** ***** ***** ***** ***** **
637260 ***** 201506090800 180   2 *** 300 *** * * *  6.2 ** ** ** ** ** ** ** ** *   66   55 ****** ***** ****** *** *** ***** ***** ***** ***** **
637260 ***** 201506090900 180   2 *** 295 BKN * * *  8.8 ** ** ** ** ** ** ** ** *   70   53 ****** *****  816.2 *** *** ***** ***** ***** ***** **
637260 ***** 201506090900 180   2 *** 300 *** * * *  6.2 ** ** ** ** ** ** ** ** *   70   54 ****** ***** ****** *** *** ***** ***** ***** ***** **
637260 ***** 201506100400 ***   0 *** *** OBS * * *  0.1 44 ** ** ** ** ** ** ** *   54   54 ****** ***** ****** *** *** ***** ***** ***** ***** **
637260 ***** 201506100500 ***   0 *** *** OBS * * *  0.1 44 ** ** ** ** ** ** ** *   54   54 ****** ***** ****** *** *** ***** ***** ***** ***** **
637260 ***** 201506100600 ***   0 ***   1 OBS * * *  0.1 45 ** ** ** ** ** ** ** 4   55   55 ****** *****  816.3 ***  53 ***** ***** ***** ***** **
637260 ***** 201506100600 ***   0 *** *** OBS * * *  0.1 44 ** ** ** ** ** ** ** *   55   55 ****** ***** ****** *** *** ***** ***** ***** ***** **
637260 ***** 201506100700 140   2 *** *** *** * * *  1.9 10 ** ** ** ** ** ** ** *   64   57 ****** ***** ****** *** *** ***** ***** ***** ***** **
637260 ***** 201506100800 180   2 *** 300 *** * * *  6.2 ** ** ** ** ** ** ** ** *   72   55 ****** ***** ****** *** *** ***** ***** ***** ***** **
637260 ***** 201506100900 140   2 *** *** BKN * * * 12.5 03 ** ** ** ** ** ** ** 4   72   57 ****** *****  815.6 *** *** ***** ***** ***** ***** **
637260 ***** 201506100900 140   2 *** 300 *** * * *  6.2 ** ** ** ** ** ** ** ** *   72   57 ****** ***** ****** *** *** ***** ***** ***** ***** **
637260 ***** 201506101200 180   2 *** *** BKN * * * 12.5 ** ** ** ** ** ** ** ** *   75   57 ****** *****  813.5 *** *** ***** ***** ***** ***** **
637260 ***** 201506110400 ***   0 *** 130 *** * * *  0.8 10 ** ** ** ** ** ** ** *   57   57 ****** ***** ****** *** *** ***** ***** ***** ***** **
637260 ***** 201506110500 ***   0 *** 130 *** * * *  1.1 10 ** ** ** ** ** ** ** *   59   57 ****** ***** ****** *** *** ***** ***** ***** ***** **
637260 ***** 201506110600 ***   0 *** 128 BKN * * *  1.2 10 ** ** ** ** ** ** ** 4   59   56 ****** *****  816.8 ***  54 ***** ***** ***** ***** **
637260 ***** 201506110600 ***   0 *** 130 *** * * *  1.2 10 ** ** ** ** ** ** ** *   59   57 ****** ***** ****** *** *** ***** ***** ***** ***** **
637260 ***** 201506111000 140   2 *** *** *** * * *  6.2 ** ** ** ** ** ** ** ** *   75   57 ****** ***** ****** *** *** ***** ***** ***** ***** **
637260 ***** 201506111100 180   2 *** *** *** * * *  6.2 ** ** ** ** ** ** ** ** *   75   57 ****** ***** ****** *** *** ***** ***** ***** ***** **
637260 ***** 201506111200 140   2 ***  30 BKN * * *  7.5 ** ** ** ** ** ** ** ** *   74   57 ****** *****  813.6 *** *** ***** ***** ***** ***** **
637260 ***** 201506111200 140   2 ***  20 *** * * *  6.2 ** ** ** ** ** ** ** ** *   73   57 ****** ***** ****** *** *** ***** ***** ***** ***** **
637260 ***** 201506140400 090   2 *** 130 *** * * *  6.2 ** ** ** ** ** ** ** ** *   68   59 ****** ***** ****** *** *** ***** ***** ***** ***** **
637260 ***** 201506140500 140   2 *** 130 *** * * *  3.1 05 ** ** ** ** ** ** ** *   64   59 ****** ***** ****** *** *** ***** ***** ***** ***** **
637260 ***** 201506140600 ***   0 *** 128 OVC * * *  0.6 10 ** ** ** ** ** ** ** 4   57   56 ****** *****  816.7 ***  54 ***** *****  0.08 ***** **
637260 ***** 201506140600 140   2 *** 130 *** * * *  1.9 10 ** ** ** ** ** ** ** *   61   59 ****** ***** ****** *** *** ***** ***** ***** ***** **
637260 ***** 201506140700 ***   0 *** 130 *** * * *  0.6 10 ** ** ** ** ** ** ** *   57   57 ****** ***** ****** *** *** ***** ***** ***** ***** **
637260 ***** 201506140800 ***   0 *** 130 *** * * *  0.5 44 ** ** ** ** ** ** ** *   57   57 ****** ***** ****** *** *** ***** ***** ***** ***** **
637260 ***** 201506140900 090   2 *** 128 BKN * * *  6.2 02 ** ** ** ** ** ** ** 4   69   59 ****** *****  816.8 *** *** ***** ***** ***** ***** **
637260 ***** 201506140900 ***   0 *** 130 *** * * *  0.4 44 ** ** ** ** ** ** ** *   55   55 ****** ***** ****** *** *** ***** ***** ***** ***** **
637260 ***** 201506150700 ***   0 *** *** OBS * * *  0.1 44 ** ** ** ** ** ** ** *   59   57 ****** ***** ****** *** *** ***** ***** ***** ***** **
637260 ***** 201506150800 ***   0 *** *** *** * * *  1.5 10 ** ** ** ** ** ** ** *   64   57 ****** ***** ****** *** *** ***** ***** ***** ***** **
637260 ***** 201506150900 230   2 *** *** SCT * * *  6.2 03 ** ** ** ** ** ** ** 1   72   59 ****** *****  816.0 *** *** ***** ***** ***** ***** **
637260 ***** 201506150900 230   2 *** *** *** * * *  6.2 ** ** ** ** ** ** ** ** *   72   59 ****** ***** ****** *** *** ***** ***** ***** ***** **
637260 ***** 201506151000 180   2 *** *** *** * * *  6.2 ** ** ** ** ** ** ** ** *   75   61 ****** ***** ****** *** *** ***** ***** ***** ***** **
637260 ***** 201506151100 230   3 *** *** *** * * *  6.2 ** ** ** ** ** ** ** ** *   77   59 ****** ***** ****** *** *** ***** ***** ***** ***** **
637260 ***** 201506151200 180  15 *** *** SCT * * * 12.5 ** ** ** ** ** ** ** ** *   73   58 ****** *****  813.2 *** *** ***** ***** ***** ***** **
637260 ***** 201506151200 180   3 *** *** *** * * *  6.2 ** ** ** ** ** ** ** ** *   79   59 ****** ***** ****** *** *** ***** ***** ***** ***** **
637260 ***** 201506160400 ***   0 *** *** *** * * *  0.9 10 ** ** ** ** ** ** ** *   55   55 ****** ***** ****** *** *** ***** ***** ***** ***** **
637260 ***** 201506160500 ***   0 *** *** *** * * *  1.2 10 ** ** ** ** ** ** ** *   57   57 ****** ***** ****** *** *** ***** ***** ***** ***** **
637260 ***** 201506160600 ***   0 *** *** SCT * * * 18.8 10 ** ** ** ** ** ** ** 4   60   58 ****** *****  816.0 ***  55 ***** *****  0.43 ***** **
637260 ***** 201506160600 ***   0 *** *** *** * * *  1.9 10 ** ** ** ** ** ** ** *   59   59 ****** ***** ****** *** *** ***** ***** ***** ***** **
637260 ***** 201506160700 ***   0 *** *** *** * * *  1.9 10 ** ** ** ** ** ** ** * **** **** ****** ***** ****** *** *** ***** ***** ***** ***** **
637260 ***** 201506160800 ***   0 *** *** *** * * *  3.1 05 ** ** ** ** ** ** ** *   68   61 ****** ***** ****** *** *** ***** ***** ***** ***** **
637260 ***** 201506160900 ***   0 *** *** SCT * * *  6.2 03 ** ** ** ** ** ** ** 4   74   59 ****** *****  815.6 *** *** ***** ***** ***** ***** **
637260 ***** 201506160900 ***   0 *** *** *** * * *  6.2 ** ** ** ** ** ** ** ** *   75   59 ****** ***** ****** *** *** ***** ***** ***** ***** **
637260 ***** 201506170600 ***   0 *** 128 BKN * * *  1.2 10 ** ** ** ** ** ** ** 4   64   60 ****** *****  815.5 ***  57 ***** ***** ***** ***** **
637260 ***** 201506170700 ***   0 *** 130 *** * * *  6.2 10 ** ** ** ** ** ** ** *   66   61 ****** ***** ****** *** *** ***** ***** ***** ***** **
637260 ***** 201506170800 180   2 *** 130 *** * * *  2.5 10 ** ** ** ** ** ** ** *   66   61 ****** ***** ****** *** *** ***** ***** ***** ***** **
637260 ***** 201506170900 140   2 *** 130 *** * * *  5.0 ** ** ** ** ** ** ** ** *   72   59 ****** ***** ****** *** *** ***** ***** ***** ***** **
637260 ***** 201506171000 ***   0 *** 120 *** * * *  3.8 61 ** ** ** ** ** ** ** *   68   61 ****** ***** ****** *** *** ***** ***** ***** ***** **
637260 ***** 201506171100 ***   0 *** 110 *** * * *  3.8 61 ** ** ** ** ** ** ** *   66   61 ****** ***** ****** *** *** ***** ***** ***** ***** **
637260 ***** 201506171200 320   2 *** 108 BKN * * *  3.8 61 ** ** ** ** ** ** ** 6   67   61 ****** *****  812.8 *** *** *****  0.08 ***** ***** **
637260 ***** 201506171200 320   2 *** 110 *** * * *  3.8 61 ** ** ** ** ** ** ** *   66   61 ****** ***** ****** *** *** ***** ***** ***** ***** **
637260 ***** 201506180400 ***   0 *** 130 *** * * *  1.2 10 ** ** ** ** ** ** ** *   59   59 ****** ***** ****** *** *** ***** ***** ***** ***** **
637260 ***** 201506180500 ***   0 *** 130 *** * * *  1.2 10 ** ** ** ** ** ** ** *   59   59 ****** ***** ****** *** *** ***** ***** ***** ***** **
637260 ***** 201506180600 ***   0 *** 130 *** * * *  1.9 10 ** ** ** ** ** ** ** *   61   59 ****** ***** ****** *** *** ***** ***** ***** ***** **
637260 ***** 201506180700 ***   0 *** 130 *** * * *  3.1 05 ** ** ** ** ** ** ** *   63   59 ****** ***** ****** *** *** ***** ***** ***** ***** **
637260 ***** 201506180800 140   2 *** 130 *** * * *  3.1 05 ** ** ** ** ** ** ** *   64   59 ****** ***** ****** *** *** ***** ***** ***** ***** **
637260 ***** 201506180900 ***   0 *** 128 OVC * * *  4.4 05 ** ** ** ** ** ** ** 4   64   60 ****** *****  816.0 *** *** ***** ***** ***** ***** **
637260 ***** 201506180900 ***   0 *** 130 *** * * *  4.4 ** ** ** ** ** ** ** ** *   64   61 ****** ***** ****** *** *** ***** ***** ***** ***** **
637260 ***** 201506190400 ***   0 *** 130 *** * * *  0.9 10 ** ** ** ** ** ** ** *   59   59 ****** ***** ****** *** *** ***** ***** ***** ***** **
637260 ***** 201506190500 ***   0 *** 130 *** * * *  0.9 10 ** ** ** ** ** ** ** *   61   59 ****** ***** ****** *** *** ***** ***** ***** ***** **
637260 ***** 201506190600 ***   0 *** *** BKN * * *  1.1 01 ** ** ** ** ** ** ** 5   62 **** ****** *****  816.3 *** *** ***** ***** ***** ***** **
637260 ***** 201506190600 ***   0 *** 130 *** * * *  1.1 10 ** ** ** ** ** ** ** *   79   59 ****** ***** ****** *** *** ***** ***** ***** ***** **
637260 ***** 201506190800 ***   0 *** *** *** * * *  3.1 05 ** ** ** ** ** ** ** *   68   61 ****** ***** ****** *** *** ***** ***** ***** ***** **
637260 ***** 201506190900 ***   0 *** 130 *** * * *  3.1 05 ** ** ** ** ** ** ** *   72   59 ****** ***** ****** *** *** ***** ***** ***** ***** **
637260 ***** 201506200400 ***   0 *** 120 *** * * *  0.9 10 ** ** ** ** ** ** ** *   61   59 ****** ***** ****** *** *** ***** ***** ***** ***** **
637260 ***** 201506200500 ***   0 *** *** *** * * *  1.2 10 ** ** ** ** ** ** ** * **** **** ****** ***** ****** *** *** ***** ***** ***** ***** **
637260 ***** 201506200600 ***   0 *** *** SCT * * *  1.9 01 ** ** ** ** ** ** ** 4   65   60 ****** *****  818.0 ***  59 ***** ***** ***** ***** **
637260 ***** 201506200600 ***   0 *** 120 *** * * *  1.9 10 ** ** ** ** ** ** ** *   64   59 ****** ***** ****** *** *** ***** ***** ***** ***** **
637260 ***** 201506210400 ***   0 *** *** OBS * * *  0.1 44 ** ** ** ** ** ** ** *   54   54 ****** ***** ****** *** *** ***** ***** ***** ***** **
637260 ***** 201506210500 ***   0 *** *** OBS * * *  0.1 44 ** ** ** ** ** ** ** *   54   54 ****** ***** ****** *** *** ***** ***** ***** ***** **
637260 ***** 201506210600 ***   0 ***   1 OBS * * *  0.1 47 ** ** ** ** ** ** ** 5   55   53 ****** *****  887.5 ***  54 ***** ***** ***** ***** **
637260 ***** 201506210600 ***   0 *** *** OBS * * *  0.1 44 ** ** ** ** ** ** ** *   55   55 ****** ***** ****** *** *** ***** ***** ***** ***** **
637260 ***** 201506210700 ***   0 *** 130 *** * * *  1.9 10 ** ** ** ** ** ** ** *   59   55 ****** ***** ****** *** *** ***** ***** ***** ***** **
637260 ***** 201506210800 180   2 *** 130 *** * * *  3.1 05 ** ** ** ** ** ** ** *   66   57 ****** ***** ****** *** *** ***** ***** ***** ***** **
637260 ***** 201506210900 140   2 *** 130 *** * * *  5.0 ** ** ** ** ** ** ** ** *   72   57 ****** ***** ****** *** *** ***** ***** ***** ***** **
637260 ***** 201506220100 *** *** *** *** *** * * * **** ** ** ** ** ** ** ** ** * **** **** ****** ***** ****** *** *** ***** ***** ***** ***** **
637260 ***** 201506220400 ***   0 *** *** OBS * * *  0.1 44 ** ** ** ** ** ** ** *   55   55 ****** ***** ****** *** *** ***** ***** ***** ***** **
637260 ***** 201506220600 *** *** *** *** *** * * *  0.1 ** ** ** ** ** ** ** ** * **** **** ****** ***** ****** *** *** ***** ***** ***** ***** **
637260 ***** 201506220700 ***   0 *** 130 *** * * *  0.5 44 ** ** ** ** ** ** ** *   63   57 ****** ***** ****** *** *** ***** ***** ***** ***** **
637260 ***** 201506220800 180   2 *** *** *** * * *  6.2 ** ** ** ** ** ** ** ** *   68   55 ****** ***** ****** *** *** ***** ***** ***** ***** **
637260 ***** 201506220900 230   2 *** *** *** * * *  6.2 ** ** ** ** ** ** ** ** *   70   55 ****** ***** ****** *** *** ***** ***** ***** ***** **
637260 ***** 201506221000 140   2 *** 130 *** * * *  6.2 ** ** ** ** ** ** ** ** *   72   55 ****** ***** ****** *** *** ***** ***** ***** ***** **
637260 ***** 201506221100 160   2 *** 130 *** * * *  6.2 ** ** ** ** ** ** ** ** *   73   55 ****** ***** ****** *** *** ***** ***** ***** ***** **
637260 ***** 201506221200 180   2 *** 128 BKN * * *  7.5 ** ** ** ** ** ** ** ** *   70   57 ****** *****  816.4 *** *** ***** ***** ***** ***** **
637260 ***** 201506221200 180   2 *** 130 *** * * *  6.2 ** ** ** ** ** ** ** ** *   70   57 ****** ***** ****** *** *** ***** ***** ***** ***** **
637260 ***** 201507030400 ***   0 *** *** OBS * * *  0.1 ** ** ** ** ** ** ** ** *   54   54 ****** ***** ****** *** *** ***** ***** ***** ***** **
637260 ***** 201507030500 ***   0 *** *** OBS * * *  0.1 ** ** ** ** ** ** ** ** *   55   55 ****** ***** ****** *** *** ***** ***** ***** ***** **
637260 ***** 201507030600 ***   0 *** *** OBS * * *  0.1 ** ** ** ** ** ** ** ** *   55   55 ****** ***** ****** *** *** ***** ***** ***** ***** **
637260 ***** 201507030700 ***   0 *** 130 *** * * *  1.9 10 ** ** ** ** ** ** ** *   61   57 ****** ***** ****** *** *** ***** ***** ***** ***** **
637260 ***** 201507030800 110   2 *** 130 *** * * *  6.2 ** ** ** ** ** ** ** ** *   64   57 ****** ***** ****** *** *** ***** ***** ***** ***** **
637260 ***** 201507030900 180   2 *** 128 BKN * * *  8.8 02 ** ** ** ** ** ** ** 4   70   57 ****** *****  817.1 *** *** ***** ***** ***** ***** **
637260 ***** 201507030900 180   2 *** 130 *** * * *  6.2 ** ** ** ** ** ** ** ** *   70   57 ****** ***** ****** *** *** ***** ***** ***** ***** **
637260 ***** 201507051000 090   2 *** *** *** * * *  6.2 ** ** ** ** ** ** ** ** *   73   54 ****** ***** ****** *** *** ***** ***** ***** ***** **
637260 ***** 201507051100 180   2 *** 130 *** * * *  6.2 ** ** ** ** ** ** ** ** *   75   54 ****** ***** ****** *** *** ***** ***** ***** ***** **
637260 ***** 201507051200 140   2 *** 128 BKN * * * 12.5 ** ** ** ** ** ** ** ** *   75   53 ****** *****  815.9 *** *** ***** ***** ***** ***** **
637260 ***** 201507051200 140   2 *** 130 *** * * *  6.2 ** ** ** ** ** ** ** ** *   75   54 ****** ***** ****** *** *** ***** ***** ***** ***** **
637260 ***** 201507060700 ***   0 *** *** *** * * *  5.0 ** ** ** ** ** ** ** ** *   59   54 ****** ***** ****** *** *** ***** ***** ***** ***** **
637260 ***** 201507060800 140   2 *** *** *** * * *  6.2 ** ** ** ** ** ** ** ** *   70   52 ****** ***** ****** *** *** ***** ***** ***** ***** **
637260 ***** 201507060900 ***   0 *** *** SCT * * *  1.9 10 ** ** ** ** ** ** ** 4 ****   51 ****** *****  818.6 ***  47 ***** ***** ***** ***** **
637260 ***** 201507060900 090   3 *** *** *** * * *  6.2 ** ** ** ** ** ** ** ** *   72   52 ****** ***** ****** *** *** ***** ***** ***** ***** **
637260 ***** 201507070400 ***   0 *** *** *** * * *  0.2 44 ** ** ** ** ** ** ** *   50   50 ****** ***** ****** *** *** ***** ***** ***** ***** **
637260 ***** 201507070500 ***   0 *** 130 *** * * *  0.5 44 ** ** ** ** ** ** ** *   52   50 ****** ***** ****** *** *** ***** ***** ***** ***** **
637260 ***** 201507070600 ***   0 *** 130 *** * * *  0.6 10 ** ** ** ** ** ** ** *   55   50 ****** ***** ****** *** *** ***** ***** ***** ***** **
637260 ***** 201507080400 ***   0 *** *** *** * * *  0.8 10 ** ** ** ** ** ** ** *   52   52 ****** ***** ****** *** *** ***** ***** ***** ***** **
637260 ***** 201507080500 ***   0 *** *** *** * * *  1.2 10 ** ** ** ** ** ** ** *   54   52 ****** ***** ****** *** *** ***** ***** ***** ***** **
637260 ***** 201507080600 ***   0 *** 128 BKN * * *  1.9 10 ** ** ** ** ** ** ** 4   55   53 ****** *****  817.9 ***  51 ***** ***** ***** ***** **
637260 ***** 201507080600 ***   0 *** 130 *** * * *  1.9 10 ** ** ** ** ** ** ** *   55   54 ****** ***** ****** *** *** ***** ***** ***** ***** **
637260 ***** 201507080700 140   2 *** 130 *** * * *  3.1 05 ** ** ** ** ** ** ** *   59   54 ****** ***** ****** *** *** ***** ***** ***** ***** **
637260 ***** 201507080800 180   3 *** *** *** * * *  6.2 ** ** ** ** ** ** ** ** *   72   52 ****** ***** ****** *** *** ***** ***** ***** ***** **
637260 ***** 201507080900 140   2 *** *** SCT * * * 12.5 02 ** ** ** ** ** ** ** 4   71   53 ****** *****  817.1 *** *** ***** ***** ***** ***** **
637260 ***** 201507080900 140   2 *** *** *** * * *  6.2 ** ** ** ** ** ** ** ** *   72   54 ****** ***** ****** *** *** ***** ***** ***** ***** **
637260 ***** 201507081000 160   3 *** *** *** * * *  6.2 ** ** ** ** ** ** ** ** *   72   54 ****** ***** ****** *** *** ***** ***** ***** ***** **
637260 ***** 201507081100 180   3 *** *** *** * * *  6.2 ** ** ** ** ** ** ** ** *   73   54 ****** ***** ****** *** *** ***** ***** ***** ***** **
637260 ***** 201507081200 090   3 *** *** SCT * * * 13.8 ** ** ** ** ** ** ** ** *   76   54 ****** *****  815.0 *** *** ***** ***** ***** ***** **
637260 ***** 201507081200 090   3 *** *** *** * * *  6.2 ** ** ** ** ** ** ** ** *   75   54 ****** ***** ****** *** *** ***** ***** ***** ***** **
637260 ***** 201507090400 ***   0 *** *** *** * * *  0.9 10 ** ** ** ** ** ** ** *   50   50 ****** ***** ****** *** *** ***** ***** ***** ***** **
637260 ***** 201507090500 ***   0 *** *** *** * * *  0.9 10 ** ** ** ** ** ** ** *   52   50 ****** ***** ****** *** *** ***** ***** ***** ***** **
637260 ***** 201507090600 010  18 *** *** SCT * * *  0.9 10 ** ** ** ** ** ** ** 4 ****   51 ****** *****  817.3 ***  49 ***** ***** ***** ***** **
637260 ***** 201507090600 ***   0 *** *** *** * * *  0.9 10 ** ** ** ** ** ** ** *   54   52 ****** ***** ****** *** *** ***** ***** ***** ***** **
637260 ***** 201507090700 ***   0 *** *** *** * * *  3.1 05 ** ** ** ** ** ** ** *   61   54 ****** ***** ****** *** *** ***** ***** ***** ***** **
637260 ***** 201507090800 140   2 *** *** *** * * *  6.2 ** ** ** ** ** ** ** ** *   70   54 ****** ***** ****** *** *** ***** ***** ***** ***** **
637260 ***** 201507090900 180   2 *** *** SCT * * * 12.5 03 ** ** ** ** ** ** ** 4   74   54 ****** *****  816.4 *** *** ***** ***** ***** ***** **
637260 ***** 201507090900 180   2 *** *** *** * * *  6.2 ** ** ** ** ** ** ** ** *   75   54 ****** ***** ****** *** *** ***** ***** ***** ***** **
637260 ***** 201507130400 ***   0 *** 722 CLR * * *  1.2 10 ** ** ** ** ** ** ** *   48   48 ****** ***** ****** *** *** ***** ***** ***** ***** **
637260 ***** 201507130500 ***   0 *** *** *** * * *  1.2 10 ** ** ** ** ** ** ** *   48   48 ****** ***** ****** *** *** ***** ***** ***** ***** **
637260 ***** 201507130600 ***   0 *** *** SCT * * *  1.2 10 ** ** ** ** ** ** ** 4   50   48 ****** *****  817.3 *** *** ***** ***** ***** ***** **
637260 ***** 201507130600 ***   0 *** *** *** * * *  1.2 10 ** ** ** ** ** ** ** *   50   48 ****** ***** ****** *** *** ***** ***** ***** ***** **
637260 ***** 201507130700 ***   0 *** *** *** * * *  2.5 05 ** ** ** ** ** ** ** *   57   50 ****** ***** ****** *** *** ***** ***** ***** ***** **
637260 ***** 201507130800 140   2 *** 722 CLR * * *  3.8 05 ** ** ** ** ** ** ** *   66   52 ****** ***** ****** *** *** ***** ***** ***** ***** **
637260 ***** 201507130900 ***   0 *** *** SCT * * *  9.4 03 ** ** ** ** ** ** ** 4   73   47 ****** *****  816.7 *** *** ***** ***** ***** ***** **
637260 ***** 201507130900 ***   0 *** *** *** * * *  6.2 ** ** ** ** ** ** ** ** *   73   46 ****** ***** ****** *** *** ***** ***** ***** ***** **
637260 ***** 201507131000 140   2 *** *** *** * * *  6.2 ** ** ** ** ** ** ** ** *   73   46 ****** ***** ****** *** *** ***** ***** ***** ***** **
637260 ***** 201507131100 090   2 *** 130 *** * * *  6.2 ** ** ** ** ** ** ** ** *   75   46 ****** ***** ****** *** *** ***** ***** ***** ***** **
637260 ***** 201507131200 140   3 *** *** SCT * * * 12.5 ** ** ** ** ** ** ** ** *   75   48 ****** *****  814.8 *** *** ***** ***** ***** ***** **
637260 ***** 201507131200 140   3 *** 130 *** * * *  6.2 ** ** ** ** ** ** ** ** *   75   48 ****** ***** ****** *** *** ***** ***** ***** ***** **
637260 ***** 201507140400 ***   0 *** 722 CLR * * *  0.9 10 ** ** ** ** ** ** ** *   52   50 ****** ***** ****** *** *** ***** ***** ***** ***** **
637260 ***** 201507140500 ***   0 *** 722 CLR * * *  1.2 10 ** ** ** ** ** ** ** *   54   50 ****** ***** ****** *** *** ***** ***** ***** ***** **
637260 ***** 201507140600 ***   0 ***   8 OBS * * *  1.2 10 ** ** ** ** ** ** ** 4   55   49 ****** *****  817.2 ***  47 ***** ***** ***** ***** **
637260 ***** 201507140600 ***   0 *** 722 CLR * * *  1.2 10 ** ** ** ** ** ** ** *   55   50 ****** ***** ****** *** *** ***** ***** ***** ***** **
637260 ***** 201507140700 180   2 *** 722 CLR * * *  1.9 10 ** ** ** ** ** ** ** *   57   50 ****** ***** ****** *** *** ***** ***** ***** ***** **
637260 ***** 201507140800 140   2 *** *** *** * * *  3.8 05 ** ** ** ** ** ** ** *   66   50 ****** ***** ****** *** *** ***** ***** ***** ***** **
637260 ***** 201507140900 100  49 *** *** SCT * * *  5.0 05 ** ** ** ** ** ** ** 4   73   50 ****** *****  816.6 *** *** ***** ***** ***** ***** **
637260 ***** 201507140900 140   3 *** *** *** * * *  5.0 10 ** ** ** ** ** ** ** *   73   50 ****** ***** ****** *** *** ***** ***** ***** ***** **
637260 ***** 201507141000 140   3 *** *** *** * * * **** ** ** ** ** ** ** ** ** *   75   50 ****** ***** ****** *** *** ***** ***** ***** ***** **
637260 ***** 201507141100 140   5 *** *** *** * * *  6.2 ** ** ** ** ** ** ** ** *   77   50 ****** ***** ****** *** *** ***** ***** ***** ***** **
637260 ***** 201507141200 140   2 *** *** SCT * * *  9.4 ** ** ** ** ** ** ** ** *   79   49 ****** *****  814.1 *** *** ***** ***** ***** ***** **
637260 ***** 201507141200 140   2 *** *** *** * * *  6.2 ** ** ** ** ** ** ** ** *   79   50 ****** ***** ****** *** *** ***** ***** ***** ***** **
637260 ***** 201507150400 ***   0 *** 722 CLR * * *  1.2 10 ** ** ** ** ** ** ** *   48   48 ****** ***** ****** *** *** ***** ***** ***** ***** **
637260 ***** 201507150500 ***   0 *** 722 CLR * * *  1.6 10 ** ** ** ** ** ** ** *   48   48 ****** ***** ****** *** *** ***** ***** ***** ***** **
637260 ***** 201507150600 ***   0 *** *** *** * * *  1.2 01 ** ** ** ** ** ** ** 4   50   48 ****** *****  816.8 ***  46 ***** ***** ***** ***** **
637260 ***** 201507150600 ***   0 *** 722 CLR * * *  1.6 10 ** ** ** ** ** ** ** *   50   48 ****** ***** ****** *** *** ***** ***** ***** ***** **
637260 ***** 201507150700 140   5 *** 722 CLR * * *  3.1 05 ** ** ** ** ** ** ** *   57   48 ****** ***** ****** *** *** ***** ***** ***** ***** **
637260 ***** 201507150800 180   9 *** *** *** * * *  5.0 ** ** ** ** ** ** ** ** *   64   50 ****** ***** ****** *** *** ***** ***** ***** ***** **
637260 ***** 201507150900 140   3 *** *** SCT * * *  8.8 03 ** ** ** ** ** ** ** 4   72   51 ****** *****  816.9 *** *** ***** ***** ***** ***** **
637260 ***** 201507150900 140   5 *** *** *** * * *  6.2 ** ** ** ** ** ** ** ** *   72   50 ****** ***** ****** *** *** ***** ***** ***** ***** **
637260 ***** 201507151000 090   2 *** *** *** * * *  6.2 ** ** ** ** ** ** ** ** *   73   50 ****** ***** ****** *** *** ***** ***** ***** ***** **
637260 ***** 201507151100 140   2 *** *** *** * * *  6.2 ** ** ** ** ** ** ** ** *   75   50 ****** ***** ****** *** *** ***** ***** ***** ***** **
637260 ***** 201507151200 180   2 *** *** SCT * * * 12.5 ** ** ** ** ** ** ** ** *   76   52 ****** ***** ****** *** *** ***** ***** ***** ***** **
637260 ***** 201507151200 180   2 *** *** *** * * *  6.2 ** ** ** ** ** ** ** ** *   75   50 ****** ***** ****** *** *** ***** ***** ***** ***** **
637260 ***** 201507161000 270   2 *** *** *** * * *  6.2 ** ** ** ** ** ** ** ** *   75   52 ****** ***** ****** *** *** ***** ***** ***** ***** **
637260 ***** 201507161100 360   3 *** *** *** * * *  6.2 ** ** ** ** ** ** ** ** *   77   50 ****** ***** ****** *** *** ***** ***** ***** ***** **
637260 ***** 201507161200 340   3 *** *** SCT * * * 15.6 ** ** ** ** ** ** ** ** *   79   51 ****** *****  814.2 *** *** ***** ***** ***** ***** **
637260 ***** 201507161200 340   3 *** *** *** * * *  6.2 ** ** ** ** ** ** ** ** *   79   50 ****** ***** ****** *** *** ***** ***** ***** ***** **
637260 ***** 201507170400 ***   0 *** *** *** * * *  1.1 10 ** ** ** ** ** ** ** *   50   50 ****** ***** ****** *** *** ***** ***** ***** ***** **
637260 ***** 201507170500 ***   0 *** *** *** * * *  1.2 10 ** ** ** ** ** ** ** *   52   52 ****** ***** ****** *** *** ***** ***** ***** ***** **
637260 ***** 201507170600 ***   0 *** *** SCT * * *  1.2 10 ** ** ** ** ** ** ** 4   55   52 ****** *****  817.3 ***  49 ***** ***** ***** ***** **
637260 ***** 201507170600 ***   0 *** *** *** * * *  1.2 10 ** ** ** ** ** ** ** *   55   52 ****** ***** ****** *** *** ***** ***** ***** ***** **
637260 ***** 201507170700 ***   0 *** *** *** * * *  2.5 05 ** ** ** ** ** ** ** *   61   54 ****** ***** ****** *** *** ***** ***** ***** ***** **
637260 ***** 201507170800 ***   0 *** *** *** * * *  6.2 ** ** ** ** ** ** ** ** *   70   55 ****** ***** ****** *** *** ***** ***** ***** ***** **
637260 ***** 201507170900 090   2 *** *** SCT * * *  6.2 03 ** ** ** ** ** ** ** 4   75   53 ****** *****  816.7 *** *** ***** ***** ***** ***** **
637260 ***** 201507170900 090   3 *** *** *** * * *  6.2 ** ** ** ** ** ** ** ** *   75   54 ****** ***** ****** *** *** ***** ***** ***** ***** **
637260 ***** 201507171000 140   2 *** *** *** * * *  6.2 ** ** ** ** ** ** ** ** *   77   54 ****** ***** ****** *** *** ***** ***** ***** ***** **
637260 ***** 201507171100 160   2 *** *** *** * * *  6.2 ** ** ** ** ** ** ** ** *   79   54 ****** ***** ****** *** *** ***** ***** ***** ***** **
637260 ***** 201507171200 140   1 *** *** SCT * * * 12.5 ** ** ** ** ** ** ** ** *   79   53 ****** *****  814.4 *** *** ***** ***** ***** ***** **
637260 ***** 201507171200 140   1 *** *** *** * * *  6.2 ** ** ** ** ** ** ** ** *   79   54 ****** ***** ****** *** *** ***** ***** ***** ***** **
637260 ***** 201507180600 ***   0 ***   1 OBS * * *  0.1 45 ** ** ** ** ** ** ** 4   53   53 ****** *****  817.8 ***  51 ***** ***** ***** ***** **
637260 ***** 201507180700 ***   0 *** *** *** * * *  0.9 10 ** ** ** ** ** ** ** * **** **** ****** ***** ****** *** *** ***** ***** ***** ***** **
637260 ***** 201507180800 140   2 *** 722 CLR * * *  3.1 05 ** ** ** ** ** ** ** *   66   55 ****** ***** ****** *** *** ***** ***** ***** ***** **
637260 ***** 201507180900 180   2 *** *** SCT * * *  6.2 03 ** ** ** ** ** ** ** 4   75   50 ****** *****  816.4 *** *** ***** ***** ***** ***** **
637260 ***** 201507180900 180   2 *** *** *** * * *  6.2 ** ** ** ** ** ** ** ** *   75   50 ****** ***** ****** *** *** ***** ***** ***** ***** **
637260 ***** 201507181000 100   2 *** *** *** * * *  6.2 ** ** ** ** ** ** ** ** *   77   52 ****** ***** ****** *** *** ***** ***** ***** ***** **
637260 ***** 201507181100 140   2 *** *** *** * * *  6.2 ** ** ** ** ** ** ** ** *   79   52 ****** ***** ****** *** *** ***** ***** ***** ***** **
637260 ***** 201507181200 140   2 *** *** SCT * * * 11.2 ** ** ** ** ** ** ** ** *   80   51 ****** *****  814.4 *** *** ***** ***** ***** ***** **
637260 ***** 201507190400 ***   0 *** *** *** * * *  1.2 10 ** ** ** ** ** ** ** *   52   52 ****** ***** ****** *** *** ***** ***** ***** ***** **
637260 ***** 201507190500 ***   0 *** *** *** * * *  1.2 10 ** ** ** ** ** ** ** *   54   52 ****** ***** ****** *** *** ***** ***** ***** ***** **
637260 ***** 201507190600 ***   0 *** *** SCT * * *  1.9 10 ** ** ** ** ** ** ** 4 **** **** ****** *****  817.0 *** *** ***** ***** ***** ***** **
637260 ***** 201507190600 ***   0 *** *** *** * * *  1.9 10 ** ** ** ** ** ** ** *   55   52 ****** ***** ****** *** *** ***** ***** ***** ***** **
637260 ***** 201507200400 *** *** *** 300 *** * * *  1.9 10 ** ** ** ** ** ** ** *   59   55 ****** ***** ****** *** *** ***** ***** ***** ***** **
637260 ***** 201507200600 ***   0 *** 295 BKN * * *  1.9 10 ** ** ** ** ** ** ** 4   59   55 ****** *****  816.4 ***  55 ***** ***** ***** ***** **
637260 ***** 201507200700 140   2 *** 300 *** * * *  2.5 05 ** ** ** ** ** ** ** *   64   55 ****** ***** ****** *** *** ***** ***** ***** ***** **
637260 ***** 201507200800 140   2 *** 130 *** * * *  5.0 ** ** ** ** ** ** ** ** *   70   55 ****** ***** ****** *** *** ***** ***** ***** ***** **
637260 ***** 201507200900 090   5 *** 128 BKN * * *  6.2 03 ** ** ** ** ** ** ** 4   73   55 ****** *****  816.3 *** *** ***** ***** ***** ***** **
637260 ***** 201507200900 090   5 *** 130 *** * * *  6.2 ** ** ** ** ** ** ** ** *   73   55 ****** ***** ****** *** *** ***** ***** ***** ***** **
637260 ***** 201507210600 ***   0 *** *** *** * * *  1.2 10 ** ** ** ** ** ** ** 4   59   56 ****** *****  816.7 ***  55 ***** ***** ***** ***** **
637260 ***** 201507210700 ***   0 *** *** *** * * *  3.8 05 ** ** ** ** ** ** ** *   66   55 ****** ***** ****** *** *** ***** ***** ***** ***** **
637260 ***** 201507210800 230   2 *** *** *** * * *  5.0 ** ** ** ** ** ** ** ** *   70   54 ****** ***** ****** *** *** ***** ***** ***** ***** **
637260 ***** 201507210900 140   2 *** *** SCT * * *  6.2 03 ** ** ** ** ** ** ** 4   73   53 ****** *****  816.3 *** *** ***** ***** ***** ***** **
637260 ***** 201507210900 140   2 *** *** *** * * *  6.2 ** ** ** ** ** ** ** ** *   73   54 ****** ***** ****** *** *** ***** ***** ***** ***** **
637260 ***** 201507211000 090   2 *** *** *** * * *  6.2 ** ** ** ** ** ** ** ** *   75   55 ****** ***** ****** *** *** ***** ***** ***** ***** **
637260 ***** 201507211100 160   2 *** *** *** * * *  6.2 ** ** ** ** ** ** ** ** *   77   54 ****** ***** ****** *** *** ***** ***** ***** ***** **
637260 ***** 201507211200 140   2 *** *** SCT * * *  8.8 ** ** ** ** ** ** ** ** *   78   53 ****** *****  813.9 *** *** ***** ***** ***** ***** **
637260 ***** 201507211200 140   2 *** *** *** * * *  6.2 ** ** ** ** ** ** ** ** *   79   54 ****** ***** ****** *** *** ***** ***** ***** ***** **
