  USAF  WBAN YR--MODAHRMN DIR SPD GUS CLG SKC L M H  VSB MW MW MW MW AW AW AW AW W TEMP DEWP    SLP   ALT    STP MAX MIN PCP01 PCP06 PCP24 PCPXX SD
655480 ***** 201505170000 *** *** *** *** SCT * * *  6.2 17 ** ** ** ** ** ** ** 9   78   73 ****** ***** ****** *** *** *****  0.31 ***** ***** **
655480 ***** 201507220900 220   2 ***  12 OVC * * *  3.8 61 ** ** ** ** ** ** ** 6   71   71 1018.5 *****  979.2 *** *** ***** ***** ***** ***** **
655480 ***** 201507221000 220   5 ***  12 *** * * *  2.5 63 ** ** ** ** ** ** ** *   72   72 ****** 30.06 ****** *** *** ***** ***** ***** ***** **
655480 ***** 201507221100 220   7 ***  12 *** * * *  3.8 63 ** ** ** ** ** ** ** *   73   72 ****** 30.06 ****** *** *** ***** ***** ***** ***** **
655480 ***** 201507221300 220   7 ***  13 *** * * *  5.0 ** ** ** ** ** ** ** ** *   77   72 ****** 30.03 ****** *** *** ***** ***** ***** ***** **
655480 ***** 201507221400 220   5 *** *** *** * * *  6.2 ** ** ** ** ** ** ** ** *   77   72 ****** 30.00 ****** *** *** ***** ***** ***** ***** **
655480 ***** 201507221500 220   7 ***  98 BKN * * *  6.2 01 ** ** ** ** ** ** ** 6   80   72 1015.8 *****  976.6 *** *** ***** ***** ***** ***** **
655480 ***** 201507221600 220   7 *** *** *** * * *  6.2 ** ** ** ** ** ** ** ** *   79   70 ****** 29.97 ****** *** *** ***** ***** ***** ***** **
655480 ***** 201507221700 220   5 *** 100 *** * * *  6.2 ** ** ** ** ** ** ** ** *   79   72 ****** 29.97 ****** *** *** ***** ***** ***** ***** **
655480 ***** 201507221800 220   5 ***  98 BKN * * *  6.2 01 ** ** ** ** ** ** ** 6   77   72 1013.1 *****  976.1 *** *** ***** ***** *****  0.75 **
655480 ***** 201507222100 220   2 ***  16 BKN * * *  6.2 13 ** ** ** ** ** ** ** 2   74   73 1015.5 *****  978.3 *** *** ***** ***** ***** ***** **
655480 ***** 201507230000 *** *** *** *** *** * * * **** ** ** ** ** ** ** ** ** * **** **** ****** ***** ****** *** *** ***** ***** ***** ***** **
655480 ***** 201507230300 220   5 ***  13 BKN * * *  5.0 ** ** ** ** ** ** ** ** *   71   70 1014.6 *****  977.2 *** *** ***** ***** ***** ***** **
655480 ***** 201507230600 200   5 ***  12 OVC * * *  3.8 51 ** ** ** ** ** ** ** 5   71   70 1014.9 *****  977.5 ***  70 ***** *****  0.91 ***** **
655480 ***** 201507230700 200   3 ***   6 *** * * *  3.8 ** ** ** ** ** ** ** ** *   72   70 ****** 30.03 ****** *** *** ***** ***** ***** ***** **
655480 ***** 201507230900 200   7 ***   6 OVC * * *  3.8 ** ** ** ** ** ** ** ** *   73   70 1016.5 *****  979.2 *** *** ***** ***** ***** ***** **
655480 ***** 201507231000 200   7 ***  12 *** * * *  4.4 ** ** ** ** ** ** ** ** *   73   72 ****** 30.06 ****** *** *** ***** ***** ***** ***** **
655480 ***** 201507231200 200   7 ***  13 OVC * * *  3.8 60 ** ** ** ** ** ** ** 6   75   71 1016.1 *****  978.8 *** *** *****  0.04 ***** ***** **
655480 ***** 201507231300 160   5 ***  13 *** * * *  3.8 53 ** ** ** ** ** ** ** *   75   72 ****** 30.03 ****** *** *** ***** ***** ***** ***** **
655480 ***** 201507231400 990   2 ***  13 *** * * *  6.2 ** ** ** ** ** ** ** ** *   79   72 ****** 29.94 ****** *** *** ***** ***** ***** ***** **
655480 ***** 201507231500 220   7 ***  13 BKN * * *  5.0 60 ** ** ** ** ** ** ** 6   75   71 1014.7 *****  977.6 *** *** ***** ***** ***** ***** **
655480 ***** 201507231700 ***   0 ***  13 *** * * *  6.2 ** ** ** ** ** ** ** ** *   77   72 ****** 29.91 ****** *** *** ***** ***** ***** ***** **
655480 ***** 201507231800 200   5 ***  13 BKN * * *  6.2 02 ** ** ** ** ** ** ** 6   77   72 1013.2 *****  976.3  80 *** ***** ***** *****  0.08 **
655480 ***** 201507232100 ***   0 ***  13 BKN * * *  5.0 ** ** ** ** ** ** ** ** *   74   72 1015.3 *****  978.0 *** *** ***** ***** ***** ***** **
655480 ***** 201507240800 200   5 ***   6 *** * * *  5.0 ** ** ** ** ** ** ** ** *   70   70 ****** 30.00 ****** *** *** ***** ***** ***** ***** **
655480 ***** 201507240900 220   5 ***   6 OVC * * *  5.0 ** ** ** ** ** ** ** ** *   71   68 1016.6 *****  979.1 *** *** ***** ***** ***** ***** **
655480 ***** 201507241000 200   7 ***   6 *** * * *  6.2 ** ** ** ** ** ** ** ** *   70   70 ****** 30.00 ****** *** *** ***** ***** ***** ***** **
655480 ***** 201507241100 180  11 ***  13 *** * * *  6.2 ** ** ** ** ** ** ** ** *   75   70 ****** 30.00 ****** *** *** ***** ***** ***** ***** **
655480 ***** 201507241200 ***   0 ***  13 BKN * * *  6.2 ** ** ** ** ** ** ** ** *   76   69 1016.0 *****  978.9 *** *** ***** ***** ***** ***** **
655480 ***** 201507241300 200   5 ***  13 *** * * *  6.2 ** ** ** ** ** ** ** ** *   75   72 ****** 29.97 ****** *** *** ***** ***** ***** ***** **
655480 ***** 201507241400 200   5 ***  13 *** * * *  6.2 ** ** ** ** ** ** ** ** *   77   70 ****** 30.00 ****** *** *** ***** ***** ***** ***** **
655480 ***** 201507241500 200   7 ***  13 BKN * * *  6.2 ** ** ** ** ** ** ** ** *   78   71 1015.0 *****  976.4 *** *** ***** ***** ***** ***** **
655480 ***** 201507241600 220  11 *** 100 *** * * *  6.2 ** ** ** ** ** ** ** ** *   79   72 ****** 29.97 ****** *** *** ***** ***** ***** ***** **
655480 ***** 201507241700 200   7 *** 100 *** * * *  6.2 ** ** ** ** ** ** ** ** *   79   72 ****** 29.94 ****** *** *** ***** ***** ***** ***** **
655480 ***** 201507241800 200   5 *** *** SCT * * *  6.2 ** ** ** ** ** ** ** ** *   78   71 1012.4 *****  975.5  80 *** ***** ***** ***** ***** **
655480 ***** 201507242100 ***   0 *** *** SCT * * *  6.2 ** ** ** ** ** ** ** ** *   72   71 1014.7 *****  977.4 *** *** ***** ***** ***** ***** **
655480 ***** 201507250000 ***   0 *** *** SCT * * *  6.2 ** ** ** ** ** ** ** ** *   72   71 1015.8 *****  978.4 *** *** ***** ***** ***** ***** **
655480 ***** 201507250300 ***   0 ***  13 BKN * * *  6.2 ** ** ** ** ** ** ** ** *   72   71 1013.6 *****  976.3 *** *** ***** ***** ***** ***** **
655480 ***** 201507250600 200   7 ***  13 BKN * * *  6.2 ** ** ** ** ** ** ** ** *   72   71 1013.9 *****  977.0 ***  71 ***** ***** ***** ***** **
655480 ***** 201507250700 200   5 ***   6 *** * * *  6.2 ** ** ** ** ** ** ** ** *   72   70 ****** 29.94 ****** *** *** ***** ***** ***** ***** **
655480 ***** 201507250800 220   5 ***   6 *** * * *  3.8 ** ** ** ** ** ** ** ** *   72   72 ****** 29.91 ****** *** *** ***** ***** ***** ***** **
655480 ***** 201507250900 200   5 ***   6 OVC * * *  1.2 10 ** ** ** ** ** ** ** 5   72   71 1015.0 *****  978.5 *** *** ***** ***** ***** ***** **
655480 ***** 201507251000 200   5 ***  13 *** * * *  1.2 53 ** ** ** ** ** ** ** *   73   72 ****** 29.97 ****** *** *** ***** ***** ***** ***** **
655480 ***** 201507251100 200   7 ***   6 *** * * *  2.5 53 ** ** ** ** ** ** ** *   73   72 ****** 30.00 ****** *** *** ***** ***** ***** ***** **
655480 ***** 201507251200 200   7 ***  98 OVC * * *  1.9 51 ** ** ** ** ** ** ** 5   74   72 1015.9 *****  978.2 *** *** *****  0.04 ***** ***** **
655480 ***** 201507251300 180   7 ***  13 *** * * *  3.8 ** ** ** ** ** ** ** ** *   77   73 ****** 29.97 ****** *** *** ***** ***** ***** ***** **
655480 ***** 201507251400 220   7 ***  13 *** * * *  6.2 ** ** ** ** ** ** ** ** *   79   72 ****** 29.97 ****** *** *** ***** ***** ***** ***** **
655480 ***** 201507251500 180   5 *** *** BKN * * *  6.2 01 ** ** ** ** ** ** ** 5   80   72 1012.8 *****  976.1 *** *** ***** ***** ***** ***** **
655480 ***** 201507251600 180   3 ***  13 *** * * *  6.2 ** ** ** ** ** ** ** ** *   81   72 ****** 29.94 ****** *** *** ***** ***** ***** ***** **
655480 ***** 201507251700 040   5 ***  13 *** * * *  5.0 ** ** ** ** ** ** ** ** *   77   72 ****** 29.94 ****** *** *** ***** ***** ***** ***** **
655480 ***** 201507251800 040   2 ***  16 BKN * * *  5.0 ** ** ** ** ** ** ** ** *   76   73 1012.9 *****  976.0  81 *** ***** ***** *****  0.04 **
655480 ***** 201507252100 ***   0 ***  12 BKN * * *  5.0 13 ** ** ** ** ** ** ** 2   72   70 1015.2 *****  977.8 *** *** ***** ***** ***** ***** **
655480 ***** 201507260000 220   2 ***  12 OVC * * *  3.8 19 ** ** ** ** ** ** ** 9   72   71 1015.9 *****  978.5 *** *** *****  0.02 ***** ***** **
655480 ***** 201507260300 200   2 ***  13 OVC * * *  5.0 61 ** ** ** ** ** ** ** 9   71   70 1015.0 *****  977.3 *** *** ***** ***** ***** ***** **
655480 ***** 201507260500 220   5 ***  12 *** * * *  5.0 61 ** ** ** ** ** ** ** *   70   70 ****** 30.00 ****** *** *** ***** ***** ***** ***** **
655480 ***** 201507260600 220   2 ***  12 OVC * * *  6.2 60 ** ** ** ** ** ** ** 9   71   70 1015.3 *****  977.9 ***  70 ***** *****  1.06 ***** **
655480 ***** 201507260700 220   2 ***  12 *** * * *  5.0 ** ** ** ** ** ** ** ** *   70   70 ****** 30.03 ****** *** *** ***** ***** ***** ***** **
655480 ***** 201507260800 200   2 ***  12 *** * * *  3.1 53 ** ** ** ** ** ** ** *   72   72 ****** 30.06 ****** *** *** ***** ***** ***** ***** **
655480 ***** 201507260900 160   7 ***  12 OVC * * *  3.1 50 ** ** ** ** ** ** ** 5   71   70 1017.2 *****  979.7 *** *** ***** ***** ***** ***** **
655480 ***** 201507261200 220   2 ***  12 BKN * * *  5.0 21 ** ** ** ** ** ** ** 5   74   72 1016.4 *****  979.2 *** *** *****  0.08 ***** ***** **
655480 ***** 201507261400 200   5 ***  12 *** * * *  5.0 63 ** ** ** ** ** ** ** *   77   72 ****** 30.00 ****** *** *** ***** ***** ***** ***** **
655480 ***** 201507261500 220   2 ***  12 BKN * * *  5.0 61 ** ** ** ** ** ** ** 6   78   71 1013.4 *****  976.4 *** *** ***** ***** ***** ***** **
655480 ***** 201507261600 200   7 ***  16 *** * * *  6.2 ** ** ** ** ** ** ** ** *   81   72 ****** 29.97 ****** *** *** ***** ***** ***** ***** **
655480 ***** 201507270800 ***   0 ***  12 *** * * *  5.0 ** ** ** ** ** ** ** ** *   70   70 ****** 30.06 ****** *** *** ***** ***** ***** ***** **
655480 ***** 201507270900 220   7 ***  12 BKN * * *  6.2 02 ** ** ** ** ** ** ** 5   73   70 1016.4 *****  979.0 *** *** ***** ***** ***** ***** **
655480 ***** 201507271200 220   5 ***  13 BKN * * *  6.2 ** ** ** ** ** ** ** ** *   77   70 1015.6 *****  978.5 *** *** ***** ***** ***** ***** **
655480 ***** 201507271400 220   5 ***  13 *** * * *  6.2 ** ** ** ** ** ** ** ** *   79   72 ****** 29.97 ****** *** *** ***** ***** ***** ***** **
655480 ***** 201507271500 220   5 ***  13 BKN * * *  6.2 ** ** ** ** ** ** ** ** *   78   71 1013.1 *****  976.3 *** *** ***** ***** ***** ***** **
655480 ***** 201507271700 200   9 *** *** *** * * *  6.2 ** ** ** ** ** ** ** ** *   79   70 ****** 29.94 ****** *** *** ***** ***** ***** ***** **
655480 ***** 201507271800 200   5 ***  98 BKN * * *  6.2 ** ** ** ** ** ** ** ** *   77   71 1012.8 *****  975.9  82 *** ***** ***** ***** ***** **
655480 ***** 201507280000 ***   0 ***  98 BKN * * *  6.2 ** ** ** ** ** ** ** ** *   73   72 1015.4 *****  978.2 *** *** ***** ***** ***** ***** **
655480 ***** 201507280300 240   7 ***  13 OVC * * *  6.2 ** ** ** ** ** ** ** ** *   71   68 1014.3 *****  976.9 *** *** ***** ***** ***** ***** **
655480 ***** 201507280600 220   5 ***  13 BKN * * *  3.8 61 ** ** ** ** ** ** ** 6   69   68 1014.9 *****  977.4 ***  69 ***** *****  0.02 ***** **
655480 ***** 201507280900 220   7 ***  13 BKN * * *  5.0 01 ** ** ** ** ** ** ** 6   72   69 1016.5 *****  979.1 *** *** ***** ***** ***** ***** **
655480 ***** 201507281000 220   7 ***  13 *** * * *  6.2 ** ** ** ** ** ** ** ** *   73   68 ****** 30.06 ****** *** *** ***** ***** ***** ***** **
655480 ***** 201507281100 220   7 ***  13 *** * * *  6.2 ** ** ** ** ** ** ** ** *   75   68 ****** 30.06 ****** *** *** ***** ***** ***** ***** **
655480 ***** 201507281200 *** *** *** *** *** * * * **** ** ** ** ** ** ** ** ** * **** **** ****** ***** ****** *** *** ***** ***** ***** ***** **
655480 ***** 201507281500 200   5 ***  13 BKN * * *  5.0 60 ** ** ** ** ** ** ** 6   76   69 1014.0 ***** ****** *** *** ***** ***** ***** ***** **
655480 ***** 201507281600 220   5 ***  13 *** * * *  6.2 ** ** ** ** ** ** ** ** *   77   70 ****** 29.94 ****** *** *** ***** ***** ***** ***** **
655480 ***** 201507281700 220   5 ***  16 *** * * *  6.2 ** ** ** ** ** ** ** ** *   77   70 ****** 29.88 ****** *** *** ***** ***** ***** ***** **
655480 ***** 201507281800 220   2 ***  98 BKN * * *  6.2 03 ** ** ** ** ** ** ** 6   76   70 1013.4 *****  976.4  78 *** ***** ***** *****  0.00T**
655480 ***** 201507290000 ***   0 ***  98 BKN * * *  5.0 ** ** ** ** ** ** ** ** *   72   71 1015.9 *****  978.6 *** *** ***** ***** ***** ***** **
655480 ***** 201507290300 200   7 ***  98 BKN * * *  5.0 ** ** ** ** ** ** ** ** *   71   69 1014.6 *****  977.2 *** *** ***** ***** ***** ***** **
655480 ***** 201507290800 990   2 ***  12 *** * * *  5.0 ** ** ** ** ** ** ** ** *   70   68 ****** 30.03 ****** *** *** ***** ***** ***** ***** **
655480 ***** 201507290900 180   5 ***  12 OVC * * *  5.0 ** ** ** ** ** ** ** ** *   71   68 1018.1 *****  980.5 *** *** ***** ***** ***** ***** **
655480 ***** 201507291000 220   7 ***  15 *** * * *  6.2 ** ** ** ** ** ** ** ** *   75   72 ****** 30.09 ****** *** *** ***** ***** ***** ***** **
655480 ***** 201507291100 220   5 ***  15 *** * * *  6.2 ** ** ** ** ** ** ** ** *   75   68 ****** 30.03 ****** *** *** ***** ***** ***** ***** **
655480 ***** 201507291200 220   5 ***  15 BKN * * *  6.2 ** ** ** ** ** ** ** ** *   76   69 1017.1 ***** ****** *** *** ***** ***** ***** ***** **
655480 ***** 201507291300 240   5 ***  15 *** * * *  6.2 ** ** ** ** ** ** ** ** *   77   66 ****** 30.00 ****** *** *** ***** ***** ***** ***** **
655480 ***** 201507291400 270   5 ***  15 *** * * *  6.2 ** ** ** ** ** ** ** ** *   81   68 ****** 30.03 ****** *** *** ***** ***** ***** ***** **
655480 ***** 201507291500 200   5 ***  15 BKN * * *  6.2 ** ** ** ** ** ** ** ** *   81   69 1013.9 *****  977.2 *** *** ***** ***** ***** ***** **
655480 ***** 201507291600 200   5 ***  15 *** * * *  6.2 ** ** ** ** ** ** ** ** *   81   70 ****** 29.97 ****** *** *** ***** ***** ***** ***** **
655480 ***** 201507291700 200   7 ***  15 *** * * *  6.2 ** ** ** ** ** ** ** ** *   82   70 ****** 29.97 ****** *** *** ***** ***** ***** ***** **
655480 ***** 201507291800 270   5 ***  15 BKN * * *  6.2 ** ** ** ** ** ** ** ** *   81   69 1013.4 *****  976.8  83 *** ***** ***** ***** ***** **
655480 ***** 201507291900 270   2 ***  15 *** * * *  6.2 ** ** ** ** ** ** ** ** *   77   70 ****** 30.00 ****** *** *** ***** ***** ***** ***** **
655480 ***** 201507292100 ***   0 *** *** SCT * * *  6.2 ** ** ** ** ** ** ** ** *   71   69 1015.8 *****  978.3 *** *** ***** ***** ***** ***** **
655480 ***** 201507300000 ***   0 *** *** SCT * * *  6.2 ** ** ** ** ** ** ** ** *   69   66 1017.0 *****  979.3 *** *** ***** ***** ***** ***** **
655480 ***** 201507300300 220   5 *** *** SCT * * *  6.2 ** ** ** ** ** ** ** ** *   68   66 1015.8 ***** ****** *** *** ***** ***** ***** ***** **
655480 ***** 201507300500 220   5 *** *** *** * * *  6.2 ** ** ** ** ** ** ** ** *   70   68 ****** 29.97 ****** *** *** ***** ***** ***** ***** **
655480 ***** 201507300600 220   5 ***  13 BKN * * *  6.2 ** ** ** ** ** ** ** ** *   70   67 1016.3 *****  978.8 ***  66 ***** ***** ***** ***** **
655480 ***** 201507300700 220   5 ***  12 *** * * *  6.2 ** ** ** ** ** ** ** ** *   70   68 ****** 29.94 ****** *** *** ***** ***** ***** ***** **
655480 ***** 201507300800 220   5 ***  13 *** * * *  6.2 ** ** ** ** ** ** ** ** *   70   68 ****** 30.09 ****** *** *** ***** ***** ***** ***** **
655480 ***** 201507300900 220   5 ***  13 BKN * * *  6.2 ** ** ** ** ** ** ** ** *   72   68 1017.7 *****  980.2 *** *** ***** ***** ***** ***** **
655480 ***** 201507301000 200   7 ***  13 *** * * *  6.2 ** ** ** ** ** ** ** ** *   73   68 ****** 30.09 ****** *** *** ***** ***** ***** ***** **
655480 ***** 201507301100 220   7 ***  13 *** * * *  6.2 ** ** ** ** ** ** ** ** *   75   68 ****** 30.09 ****** *** *** ***** ***** ***** ***** **
655480 ***** 201507301200 220   7 *** *** BKN * * *  6.2 ** ** ** ** ** ** ** ** *   76   68 ****** *****  980.0 *** *** ***** ***** ***** ***** **
655480 ***** 201507301300 240   7 ***  15 *** * * *  6.2 ** ** ** ** ** ** ** ** *   79   68 ****** 30.06 ****** *** *** ***** ***** ***** ***** **
655480 ***** 201507301400 200   7 *** 100 *** * * *  6.2 ** ** ** ** ** ** ** ** *   81   68 ****** 30.03 ****** *** *** ***** ***** ***** ***** **
655480 ***** 201507301500 200   5 ***  98 BKN * * *  6.2 ** ** ** ** ** ** ** ** *   80   69 1014.6 *****  977.8 *** *** ***** ***** ***** ***** **
655480 ***** 201507301600 200   7 *** 100 *** * * *  6.2 ** ** ** ** ** ** ** ** *   81   68 ****** 29.94 ****** *** *** ***** ***** ***** ***** **
655480 ***** 201507301700 220   7 *** *** *** * * *  6.2 ** ** ** ** ** ** ** ** *   79   68 ****** 30.00 ****** *** *** ***** ***** ***** ***** **
655480 ***** 201507301800 220   5 ***  13 BKN * * *  6.2 ** ** ** ** ** ** ** ** *   78   70 1013.9 *****  977.0  81 *** ***** ***** ***** ***** **
655480 ***** 201507301900 200   5 ***  15 *** * * *  6.2 ** ** ** ** ** ** ** ** *   75   70 ****** 30.00 ****** *** *** ***** ***** ***** ***** **
655480 ***** 201507302100 180   2 *** *** SCT * * *  6.2 13 ** ** ** ** ** ** ** 1   70   69 1015.5 *****  978.0 *** *** ***** ***** ***** ***** **
655480 ***** 201507310000 ***   0 *** *** SCT * * *  6.2 ** ** ** ** ** ** ** ** *   69   67 1016.1 *****  988.5 *** *** ***** ***** ***** ***** **
655480 ***** 201507310600 220   7 ***  13 BKN * * *  6.2 ** ** ** ** ** ** ** ** *   69   68 1015.3 *****  977.7 ***  67 ***** ***** ***** ***** **
655480 ***** 201507310700 220   5 ***   6 *** * * *  6.2 ** ** ** ** ** ** ** ** *   70   68 ****** 30.03 ****** *** *** ***** ***** ***** ***** **
655480 ***** 201507310800 280   5 ***  13 *** * * *  5.0 ** ** ** ** ** ** ** ** *   70   68 ****** 30.06 ****** *** *** ***** ***** ***** ***** **
655480 ***** 201507310900 220   5 ***  13 BKN * * *  6.2 ** ** ** ** ** ** ** ** *   73   68 1017.0 *****  979.2 *** *** ***** ***** ***** ***** **
655480 ***** 201507311000 240   7 ***  15 *** * * *  6.2 ** ** ** ** ** ** ** ** *   75   68 ****** 30.06 ****** *** *** ***** ***** ***** ***** **
655480 ***** 201507311100 270   9 ***  15 *** * * *  6.2 ** ** ** ** ** ** ** ** *   77   68 ****** 30.06 ****** *** *** ***** ***** ***** ***** **
655480 ***** 201507311200 250   7 ***  15 BKN * * *  6.2 ** ** ** ** ** ** ** ** *   78   67 1015.8 ***** ****** *** *** ***** ***** ***** ***** **
655480 ***** 201507311300 220   7 ***  15 *** * * *  6.2 ** ** ** ** ** ** ** ** *   81   68 ****** 30.03 ****** *** *** ***** ***** ***** ***** **
655480 ***** 201507311400 250   9 ***  15 *** * * *  6.2 ** ** ** ** ** ** ** ** *   81   68 ****** 30.00 ****** *** *** ***** ***** ***** ***** **
655480 ***** 201507311500 220   7 ***  98 BKN * * *  6.2 ** ** ** ** ** ** ** ** *   80   69 1013.6 *****  976.8 *** *** ***** ***** ***** ***** **
655480 ***** 201507311600 220   7 *** 100 *** * * *  6.2 ** ** ** ** ** ** ** ** *   79   70 ****** 29.97 ****** *** *** ***** ***** ***** ***** **
655480 ***** 201507311700 220   7 *** *** *** * * *  6.2 ** ** ** ** ** ** ** ** *   79   70 ****** 29.97 ****** *** *** ***** ***** ***** ***** **
655480 ***** 201507311800 220   5 *** *** SCT * * *  6.2 ** ** ** ** ** ** ** ** *   79   70 1012.7 *****  975.9  81 *** ***** ***** ***** ***** **
655480 ***** 201507312100 200   2 *** *** SCT * * *  6.2 ** ** ** ** ** ** ** ** *   71   70 1014.3 *****  977.0 *** *** ***** ***** ***** ***** **
655480 ***** 201508010000 ***   0 *** *** SCT * * *  5.0 ** ** ** ** ** ** ** ** *   69   68 1015.2 *****  977.6 *** *** ***** ***** ***** ***** **
655480 ***** 201508010300 220   2 ***  13 BKN * * *  5.0 ** ** ** ** ** ** ** ** *   69   68 1014.1 *****  976.6 *** *** ***** ***** ***** ***** **
655480 ***** 201508010400 220   5 ***  13 *** * * *  5.0 ** ** ** ** ** ** ** ** *   70   70 ****** 29.97 ****** *** *** ***** ***** ***** ***** **
655480 ***** 201508010600 220   5 ***  13 BKN * * *  5.0 ** ** ** ** ** ** ** ** *   70   69 1014.3 *****  973.9 ***  67 ***** ***** ***** ***** **
655480 ***** 201508010700 220   5 ***  13 *** * * *  5.0 ** ** ** ** ** ** ** ** *   72   70 ****** 29.91 ****** *** *** ***** ***** ***** ***** **
655480 ***** 201508010900 200   5 ***  13 BKN * * *  5.0 ** ** ** ** ** ** ** ** *   73   70 1016.1 *****  978.8 *** *** ***** ***** ***** ***** **
655480 ***** 201508011000 240   5 ***  13 *** * * *  6.2 ** ** ** ** ** ** ** ** *   75   70 ****** 30.06 ****** *** *** ***** ***** ***** ***** **
655480 ***** 201508011100 240   5 ***  13 *** * * *  6.2 ** ** ** ** ** ** ** ** *   77   70 ****** 30.06 ****** *** *** ***** ***** ***** ***** **
655480 ***** 201508011200 220  11 ***  15 BKN * * *  6.2 ** ** ** ** ** ** ** ** *   79   79 1015.0 *****  978.1 *** *** ***** ***** ***** ***** **
655480 ***** 201508011300 240   7 *** 100 *** * * *  6.2 ** ** ** ** ** ** ** ** *   79   70 ****** 30.00 ****** *** *** ***** ***** ***** ***** **
655480 ***** 201508011500 220   5 ***  98 BKN * * *  6.2 ** ** ** ** ** ** ** ** *   83   69 1012.5 *****  976.0 *** *** ***** ***** ***** ***** **
655480 ***** 201508011700 220   7 *** 100 *** * * *  6.2 ** ** ** ** ** ** ** ** *   82   72 ****** 29.85 ****** *** *** ***** ***** ***** ***** **
655480 ***** 201508011800 240   2 *** *** SCT * * *  6.2 ** ** ** ** ** ** ** ** *   81   70 1011.6 *****  975.0  84 *** ***** ***** ***** ***** **
655480 ***** 201508020800 ***   0 ***  11 *** * * *  5.0 ** ** ** ** ** ** ** ** *   70   70 ****** 30.00 ****** *** *** ***** ***** ***** ***** **
655480 ***** 201508020900 240   5 ***  11 OVC * * *  5.0 ** ** ** ** ** ** ** ** *   73   70 1015.0 *****  977.7 *** *** ***** ***** ***** ***** **
655480 ***** 201508021000 220   5 ***  13 *** * * *  6.2 ** ** ** ** ** ** ** ** *   77   72 ****** 29.97 ****** *** *** ***** ***** ***** ***** **
655480 ***** 201508021200 ***   0 *** *** SCT * * *  6.2 ** ** ** ** ** ** ** ** *   82   70 1014.4 *****  977.8 *** *** ***** ***** ***** ***** **
655480 ***** 201508021300 200   5 ***  15 *** * * *  6.2 ** ** ** ** ** ** ** ** *   84   72 ****** 29.91 ****** *** *** ***** ***** ***** ***** **
655480 ***** 201508021400 240   5 ***  15 *** * * *  6.2 ** ** ** ** ** ** ** ** *   84   72 ****** 29.97 ****** *** *** ***** ***** ***** ***** **
655480 ***** 201508021500 180   7 ***  15 BKN * * *  6.2 ** ** ** ** ** ** ** ** *   85   71 1011.9 *****  975.5 *** *** ***** ***** ***** ***** **
655480 ***** 201508021600 180   7 ***  15 *** * * *  6.2 ** ** ** ** ** ** ** ** *   84   72 ****** 29.91 ****** *** *** ***** ***** ***** ***** **
655480 ***** 201508021700 200   7 ***  15 *** * * *  6.2 ** ** ** ** ** ** ** ** *   82   72 ****** 29.91 ****** *** *** ***** ***** ***** ***** **
655480 ***** 201508021800 200   5 ***  16 BKN * * *  6.2 ** ** ** ** ** ** ** ** *   82   73 1011.1 *****  974.6  87 *** ***** ***** ***** ***** **
655480 ***** 201508030900 340   2 ***  12 OVC * * *  3.1 61 ** ** ** ** ** ** ** 6   73   72 1016.0 *****  978.7 *** *** ***** ***** ***** ***** **
655480 ***** 201508031000 200   5 ***  12 *** * * *  5.0 ** ** ** ** ** ** ** ** *   75   73 ****** 30.03 ****** *** *** ***** ***** ***** ***** **
655480 ***** 201508031100 200   9 ***  12 *** * * *  5.0 ** ** ** ** ** ** ** ** *   77   73 ****** 30.06 ****** *** *** ***** ***** ***** ***** **
655480 ***** 201508031200 220   7 ***  13 BKN * * *  6.2 03 ** ** ** ** ** ** ** 6   79   73 1015.3 *****  978.5 *** *** *****  0.91 ***** ***** **
655480 ***** 201508031300 200   7 ***  13 *** * * *  6.2 ** ** ** ** ** ** ** ** *   81   73 ****** 30.00 ****** *** *** ***** ***** ***** ***** **
655480 ***** 201508031400 200   9 ***  13 *** * * *  6.2 ** ** ** ** ** ** ** ** *   77   72 ****** 30.00 ****** *** *** ***** ***** ***** ***** **
655480 ***** 201508031500 300   5 ***  13 BKN * * *  6.2 ** ** ** ** ** ** ** ** *   79   73 1012.8 *****  976.1 *** *** ***** ***** ***** ***** **
655480 ***** 201508031700 200   5 ***  13 *** * * *  6.2 17 ** ** ** ** ** ** ** *   81   75 ****** 29.94 ****** *** *** ***** ***** ***** ***** **
655480 ***** 201508031800 ***   0 ***  98 BKN * * *  6.2 17 ** ** ** ** ** ** ** 9   79   72 1011.7 *****  975.0  82 *** ***** ***** *****  0.35 **
655480 ***** 201508040900 200   5 ***  12 OVC * * *  3.8 ** ** ** ** ** ** ** ** *   74   72 1015.5 *****  978.3 *** *** ***** ***** ***** ***** **
655480 ***** 201508041000 200   7 ***  12 *** * * *  3.8 53 ** ** ** ** ** ** ** *   75   72 ****** 30.03 ****** *** *** ***** ***** ***** ***** **
655480 ***** 201508041100 200   5 ***  12 *** * * *  5.0 ** ** ** ** ** ** ** ** *   75   73 ****** 30.03 ****** *** *** ***** ***** ***** ***** **
655480 ***** 201508041200 240   7 ***  12 BKN * * *  5.0 02 ** ** ** ** ** ** ** 5   76   73 1015.1 *****  978.1 *** *** *****  0.31 ***** ***** **
655480 ***** 201508041300 200   9 ***  12 *** * * *  5.0 61 ** ** ** ** ** ** ** *   77   73 ****** 30.00 ****** *** *** ***** ***** ***** ***** **
655480 ***** 201508041400 200   7 ***  12 *** * * *  6.2 ** ** ** ** ** ** ** ** *   79   73 ****** 29.97 ****** *** *** ***** ***** ***** ***** **
655480 ***** 201508041500 180   5 ***  12 BKN * * *  6.2 02 ** ** ** ** ** ** ** 6   80   73 1013.0 *****  976.3 *** *** ***** ***** ***** ***** **
655480 ***** 201508041600 200   5 ***  12 *** * * *  6.2 ** ** ** ** ** ** ** ** *   81   73 ****** 29.94 ****** *** *** ***** ***** ***** ***** **
655480 ***** 201508041700 200   5 ***  15 *** * * *  6.2 ** ** ** ** ** ** ** ** *   81   73 ****** 29.94 ****** *** *** ***** ***** ***** ***** **
655480 ***** 201508041800 180   7 ***  15 BKN * * *  6.2 ** ** ** ** ** ** ** ** *   79   73 1012.2 *****  975.5  82 *** ***** ***** *****  0.04 **
655480 ***** 201508050800 220   5 ***  13 *** * * *  6.2 ** ** ** ** ** ** ** ** *   73   70 ****** 30.03 ****** *** *** ***** ***** ***** ***** **
655480 ***** 201508050900 220  11 ***  13 BKN * * *  6.2 ** ** ** ** ** ** ** ** *   74   70 1016.0 *****  978.8 *** *** ***** ***** ***** ***** **
655480 ***** 201508051000 240   7 ***  13 *** * * *  5.0 51 ** ** ** ** ** ** ** *   73   72 ****** 29.97 ****** *** *** ***** ***** ***** ***** **
655480 ***** 201508051100 220  11 ***  13 *** * * *  5.0 51 ** ** ** ** ** ** ** *   79   73 ****** 29.97 ****** *** *** ***** ***** ***** ***** **
655480 ***** 201508051200 200   5 ***  13 BKN * * *  6.2 20 ** ** ** ** ** ** ** 5   78   71 1014.7 *****  977.8 *** *** *****  0.00T***** ***** **
655480 ***** 201508051400 200   7 *** 100 *** * * *  6.2 ** ** ** ** ** ** ** ** *   81   72 ****** 29.97 ****** *** *** ***** ***** ***** ***** **
655480 ***** 201508051500 220   5 ***  15 OVC * * *  6.2 ** ** ** ** ** ** ** ** *   80   71 1012.3 *****  975.6 *** *** ***** ***** ***** ***** **
655480 ***** 201508051600 220   5 *** 100 *** * * *  6.2 ** ** ** ** ** ** ** ** *   81   73 ****** 29.94 ****** *** *** ***** ***** ***** ***** **
655480 ***** 201508051800 200   5 ***  98 BKN * * *  6.2 ** ** ** ** ** ** ** ** *   79   73 1011.8 *****  975.1  81 *** ***** ***** ***** ***** **
655480 ***** 201508060900 220   7 ***  13 OVC * * *  6.2 ** ** ** ** ** ** ** ** *   74   71 1014.2 *****  977.1 *** *** ***** ***** ***** ***** **
655480 ***** 201508061000 240   5 ***  13 *** * * *  6.2 ** ** ** ** ** ** ** ** *   75   70 ****** 29.94 ****** *** *** ***** ***** ***** ***** **
655480 ***** 201508061100 240   5 ***  13 *** * * *  5.0 61 ** ** ** ** ** ** ** *   75   72 ****** 29.94 ****** *** *** ***** ***** ***** ***** **
655480 ***** 201508061200 280   7 ***  15 BKN * * *  6.2 21 ** ** ** ** ** ** ** 6   79   72 1013.8 *****  977.0 *** *** *****  0.00T***** ***** **
655480 ***** 201508061300 280   9 ***  15 *** * * *  6.2 ** ** ** ** ** ** ** ** *   81   73 ****** 29.88 ****** *** *** ***** ***** ***** ***** **
655480 ***** 201508061400 240   7 ***  15 *** * * *  6.2 ** ** ** ** ** ** ** ** *   82   73 ****** 29.94 ****** *** *** ***** ***** ***** ***** **
655480 ***** 201508061500 240   7 ***  15 BKN * * *  6.2 ** ** ** ** ** ** ** ** *   83   74 1010.7 *****  974.3 *** *** ***** ***** ***** ***** **
655480 ***** 201508061600 240   7 ***  15 *** * * *  6.2 ** ** ** ** ** ** ** ** *   82   73 ****** 29.88 ****** *** *** ***** ***** ***** ***** **
655480 ***** 201508061700 200   7 ***  15 *** * * *  6.2 ** ** ** ** ** ** ** ** *   81   73 ****** 29.88 ****** *** *** ***** ***** ***** ***** **
655480 ***** 201508061800 200   7 ***  15 BKN * * *  6.2 ** ** ** ** ** ** ** ** *   81   74 1010.0 *****  973.5  83 *** ***** ***** ***** ***** **
655480 ***** 201508070900 220   9 ***  12 OVC * * *  2.5 50 ** ** ** ** ** ** ** 5   72   72 1013.7 *****  976.5 *** *** ***** ***** ***** ***** **
655480 ***** 201508071000 200   2 *** *** *** * * *  5.0 ** ** ** ** ** ** ** ** *   73   73 ****** 29.97 ****** *** *** ***** ***** ***** ***** **
655480 ***** 201508071100 240   7 ***  13 *** * * *  5.0 ** ** ** ** ** ** ** ** *   77   72 ****** 29.97 ****** *** *** ***** ***** ***** ***** **
655480 ***** 201508071200 270   7 ***  13 BKN * * *  6.2 01 ** ** ** ** ** ** ** 5   79   73 1012.4 *****  975.7 *** *** *****  0.00T***** ***** **
655480 ***** 201508071300 200   5 ***  15 *** * * *  6.2 ** ** ** ** ** ** ** ** *   81   73 ****** 29.91 ****** *** *** ***** ***** ***** ***** **
655480 ***** 201508071400 220   7 ***  15 *** * * *  6.2 ** ** ** ** ** ** ** ** *   82   75 ****** 29.88 ****** *** *** ***** ***** ***** ***** **
655480 ***** 201508071500 220   5 ***  15 BKN * * *  6.2 ** ** ** ** ** ** ** ** *   84   72 ****** *****  972.7 *** *** ***** ***** ***** ***** **
655480 ***** 201508071600 200   7 ***  15 *** * * *  5.0 17 ** ** ** ** ** ** ** *   79   73 ****** 29.85 ****** *** *** ***** ***** ***** ***** **
655480 ***** 201508071700 200   5 ***  15 *** * * *  6.2 17 ** ** ** ** ** ** ** *   77   73 ****** 29.85 ****** *** *** ***** ***** ***** ***** **
655480 ***** 201508071800 220   5 ***  26 BKN * * *  6.2 17 ** ** ** ** ** ** ** 9   76   73 1009.8 *****  973.0 *** *** ***** ***** ***** ***** **
655480 ***** 201508080800 200   5 ***  13 *** * * *  5.0 61 ** ** ** ** ** ** ** *   73   72 ****** 29.97 ****** *** *** ***** ***** ***** ***** **
655480 ***** 201508080900 200   5 ***  13 OVC * * *  5.0 21 ** ** ** ** ** ** ** 6   73   70 1013.6 *****  976.4 *** *** ***** ***** ***** ***** **
655480 ***** 201508081000 200   9 ***  13 *** * * *  5.0 ** ** ** ** ** ** ** ** *   75   72 ****** 29.97 ****** *** *** ***** ***** ***** ***** **
655480 ***** 201508081100 220   9 ***  13 *** * * *  5.0 53 ** ** ** ** ** ** ** *   75   72 ****** 30.00 ****** *** *** ***** ***** ***** ***** **
655480 ***** 201508081200 200   7 ***  13 BKN * * *  6.2 20 ** ** ** ** ** ** ** 6   78   72 1013.5 *****  976.6 *** *** *****  0.59 ***** ***** **
655480 ***** 201508081500 180   5 ***  13 BKN * * *  6.2 02 ** ** ** ** ** ** ** 6   81   74 1010.6 *****  974.1 *** *** ***** ***** ***** ***** **
655480 ***** 201508081600 180   7 ***  13 *** * * *  6.2 17 ** ** ** ** ** ** ** *   81   73 ****** 29.88 ****** *** *** ***** ***** ***** ***** **
655480 ***** 201508081700 140   2 ***  13 *** * * *  6.2 17 ** ** ** ** ** ** ** *   77   73 ****** 29.88 ****** *** *** ***** ***** ***** ***** **
655480 ***** 201508090800 180   5 *** 100 *** * * *  1.2 61 ** ** ** ** ** ** ** *   72   72 ****** 30.00 ****** *** *** ***** ***** ***** ***** **
655480 ***** 201508090900 200   5 ***  98 OVC * * *  2.5 51 ** ** ** ** ** ** ** 5   72   71 1015.3 *****  978.0 *** *** ***** ***** ***** ***** **
655480 ***** 201508091100 200   7 ***  12 *** * * *  5.0 ** ** ** ** ** ** ** ** *   75   72 ****** 30.03 ****** *** *** ***** ***** ***** ***** **
655480 ***** 201508091200 180   7 ***  13 BKN * * *  6.2 03 ** ** ** ** ** ** ** 6   79   72 1014.1 *****  977.3 *** *** *****  0.04 ***** ***** **
655480 ***** 201508091300 220   5 ***  13 *** * * *  6.2 ** ** ** ** ** ** ** ** *   81   75 ****** 29.97 ****** *** *** ***** ***** ***** ***** **
655480 ***** 201508091400 180   5 ***  13 *** * * *  6.2 61 ** ** ** ** ** ** ** *   81   75 ****** 29.97 ****** *** *** ***** ***** ***** ***** **
655480 ***** 201508091500 180   5 ***  13 BKN * * *  6.2 21 ** ** ** ** ** ** ** 6   83   71 1012.0 *****  975.5 *** *** ***** ***** ***** ***** **
655480 ***** 201508091600 220   2 ***  13 *** * * *  6.2 ** ** ** ** ** ** ** ** *   79   75 ****** 29.94 ****** *** *** ***** ***** ***** ***** **
655480 ***** 201508091700 200   7 ***  13 *** * * *  6.2 ** ** ** ** ** ** ** ** *   79   73 ****** 29.91 ****** *** *** ***** ***** ***** ***** **
655480 ***** 201508100900 240   9 ***  12 OVC * * *  6.2 ** ** ** ** ** ** ** ** *   74   71 1015.4 *****  978.2 *** *** ***** ***** ***** ***** **
655480 ***** 201508101000 220   5 ***  12 *** * * *  6.2 ** ** ** ** ** ** ** ** *   75   72 ****** 30.03 ****** *** *** ***** ***** ***** ***** **
655480 ***** 201508101200 200   5 ***  12 OVC * * *  6.2 ** ** ** ** ** ** ** ** *   77   73 1014.7 *****  977.8 *** *** ***** ***** ***** ***** **
655480 ***** 201508101300 200   5 ***  12 *** * * *  6.2 17 ** ** ** ** ** ** ** *   79   73 ****** 29.97 ****** *** *** ***** ***** ***** ***** **
655480 ***** 201508101400 340   7 *** *** *** * * *  5.0 95 ** ** ** ** ** ** ** * **** **** ****** 29.97 ****** *** *** ***** ***** ***** ***** **
655480 ***** 201508101500 290   2 ***  98 OVC * * *  5.0 95 ** ** ** ** ** ** ** 9   74   73 1012.2 *****  975.2 *** *** ***** ***** ***** ***** **
655480 ***** 201508101600 220   2 *** 100 *** * * *  6.2 ** ** ** ** ** ** ** ** *   75   73 ****** 29.88 ****** *** *** ***** ***** ***** ***** **
655480 ***** 201508101700 180   5 ***  12 *** * * *  6.2 ** ** ** ** ** ** ** ** *   77   73 ****** 29.88 ****** *** *** ***** ***** ***** ***** **
655480 ***** 201508101800 ***   0 ***  12 OVC * * *  6.2 03 ** ** ** ** ** ** ** 9   76   73 1010.1 *****  973.3  79 *** ***** ***** *****  0.35 **
655480 ***** 201508110800 200   6 ***  11 *** * * *  5.0 ** ** ** ** ** ** ** ** *   72   72 ****** 29.97 ****** *** *** ***** ***** ***** ***** **
655480 ***** 201508110900 200   7 ***  11 OVC * * *  5.0 ** ** ** ** ** ** ** ** *   73   71 1013.9 *****  976.7 *** *** ***** ***** ***** ***** **
655480 ***** 201508111000 220   7 ***  13 *** * * *  6.2 ** ** ** ** ** ** ** ** *   75   72 ****** 30.00 ****** *** *** ***** ***** ***** ***** **
655480 ***** 201508111100 220   8 ***  13 *** * * *  6.2 ** ** ** ** ** ** ** ** *   77   72 ****** 29.97 ****** *** *** ***** ***** ***** ***** **
655480 ***** 201508111200 220   7 ***  13 OVC * * *  6.2 ** ** ** ** ** ** ** ** *   77   72 1013.3 *****  976.3 *** *** ***** ***** ***** ***** **
655480 ***** 201508111300 220   8 ***  13 *** * * *  6.2 ** ** ** ** ** ** ** ** *   77   72 ****** 29.97 ****** *** *** ***** ***** ***** ***** **
655480 ***** 201508111400 200   9 ***  13 *** * * *  6.2 ** ** ** ** ** ** ** ** *   77   73 ****** 29.91 ****** *** *** ***** ***** ***** ***** **
655480 ***** 201508111500 220   7 ***  23 BKN * * *  6.2 ** ** ** ** ** ** ** ** *   78   73 1010.9 *****  974.2 *** *** ***** ***** ***** ***** **
655480 ***** 201508111600 200   7 ***  13 *** * * *  6.2 ** ** ** ** ** ** ** ** *   81   73 ****** 29.88 ****** *** *** ***** ***** ***** ***** **
655480 ***** 201508111700 240   5 ***  13 *** * * *  6.2 ** ** ** ** ** ** ** ** *   75   72 ****** 29.88 ****** *** *** ***** ***** ***** ***** **
655480 ***** 201508111800 ***   0 ***  23 BKN * * *  6.2 21 ** ** ** ** ** ** ** 6   76   73 1011.3 *****  974.4  82 *** ***** ***** *****  0.02 **
655480 ***** 201508120800 200   2 ***   6 *** * * *  0.3 53 ** ** ** ** ** ** ** *   72   72 ****** 30.06 ****** *** *** ***** ***** ***** ***** **
655480 ***** 201508120900 200   5 ***   6 OVC * * *  2.5 ** ** ** ** ** ** ** ** *   72   71 1017.2 *****  979.8 *** *** ***** ***** ***** ***** **
655480 ***** 201508121000 180   5 ***   6 *** * * *  2.5 53 ** ** ** ** ** ** ** *   73   72 ****** 30.09 ****** *** *** ***** ***** ***** ***** **
655480 ***** 201508121100 240   2 ***  12 *** * * *  3.8 53 ** ** ** ** ** ** ** *   75   73 ****** 30.09 ****** *** *** ***** ***** ***** ***** **
655480 ***** 201508121200 200   2 ***  12 BKN * * *  5.0 51 ** ** ** ** ** ** ** 6   77   71 1016.5 *****  979.5 *** *** *****  0.04 ***** ***** **
655480 ***** 201508121400 280   5 ***  13 *** * * *  6.2 ** ** ** ** ** ** ** ** *   79   72 ****** 30.03 ****** *** *** ***** ***** ***** ***** **
655480 ***** 201508121600 240   5 ***  13 *** * * *  6.2 ** ** ** ** ** ** ** ** *   81   73 ****** ***** ****** *** *** ***** ***** ***** ***** **
655480 ***** 201508121700 240   2 *** *** *** * * *  6.2 ** ** ** ** ** ** ** ** *   82   73 ****** 29.97 ****** *** *** ***** ***** ***** ***** **
655480 ***** 201508121800 240   2 *** *** SCT * * *  6.2 01 ** ** ** ** ** ** ** 5   80   72 1013.0 *****  976.3  82 *** ***** ***** *****  0.04 **
655480 ***** 201508130800 220   5 ***  13 *** * * *  5.0 ** ** ** ** ** ** ** ** *   73   72 ****** 30.06 ****** *** *** ***** ***** ***** ***** **
655480 ***** 201508130900 220   9 ***  98 BKN * * *  6.2 ** ** ** ** ** ** ** ** *   75   71 1016.5 *****  979.3 *** *** ***** ***** ***** ***** **
655480 ***** 201508131000 220   5 ***  13 *** * * *  6.2 ** ** ** ** ** ** ** ** *   77   72 ****** 30.06 ****** *** *** ***** ***** ***** ***** **
655480 ***** 201508131200 200   7 *** *** SCT * * *  6.2 ** ** ** ** ** ** ** ** *   81   73 1015.5 *****  978.8 *** *** ***** ***** ***** ***** **
655480 ***** 201508131300 200   5 *** *** *** * * *  6.2 ** ** ** ** ** ** ** ** *   84   73 ****** 30.03 ****** *** *** ***** ***** ***** ***** **
655480 ***** 201508131400 200   7 ***  15 *** * * *  6.2 ** ** ** ** ** ** ** ** *   84   73 ****** 29.91 ****** *** *** ***** ***** ***** ***** **
655480 ***** 201508131500 200   7 ***  15 BKN * * *  6.2 ** ** ** ** ** ** ** ** *   85   74 1012.0 *****  975.7 *** *** ***** ***** ***** ***** **
655480 ***** 201508131600 180   7 ***  15 *** * * *  6.2 ** ** ** ** ** ** ** ** *   84   73 ****** 29.85 ****** *** *** ***** ***** ***** ***** **
655480 ***** 201508131800 200   5 *** *** SCT * * *  6.2 ** ** ** ** ** ** ** ** *   83   74 1011.3 *****  974.9  87 *** ***** ***** ***** ***** **
655480 ***** 201508140800 ***   0 ***  13 *** * * *  6.2 ** ** ** ** ** ** ** ** *   72   72 ****** 29.94 ****** *** *** ***** ***** ***** ***** **
655480 ***** 201508140900 240   2 ***  15 BKN * * *  6.2 ** ** ** ** ** ** ** ** *   74   72 1014.6 *****  977.5 *** *** ***** ***** ***** ***** **
655480 ***** 201508141000 990   2 ***  13 *** * * *  6.2 ** ** ** ** ** ** ** ** *   77   73 ****** 29.94 ****** *** *** ***** ***** ***** ***** **
655480 ***** 201508141100 220   5 ***  15 *** * * *  6.2 ** ** ** ** ** ** ** ** *   79   73 ****** 29.94 ****** *** *** ***** ***** ***** ***** **
655480 ***** 201508141200 200   7 ***  15 BKN * * *  6.2 ** ** ** ** ** ** ** ** *   81   73 1014.2 *****  977.6 *** *** ***** ***** ***** ***** **
655480 ***** 201508141300 ***   0 ***  15 *** * * *  6.2 ** ** ** ** ** ** ** ** *   82   73 ****** 29.88 ****** *** *** ***** ***** ***** ***** **
655480 ***** 201508141400 200   5 *** 100 *** * * *  6.2 ** ** ** ** ** ** ** ** *   82   75 ****** 29.94 ****** *** *** ***** ***** ***** ***** **
655480 ***** 201508141500 200   5 ***  15 BKN * * *  6.2 ** ** ** ** ** ** ** ** *   85   71 1011.1 *****  974.8 *** *** ***** ***** ***** ***** **
655480 ***** 201508141600 220   2 ***  15 *** * * *  6.2 ** ** ** ** ** ** ** ** *   86   73 ****** 29.91 ****** *** *** ***** ***** ***** ***** **
655480 ***** 201508141700 ***   0 *** 100 *** * * *  6.2 ** ** ** ** ** ** ** ** *   86   73 ****** 29.88 ****** *** *** ***** ***** ***** ***** **
655480 ***** 201508141800 ***   0 ***  98 BKN * * *  6.2 ** ** ** ** ** ** ** ** *   84   72 1010.1 *****  974.8  88 *** ***** ***** ***** ***** **
655480 ***** 201508150800 220   5 ***  13 *** * * *  6.2 ** ** ** ** ** ** ** ** *   73   72 ****** 29.97 ****** *** *** ***** ***** ***** ***** **
655480 ***** 201508150900 200  11 ***  13 BKN * * *  6.2 ** ** ** ** ** ** ** ** *   77   73 1013.7 *****  976.8 *** *** ***** ***** ***** ***** **
655480 ***** 201508151000 200   5 ***  13 *** * * *  6.2 53 ** ** ** ** ** ** ** *   75   73 ****** 30.00 ****** *** *** ***** ***** ***** ***** **
655480 ***** 201508151100 200   5 ***  13 *** * * *  5.0 61 ** ** ** ** ** ** ** *   77   73 ****** 30.00 ****** *** *** ***** ***** ***** ***** **
655480 ***** 201508151200 180   7 ***  13 BKN * * *  5.0 61 ** ** ** ** ** ** ** 6   76   73 1013.8 *****  976.8 *** *** *****  0.16 ***** ***** **
655480 ***** 201508151300 180  11 ***  13 *** * * *  5.0 63 ** ** ** ** ** ** ** *   79   75 ****** 29.97 ****** *** *** ***** ***** ***** ***** **
655480 ***** 201508151400 180   9 ***  15 *** * * *  5.0 61 ** ** ** ** ** ** ** *   81   75 ****** 29.85 ****** *** *** ***** ***** ***** ***** **
655480 ***** 201508151500 200   7 ***  15 BKN * * *  6.2 21 ** ** ** ** ** ** ** 6   81   74 1011.2 *****  974.7 *** *** ***** ***** ***** ***** **
655480 ***** 201508151600 ***   0 ***  15 *** * * *  5.0 61 ** ** ** ** ** ** ** *   77   73 ****** 29.85 ****** *** *** ***** ***** ***** ***** **
655480 ***** 201508151700 ***   0 ***  15 *** * * *  6.2 ** ** ** ** ** ** ** ** *   81   75 ****** 29.83 ****** *** *** ***** ***** ***** ***** **
655480 ***** 201508151800 280   7 ***  15 BKN * * *  6.2 03 ** ** ** ** ** ** ** 6   76   73 1011.7 *****  974.8  82 *** ***** ***** *****  0.24 **
655480 ***** 201508160900 220   5 ***   6 OVC * * *  3.8 50 ** ** ** ** ** ** ** 5   73   71 1017.2 *****  979.8 *** *** ***** ***** ***** ***** **
655480 ***** 201508161100 220  11 ***  13 *** * * *  5.0 51 ** ** ** ** ** ** ** *   75   72 ****** 30.03 ****** *** *** ***** ***** ***** ***** **
655480 ***** 201508161200 200   7 ***  13 BKN * * *  6.2 20 ** ** ** ** ** ** ** 5   78   72 1016.4 *****  979.4 *** *** *****  0.00 ***** ***** **
655480 ***** 201508161400 280   7 ***  13 *** * * *  5.0 61 ** ** ** ** ** ** ** *   77   73 ****** 30.00 ****** *** *** ***** ***** ***** ***** **
655480 ***** 201508161500 200  11 *** *** SCT * * *  3.8 61 ** ** ** ** ** ** ** 6   76   73 1013.5 *****  976.5 *** *** ***** ***** ***** ***** **
655480 ***** 201508161700 200   2 ***  13 *** * * *  6.2 ** ** ** ** ** ** ** ** *   81   75 ****** 29.94 ****** *** *** ***** ***** ***** ***** **
655480 ***** 201508171000 200   9 ***  13 *** * * *  6.2 ** ** ** ** ** ** ** ** *   75   72 ****** 30.06 ****** *** *** ***** ***** ***** ***** **
655480 ***** 201508171100 200   7 ***  13 *** * * *  6.2 ** ** ** ** ** ** ** ** *   77   72 ****** 30.03 ****** *** *** ***** ***** ***** ***** **
655480 ***** 201508171200 240   5 ***  13 BKN * * *  6.2 ** ** ** ** ** ** ** ** *   78   73 1015.4 *****  978.5 *** *** ***** ***** ***** ***** **
655480 ***** 201508171300 240   5 ***  13 *** * * *  6.2 ** ** ** ** ** ** ** ** *   81   72 ****** 30.03 ****** *** *** ***** ***** ***** ***** **
655480 ***** 201508171500 220   5 ***  15 BKN * * *  6.2 ** ** ** ** ** ** ** ** *   81   73 1012.8 *****  976.2 *** *** ***** ***** ***** ***** **
655480 ***** 201508171600 220   7 *** 100 *** * * *  6.2 ** ** ** ** ** ** ** ** *   81   73 ****** 29.88 ****** *** *** ***** ***** ***** ***** **
655480 ***** 201508171800 180   9 ***  98 BKN * * *  6.2 ** ** ** ** ** ** ** ** *   81   73 1011.9 *****  975.3  83 *** ***** ***** ***** ***** **
655480 ***** 201508180800 220   5 ***  23 BKN * * *  6.2 ** ** ** ** ** ** ** ** *   81   74 1009.8 *****  973.3  84 *** ***** ***** ***** ***** **
655480 ***** 201508181000 220   7 ***  13 *** * * *  6.2 ** ** ** ** ** ** ** ** *   77   73 ****** 29.94 ****** *** *** ***** ***** ***** ***** **
655480 ***** 201508181200 200   9 ***  15 BKN * * *  6.2 ** ** ** ** ** ** ** ** *   78   73 1014.3 *****  977.4 *** *** ***** ***** ***** ***** **
655480 ***** 201508181300 200   9 ***  15 *** * * *  6.2 ** ** ** ** ** ** ** ** *   81   73 ****** 29.88 ****** *** *** ***** ***** ***** ***** **
655480 ***** 201508181400 200   9 *** *** *** * * *  6.2 ** ** ** ** ** ** ** ** *   82   73 ****** 29.94 ****** *** *** ***** ***** ***** ***** **
655480 ***** 201508181500 220   7 *** *** BKN * * *  6.2 ** ** ** ** ** ** ** ** *   83   73 1010.8 *****  974.4 *** *** ***** ***** ***** ***** **
655480 ***** 201508181600 200   9 ***  15 *** * * *  6.2 ** ** ** ** ** ** ** ** *   84   73 ****** 29.88 ****** *** *** ***** ***** ***** ***** **
655480 ***** 201508181700 200   7 ***  15 *** * * *  6.2 ** ** ** ** ** ** ** ** *   82   73 ****** 29.88 ****** *** *** ***** ***** ***** ***** **
655480 ***** 201508190800 200   5 ***   6 *** * * *  1.2 53 ** ** ** ** ** ** ** *   73   72 ****** 29.97 ****** *** *** ***** ***** ***** ***** **
655480 ***** 201508190900 200   5 ***   6 OVC * * *  0.6 61 ** ** ** ** ** ** ** 6   73   72 1013.9 *****  976.7 *** *** ***** ***** ***** ***** **
655480 ***** 201508191000 200   7 ***  12 *** * * *  6.2 ** ** ** ** ** ** ** ** *   75   73 ****** 30.00 ****** *** *** ***** ***** ***** ***** **
655480 ***** 201508191100 220   7 ***  12 *** * * *  1.9 53 ** ** ** ** ** ** ** *   75   73 ****** 30.00 ****** *** *** ***** ***** ***** ***** **
655480 ***** 201508191200 200   5 ***   6 OVC * * *  0.5 61 ** ** ** ** ** ** ** 6   75   74 1013.4 *****  976.4 *** *** *****  0.16 ***** ***** **
655480 ***** 201508191300 180   9 ***   6 *** * * *  1.2 63 ** ** ** ** ** ** ** *   75   73 ****** 29.94 ****** *** *** ***** ***** ***** ***** **
655480 ***** 201508191400 180   2 ***  13 *** * * *  3.8 61 ** ** ** ** ** ** ** *   77   73 ****** 29.91 ****** *** *** ***** ***** ***** ***** **
655480 ***** 201508191500 180   2 ***  12 BKN * * *  3.8 61 ** ** ** ** ** ** ** 6   77   74 1010.6 *****  973.8 *** *** ***** ***** ***** ***** **
655480 ***** 201508191600 240   2 ***  12 *** * * *  1.9 63 ** ** ** ** ** ** ** *   75   73 ****** 29.91 ****** *** *** ***** ***** ***** ***** **
655480 ***** 201508191700 ***   0 ***  13 *** * * *  1.9 ** ** ** ** ** ** ** ** *   75   73 ****** 29.88 ****** *** *** ***** ***** ***** ***** **
655480 ***** 201508191800 160   2 ***  12 BKN * * *  3.8 21 ** ** ** ** ** ** ** 6   75   73 1010.7 *****  973.8  78 *** ***** ***** *****  0.59 **
655480 ***** 201508200800 220   5 ***  12 *** * * *  3.8 ** ** ** ** ** ** ** ** *   72   72 ****** 30.00 ****** *** *** ***** ***** ***** ***** **
655480 ***** 201508200900 200   5 ***  12 BKN * * *  5.0 ** ** ** ** ** ** ** ** *   73   71 1014.7 *****  977.5 *** *** ***** ***** ***** ***** **
655480 ***** 201508201000 220   5 ***  13 *** * * *  6.2 ** ** ** ** ** ** ** ** *   75   72 ****** 30.00 ****** *** *** ***** ***** ***** ***** **
655480 ***** 201508201100 180   7 ***  13 *** * * *  6.2 ** ** ** ** ** ** ** ** *   79   72 ****** 30.00 ****** *** *** ***** ***** ***** ***** **
655480 ***** 201508201200 220   5 ***  13 BKN * * *  6.2 ** ** ** ** ** ** ** ** *   80   72 1013.3 *****  976.6 *** *** ***** ***** ***** ***** **
655480 ***** 201508201300 220   5 ***  13 *** * * *  6.2 ** ** ** ** ** ** ** ** *   79   72 ****** 29.97 ****** *** *** ***** ***** ***** ***** **
655480 ***** 201508201400 240   5 ***  15 *** * * *  6.2 ** ** ** ** ** ** ** ** *   82   72 ****** 29.85 ****** *** *** ***** ***** ***** ***** **
655480 ***** 201508201600 180   7 ***  15 *** * * *  6.2 ** ** ** ** ** ** ** ** *   82   73 ****** 29.83 ****** *** *** ***** ***** ***** ***** **
655480 ***** 201508201700 200   7 *** 100 *** * * *  6.2 ** ** ** ** ** ** ** ** *   82   73 ****** 29.80 ****** *** *** ***** ***** ***** ***** **
655480 ***** 201508201800 220   5 ***  98 BKN * * *  6.2 ** ** ** ** ** ** ** ** *   80   74 1010.2 *****  973.6  82 *** ***** ***** ***** ***** **
655480 ***** 201508210800 990   2 ***  13 *** * * *  5.0 ** ** ** ** ** ** ** ** *   72   72 ****** 29.94 ****** *** *** ***** ***** ***** ***** **
655480 ***** 201508210900 200   7 ***  13 BKN * * *  6.2 ** ** ** ** ** ** ** ** *   73   71 1015.5 *****  978.2 *** *** ***** ***** ***** ***** **
655480 ***** 201508211000 220   7 ***  13 *** * * *  6.2 ** ** ** ** ** ** ** ** *   75   72 ****** 29.97 ****** *** *** ***** ***** ***** ***** **
655480 ***** 201508211100 240   7 ***  13 *** * * *  6.2 ** ** ** ** ** ** ** ** *   75   72 ****** 29.97 ****** *** *** ***** ***** ***** ***** **
655480 ***** 201508211200 200   7 ***  13 OVC * * *  6.2 ** ** ** ** ** ** ** ** *   78   72 1014.1 *****  977.3 *** *** ***** ***** ***** ***** **
655480 ***** 201508211500 200   7 ***  23 BKN * * *  6.2 ** ** ** ** ** ** ** ** *   80   74 1011.1 *****  974.5 *** *** ***** ***** ***** ***** **
655480 ***** 201508211700 200   5 ***  15 *** * * *  6.2 ** ** ** ** ** ** ** ** *   79   73 ****** 29.88 ****** *** *** ***** ***** ***** ***** **
655480 ***** 201508211800 240   2 ***  23 BKN * * *  6.2 ** ** ** ** ** ** ** ** *   78   74 1011.0 *****  974.2  82 *** ***** ***** ***** ***** **
655480 ***** 201508220800 200   5 ***   6 *** * * *  0.6 53 ** ** ** ** ** ** ** *   72   70 ****** 29.97 ****** *** *** ***** ***** ***** ***** **
655480 ***** 201508220900 220   5 ***   6 OVC * * *  0.6 51 ** ** ** ** ** ** ** 5   71   71 1014.6 *****  977.3 *** *** ***** ***** ***** ***** **
655480 ***** 201508221000 200   5 ***  12 *** * * *  1.9 53 ** ** ** ** ** ** ** *   72   72 ****** 30.00 ****** *** *** ***** ***** ***** ***** **
655480 ***** 201508221100 200   5 ***  12 *** * * *  4.4 ** ** ** ** ** ** ** ** *   73   72 ****** 30.00 ****** *** *** ***** ***** ***** ***** **
655480 ***** 201508221200 240   5 ***   6 OVC * * *  4.4 02 ** ** ** ** ** ** ** 5   75   72 1014.5 *****  977.4 *** *** *****  0.04 ***** ***** **
655480 ***** 201508221300 260   5 ***  12 *** * * *  3.1 63 ** ** ** ** ** ** ** *   75   73 ****** 29.97 ****** *** *** ***** ***** ***** ***** **
655480 ***** 201508221400 220   7 ***  12 *** * * *  4.4 61 ** ** ** ** ** ** ** *   77   72 ****** 29.94 ****** *** *** ***** ***** ***** ***** **
655480 ***** 201508221500 220   7 ***  12 BKN * * *  6.2 21 ** ** ** ** ** ** ** 6   77   72 1012.0 *****  975.1 *** *** ***** ***** ***** ***** **
655480 ***** 201508221600 240   5 ***  12 *** * * *  6.2 ** ** ** ** ** ** ** ** *   77   72 ****** 29.91 ****** *** *** ***** ***** ***** ***** **
655480 ***** 201508221700 200   2 ***  12 *** * * *  6.2 ** ** ** ** ** ** ** ** *   75   72 ****** 29.94 ****** *** *** ***** ***** ***** ***** **
655480 ***** 201508221800 240   5 ***  12 BKN * * *  6.2 02 ** ** ** ** ** ** ** 6   75   72 1012.5 *****  975.5  77 *** ***** ***** *****  0.12 **
655480 ***** 201508230800 240   2 ***  13 *** * * *  5.0 ** ** ** ** ** ** ** ** *   73   70 ****** 29.97 ****** *** *** ***** ***** ***** ***** **
655480 ***** 201508230900 200   2 ***  13 BKN * * *  6.2 ** ** ** ** ** ** ** ** *   75   70 1014.9 *****  977.8 *** *** ***** ***** ***** ***** **
655480 ***** 201508231000 ***   0 ***  13 *** * * *  6.2 ** ** ** ** ** ** ** ** *   77   70 ****** 30.03 ****** *** *** ***** ***** ***** ***** **
655480 ***** 201508231100 ***   0 ***  13 *** * * *  6.2 ** ** ** ** ** ** ** ** *   81   70 ****** 30.00 ****** *** *** ***** ***** ***** ***** **
655480 ***** 201508231200 160   5 ***  13 BKN * * *  6.2 ** ** ** ** ** ** ** ** *   81   71 1014.0 *****  977.3 *** *** ***** ***** ***** ***** **
655480 ***** 201508231300 200   2 ***  15 *** * * *  6.2 ** ** ** ** ** ** ** ** *   84   72 ****** 29.97 ****** *** *** ***** ***** ***** ***** **
655480 ***** 201508231400 320   2 ***  15 *** * * *  6.2 ** ** ** ** ** ** ** ** *   84   72 ****** 29.94 ****** *** *** ***** ***** ***** ***** **
655480 ***** 201508231500 040   2 *** *** SCT * * *  6.2 ** ** ** ** ** ** ** ** *   84   71 1010.9 *****  974.5 *** *** ***** ***** ***** ***** **
655480 ***** 201508231600 ***   0 *** *** *** * * *  6.2 ** ** ** ** ** ** ** ** *   86   72 ****** 29.88 ****** *** *** ***** ***** ***** ***** **
655480 ***** 201508231700 140   2 *** *** *** * * *  6.2 ** ** ** ** ** ** ** ** *   86   72 ****** 29.88 ****** *** *** ***** ***** ***** ***** **
655480 ***** 201508231800 ***   0 ***  13 BKN * * *  6.2 ** ** ** ** ** ** ** ** *   83   74 1009.8 *****  973.5  87 *** ***** ***** ***** ***** **
655480 ***** 201508240800 220   5 ***  12 *** * * *  4.4 ** ** ** ** ** ** ** ** *   73   72 ****** 30.00 ****** *** *** ***** ***** ***** ***** **
655480 ***** 201508240900 200   5 ***  12 BKN * * *  5.0 ** ** ** ** ** ** ** ** *   76   73 1014.7 *****  977.7 *** *** ***** ***** ***** ***** **
655480 ***** 201508241000 240   5 ***  12 *** * * *  6.2 ** ** ** ** ** ** ** ** *   77   72 ****** 30.03 ****** *** *** ***** ***** ***** ***** **
655480 ***** 201508241100 220   5 ***  12 *** * * *  6.2 ** ** ** ** ** ** ** ** *   79   73 ****** 30.03 ****** *** *** ***** ***** ***** ***** **
655480 ***** 201508241200 340   5 ***  20 OVC * * *  5.0 95 ** ** ** ** ** ** ** 9   70   69 1015.6 *****  978.1 *** *** *****  0.16 ***** ***** **
655480 ***** 201508241300 180   5 *** *** *** * * *  5.0 95 63 ** ** ** ** ** ** *   70   68 ****** 30.00 ****** *** *** ***** ***** ***** ***** **
655480 ***** 201508241600 290   2 *** 100 *** * * *  6.2 ** ** ** ** ** ** ** ** *   73   70 ****** ***** ****** *** *** ***** ***** ***** ***** **
655480 ***** 201508241800 160   2 *** 256 BKN * * *  6.2 02 ** ** ** ** ** ** ** 9   78   71 1010.1 *****  973.3  79 *** ***** ***** *****  0.20 **
655480 ***** 201508250900 ***   0 ***  12 OVC * * *  5.0 ** ** ** ** ** ** ** ** *   73   70 1015.5 *****  978.2 *** *** ***** ***** ***** ***** **
655480 ***** 201508251000 ***   0 ***  12 *** * * *  1.2 61 ** ** ** ** ** ** ** *   73   72 ****** 30.03 ****** *** *** ***** ***** ***** ***** **
655480 ***** 201508251100 240   2 ***  13 *** * * *  6.2 ** ** ** ** ** ** ** ** *   75   72 ****** 30.03 ****** *** *** ***** ***** ***** ***** **
655480 ***** 201508251200 220   5 ***  13 BKN * * *  6.2 01 ** ** ** ** ** ** ** 6   78   71 1014.5 *****  977.6 *** *** *****  0.04 ***** ***** **
655480 ***** 201508251300 200   2 ***  13 *** * * *  6.2 ** ** ** ** ** ** ** ** *   79   73 ****** 29.97 ****** *** *** ***** ***** ***** ***** **
655480 ***** 201508251400 200   5 ***  13 *** * * *  6.2 ** ** ** ** ** ** ** ** *   82   73 ****** 29.94 ****** *** *** ***** ***** ***** ***** **
655480 ***** 201508251500 200   5 *** 256 BKN * * *  6.2 ** ** ** ** ** ** ** ** *   84   73 1011.4 *****  975.0 *** *** ***** ***** ***** ***** **
655480 ***** 201508251600 220   2 ***  13 *** * * *  6.2 ** ** ** ** ** ** ** ** *   82   73 ****** 29.91 ****** *** *** ***** ***** ***** ***** **
655480 ***** 201508260800 200   7 ***   6 *** * * *  1.2 53 ** ** ** ** ** ** ** *   72   72 ****** 30.03 ****** *** *** ***** ***** ***** ***** **
655480 ***** 201508260900 200   5 ***   6 OVC * * *  3.8 51 ** ** ** ** ** ** ** 5   73   72 1016.2 *****  978.9 *** *** ***** ***** ***** ***** **
655480 ***** 201508261000 220   9 ***  13 *** * * *  5.0 ** ** ** ** ** ** ** ** *   75   72 ****** 30.00 ****** *** *** ***** ***** ***** ***** **
655480 ***** 201508261100 200   7 ***  13 *** * * *  6.2 ** ** ** ** ** ** ** ** *   77   72 ****** 29.97 ****** *** *** ***** ***** ***** ***** **
655480 ***** 201508261300 240   5 ***  15 *** * * *  6.2 ** ** ** ** ** ** ** ** *   81   72 ****** 29.91 ****** *** *** ***** ***** ***** ***** **
655480 ***** 201508261400 200   7 ***  15 *** * * *  6.2 ** ** ** ** ** ** ** ** *   82   72 ****** 29.91 ****** *** *** ***** ***** ***** ***** **
655480 ***** 201508261500 200   9 *** *** SCT * * *  6.2 ** ** ** ** ** ** ** ** *   84   72 1012.0 *****  975.6 *** *** ***** ***** ***** ***** **
655480 ***** 201508261600 220   7 *** 100 *** * * *  6.2 ** ** ** ** ** ** ** ** *   84   70 ****** 29.85 ****** *** *** ***** ***** ***** ***** **
655480 ***** 201508261700 220   5 *** *** *** * * *  6.2 ** ** ** ** ** ** ** ** *   82   72 ****** 29.85 ****** *** *** ***** ***** ***** ***** **
655480 ***** 201508261800 220   2 ***  98 BKN * * *  6.2 ** ** ** ** ** ** ** ** *   81   71 1012.2 *****  975.6  85 *** ***** ***** *****  0.00T**
655480 ***** 201508270800 220   5 ***  12 *** * * *  5.0 ** ** ** ** ** ** ** ** *   73   72 ****** 30.00 ****** *** *** ***** ***** ***** ***** **
655480 ***** 201508270900 220   2 ***  12 OVC * * *  6.2 ** ** ** ** ** ** ** ** *   74   72 1014.6 *****  977.5 *** *** ***** ***** ***** ***** **
655480 ***** 201508271000 220   7 ***  13 *** * * *  6.2 ** ** ** ** ** ** ** ** *   75   72 ****** 30.00 ****** *** *** ***** ***** ***** ***** **
655480 ***** 201508271100 220   5 ***  13 *** * * *  6.2 ** ** ** ** ** ** ** ** *   77   72 ****** 30.00 ****** *** *** ***** ***** ***** ***** **
655480 ***** 201508271200 240   7 ***  15 BKN * * *  6.2 ** ** ** ** ** ** ** ** *   78   72 1013.8 *****  977.0 *** *** ***** ***** ***** ***** **
655480 ***** 201508271300 220   7 ***  15 *** * * *  6.2 ** ** ** ** ** ** ** ** *   81   73 ****** 29.97 ****** *** *** ***** ***** ***** ***** **
655480 ***** 201508271400 220   5 ***  15 *** * * *  6.2 ** ** ** ** ** ** ** ** *   81   72 ****** 29.94 ****** *** *** ***** ***** ***** ***** **
655480 ***** 201508271500 200   7 ***  13 BKN * * *  6.2 ** ** ** ** ** ** ** ** *   84   73 1009.9 *****  973.6 *** *** ***** ***** ***** ***** **
655480 ***** 201508271600 200   9 ***  16 *** * * *  6.2 ** ** ** ** ** ** ** ** *   82   73 ****** 29.88 ****** *** *** ***** ***** ***** ***** **
655480 ***** 201508271700 200   5 *** 100 *** * * *  6.2 ** ** ** ** ** ** ** ** *   81   73 ****** 29.88 ****** *** *** ***** ***** ***** ***** **
655480 ***** 201508271800 290   7 ***  23 OVC * * *  3.8 95 ** ** ** ** ** ** ** 9   71   69 1012.5 *****  975.2  84 *** ***** ***** *****  0.51 **
655480 ***** 201508280800 200   5 ***   6 *** * * *  5.0 ** ** ** ** ** ** ** ** *   72   72 ****** 29.88 ****** *** *** ***** ***** ***** ***** **
655480 ***** 201508280900 200   5 ***   6 OVC * * *  5.0 ** ** ** ** ** ** ** ** *   73   72 1013.1 *****  975.9 *** *** ***** ***** ***** ***** **
655480 ***** 201508281000 220   7 ***   6 *** * * *  5.0 ** ** ** ** ** ** ** ** *   75   72 ****** 29.91 ****** *** *** ***** ***** ***** ***** **
655480 ***** 201508281500 ***   0 ***  15 BKN * * *  6.2 21 ** ** ** ** ** ** ** 6   76   74 1010.6 *****  973.8 *** *** ***** ***** ***** ***** **
655480 ***** 201508281600 990   2 ***  15 *** * * *  6.2 ** ** ** ** ** ** ** ** *   79   75 ****** 29.80 ****** *** *** ***** ***** ***** ***** **
655480 ***** 201508281700 990   2 ***  15 *** * * *  6.2 ** ** ** ** ** ** ** ** *   82   73 ****** 29.80 ****** *** *** ***** ***** ***** ***** **
655480 ***** 201508281800 ***   0 ***  15 BKN * * *  6.2 01 ** ** ** ** ** ** ** 6   81   74 1009.6 *****  973.1  83 *** ***** ***** *****  0.47 **
655480 ***** 201508290900 200   5 ***  10 OVC * * *  6.2 ** ** ** ** ** ** ** ** *   72   70 1016.6 *****  979.2 *** *** ***** ***** ***** ***** **
655480 ***** 201508291000 180   7 ***  10 *** * * *  6.2 ** ** ** ** ** ** ** ** *   73   70 ****** 30.09 ****** *** *** ***** ***** ***** ***** **
655480 ***** 201508291100 180   5 ***  12 *** * * *  6.2 ** ** ** ** ** ** ** ** *   77   72 ****** 30.09 ****** *** *** ***** ***** ***** ***** **
655480 ***** 201508291200 200   5 ***  13 BKN * * *  6.2 ** ** ** ** ** ** ** ** *   78   71 1016.3 *****  979.3 *** *** ***** ***** ***** ***** **
655480 ***** 201508291300 200   2 ***  15 *** * * *  6.2 ** ** ** ** ** ** ** ** *   79   72 ****** 30.03 ****** *** *** ***** ***** ***** ***** **
655480 ***** 201508291400 220   2 *** 100 *** * * *  6.2 ** ** ** ** ** ** ** ** *   81   70 ****** 30.00 ****** *** *** ***** ***** ***** ***** **
655480 ***** 201508291500 220   5 ***  98 BKN * * *  6.2 ** ** ** ** ** ** ** ** *   80   71 1013.1 *****  976.4 *** *** ***** ***** ***** ***** **
655480 ***** 201508291600 200   5 ***  15 *** * * *  6.2 ** ** ** ** ** ** ** ** *   81   70 ****** 29.97 ****** *** *** ***** ***** ***** ***** **
655480 ***** 201508291700 240   5 ***  15 *** * * *  6.2 ** ** ** ** ** ** ** ** *   81   72 ****** 29.97 ****** *** *** ***** ***** ***** ***** **
655480 ***** 201508291800 ***   0 *** *** SCT * * *  6.2 ** ** ** ** ** ** ** ** *   80   71 1012.8 *****  976.1  81 *** ***** ***** ***** ***** **
655480 ***** 201508300800 220   7 ***  15 *** * * *  6.2 ** ** ** ** ** ** ** ** *   72   70 ****** 30.00 ****** *** *** ***** ***** ***** ***** **
655480 ***** 201508300900 240   7 ***  15 BKN * * *  6.2 ** ** ** ** ** ** ** ** *   73   70 1017.9 *****  980.5 *** *** ***** ***** ***** ***** **
655480 ***** 201508301000 220   9 ***  15 *** * * *  6.2 ** ** ** ** ** ** ** ** *   75   70 ****** 30.03 ****** *** *** ***** ***** ***** ***** **
655480 ***** 201508301100 220   7 ***  15 *** * * *  6.2 ** ** ** ** ** ** ** ** *   75   70 ****** 30.03 ****** *** *** ***** ***** ***** ***** **
655480 ***** 201508301200 280   5 ***  15 BKN * * *  6.2 ** ** ** ** ** ** ** ** *   78   69 1016.7 *****  979.7 *** *** ***** ***** ***** ***** **
655480 ***** 201508301300 240   7 ***  15 *** * * *  6.2 ** ** ** ** ** ** ** ** *   81   70 ****** 29.97 ****** *** *** ***** ***** ***** ***** **
655480 ***** 201508301400 220   7 ***  16 *** * * *  6.2 ** ** ** ** ** ** ** ** *   81   72 ****** 29.94 ****** *** *** ***** ***** ***** ***** **
655480 ***** 201508301600 180   7 *** 100 *** * * *  6.2 ** ** ** ** ** ** ** ** *   81   72 ****** 29.91 ****** *** *** ***** ***** ***** ***** **
655480 ***** 201508301700 180   9 *** 100 *** * * *  6.2 ** ** ** ** ** ** ** ** *   81   70 ****** 29.91 ****** *** *** ***** ***** ***** ***** **
655480 ***** 201508301800 160   7 ***  98 BKN * * *  6.2 ** ** ** ** ** ** ** ** *   79   71 1013.6 *****  976.8  82 *** ***** ***** ***** ***** **
655480 ***** 201508310800 220   2 ***  12 *** * * *  6.2 ** ** ** ** ** ** ** ** *   72   70 ****** 30.06 ****** *** *** ***** ***** ***** ***** **
655480 ***** 201508310900 220   9 ***  12 BKN * * *  6.2 ** ** ** ** ** ** ** ** *   73   71 1017.5 *****  980.2 *** *** ***** ***** ***** ***** **
655480 ***** 201508311000 240   5 ***  12 *** * * *  6.2 ** ** ** ** ** ** ** ** *   73   72 ****** 30.09 ****** *** *** ***** ***** ***** ***** **
655480 ***** 201508311100 200   7 ***  12 *** * * *  6.2 61 ** ** ** ** ** ** ** *   75   72 ****** 30.09 ****** *** *** ***** ***** ***** ***** **
655480 ***** 201508311200 220   7 ***  12 BKN * * *  6.2 21 ** ** ** ** ** ** ** 6   76   71 1017.2 *****  980.1 *** *** *****  0.01 ***** ***** **
655480 ***** 201508311300 220   7 ***  13 *** * * *  6.2 ** ** ** ** ** ** ** ** *   79   72 ****** 30.06 ****** *** *** ***** ***** ***** ***** **
655480 ***** 201508311400 220   5 ***  16 *** * * *  6.2 ** ** ** ** ** ** ** ** *   79   70 ****** 30.00 ****** *** *** ***** ***** ***** ***** **
655480 ***** 201508311500 220   7 ***  16 BKN * * *  6.2 ** ** ** ** ** ** ** ** *   81   71 1013.6 *****  976.9 *** *** ***** ***** ***** ***** **
655480 ***** 201508311600 220   7 ***  16 *** * * *  6.2 ** ** ** ** ** ** ** ** *   81   72 ****** 29.97 ****** *** *** ***** ***** ***** ***** **
655480 ***** 201508311700 220   5 *** 100 *** * * *  6.2 ** ** ** ** ** ** ** ** *   79   72 ****** 29.97 ****** *** *** ***** ***** ***** ***** **
655480 ***** 201508311800 200   2 ***  98 BKN * * *  6.2 ** ** ** ** ** ** ** ** *   78   71 1013.5 *****  976.6  82 *** ***** ***** *****  0.01 **
655480 ***** 201509011100 240   7 ***  13 *** * * *  6.2 ** ** ** ** ** ** ** ** *   81   72 ****** 30.03 ****** *** *** ***** ***** ***** ***** **
655480 ***** 201509011200 270   5 ***  15 BKN * * *  6.2 ** ** ** ** ** ** ** ** *   82   72 1014.6 *****  978.0 *** *** ***** ***** ***** ***** **
655480 ***** 201509011400 200   7 ***  15 *** * * *  6.2 ** ** ** ** ** ** ** ** *   86   73 ****** 29.97 ****** *** *** ***** ***** ***** ***** **
655480 ***** 201509011500 200   7 ***  15 BKN * * *  6.2 ** ** ** ** ** ** ** ** *   87   72 1011.5 *****  975.3 *** *** ***** ***** ***** ***** **
655480 ***** 201509011800 240   5 ***  13 BKN * * *  5.0 21 ** ** ** ** ** ** ** 6   74   72 1012.1 *****  975.1  88 *** ***** ***** *****  0.39 **
655480 ***** 201509020800 200   2 ***   6 *** * * *  3.8 51 ** ** ** ** ** ** ** *   72   72 ****** 29.94 ****** *** *** ***** ***** ***** ***** **
655480 ***** 201509020900 200   7 ***   6 OVC * * *  3.8 50 ** ** ** ** ** ** ** 5   73   72 1015.4 *****  978.1 *** *** ***** ***** ***** ***** **
655480 ***** 201509021000 220   7 ***   6 *** * * *  5.0 51 ** ** ** ** ** ** ** *   73   72 ****** 29.97 ****** *** *** ***** ***** ***** ***** **
655480 ***** 201509021100 200   5 ***  13 *** * * *  6.2 ** ** ** ** ** ** ** ** *   75   73 ****** 29.97 ****** *** *** ***** ***** ***** ***** **
655480 ***** 201509021200 220  11 ***  13 BKN * * *  6.2 01 ** ** ** ** ** ** ** 5   78   73 1014.9 *****  978.0 *** *** *****  0.00T***** ***** **
655480 ***** 201509021300 200  11 ***  13 *** * * *  6.2 ** ** ** ** ** ** ** ** *   81   72 ****** 29.91 ****** *** *** ***** ***** ***** ***** **
655480 ***** 201509021400 990   2 ***  13 *** * * *  6.2 ** ** ** ** ** ** ** ** *   79   73 ****** 29.91 ****** *** *** ***** ***** ***** ***** **
655480 ***** 201509021600 ***   0 ***  15 *** * * *  6.2 ** ** ** ** ** ** ** ** *   81   75 ****** 29.88 ****** *** *** ***** ***** ***** ***** **
655480 ***** 201509021800 360   0 ***  98 BKN * * *  6.2 ** ** ** ** ** ** ** ** *   79   75 1012.0 *****  975.3 *** *** ***** ***** ***** ***** **
655480 ***** 201509030800 180   5 ***  10 *** * * *  3.1 53 ** ** ** ** ** ** ** *   72   72 ****** 30.03 ****** *** *** ***** ***** ***** ***** **
655480 ***** 201509030900 180   7 ***  10 OVC * * *  3.8 51 ** ** ** ** ** ** ** 5   73   72 1016.2 *****  978.9 *** *** ***** ***** ***** ***** **
655480 ***** 201509031000 180   7 ***  11 *** * * *  5.0 ** ** ** ** ** ** ** ** *   75   72 ****** 30.06 ****** *** *** ***** ***** ***** ***** **
655480 ***** 201509031200 ***   0 ***  13 BKN * * *  6.2 03 ** ** ** ** ** ** ** 5   78   72 1015.3 *****  978.4 *** *** ***** ***** ***** ***** **
655480 ***** 201509031800 160   5 *** *** SCT * * *  6.2 02 ** ** ** ** ** ** ** 6   81   73 1012.1 *****  975.5  84 *** ***** ***** *****  0.02 **
655480 ***** 201509040800 ***   0 ***  12 *** * * *  5.0 ** ** ** ** ** ** ** ** *   73   72 ****** 30.03 ****** *** *** ***** ***** ***** ***** **
655480 ***** 201509040900 220   7 ***  12 OVC * * *  5.0 ** ** ** ** ** ** ** ** *   76   72 1015.9 *****  978.8 *** *** ***** ***** ***** ***** **
655480 ***** 201509041100 220   9 ***  13 *** * * *  6.2 ** ** ** ** ** ** ** ** *   79   72 ****** 30.03 ****** *** *** ***** ***** ***** ***** **
655480 ***** 201509041200 240   7 ***  13 BKN * * *  6.2 01 ** ** ** ** ** ** ** 5   81   73 1013.6 *****  977.0 *** *** ***** ***** ***** ***** **
655480 ***** 201509041500 200   7 *** *** SCT * * *  6.2 ** ** ** ** ** ** ** ** *   85   73 1011.1 *****  974.8 *** *** ***** ***** ***** ***** **
655480 ***** 201509041600 220   7 *** *** *** * * *  6.2 ** ** ** ** ** ** ** ** *   84   72 ****** 29.83 ****** *** *** ***** ***** ***** ***** **
655480 ***** 201509041700 180   5 ***  15 *** * * *  6.2 ** ** ** ** ** ** ** ** *   82   73 ****** 29.83 ****** *** *** ***** ***** ***** ***** **
655480 ***** 201509041800 180   5 ***  15 BKN * * *  6.2 ** ** ** ** ** ** ** ** *   83   74 1010.9 *****  974.5  86 *** ***** ***** ***** ***** **
655480 ***** 201509050900 220   5 ***   8 OVC * * *  2.5 51 ** ** ** ** ** ** ** 5   74   72 1016.4 *****  979.2 *** *** ***** ***** ***** ***** **
655480 ***** 201509051200 200   5 ***  11 OVC * * *  5.0 03 ** ** ** ** ** ** ** 5   77   73 1015.2 *****  978.3 *** *** ***** ***** ***** ***** **
655480 ***** 201509051500 180   7 ***  15 BKN * * *  5.0 61 ** ** ** ** ** ** ** 6   80   74 1012.0 *****  975.4 *** *** ***** ***** ***** ***** **
655480 ***** 201509051800 ***   0 ***  15 BKN * * *  6.2 02 ** ** ** ** ** ** ** 6   75   73 1012.9 *****  975.9  83 *** ***** ***** *****  0.20 **
655480 ***** 201509060900 ***   0 ***  11 OVC * * *  5.0 ** ** ** ** ** ** ** ** *   74   74 1016.8 *****  979.6 *** *** ***** ***** ***** ***** **
655480 ***** 201509061100 200   9 ***  12 *** * * *  6.2 ** ** ** ** ** ** ** ** *   77   72 ****** 30.06 ****** *** *** ***** ***** ***** ***** **
655480 ***** 201509061200 240   9 ***  13 BKN * * *  6.2 ** ** ** ** ** ** ** ** *   81   74 1015.2 *****  978.5 *** *** ***** ***** ***** ***** **
655480 ***** 201509061400 220   7 *** 100 *** * * *  6.2 ** ** ** ** ** ** ** ** *   82   73 ****** 29.91 ****** *** *** ***** ***** ***** ***** **
655480 ***** 201509061500 220   2 ***  98 BKN * * *  6.2 ** ** ** ** ** ** ** ** *   83   74 1012.0 *****  975.6 *** *** ***** ***** ***** ***** **
655480 ***** 201509061600 240   9 *** 100 *** * * *  6.2 ** ** ** ** ** ** ** ** *   86   73 ****** 29.85 ****** *** *** ***** ***** ***** ***** **
655480 ***** 201509061700 240  11 *** *** *** * * *  6.2 ** ** ** ** ** ** ** ** *   84   73 ****** 29.85 ****** *** *** ***** ***** ***** ***** **
655480 ***** 201509061800 220   7 *** *** SCT * * *  6.2 ** ** ** ** ** ** ** ** *   82   73 1011.8 *****  975.3  86 *** ***** ***** ***** ***** **
655480 ***** 201509070800 220   5 ***  13 *** * * *  6.2 ** ** ** ** ** ** ** ** *   73   70 ****** 30.06 ****** *** *** ***** ***** ***** ***** **
655480 ***** 201509070900 270   2 ***  13 BKN * * *  6.2 ** ** ** ** ** ** ** ** *   74   71 1016.4 *****  979.2 *** *** ***** ***** ***** ***** **
655480 ***** 201509071000 270   2 ***  13 *** * * *  6.2 ** ** ** ** ** ** ** ** *   77   72 ****** 30.06 ****** *** *** ***** ***** ***** ***** **
655480 ***** 201509071200 220   5 ***  15 BKN * * *  6.2 ** ** ** ** ** ** ** ** *   81   72 1014.6 *****  977.9 *** *** ***** ***** ***** ***** **
655480 ***** 201509071300 200   5 ***  15 *** * * *  6.2 ** ** ** ** ** ** ** ** *   82   73 ****** 30.00 ****** *** *** ***** ***** ***** ***** **
655480 ***** 201509071400 *** *** ***  16 *** * * *  6.2 ** ** ** ** ** ** ** ** *   84   72 ****** 29.97 ****** *** *** ***** ***** ***** ***** **
655480 ***** 201509071500 200   7 ***  16 BKN * * *  6.2 ** ** ** ** ** ** ** ** *   86   73 1011.8 *****  975.5 *** *** ***** ***** ***** ***** **
655480 ***** 201509071600 160   5 ***  16 *** * * *  6.2 ** ** ** ** ** ** ** ** *   86   72 ****** 29.94 ****** *** *** ***** ***** ***** ***** **
655480 ***** 201509071700 200   5 ***  16 *** * * *  6.2 ** ** ** ** ** ** ** ** *   86   72 ****** 29.94 ****** *** *** ***** ***** ***** ***** **
655480 ***** 201509071800 ***   0 *** *** SCT * * *  6.2 ** ** ** ** ** ** ** ** *   82   73 1011.7 *****  975.2  87 *** ***** ***** ***** ***** **
655480 ***** 201509080900 220   5 ***  13 BKN * * *  6.2 ** ** ** ** ** ** ** ** *   76   73 1014.4 *****  977.4 *** *** ***** ***** ***** ***** **
655480 ***** 201509081000 240   7 ***  15 *** * * *  6.2 ** ** ** ** ** ** ** ** *   79   72 ****** 29.94 ****** *** *** ***** ***** ***** ***** **
655480 ***** 201509081100 200   7 ***  15 *** * * *  6.2 ** ** ** ** ** ** ** ** *   81   73 ****** 29.91 ****** *** *** ***** ***** ***** ***** **
655480 ***** 201509081200 220   7 ***  15 BKN * * *  6.2 ** ** ** ** ** ** ** ** *   82 **** 1013.3 *****  976.7 *** *** ***** ***** ***** ***** **
655480 ***** 201509081400 200   9 ***  15 *** * * *  6.2 ** ** ** ** ** ** ** ** *   86   73 ****** 29.83 ****** *** *** ***** ***** ***** ***** **
655480 ***** 201509081500 200   7 *** *** SCT * * *  6.2 ** ** ** ** ** ** ** ** *   87   73 1009.4 *****  973.6 *** *** ***** ***** ***** ***** **
655480 ***** 201509081600 220   5 *** *** *** * * *  6.2 ** ** ** ** ** ** ** ** *   88   73 ****** 29.80 ****** *** *** ***** ***** ***** ***** **
655480 ***** 201509081700 990   2 *** *** *** * * *  6.2 ** ** ** ** ** ** ** ** *   84   75 ****** 29.80 ****** *** *** ***** ***** ***** ***** **
655480 ***** 201509081800 320   5 *** *** SCT * * *  6.2 ** ** ** ** ** ** ** ** *   82   74 1009.7 *****  973.3  89 *** ***** ***** ***** ***** **
655480 ***** 201509090800 220   2 ***  12 *** * * *  6.2 ** ** ** ** ** ** ** ** *   72   70 ****** 29.97 ****** *** *** ***** ***** ***** ***** **
655480 ***** 201509090900 ***   0 ***  13 BKN * * *  6.2 ** ** ** ** ** ** ** ** *   74   71 1014.2 *****  977.0 *** *** ***** ***** ***** ***** **
655480 ***** 201509091000 200   2 ***  13 *** * * *  6.2 ** ** ** ** ** ** ** ** *   77   72 ****** 30.00 ****** *** *** ***** ***** ***** ***** **
655480 ***** 201509091200 200   7 ***  15 BKN * * *  6.2 ** ** ** ** ** ** ** ** *   82   72 1012.6 *****  976.0 *** *** ***** ***** ***** ***** **
655480 ***** 201509091400 220   5 ***  16 *** * * *  6.2 ** ** ** ** ** ** ** ** *   84   72 ****** 29.88 ****** *** *** ***** ***** ***** ***** **
655480 ***** 201509091500 180   5 ***  16 BKN * * *  6.2 ** ** ** ** ** ** ** ** *   86   72 1008.5 *****  972.3 *** *** ***** ***** ***** ***** **
655480 ***** 201509091600 180   2 ***  16 *** * * *  6.2 ** ** ** ** ** ** ** ** *   86   72 ****** 29.83 ****** *** *** ***** ***** ***** ***** **
655480 ***** 201509091700 ***   0 ***  16 *** * * *  6.2 ** ** ** ** ** ** ** ** *   86   73 ****** 29.83 ****** *** *** ***** ***** ***** ***** **
655480 ***** 201509091800 180  16 ***  24 BKN * * *  2.5 95 ** ** ** ** ** ** ** 9   76   73 1009.4 *****  972.6  89 *** ***** ***** *****  0.39 **
655480 ***** 201509100800 180   2 ***   6 *** * * *  5.0 ** ** ** ** ** ** ** ** *   73   72 ****** 30.00 ****** *** *** ***** ***** ***** ***** **
655480 ***** 201509100900 180   7 ***  12 BKN * * *  5.0 ** ** ** ** ** ** ** ** *   74   72 1014.7 *****  977.5 *** *** ***** ***** ***** ***** **
655480 ***** 201509101000 200   7 ***  13 *** * * *  6.2 ** ** ** ** ** ** ** ** *   77   72 ****** 30.00 ****** *** *** ***** ***** ***** ***** **
655480 ***** 201509101100 200   5 ***  13 *** * * *  5.0 ** ** ** ** ** ** ** ** *   77   73 ****** 30.00 ****** *** *** ***** ***** ***** ***** **
655480 ***** 201509101200 180   5 ***  13 BKN * * *  5.0 21 ** ** ** ** ** ** ** 6   76   73 1013.4 *****  976.5 *** *** *****  0.03 ***** ***** **
655480 ***** 201509101300 160   5 ***  13 *** * * *  6.2 ** ** ** ** ** ** ** ** *   82   72 ****** 29.94 ****** *** *** ***** ***** ***** ***** **
655480 ***** 201509101400 180   5 ***  13 *** * * *  6.2 ** ** ** ** ** ** ** ** *   82   72 ****** 29.94 ****** *** *** ***** ***** ***** ***** **
655480 ***** 201509101500 180   7 ***  13 BKN * * *  6.2 ** ** ** ** ** ** ** ** *   82   73 1011.1 *****  974.6 *** *** ***** ***** ***** ***** **
655480 ***** 201509101700 160   5 *** *** *** * * *  6.2 ** ** ** ** ** ** ** ** *   81   72 ****** 29.91 ****** *** *** ***** ***** ***** ***** **
655480 ***** 201509101800 140   2 *** *** SCT * * *  6.2 ** ** ** ** ** ** ** ** *   79   73 1011.6 *****  974.9  83 *** ***** ***** *****  0.03 **
655480 ***** 201509111100 220   7 ***  15 *** * * *  6.2 ** ** ** ** ** ** ** ** *   79   73 ****** 29.94 ****** *** *** ***** ***** ***** ***** **
655480 ***** 201509111200 200   2 ***  15 BKN * * *  6.2 ** ** ** ** ** ** ** ** *   81   73 1013.9 *****  977.3 *** *** ***** ***** ***** ***** **
655480 ***** 201509111300 180   7 ***  15 *** * * *  6.2 ** ** ** ** ** ** ** ** *   82   72 ****** 29.88 ****** *** *** ***** ***** ***** ***** **
655480 ***** 201509111400 ***   0 ***  15 *** * * *  6.2 ** ** ** ** ** ** ** ** *   84   72 ****** 29.85 ****** *** *** ***** ***** ***** ***** **
655480 ***** 201509111500 ***   0 *** *** SCT * * *  6.2 ** ** ** ** ** ** ** ** *   85   73 1010.3 *****  974.0 *** *** ***** ***** ***** ***** **
655480 ***** 201509111600 140   5 *** *** *** * * *  6.2 ** ** ** ** ** ** ** ** *   84   75 ****** 29.80 ****** *** *** ***** ***** ***** ***** **
655480 ***** 201509111800 ***   0 *** *** SCT * * *  6.2 ** ** ** ** ** ** ** ** *   83   74 1009.5 *****  973.1  88 *** ***** ***** ***** ***** **
655480 ***** 201509120800 220   7 ***  12 *** * * *  6.2 ** ** ** ** ** ** ** ** *   75   73 ****** 29.94 ****** *** *** ***** ***** ***** ***** **
655480 ***** 201509120900 340   5 ***  12 OVC * * *  4.4 61 ** ** ** ** ** ** ** 6   74   73 1013.8 *****  976.7 *** *** ***** ***** ***** ***** **
655480 ***** 201509121000 220   2 ***  12 *** * * *  3.1 63 ** ** ** ** ** ** ** *   75   73 ****** 30.00 ****** *** *** ***** ***** ***** ***** **
655480 ***** 201509121100 220   5 ***  12 *** * * *  5.0 63 ** ** ** ** ** ** ** *   77   73 ****** 30.00 ****** *** *** ***** ***** ***** ***** **
655480 ***** 201509121200 220   5 ***  13 BKN * * *  5.0 21 ** ** ** ** ** ** ** 6   80   74 1013.0 *****  976.3 *** *** *****  0.43 ***** ***** **
655480 ***** 201509121500 180   5 ***  16 BKN * * *  6.2 ** ** ** ** ** ** ** ** *   85   74 1009.5 *****  973.3 *** *** ***** ***** ***** ***** **
655480 ***** 201509121600 180   5 ***  16 *** * * *  6.2 ** ** ** ** ** ** ** ** *   86   75 ****** 29.88 ****** *** *** ***** ***** ***** ***** **
655480 ***** 201509121700 200   5 ***  16 *** * * *  6.2 ** ** ** ** ** ** ** ** *   84   75 ****** 29.88 ****** *** *** ***** ***** ***** ***** **
655480 ***** 201509121800 300   2 ***  23 BKN * * *  6.2 ** ** ** ** ** ** ** ** *   79   74 1009.7 *****  973.1  87 *** ***** ***** *****  0.43 **
655480 ***** 201509130800 ***   0 ***  13 *** * * *  1.2 53 ** ** ** ** ** ** ** *   72   72 ****** 29.94 ****** *** *** ***** ***** ***** ***** **
655480 ***** 201509130900 ***   0 ***  12 OVC * * *  3.8 20 ** ** ** ** ** ** ** 5   74   72 1014.9 *****  977.7 *** *** ***** ***** ***** ***** **
655480 ***** 201509131200 220   7 ***  13 BKN * * *  6.2 20 ** ** ** ** ** ** ** 5   79   74 1014.3 *****  977.5 *** *** *****  0.03 ***** ***** **
655480 ***** 201509131300 200   7 ***  13 *** * * *  6.2 ** ** ** ** ** ** ** ** *   82   75 ****** 29.97 ****** *** *** ***** ***** ***** ***** **
655480 ***** 201509131500 180   7 *** *** SCT * * *  6.2 ** ** ** ** ** ** ** ** *   85   75 1011.3 *****  975.0 *** *** ***** ***** ***** ***** **
655480 ***** 201509131700 160   5 *** *** *** * * *  6.2 ** ** ** ** ** ** ** ** *   84   73 ****** 29.91 ****** *** *** ***** ***** ***** ***** **
655480 ***** 201509131800 ***   0 *** *** SCT * * *  6.2 ** ** ** ** ** ** ** ** *   83   74 1010.8 *****  974.4  87 *** ***** ***** *****  0.03 **
655480 ***** 201509140800 200   2 ***  13 *** * * *  5.0 ** ** ** ** ** ** ** ** *   73   72 ****** 30.03 ****** *** *** ***** ***** ***** ***** **
655480 ***** 201509140900 180   7 ***  13 BKN * * *  6.2 ** ** ** ** ** ** ** ** *   75   71 1016.0 *****  978.8 *** *** ***** ***** ***** ***** **
655480 ***** 201509141000 180   5 ***  13 *** * * *  6.2 ** ** ** ** ** ** ** ** *   77   72 ****** 30.06 ****** *** *** ***** ***** ***** ***** **
655480 ***** 201509141100 180   7 ***  13 *** * * *  6.2 ** ** ** ** ** ** ** ** *   81   73 ****** 30.06 ****** *** *** ***** ***** ***** ***** **
655480 ***** 201509141200 220   7 ***  15 BKN * * *  6.2 ** ** ** ** ** ** ** ** *   80   73 1015.7 *****  978.9 *** *** ***** ***** ***** ***** **
655480 ***** 201509141500 180   7 ***  98 BKN * * *  6.2 ** ** ** ** ** ** ** ** *   84   73 1012.3 *****  975.9 *** *** ***** ***** ***** ***** **
655480 ***** 201509141600 180   5 *** 100 *** * * *  6.2 ** ** ** ** ** ** ** ** *   86   72 ****** 29.94 ****** *** *** ***** ***** ***** ***** **
655480 ***** 201509141700 160   5 *** *** *** * * *  6.2 ** ** ** ** ** ** ** ** *   84   73 ****** 29.94 ****** *** *** ***** ***** ***** ***** **
655480 ***** 201509141800 160   2 *** *** SCT * * *  6.2 ** ** ** ** ** ** ** ** *   82   74 1012.1 *****  975.6  86 *** ***** ***** ***** ***** **
655480 ***** 201509150800 200   5 ***  13 *** * * *  5.0 ** ** ** ** ** ** ** ** *   73   73 ****** 30.06 ****** *** *** ***** ***** ***** ***** **
655480 ***** 201509150900 200   7 *** *** OVC * * *  6.2 ** ** ** ** ** ** ** ** *   75   73 1016.9 *****  979.7 *** *** ***** ***** ***** ***** **
655480 ***** 201509151000 200   7 ***  13 *** * * *  6.2 ** ** ** ** ** ** ** ** *   77   73 ****** ***** ****** *** *** ***** ***** ***** ***** **
655480 ***** 201509151200 200   7 ***  13 BKN * * *  6.2 21 ** ** ** ** ** ** ** 6   80   76 1016.1 *****  979.4 *** *** *****  0.01 ***** ***** **
655480 ***** 201509151300 220   5 ***  13 *** * * *  6.2 ** ** ** ** ** ** ** ** *   82   73 ****** 30.03 ****** *** *** ***** ***** ***** ***** **
655480 ***** 201509151400 180   7 ***  13 *** * * *  6.2 ** ** ** ** ** ** ** ** *   84   75 ****** 30.00 ****** *** *** ***** ***** ***** ***** **
655480 ***** 201509151500 180   7 ***  13 BKN * * *  6.2 ** ** ** ** ** ** ** ** *   86   74 1012.0 ***** ****** *** *** ***** ***** ***** ***** **
655480 ***** 201509151800 ***   0 *** 256 BKN * * *  6.2 ** ** ** ** ** ** ** ** *   78   73 1011.7 *****  974.9  86 *** ***** ***** *****  0.01 **
655480 ***** 201509160800 240   2 *** 100 *** * * *  5.0 ** ** ** ** ** ** ** ** *   73   72 ****** 30.03 ****** *** *** ***** ***** ***** ***** **
655480 ***** 201509160900 220   5 ***  13 BKN * * *  6.2 ** ** ** ** ** ** ** ** *   74   71 1016.1 *****  978.9 *** *** ***** ***** ***** ***** **
655480 ***** 201509161000 220   5 ***  13 *** * * *  6.2 ** ** ** ** ** ** ** ** *   77   72 ****** 30.06 ****** *** *** ***** ***** ***** ***** **
655480 ***** 201509161700 200   2 ***  15 *** * * *  6.2 ** ** ** ** ** ** ** ** *   73   70 ****** 29.91 ****** *** *** ***** ***** ***** ***** **
655480 ***** 201509161800 260   2 ***  98 BKN * * *  6.2 ** ** ** ** ** ** ** ** *   72   69 1011.9 *****  974.7  81 *** ***** ***** *****  0.28 **
655480 ***** 201509170800 180   2 *** 100 *** * * *  5.0 ** ** ** ** ** ** ** ** *   70   68 ****** 30.00 ****** *** *** ***** ***** ***** ***** **
655480 ***** 201509170900 180   5 ***  13 BKN * * *  6.2 ** ** ** ** ** ** ** ** *   72   69 1015.4 *****  978.0 *** *** ***** ***** ***** ***** **
655480 ***** 201509171000 ***   0 ***  13 *** * * *  6.2 ** ** ** ** ** ** ** ** *   73   70 ****** 30.03 ****** *** *** ***** ***** ***** ***** **
655480 ***** 201509171100 270   2 ***  13 *** * * *  6.2 ** ** ** ** ** ** ** ** *   79   68 ****** 30.00 ****** *** *** ***** ***** ***** ***** **
655480 ***** 201509171200 240   1 ***  98 BKN * * *  6.2 ** ** ** ** ** ** ** ** *   82   69 1013.1 *****  976.5 *** *** ***** ***** ***** ***** **
655480 ***** 201509171400 200   2 ***  15 *** * * *  6.2 ** ** ** ** ** ** ** ** *   84   72 ****** 29.91 ****** *** *** ***** ***** ***** ***** **
655480 ***** 201509171500 120   3 ***  15 BKN * * *  6.2 ** ** ** ** ** ** ** ** *   86   72 1011.4 ***** ****** *** *** ***** ***** ***** ***** **
655480 ***** 201509171600 ***   0 ***  15 *** * * *  6.2 ** ** ** ** ** ** ** ** *   86   72 ****** 29.85 ****** *** *** ***** ***** ***** ***** **
655480 ***** 201509171700 ***   0 ***  15 *** * * *  6.2 ** ** ** ** ** ** ** ** *   84   70 ****** 29.85 ****** *** *** ***** ***** ***** ***** **
655480 ***** 201509171800 ***   0 *** *** SCT * * *  6.2 ** ** ** ** ** ** ** ** *   86   73 1008.6 *****  972.5  90 *** ***** ***** ***** ***** **
655480 ***** 201509180700 240   7 ***  13 *** * * *  6.2 ** ** ** ** ** ** ** ** *   73   72 ****** 29.94 ****** *** *** ***** ***** ***** ***** **
655480 ***** 201509180800 240   7 ***  13 *** * * *  6.2 ** ** ** ** ** ** ** ** *   75   72 ****** 29.97 ****** *** *** ***** ***** ***** ***** **
655480 ***** 201509180900 220   9 ***  13 BKN * * *  6.2 ** ** ** ** ** ** ** ** *   75   72 1013.8 *****  976.7 *** *** ***** ***** ***** ***** **
655480 ***** 201509181000 220   7 ***  13 *** * * *  6.2 ** ** ** ** ** ** ** ** *   77   72 ****** 29.97 ****** *** *** ***** ***** ***** ***** **
655480 ***** 201509181200 220   7 ***  15 BKN * * *  6.2 ** ** ** ** ** ** ** ** *   80   73 1013.0 *****  976.3 *** *** ***** ***** ***** ***** **
655480 ***** 201509181300 220   7 ***  17 *** * * *  6.2 ** ** ** ** ** ** ** ** *   84   72 ****** 29.94 ****** *** *** ***** ***** ***** ***** **
655480 ***** 201509181400 220   5 ***  17 *** * * *  6.2 ** ** ** ** ** ** ** ** *   86   73 ****** 29.91 ****** *** *** ***** ***** ***** ***** **
655480 ***** 201509181500 240   5 ***  23 BKN * * *  6.2 ** ** ** ** ** ** ** ** *   86   71 1009.0 *****  972.9 *** *** ***** ***** ***** ***** **
655480 ***** 201509181600 220   5 *** *** *** * * *  6.2 ** ** ** ** ** ** ** ** *   86   73 ****** 29.85 ****** *** *** ***** ***** ***** ***** **
655480 ***** 201509181700 ***   0 *** *** *** * * *  6.2 ** ** ** ** ** ** ** ** *   86   73 ****** 29.85 ****** *** *** ***** ***** ***** ***** **
655480 ***** 201509181800 ***   0 ***  23 BKN * * *  6.2 ** ** ** ** ** ** ** ** *   82   75 1009.6 *****  973.2  87 *** ***** ***** ***** ***** **
655480 ***** 201509190800 200   3 ***  13 *** * * *  1.9 53 ** ** ** ** ** ** ** *   77   75 ****** 29.94 ****** *** *** ***** ***** ***** ***** **
655480 ***** 201509190900 220   5 ***  13 BKN * * *  5.0 20 ** ** ** ** ** ** ** 5   75   73 1015.3 *****  978.2 *** *** ***** ***** ***** ***** **
655480 ***** 201509191000 *** *** *** *** *** * * *  7.0 ** ** ** ** ** ** ** ** *   77   73 ****** 30.03 ****** *** *** ***** ***** ***** ***** **
655480 ***** 201509191100 220   5 ***  13 *** * * *  6.2 ** ** ** ** ** ** ** ** *   81   73 ****** 30.00 ****** *** *** ***** ***** ***** ***** **
655480 ***** 201509191200 160  11 ***  13 BKN * * *  3.8 20 ** ** ** ** ** ** ** 6   76   76 1014.4 ***** ****** *** *** *****  0.24 ***** ***** **
655480 ***** 201509191300 150   5 ***  13 *** * * *  6.2 ** ** ** ** ** ** ** ** *   84   73 ****** 29.94 ****** *** *** ***** ***** ***** ***** **
655480 ***** 201509191400 200   5 ***  15 *** * * *  6.2 ** ** ** ** ** ** ** ** *   86   73 ****** 29.94 ****** *** *** ***** ***** ***** ***** **
655480 ***** 201509191500 180   7 ***  15 BKN * * *  6.2 ** ** ** ** ** ** ** ** *   88   72 1010.2 *****  974.1 *** *** ***** ***** ***** ***** **
655480 ***** 201509191600 200   7 *** *** *** * * *  6.2 ** ** ** ** ** ** ** ** *   86   75 ****** 29.88 ****** *** *** ***** ***** ***** ***** **
655480 ***** 201509191800 ***   0 *** *** SCT * * *  6.2 ** ** ** ** ** ** ** ** *   85   73 1010.3 *****  974.1  88 *** ***** ***** *****  0.12 **
