  USAF  WBAN YR--MODAHRMN DIR SPD GUS CLG SKC L M H  VSB MW MW MW MW AW AW AW AW W TEMP DEWP    SLP   ALT    STP MAX MIN PCP01 PCP06 PCP24 PCPXX SD
677530 ***** 201501160600 100   9 ***  98 OVC * * *  6.2 ** ** ** ** ** ** ** ** *   69   68 ****** ***** ******  82  65 ***** *****  0.12 ***** **
677530 ***** 201501190600 ***   0 *** 295 OVC * * *  6.2 20 ** ** ** ** ** ** ** 2   67   67 ****** ***** ******  82  65 ***** *****  0.04 ***** **
677530 ***** 201501210600 050  16 ***  98 BKN * * *  6.2 ** ** ** ** ** ** ** ** *   67   64 ****** ***** ******  80  62 ***** *****  1.02 ***** **
677530 ***** 201501230600 060   7 ***  98 BKN * * *  6.2 ** ** ** ** ** ** ** ** *   68   65 ****** ***** ******  80  62 ***** ***** ***** ***** **
677530 ***** 201501260600 020   9 *** *** SCT * * *  6.2 ** ** ** ** ** ** ** ** *   72   66 ****** ***** ******  84  61 ***** ***** ***** ***** **
677530 ***** 201501270600 110  11 *** *** OVC * * *  6.2 ** ** ** ** ** ** ** ** *   70   66 ****** ***** ******  85  63 ***** ***** ***** ***** **
677530 ***** 201501280600 050  14 *** *** SCT * * *  6.2 ** ** ** ** ** ** ** ** *   73   69 ****** ***** ******  87  63 ***** ***** ***** ***** **
677530 ***** 201501290600 060   2 *** *** BKN * * *  6.2 ** ** ** ** ** ** ** ** *   69   66 ****** ***** ******  86  64 ***** *****  0.00 ***** **
677530 ***** 201502040600 080   8 ***  98 OVC * * *  6.2 ** ** ** ** ** ** ** ** *   69   68 ****** ***** ******  82  65 ***** *****  1.65 ***** **
677530 ***** 201502050600 340   9 *** *** SCT * * *  6.2 ** ** ** ** ** ** ** ** *   73   67 ****** ***** ******  83  64 ***** *****  0.08 ***** **
677530 ***** 201502060600 300  14 *** *** SCT * * *  6.2 ** ** ** ** ** ** ** ** *   74   66 ****** ***** ******  86  65 ***** ***** ***** ***** **
677530 ***** 201502090600 330   9 *** *** BKN * * *  6.2 ** ** ** ** ** ** ** ** *   66   64 ****** ***** ******  86  62 ***** *****  0.08 ***** **
677530 ***** 201502100600 060  14 *** *** SCT * * *  6.2 ** ** ** ** ** ** ** ** *   71   65 ****** ***** ******  83  60 ***** ***** ***** ***** **
677530 ***** 201502120600 180   9 *** *** SCT * * *  6.2 ** ** ** ** ** ** ** ** *   71   67 ****** ***** ******  84  61 ***** ***** ***** ***** **
677530 ***** 201502130600 120  11 *** *** SCT * * *  6.2 ** ** ** ** ** ** ** ** *   72   67 ****** ***** ******  85  62 ***** ***** ***** ***** **
677530 ***** 201502160600 ***   0 *** *** SCT * * *  6.2 ** ** ** ** ** ** ** ** *   68   66 ****** ***** ******  82  61 ***** *****  0.02 ***** **
677530 ***** 201502170600 080  10 ***  25 BKN * * *  6.2 ** ** ** ** ** ** ** ** *   67   66 ****** ***** ******  83  63 ***** *****  0.28 ***** **
677530 ***** 201502180600 130   7 *** *** SCT * * *  6.2 ** ** ** ** ** ** ** ** *   65   61 ****** ***** ******  80  58 ***** ***** ***** ***** **
677530 ***** 201502190600 100   5 *** *** SCT * * *  6.2 ** ** ** ** ** ** ** ** *   70   63 ****** ***** ******  81  57 ***** ***** ***** ***** **
677530 ***** 201502200600 ***   0 *** *** BKN * * *  6.2 ** ** ** ** ** ** ** ** *   69   63 ****** ***** ******  83  58 ***** ***** ***** ***** **
677530 ***** 201502250600 010  15 *** *** SCT * * *  6.2 ** ** ** ** ** ** ** ** *   69   67 ****** ***** ******  82  62 ***** ***** ***** ***** **
677530 ***** 201502260600 ***   0 ***  98 BKN * * *  6.2 28 ** ** ** ** ** ** ** 2   65   64 ****** ***** ******  80  59 ***** *****  0.39 ***** **
677530 ***** 201502270600 ***   0 *** *** SCT * * *  6.2 ** ** ** ** ** ** ** ** *   73   67 ****** ***** ******  85  62 ***** ***** ***** ***** **
677530 ***** 201503020600 360  11 ***  98 BKN * * *  6.2 ** ** ** ** ** ** ** ** *   69   66 ****** ***** ******  81  63 ***** *****  0.16 ***** **
677530 ***** 201503030600 060  14 ***  98 OVC * * *  6.2 60 ** ** ** ** ** ** ** 6   65   63 ****** ***** ******  78  64 ***** *****  1.14 ***** **
677530 ***** 201503040600 090  14 ***  98 OVC * * *  6.2 ** ** ** ** ** ** ** ** *   62   59 ****** ***** ******  74  58 ***** *****  0.24 ***** **
677530 ***** 201503050600 080   7 *** *** SCT * * *  6.2 ** ** ** ** ** ** ** ** *   65   62 ****** ***** ******  73  57 ***** *****  0.00 ***** **
677530 ***** 201503060600 ***   0 *** *** SCT * * *  6.2 ** ** ** ** ** ** ** ** *   65   62 ****** ***** ******  80  56 ***** ***** ***** ***** **
677530 ***** 201503100600 050  13 *** *** SCT * * *  6.2 ** ** ** ** ** ** ** ** *   70   65 ****** ***** ******  83  63 ***** ***** ***** ***** **
677530 ***** 201503110600 080  14 *** *** SCT * * *  6.2 05 ** ** ** ** ** ** ** 0   70   67 ****** ***** ******  81  61 ***** ***** ***** ***** **
677530 ***** 201503160600 100   5 *** *** SCT * * *  6.2 ** ** ** ** ** ** ** ** *   69   62 ****** ***** ******  81  55 ***** ***** ***** ***** **
677530 ***** 201503170600 330   5 *** *** SCT * * *  6.2 ** ** ** ** ** ** ** ** *   71   64 ****** ***** ******  84  58 ***** ***** ***** ***** **
677530 ***** 201503190600 ***   0 *** *** SCT * * *  6.2 ** ** ** ** ** ** ** ** *   69   60 ****** ***** ******  85  59 ***** ***** ***** ***** **
677530 ***** 201503240600 ***   0 *** *** *** * * *  6.2 ** ** ** ** ** ** ** ** *   71   65 ****** ***** ******  85  60 ***** ***** ***** ***** **
677530 ***** 201503250600 ***   0 *** *** SCT * * *  6.2 ** ** ** ** ** ** ** ** *   72   63 ****** ***** ******  85  59 ***** ***** ***** ***** **
677530 ***** 201503260600 060  14 *** *** *** * * *  6.2 ** ** ** ** ** ** ** ** *   73   65 ****** ***** ******  87  63 ***** ***** ***** ***** **
677530 ***** 201503270600 360  11 *** *** SCT * * *  6.2 ** ** ** ** ** ** ** ** *   74   65 ****** ***** ******  89  62 ***** ***** ***** ***** **
677530 ***** 201503300600 020  11 *** *** SCT * * *  6.2 ** ** ** ** ** ** ** ** *   68   65 ****** ***** ******  78  64 ***** *****  0.08 ***** **
677530 ***** 201503310600 100   8 ***  98 BKN * * *  6.2 ** ** ** ** ** ** ** ** *   68   65 ****** ***** ******  78  65 ***** ***** ***** ***** **
677530 ***** 201504010600 070  22 *** 295 OVC * * *  3.1 61 ** ** ** ** ** ** ** 6   64   64 ****** ***** ******  78  64 ***** *****  0.59 ***** **
677530 ***** 201504020600 060  24 *** 295 BKN * * *  6.2 ** ** ** ** ** ** ** ** *   67 **** ****** ***** ******  74  63 ***** *****  0.24 ***** **
677530 ***** 201504070600 090   2 ***  22 BKN * * *  6.2 ** ** ** ** ** ** ** ** *   69   68 ****** ***** ******  82  63 ***** *****  0.35 ***** **
677530 ***** 201504080600 ***   0 *** 295 OVC * * *  6.2 50 ** ** ** ** ** ** ** 5   67   65 ****** ***** ******  80  65 ***** ***** ***** ***** **
677530 ***** 201504100600 ***   0 ***  98 BKN * * *  6.2 ** ** ** ** ** ** ** ** *   62   58 ****** ***** ******  73 *** ***** ***** ***** ***** **
677530 ***** 201504130600 ***   0 ***  98 BKN * * *  6.2 05 ** ** ** ** ** ** ** 0   64   63 ****** ***** ******  78  59 ***** ***** ***** ***** **
677530 ***** 201504150600 ***   0 *** *** SCT * * *  3.1 05 ** ** ** ** ** ** ** 0   65   64 ****** ***** ******  75  59 ***** *****  0.00 ***** **
677530 ***** 201504170600 ***   0 ***  98 BKN * * *  6.2 ** ** ** ** ** ** ** ** *   80   62 ****** ***** ******  80  62 ***** ***** ***** ***** **
677530 ***** 201504280600 ***   0 *** *** *** * * *  6.2 05 ** ** ** ** ** ** ** 0   64   57 ****** ***** ******  80  49 ***** ***** ***** ***** **
677530 ***** 201504300600 ***   0 *** *** SCT * * *  6.2 05 ** ** ** ** ** ** ** 0   63   59 ****** ***** ******  82  50 ***** ***** ***** ***** **
677530 ***** 201505040600 150   9 *** *** *** * * *  6.2 05 ** ** ** ** ** ** ** 0   66   60 ****** ***** ******  79  52 ***** ***** ***** ***** **
677530 ***** 201505050600 ***   0 *** *** *** * * *  3.1 05 ** ** ** ** ** ** ** 0   62   60 ****** ***** ******  79  51 ***** ***** ***** ***** **
677530 ***** 201505060600 ***   0 *** *** SCT * * *  6.2 05 ** ** ** ** ** ** ** 0   62   58 ****** ***** ******  78  53 ***** ***** ***** ***** **
677530 ***** 201505070600 ***   0 *** *** *** * * *  6.2 05 ** ** ** ** ** ** ** 0   62   53 ****** ***** ******  80  46 ***** ***** ***** ***** **
677530 ***** 201505080600 ***   0 *** *** SCT * * *  6.2 05 ** ** ** ** ** ** ** 0   62   56 ****** ***** ******  80  53 ***** ***** ***** ***** **
677530 ***** 201505110600 ***   0 *** *** SCT * * *  6.2 05 ** ** ** ** ** ** ** 0   63   55 ****** ***** ******  77  48 ***** ***** ***** ***** **
677530 ***** 201505120600 ***   0 *** *** SCT * * *  6.2 05 ** ** ** ** ** ** ** 0   61   55 ****** ***** ******  79  48 ***** ***** ***** ***** **
677530 ***** 201505140600 ***   0 *** *** *** * * *  6.2 05 ** ** ** ** ** ** ** 0   65   59 ****** ***** ******  79  49 ***** ***** ***** ***** **
677530 ***** 201505150600 150   9 *** *** *** * * *  6.2 05 ** ** ** ** ** ** ** 0   65   57 ****** ***** ******  80  54 ***** ***** ***** ***** **
677530 ***** 201505180600 060  11 *** *** *** * * *  6.2 05 ** ** ** ** ** ** ** 0   60   51 ****** ***** ******  79  45 ***** ***** ***** ***** **
677530 ***** 201505190600 ***   0 *** *** *** * * *  6.2 05 ** ** ** ** ** ** ** 0   60   49 ****** ***** ******  74  45 ***** ***** ***** ***** **
677530 ***** 201505210600 ***   0 *** *** *** * * *  6.2 05 ** ** ** ** ** ** ** 0   62   54 ****** ***** ******  78 *** ***** ***** ***** ***** **
677530 ***** 201505220600 090   8 *** *** *** * * *  6.2 05 ** ** ** ** ** ** ** 0   60   55 ****** ***** ******  77  43 ***** ***** ***** ***** **
677530 ***** 201506090600 100   9 *** *** *** * * *  6.2 05 ** ** ** ** ** ** ** 0   57   50 ****** ***** ******  76  46 ***** ***** ***** ***** **
677530 ***** 201506100600 050  14 *** *** *** * * *  6.2 05 ** ** ** ** ** ** ** 0   58   45 ****** ***** ******  75  48 ***** ***** ***** ***** **
677530 ***** 201506110600 060   9 *** *** *** * * *  6.2 05 ** ** ** ** ** ** ** 0   56   45 ****** ***** ******  71  44 ***** ***** ***** ***** **
677530 ***** 201506120600 090   7 *** *** *** * * *  6.2 05 ** ** ** ** ** ** ** 0   53   49 ****** ***** ******  74  39 ***** ***** ***** ***** **
677530 ***** 201506150600 ***   0 *** *** *** * * *  6.2 05 ** ** ** ** ** ** ** 0   49   44 ****** ***** ******  72  42 ***** ***** ***** ***** **
677530 ***** 201506180600 220   5 *** *** *** * * *  6.2 05 ** ** ** ** ** ** ** 0   51 **** ****** ***** ******  77  36 ***** ***** ***** ***** **
677530 ***** 201506190600 060  11 *** *** *** * * *  6.2 05 ** ** ** ** ** ** ** 0   56   45 ****** ***** ******  77  42 ***** ***** ***** ***** **
677530 ***** 201506240600 ***   0 *** *** *** * * *  6.2 05 ** ** ** ** ** ** ** 0   56   47 ****** ***** ******  72  42 ***** ***** ***** ***** **
677530 ***** 201506250600 ***   0 *** *** *** * * *  6.2 05 ** ** ** ** ** ** ** 0   56   51 ****** ***** ******  77  44 ***** ***** ***** ***** **
677530 ***** 201506260600 090  14 ***  98 BKN * * *  6.2 05 ** ** ** ** ** ** ** 0   63   60 ****** ***** ******  80  53 ***** ***** ***** ***** **
677530 ***** 201506290600 ***   0 *** *** *** * * *  6.2 05 ** ** ** ** ** ** ** 0   54   51 ****** ***** ******  78  44 ***** ***** ***** ***** **
677530 ***** 201507030600 ***   0 *** *** SCT * * *  6.2 05 ** ** ** ** ** ** ** 0   57   51 ****** ***** ******  71  48 ***** ***** ***** ***** **
677530 ***** 201507080600 060   1 *** *** SCT * * *  6.2 05 ** ** ** ** ** ** ** 0   55   47 ****** ***** ******  73  46 ***** ***** ***** ***** **
677530 ***** 201507100600 ***   0 *** *** *** * * *  6.2 05 ** ** ** ** ** ** ** 0   56   47 ****** ***** ******  74  43 ***** ***** ***** ***** **
677530 ***** 201507130600 180   9 *** *** *** * * *  6.2 05 ** ** ** ** ** ** ** 0   54   41 ****** ***** ******  79  38 ***** ***** ***** ***** **
677530 ***** 201507140600 060   5 *** *** *** * * *  6.2 05 ** ** ** ** ** ** ** 0   57   46 ****** ***** ******  79  44 ***** ***** ***** ***** **
677530 ***** 201507160600 030  14 *** *** *** * * *  6.2 05 ** ** ** ** ** ** ** 0   58   47 ****** ***** ******  77  49 ***** ***** ***** ***** **
677530 ***** 201507170600 340   7 *** *** *** * * *  6.2 05 ** ** ** ** ** ** ** 0   57   48 ****** ***** ******  79  43 ***** ***** ***** ***** **
677530 ***** 201507200600 ***   0 *** *** *** * * *  6.2 05 ** ** ** ** ** ** ** 0   63   47 ****** ***** ******  81  47 ***** ***** ***** ***** **
677530 ***** 201507210600 ***   0 *** *** *** * * *  6.2 05 ** ** ** ** ** ** ** 0   60   47 ****** ***** ******  79  47 ***** ***** ***** ***** **
677530 ***** 201507220600 080   3 *** *** SCT * * *  6.2 05 ** ** ** ** ** ** ** 0   63   49 ****** ***** ******  77  51 ***** ***** ***** ***** **
677530 ***** 201507230600 ***   0 *** *** SCT * * *  6.2 05 ** ** ** ** ** ** ** 0   55   51 ****** ***** ******  77  46 ***** ***** ***** ***** **
677530 ***** 201508040600 ***   0 *** *** *** * * *  6.2 05 ** ** ** ** ** ** ** 0   53   42 ****** ***** ******  72  39 ***** ***** ***** ***** **
677530 ***** 201508050600 090   7 *** *** *** * * *  6.2 05 ** ** ** ** ** ** ** 0   50   40 ****** ***** ******  73  38 ***** ***** ***** ***** **
677530 ***** 201508130600 ***   0 *** *** *** * * *  6.2 05 ** ** ** ** ** ** ** 0   61   36 ****** ***** ******  82  45 ***** ***** ***** ***** **
677530 ***** 201508140600 ***   0 *** *** *** * * *  6.2 05 ** ** ** ** ** ** ** 0   60   40 ****** ***** ******  84  45 ***** ***** ***** ***** **
677530 ***** 201508180600 050   9 *** *** *** * * *  6.2 05 ** ** ** ** ** ** ** 0   65   49 ****** ***** ******  81  51 ***** ***** ***** ***** **
677530 ***** 201508190600 130   7 *** *** *** * * *  6.2 05 ** ** ** ** ** ** ** 0   66   47 ****** ***** ******  84  49 ***** ***** ***** ***** **
677530 ***** 201508200600 ***   0 *** *** *** * * *  6.2 05 ** ** ** ** ** ** ** 0   68   46 ****** ***** ******  86  49 ***** ***** ***** ***** **
677530 ***** 201508240600 070  26 *** *** *** * * *  6.2 05 ** ** ** ** ** ** ** 0   65   54 ****** ***** ******  86  57 ***** ***** ***** ***** **
677530 ***** 201508250600 060  10 *** *** *** * * *  6.2 05 ** ** ** ** ** ** ** 0   64   53 ****** ***** ******  84  57 ***** ***** ***** ***** **
