  USAF  WBAN YR--MODAHRMN DIR SPD GUS CLG SKC L M H  VSB MW MW MW MW AW AW AW AW W TEMP DEWP    SLP   ALT    STP MAX MIN PCP01 PCP06 PCP24 PCPXX SD
677730 ***** 201501010600 060   8 ***  98 OVC * * *  3.1 60 ** ** ** ** ** ** ** 6   69   66 ****** ***** ****** ***  66 ***** *****  0.20 ***** **
677730 ***** 201501020600 060   7 ***  12 BKN * * * 18.8 02 ** ** ** ** ** ** ** 6   68   66 ****** ***** ****** ***  65 ***** *****  1.42 ***** **
677730 ***** 201501021200 050  10 *** *** SCT * * * 18.8 ** ** ** ** ** ** ** ** *   75   68 ****** ***** ****** *** *** ***** ***** ***** ***** **
677730 ***** 201501030600 070  10 ***  98 OVC * * *  1.2 61 ** ** ** ** ** ** ** 6   68   68 ****** ***** ****** ***  66 ***** *****  0.79 ***** **
677730 ***** 201501031200 360   2 ***  98 OVC * * *  6.2 61 ** ** ** ** ** ** ** 6   68   68 ****** ***** ****** *** *** ***** ***** ***** ***** **
677730 ***** 201501040600 160   2 ***  98 OVC * * *  3.1 61 ** ** ** ** ** ** ** 6   67   66 ****** ***** ****** ***  65 ***** *****  5.71 ***** **
677730 ***** 201501050600 150   1 *** *** SCT * * * 18.8 ** ** ** ** ** ** ** ** *   72   65 ****** ***** ****** ***  64 ***** *****  0.35 ***** **
677730 ***** 201501051200 360   5 *** *** SCT * * * 18.8 ** ** ** ** ** ** ** ** *   82   65 ****** ***** ****** *** *** ***** ***** ***** ***** **
677730 ***** 201501060600 ***   0 ***  10 BKN * * * 15.6 16 ** ** ** ** ** ** ** 6   69   66 ****** ***** ****** ***  65 ***** *****  0.51 ***** **
677730 ***** 201501061200 360   6 ***  45 BKN * * * 18.8 02 ** ** ** ** ** ** ** 6   78   69 ****** ***** ****** *** *** ***** ***** ***** ***** **
677730 ***** 201501070600 ***   0 ***  20 BKN * * * 15.6 ** ** ** ** ** ** ** ** *   72   68 ****** ***** ****** ***  67 ***** *****  0.02 ***** **
677730 ***** 201501071200 090   6 ***  10 OVC * * *  6.2 60 ** ** ** ** ** ** ** 6   68   67 ****** ***** ****** *** *** ***** ***** ***** ***** **
677730 ***** 201501080600 100   3 ***  18 BKN * * * 18.8 ** ** ** ** ** ** ** ** *   71   62 ****** ***** ****** ***  67 ***** *****  0.31 ***** **
677730 ***** 201501081200 180   6 ***  98 BKN * * * 18.8 15 ** ** ** ** ** ** ** 6   72   67 ****** ***** ****** *** *** ***** ***** ***** ***** **
677730 ***** 201501090600 050   6 ***  18 BKN * * * 18.8 ** ** ** ** ** ** ** ** *   70   65 ****** ***** ****** ***  64 ***** *****  0.31 ***** **
677730 ***** 201501091200 270   7 ***  45 BKN * * * 18.8 15 ** ** ** ** ** ** ** 2   79   70 ****** ***** ****** *** *** ***** ***** ***** ***** **
677730 ***** 201501100600 ***   0 ***  15 BKN * * * 18.8 02 ** ** ** ** ** ** ** 4   71   67 ****** ***** ****** ***  65 ***** *****  0.67 ***** **
677730 ***** 201501101200 360   7 *** *** SCT * * * 18.8 ** ** ** ** ** ** ** ** *   82   68 ****** ***** ****** *** *** ***** ***** ***** ***** **
677730 ***** 201501110600 ***   0 *** *** SCT * * * 18.8 ** ** ** ** ** ** ** ** *   72   64 ****** ***** ****** ***  70 ***** ***** ***** ***** **
677730 ***** 201501111200 180   6 ***  98 BKN * * * 18.8 ** ** ** ** ** ** ** ** *   83   64 ****** ***** ****** *** *** ***** ***** ***** ***** **
677730 ***** 201501120600 100   1 ***  98 BKN * * * 18.8 ** ** ** ** ** ** ** ** *   72   65 ****** ***** ****** ***  65 ***** ***** ***** ***** **
677730 ***** 201501121200 280   2 ***  98 BKN * * * 18.8 ** ** ** ** ** ** ** ** *   78   66 ****** ***** ****** *** *** ***** ***** ***** ***** **
677730 ***** 201501130600 040   3 *** *** SCT * * * 18.8 ** ** ** ** ** ** ** ** *   76   68 ****** ***** ****** ***  64 ***** *****  0.02 ***** **
677730 ***** 201501131200 240   5 ***  98 BKN * * * 18.8 ** ** ** ** ** ** ** ** *   84   65 ****** ***** ****** *** *** ***** ***** ***** ***** **
677730 ***** 201501140600 ***   0 ***  20 BKN * * * 18.8 ** ** ** ** ** ** ** ** *   72   69 ****** ***** ****** ***  66 ***** ***** ***** ***** **
677730 ***** 201501141200 100   2 ***  39 BKN * * *  6.2 95 ** ** ** ** ** ** ** 9   72   68 ****** ***** ****** *** *** ***** ***** ***** ***** **
677730 ***** 201501150600 040   5 ***  16 BKN * * * 18.8 ** ** ** ** ** ** ** ** *   72   68 ****** ***** ****** ***  66 ***** *****  0.12 ***** **
677730 ***** 201501151200 360   7 *** *** SCT * * * 18.8 ** ** ** ** ** ** ** ** *   81   69 ****** ***** ****** *** *** ***** ***** ***** ***** **
677730 ***** 201501160600 360   3 ***  30 BKN * * * 18.8 ** ** ** ** ** ** ** ** *   74   69 ****** ***** ****** ***  65 ***** ***** ***** ***** **
677730 ***** 201501161200 250   9 ***  98 BKN * * * 18.8 02 ** ** ** ** ** ** ** 9   75   68 ****** ***** ****** *** *** ***** ***** ***** ***** **
677730 ***** 201501170600 230   3 ***  98 BKN * * * 18.8 ** ** ** ** ** ** ** ** *   75   69 ****** ***** ****** ***  66 ***** *****  0.47 ***** **
677730 ***** 201501171200 ***   0 ***  98 BKN * * * 18.8 17 ** ** ** ** ** ** ** 1   74   68 ****** ***** ****** *** *** ***** ***** ***** ***** **
677730 ***** 201501180600 040   5 ***  12 BKN * * * 18.8 ** ** ** ** ** ** ** ** *   72   66 ****** ***** ****** ***  66 ***** *****  0.12 ***** **
677730 ***** 201501190600 ***   0 ***  12 BKN * * *  6.2 50 ** ** ** ** ** ** ** 5   68   66 ****** ***** ****** ***  63 ***** *****  0.01 ***** **
677730 ***** 201501191200 030   6 *** *** SCT * * * 18.8 ** ** ** ** ** ** ** ** *   77   66 ****** ***** ****** *** *** ***** ***** ***** ***** **
677730 ***** 201501200600 080   8 *** *** SCT * * * 18.8 ** ** ** ** ** ** ** ** *   69   64 ****** ***** ****** ***  64 ***** *****  0.67 ***** **
677730 ***** 201501201200 050   9 ***  47 BKN * * * 18.8 ** ** ** ** ** ** ** ** *   71   63 ****** ***** ****** *** *** ***** ***** ***** ***** **
677730 ***** 201501210600 070   7 ***  98 BKN * * * 18.8 ** ** ** ** ** ** ** ** *   68   60 ****** ***** ****** ***  61 ***** *****  0.20 ***** **
677730 ***** 201501211200 080   6 ***  45 BKN * * * 18.8 ** ** ** ** ** ** ** ** *   74   63 ****** ***** ****** *** *** ***** ***** ***** ***** **
677730 ***** 201501220600 050   6 *** *** SCT * * * 18.8 ** ** ** ** ** ** ** ** *   67   63 ****** ***** ****** ***  59 ***** ***** ***** ***** **
677730 ***** 201501221200 080   8 ***  47 BKN * * * 18.8 ** ** ** ** ** ** ** ** *   79   65 ****** ***** ****** *** *** ***** ***** ***** ***** **
677730 ***** 201501230600 080   7 *** *** SCT * * * 18.8 ** ** ** ** ** ** ** ** *   68   61 ****** ***** ****** ***  59 ***** ***** ***** ***** **
677730 ***** 201501240600 110   3 ***  98 BKN * * * 15.6 02 ** ** ** ** ** ** ** 5   67   61 ****** ***** ****** ***  62 ***** *****  0.00 ***** **
677730 ***** 201501241200 340   3 ***  31 BKN * * * 18.8 15 ** ** ** ** ** ** ** 1   74   62 ****** ***** ****** *** *** ***** ***** ***** ***** **
677730 ***** 201501250600 090   7 *** *** SCT * * * 18.8 ** ** ** ** ** ** ** ** *   69   63 ****** ***** ****** ***  60 ***** ***** ***** ***** **
677730 ***** 201501251200 040   3 *** *** SCT * * * 18.8 ** ** ** ** ** ** ** ** *   80   57 ****** ***** ****** *** *** ***** ***** ***** ***** **
677730 ***** 201501260600 080   5 *** *** SCT * * * 18.8 ** ** ** ** ** ** ** ** *   73   65 ****** ***** ****** ***  69 ***** ***** ***** ***** **
677730 ***** 201501270600 060   8 *** *** SCT * * * 15.6 ** ** ** ** ** ** ** ** *   73   67 ****** ***** ****** ***  65 ***** ***** ***** ***** **
677730 ***** 201501271200 270   8 ***  98 BKN * * * 18.8 17 ** ** ** ** ** ** ** 9   78   67 ****** ***** ****** *** *** ***** ***** ***** ***** **
677730 ***** 201501280600 110   6 *** 295 BKN * * * 15.6 ** ** ** ** ** ** ** ** *   73   67 ****** ***** ****** ***  64 ***** *****  1.22 ***** **
677730 ***** 201501281200 050   7 *** *** BKN * * * 18.8 ** ** ** ** ** ** ** ** *   78   69 ****** ***** ****** *** *** ***** ***** ***** ***** **
677730 ***** 201501290600 150   6 ***  98 BKN * * * 15.6 ** ** ** ** ** ** ** ** *   71   65 ****** ***** ****** ***  65 ***** *****  0.79 ***** **
677730 ***** 201501300600 240   1 ***  98 BKN * * * 15.6 ** ** ** ** ** ** ** ** *   69   65 ****** ***** ****** ***  65 ***** *****  0.94 ***** **
677730 ***** 201501301200 110   3 ***  22 BKN * * * 18.8 15 ** ** ** ** ** ** ** 6   76   65 ****** ***** ****** *** *** ***** ***** ***** ***** **
677730 ***** 201501310600 210   1 ***  98 BKN * * * 15.6 ** ** ** ** ** ** ** ** *   73   66 ****** ***** ****** ***  65 ***** *****  0.01 ***** **
677730 ***** 201501311200 300   5 ***  98 BKN * * * 12.5 60 ** ** ** ** ** ** ** 8   70   67 ****** ***** ****** *** *** ***** ***** ***** ***** **
677730 ***** 201502010600 280   2 ***  98 OVC * * * 15.6 02 ** ** ** ** ** ** ** 6   69   67 ****** ***** ****** ***  65 ***** *****  0.63 ***** **
677730 ***** 201502020600 060   6 ***  98 BKN * * * 12.5 ** ** ** ** ** ** ** ** *   70   65 ****** ***** ****** ***  66 ***** ***** ***** ***** **
677730 ***** 201502030600 030   1 ***  10 OVC * * * 12.5 51 ** ** ** ** ** ** ** 5   69   67 ****** ***** ****** ***  67 ***** *****  0.04 ***** **
677730 ***** 201502031200 330  81 ***  10 BKN * * * 12.5 15 ** ** ** ** ** ** ** 5   74   67 ****** ***** ****** *** *** ***** ***** ***** ***** **
677730 ***** 201502040600 300   1 ***  89 OVC * * * 12.5 02 ** ** ** ** ** ** ** 6   70   67 ****** ***** ****** ***  67 ***** *****  0.08 ***** **
677730 ***** 201502041200 240   3 ***  12 BKN * * * 15.6 02 ** ** ** ** ** ** ** 5   78   67 ****** ***** ****** *** *** ***** ***** ***** ***** **
677730 ***** 201502050600 140   2 ***  98 BKN * * * 15.6 ** ** ** ** ** ** ** ** *   70   66 ****** ***** ****** ***  64 ***** *****  0.51 ***** **
677730 ***** 201502051200 300   5 *** 295 BKN * * * 18.8 15 ** ** ** ** ** ** ** 2   85   69 ****** ***** ****** *** *** ***** ***** ***** ***** **
677730 ***** 201502060600 090   2 ***  79 BKN * * * 15.6 ** ** ** ** ** ** ** ** *   71   67 ****** ***** ****** ***  67 ***** ***** ***** ***** **
677730 ***** 201502071200 330   2 *** 295 BKN * * * 18.8 ** ** ** ** ** ** ** ** *   83   70 ****** ***** ****** *** *** ***** ***** ***** ***** **
677730 ***** 201502080600 090   6 *** 295 BKN * * * 18.8 ** ** ** ** ** ** ** ** *   74   69 ****** ***** ****** ***  64 ***** ***** ***** ***** **
677730 ***** 201502081200 030   2 *** *** SCT * * * 18.8 ** ** ** ** ** ** ** ** *   82   69 ****** ***** ****** *** *** ***** ***** ***** ***** **
677730 ***** 201502091200 060   7 *** *** SCT * * * 18.8 15 ** ** ** ** ** ** ** 1   82   62 ****** ***** ****** *** *** ***** ***** ***** ***** **
677730 ***** 201502100600 060   8 *** *** SCT * * * 15.6 ** ** ** ** ** ** ** ** *   73   64 ****** ***** ****** ***  62 ***** ***** ***** ***** **
677730 ***** 201502101200 060   3 *** *** SCT * * * 18.8 ** ** ** ** ** ** ** ** *   83   61 ****** ***** ****** *** *** ***** ***** ***** ***** **
677730 ***** 201502110600 090   7 ***  98 BKN * * * 15.6 ** ** ** ** ** ** ** ** *   71   63 ****** ***** ****** ***  63 ***** ***** ***** ***** **
677730 ***** 201502111200 360   6 ***  39 BKN * * * 18.8 ** ** ** ** ** ** ** ** *   80   67 ****** ***** ****** *** *** ***** ***** ***** ***** **
677730 ***** 201502120600 090   6 *** *** SCT * * * 15.6 ** ** ** ** ** ** ** ** *   73   66 ****** ***** ****** ***  64 ***** ***** ***** ***** **
677730 ***** 201502121200 ***   0 ***  34 BKN * * * 15.6 52 ** ** ** ** ** ** ** 9   75   70 ****** ***** ****** *** *** ***** ***** ***** ***** **
677730 ***** 201502130600 090   2 ***  10 BKN * * * 15.6 ** ** ** ** ** ** ** ** *   72   69 ****** ***** ****** ***  64 ***** *****  0.91 ***** **
677730 ***** 201502131200 210   6 *** *** SCT * * * 15.6 17 ** ** ** ** ** ** ** 9   78   70 ****** ***** ****** *** *** ***** ***** ***** ***** **
677730 ***** 201502140600 330   2 ***  98 BKN * * * 25.0 ** ** ** ** ** ** ** ** *   73   68 ****** ***** ****** ***  66 ***** *****  0.83 ***** **
677730 ***** 201502141200 360   2 ***  98 BKN * * * 15.6 95 ** ** ** ** ** ** ** 9   72   68 ****** ***** ****** *** *** ***** ***** ***** ***** **
677730 ***** 201502150600 ***   0 ***  89 OVC * * * 15.6 61 ** ** ** ** ** ** ** 9   65   65 ****** ***** ****** ***  64 ***** *****  1.18 ***** **
677730 ***** 201502160600 150   1 ***  98 OVC * * *  9.4 60 ** ** ** ** ** ** ** 6   68   67 ****** ***** ****** ***  65 ***** *****  0.08 ***** **
677730 ***** 201502170600 120   2 *** *** SCT * * * 15.6 ** ** ** ** ** ** ** ** *   71   62 ****** ***** ****** ***  61 ***** ***** ***** ***** **
677730 ***** 201502181200 220   3 *** 295 BKN * * * 18.8 ** ** ** ** ** ** ** ** *   78   56 ****** ***** ****** *** *** ***** ***** ***** ***** **
677730 ***** 201502190600 180   1 *** *** SCT * * * 15.6 ** ** ** ** ** ** ** ** *   69   66 ****** ***** ****** ***  63 ***** ***** ***** ***** **
677730 ***** 201502191200 270   6 *** *** SCT * * * 15.6 ** ** ** ** ** ** ** ** *   83   63 ****** ***** ****** *** *** ***** ***** ***** ***** **
677730 ***** 201502200600 030   3 *** *** SCT * * * 15.6 ** ** ** ** ** ** ** ** *   72   69 ****** ***** ****** ***  60 ***** ***** ***** ***** **
677730 ***** 201502201200 330   6 *** *** BKN * * * 15.6 17 ** ** ** ** ** ** ** 9   76   68 ****** ***** ****** *** *** ***** ***** ***** ***** **
677730 ***** 201502211200 040   6 ***  25 BKN * * * 15.6 ** ** ** ** ** ** ** ** *   80   69 ****** ***** ****** *** *** ***** ***** ***** ***** **
677730 ***** 201502220600 050   1 *** *** SCT * * * 18.8 ** ** ** ** ** ** ** ** *   73   67 ****** ***** ****** ***  64 ***** ***** ***** ***** **
677730 ***** 201502221200 240   6 *** *** BKN * * * 15.6 17 ** ** ** ** ** ** ** 9   72   66 ****** ***** ****** *** *** ***** ***** ***** ***** **
677730 ***** 201502230600 100   5 ***  98 BKN * * * 18.8 ** ** ** ** ** ** ** ** *   74   68 ****** ***** ****** ***  66 ***** ***** ***** ***** **
677730 ***** 201502231200 120  13 *** 295 BKN * * * 18.8 ** ** ** ** ** ** ** ** *   82   67 ****** ***** ****** *** *** ***** ***** ***** ***** **
677730 ***** 201502240600 ***   0 ***  18 BKN * * * 18.8 ** ** ** ** ** ** ** ** *   71   64 ****** ***** ****** ***  62 ***** *****  0.24 ***** **
677730 ***** 201502241200 060   5 ***  39 BKN * * * 18.8 ** ** ** ** ** ** ** ** *   80   67 ****** ***** ****** *** *** ***** ***** ***** ***** **
677730 ***** 201502250600 ***   0 ***  98 BKN * * * 15.6 ** ** ** ** ** ** ** ** *   69   64 ****** ***** ****** ***  65 ***** ***** ***** ***** **
677730 ***** 201502251200 330   3 *** *** SCT * * * 18.8 25 ** ** ** ** ** ** ** 8   79   67 ****** ***** ****** *** *** ***** ***** ***** ***** **
677730 ***** 201502260600 120   2 ***   8 BKN * * * 18.8 61 ** ** ** ** ** ** ** 6   68   68 ****** *****  904.8 ***  65 ***** *****  1.46 ***** **
677730 ***** 201502270600 060   6 *** *** SCT * * * 15.6 ** ** ** ** ** ** ** ** *   72   69 ****** ***** ****** ***  62 ***** *****  0.35 ***** **
677730 ***** 201502271200 360   2 *** *** BKN * * * 18.8 25 ** ** ** ** ** ** ** 9   72   69 ****** ***** ****** *** *** ***** ***** ***** ***** **
677730 ***** 201502280600 360   2 *** 295 BKN * * * 15.6 ** ** ** ** ** ** ** ** *   71   65 ****** ***** ****** ***  62 ***** *****  0.04 ***** **
677730 ***** 201502281200 240   2 *** *** BKN * * * 18.8 80 ** ** ** ** ** ** ** 9   76   67 ****** ***** ****** *** *** ***** ***** ***** ***** **
677730 ***** 201503010600 080   2 ***  79 OVC * * * 15.6 02 ** ** ** ** ** ** ** 6   67   66 ****** ***** ****** ***  64 ***** *****  1.26 ***** **
677730 ***** 201503020600 060   1 ***  89 OVC * * * 15.6 ** ** ** ** ** ** ** ** *   67   64 ****** ***** ****** ***  66 ***** *****  0.35 ***** **
677730 ***** 201503021200 010   1 ***  89 BKN * * * 15.6 21 ** ** ** ** ** ** ** 9   76   67 ****** ***** ****** *** *** ***** ***** ***** ***** **
677730 ***** 201503030600 270   3 ***  10 OVC * * * 15.6 ** ** ** ** ** ** ** ** *   68   64 ****** ***** ****** ***  65 ***** *****  0.91 ***** **
677730 ***** 201503031200 060   1 ***  18 OVC * * *  6.2 52 ** ** ** ** ** ** ** 5   73   66 ****** ***** ****** *** *** ***** ***** ***** ***** **
677730 ***** 201503040600 090   3 *** *** SCT * * * 15.6 ** ** ** ** ** ** ** ** *   65   59 ****** ***** ****** ***  58 ***** *****  0.04 ***** **
677730 ***** 201503041200 120   2 ***  20 BKN * * * 18.8 ** ** ** ** ** ** ** ** *   74   59 ****** ***** ****** *** *** ***** ***** ***** ***** **
677730 ***** 201503050600 360   5 ***  98 BKN * * * 15.6 ** ** ** ** ** ** ** ** *   65   61 ****** ***** ****** ***  58 ***** ***** ***** ***** **
677730 ***** 201503051200 080   3 *** *** SCT * * * 18.8 ** ** ** ** ** ** ** ** *   77   60 ****** ***** ****** *** *** ***** ***** ***** ***** **
677730 ***** 201503060600 050   2 *** 295 BKN * * * 15.6 ** ** ** ** ** ** ** ** *   67   62 ****** ***** ****** ***  57 ***** ***** ***** ***** **
677730 ***** 201503061200 ***   0 *** 295 BKN * * * 18.8 ** ** ** ** ** ** ** ** *   79   61 ****** ***** ****** *** *** ***** ***** ***** ***** **
677730 ***** 201503070600 130   2 *** 295 BKN * * * 15.6 ** ** ** ** ** ** ** ** *   66   62 ****** ***** ****** ***  58 ***** ***** ***** ***** **
677730 ***** 201503071200 050   2 *** 295 BKN * * * 18.8 ** ** ** ** ** ** ** ** *   79   64 ****** ***** ****** *** *** ***** ***** ***** ***** **
677730 ***** 201503080600 090   1 *** 295 BKN * * * 18.8 ** ** ** ** ** ** ** ** *   66   65 ****** ***** ****** ***  60 ***** ***** ***** ***** **
677730 ***** 201503081200 280   6 *** 295 BKN * * * 21.9 ** ** ** ** ** ** ** ** *   82   61 ****** ***** ****** *** *** ***** ***** ***** ***** **
677730 ***** 201503090600 110   5 *** *** SCT * * * 18.8 ** ** ** ** ** ** ** ** *   71   66 ****** ***** ****** ***  61 ***** ***** ***** ***** **
677730 ***** 201503091200 340   3 *** *** SCT * * * 18.8 ** ** ** ** ** ** ** ** *   82   67 ****** ***** ****** *** *** ***** ***** ***** ***** **
677730 ***** 201503100600 150   2 ***  12 BKN * * * 15.6 ** ** ** ** ** ** ** ** *   71   64 ****** ***** ****** ***  63 ***** *****  0.01 ***** **
677730 ***** 201503101200 360   2 ***  34 BKN * * * 12.5 81 ** ** ** ** ** ** ** 8   77   67 ****** ***** ****** *** *** ***** ***** ***** ***** **
677730 ***** 201503110600 080   2 *** *** SCT * * * 15.6 ** ** ** ** ** ** ** ** *   69   64 ****** ***** ****** ***  60 ***** *****  0.67 ***** **
677730 ***** 201503111200 300   5 *** *** SCT * * * 18.8 15 ** ** ** ** ** ** ** 1   76   67 ****** ***** ****** *** *** ***** ***** ***** ***** **
677730 ***** 201503120600 050  10 *** *** SCT * * * 18.8 ** ** ** ** ** ** ** ** *   70   62 ****** ***** ****** ***  59 ***** *****  0.08 ***** **
677730 ***** 201503121200 040   7 *** *** SCT * * * 18.8 ** ** ** ** ** ** ** ** *   78   66 ****** ***** ****** *** *** ***** ***** ***** ***** **
677730 ***** 201503130600 040   5 *** *** SCT * * * 18.8 ** ** ** ** ** ** ** ** *   70   62 ****** ***** ****** ***  58 ***** ***** ***** ***** **
677730 ***** 201503131200 050   5 *** *** SCT * * * 18.8 ** ** ** ** ** ** ** ** *   81   63 ****** ***** ****** *** *** ***** ***** ***** ***** **
677730 ***** 201503140600 030   5 *** *** SCT * * * 18.8 ** ** ** ** ** ** ** ** *   69   58 ****** ***** ****** ***  58 ***** ***** ***** ***** **
677730 ***** 201503141200 060   6 *** *** SCT * * * 18.8 ** ** ** ** ** ** ** ** *   81   56 ****** ***** ****** *** *** ***** ***** ***** ***** **
677730 ***** 201503150600 080   6 *** *** SCT * * * 18.8 ** ** ** ** ** ** ** ** *   69   61 ****** ***** ****** ***  58 ***** ***** ***** ***** **
677730 ***** 201503161200 030   6 *** *** SCT * * * 21.9 ** ** ** ** ** ** ** ** *   80   65 ****** ***** ****** *** *** ***** ***** ***** ***** **
677730 ***** 201503170600 070   6 *** *** *** * * * 18.8 ** ** ** ** ** ** ** ** *   71   64 ****** ***** ****** ***  59 ***** ***** ***** ***** **
677730 ***** 201503171200 010   3 *** *** SCT * * * 18.8 ** ** ** ** ** ** ** ** *   83   68 ****** ***** ****** *** *** ***** ***** ***** ***** **
677730 ***** 201503180600 050   6 *** *** SCT * * * 15.6 ** ** ** ** ** ** ** ** *   74   66 ****** ***** ****** ***  64 ***** ***** ***** ***** **
677730 ***** 201503181200 060   3 *** *** SCT * * * 18.8 ** ** ** ** ** ** ** ** *   82   64 ****** ***** ****** *** *** ***** ***** ***** ***** **
677730 ***** 201503190600 060   8 *** *** SCT * * * 15.6 ** ** ** ** ** ** ** ** *   72   64 ****** ***** ****** ***  64 ***** ***** ***** ***** **
677730 ***** 201503191200 180   2 *** *** SCT * * * 18.8 ** ** ** ** ** ** ** ** *   83   66 ****** ***** ****** *** *** ***** ***** ***** ***** **
677730 ***** 201503200600 070   5 *** *** SCT * * * 15.6 ** ** ** ** ** ** ** ** *   73   67 ****** ***** ****** ***  62 ***** ***** ***** ***** **
677730 ***** 201503201200 120   5 *** *** SCT * * * 21.9 ** ** ** ** ** ** ** ** *   85   64 ****** ***** ****** *** *** ***** ***** ***** ***** **
677730 ***** 201503210600 110  10 *** *** SCT * * * 18.8 ** ** ** ** ** ** ** ** *   72   64 ****** ***** ****** ***  65 ***** ***** ***** ***** **
677730 ***** 201503221200 360   5 *** *** SCT * * * 18.8 ** ** ** ** ** ** ** ** *   80   66 ****** ***** ****** *** *** ***** ***** ***** ***** **
677730 ***** 201503230600 090   8 *** *** SCT * * * 15.6 ** ** ** ** ** ** ** ** *   71   63 ****** ***** ****** ***  61 ***** ***** ***** ***** **
677730 ***** 201503231200 360   5 *** *** SCT * * * 18.8 ** ** ** ** ** ** ** ** *   82   64 ****** ***** ****** *** *** ***** ***** ***** ***** **
677730 ***** 201503240600 120   3 *** *** SCT * * * 15.6 ** ** ** ** ** ** ** ** *   72   64 ****** ***** ****** ***  63 ***** ***** ***** ***** **
677730 ***** 201503241200 330   8 *** *** SCT * * * 18.8 ** ** ** ** ** ** ** ** *   82   65 ****** ***** ****** *** *** ***** ***** ***** ***** **
677730 ***** 201503250600 080   5 *** *** SCT * * * 18.8 ** ** ** ** ** ** ** ** *   72   64 ****** ***** ****** ***  61 ***** ***** ***** ***** **
677730 ***** 201503251200 050   6 *** *** SCT * * * 18.8 ** ** ** ** ** ** ** ** *   83   65 ****** ***** ****** *** *** ***** ***** ***** ***** **
677730 ***** 201503271200 300   9 *** *** SCT * * * 21.9 ** ** ** ** ** ** ** ** *   85   67 ****** ***** ****** *** *** ***** ***** ***** ***** **
677730 ***** 201503280600 090   6 *** 295 BKN * * * 15.6 ** ** ** ** ** ** ** ** *   75   67 ****** ***** ****** ***  65 ***** ***** ***** ***** **
677730 ***** 201503281200 360   5 *** *** SCT * * * 21.9 ** ** ** ** ** ** ** ** *   83   65 ****** ***** ****** *** *** ***** ***** ***** ***** **
677730 ***** 201503311200 050   7 ***  98 BKN * * * 18.8 25 ** ** ** ** ** ** ** 8   74   68 ****** ***** ****** *** *** ***** ***** ***** ***** **
677730 ***** 201504011200 080   9 ***  33 BKN * * * 18.8 ** ** ** ** ** ** ** ** *   77   63 ****** ***** ****** *** *** ***** ***** ***** ***** **
677730 ***** 201504021200 040   2 ***  20 BKN * * * 18.8 ** ** ** ** ** ** ** ** *   74   64 ****** ***** ****** *** *** ***** ***** ***** ***** **
677730 ***** 201504030600 070   3 *** *** SCT * * * 18.8 ** ** ** ** ** ** ** ** *   67   62 ****** ***** ****** ***  56 ***** ***** ***** ***** **
677730 ***** 201504031200 030   8 *** *** SCT * * * 18.8 ** ** ** ** ** ** ** ** *   76   64 ****** ***** ****** *** *** ***** ***** ***** ***** **
677730 ***** 201504070600 090   6 ***  89 OVC * * * 15.6 ** ** ** ** ** ** ** ** *   69   65 ****** ***** ****** ***  63 ***** *****  0.24 ***** **
677730 ***** 201504080600 080   8 ***  15 OVC * * * 15.6 ** ** ** ** ** ** ** ** *   68   63 ****** ***** ****** ***  65 ***** ***** ***** ***** **
677730 ***** 201504081200 060   2 ***  15 OVC * * * 18.8 15 ** ** ** ** ** ** ** 2   72   65 ****** ***** ****** *** *** ***** ***** ***** ***** **
677730 ***** 201504090600 120   7 *** *** SCT * * * 18.8 ** ** ** ** ** ** ** ** *   67   56 ****** ***** ****** ***  59 ***** ***** ***** ***** **
677730 ***** 201504091200 270   2 ***  30 BKN * * * 18.8 ** ** ** ** ** ** ** ** *   76   54 ****** ***** ****** *** *** ***** ***** ***** ***** **
677730 ***** 201504100600 110   6 *** *** SCT * * * 18.8 ** ** ** ** ** ** ** ** *   68   59 ****** ***** ****** ***  60 ***** ***** ***** ***** **
677730 ***** 201504101200 060   5 ***  34 BKN * * *  6.2 80 ** ** ** ** ** ** ** 8   73   64 ****** ***** ****** *** *** ***** ***** ***** ***** **
677730 ***** 201504130600 080  13 ***  16 BKN * * * 18.8 ** ** ** ** ** ** ** ** *   67   60 ****** ***** ****** ***  60 ***** *****  0.47 ***** **
677730 ***** 201504131200 360   9 ***  35 BKN * * * 18.8 ** ** ** ** ** ** ** ** *   76   64 ****** ***** ****** *** *** ***** ***** ***** ***** **
677730 ***** 201504140600 ***   0 ***  89 BKN * * *  6.2 60 ** ** ** ** ** ** ** 6   65   64 ****** ***** ****** ***  62 ***** *****  0.08 ***** **
677730 ***** 201504141200 270   1 ***  10 BKN * * *  9.4 50 ** ** ** ** ** ** ** 5   73   62 ****** ***** ****** *** *** ***** ***** ***** ***** **
677730 ***** 201504150600 ***   0 ***  16 BKN * * * 18.8 ** ** ** ** ** ** ** ** *   67   62 ****** ***** ****** ***  62 ***** *****  0.01 ***** **
677730 ***** 201504151200 280   5 *** *** SCT * * * 18.8 ** ** ** ** ** ** ** ** *   77   62 ****** ***** ****** *** *** ***** ***** ***** ***** **
677730 ***** 201504160600 030   2 ***  98 BKN * * * 18.8 ** ** ** ** ** ** ** ** *   71   65 ****** ***** ****** ***  61 ***** ***** ***** ***** **
677730 ***** 201504161200 280   3 ***  98 BKN * * * 18.8 ** ** ** ** ** ** ** ** *   74   65 ****** ***** ****** *** *** ***** ***** ***** ***** **
677730 ***** 201504170600 050   7 ***  98 BKN * * * 18.8 ** ** ** ** ** ** ** ** *   68   64 ****** ***** ****** ***  64 ***** *****  0.01 ***** **
677730 ***** 201504171200 070  11 ***  98 BKN * * *  6.2 60 ** ** ** ** ** ** ** 6   72   70 ****** ***** ****** *** *** ***** ***** ***** ***** **
677730 ***** 201504180600 050   5 ***  98 OVC * * *  1.2 60 ** ** ** ** ** ** ** 6   68   66 ****** ***** ****** ***  63 ***** *****  0.43 ***** **
677730 ***** 201504190600 070  13 ***  89 BKN * * * 18.8 ** ** ** ** ** ** ** ** *   65   62 ****** ***** ****** ***  62 ***** *****  1.14 ***** **
677730 ***** 201504191200 050  11 ***  30 BKN * * * 18.8 ** ** ** ** ** ** ** ** *   72   64 ****** ***** ****** *** *** ***** ***** ***** ***** **
677730 ***** 201504200600 070   5 *** *** SCT * * * 18.8 ** ** ** ** ** ** ** ** *   67   63 ****** ***** ****** ***  60 ***** ***** ***** ***** **
677730 ***** 201504201200 360   8 ***  44 BKN * * * 18.8 ** ** ** ** ** ** ** ** *   78   65 ****** ***** ****** *** *** ***** ***** ***** ***** **
677730 ***** 201504210600 040  11 *** *** SCT * * * 18.8 ** ** ** ** ** ** ** ** *   68   63 ****** ***** ****** ***  57 ***** ***** ***** ***** **
677730 ***** 201504211200 360   5 ***  35 BKN * * * 18.8 ** ** ** ** ** ** ** ** *   76   64 ****** ***** ****** *** *** ***** ***** ***** ***** **
677730 ***** 201504221200 040   5 ***  35 BKN * * * 18.8 ** ** ** ** ** ** ** ** *   76   61 ****** ***** ****** *** *** ***** ***** ***** ***** **
677730 ***** 201504230600 070   9 *** *** SCT * * * 18.8 ** ** ** ** ** ** ** ** *   66   60 ****** ***** ****** ***  56 ***** ***** ***** ***** **
677730 ***** 201504231200 120   8 *** *** SCT * * * 18.8 ** ** ** ** ** ** ** ** *   76   61 ****** ***** ****** *** *** ***** ***** ***** ***** **
677730 ***** 201504240600 060   2 *** *** SCT * * * 18.8 ** ** ** ** ** ** ** ** *   65   61 ****** ***** ****** ***  55 ***** ***** ***** ***** **
677730 ***** 201504241200 050  14 *** *** SCT * * * 18.8 ** ** ** ** ** ** ** ** *   78   51 ****** ***** ****** *** *** ***** ***** ***** ***** **
677730 ***** 201504250600 100   6 ***  14 BKN * * * 12.5 05 ** ** ** ** ** ** ** 1   60   59 ****** ***** ****** ***  52 ***** ***** ***** ***** **
677730 ***** 201504251200 080  10 *** *** SCT * * * 21.9 ** ** ** ** ** ** ** ** *   76   58 ****** ***** ****** *** *** ***** ***** ***** ***** **
677730 ***** 201504260600 050   1 *** *** *** * * * 18.8 ** ** ** ** ** ** ** ** *   65   58 ****** ***** ****** ***  58 ***** ***** ***** ***** **
677730 ***** 201504270600 070   7 *** *** *** * * * 18.8 ** ** ** ** ** ** ** ** *   66   60 ****** ***** ****** ***  55 ***** ***** ***** ***** **
677730 ***** 201504271200 220   2 ***  35 BKN * * * 18.8 ** ** ** ** ** ** ** ** *   81   66 ****** ***** ****** *** *** ***** ***** ***** ***** **
677730 ***** 201504280600 060   3 *** *** *** * * * 18.8 ** ** ** ** ** ** ** ** *   67   59 ****** ***** ****** ***  53 ***** ***** ***** ***** **
677730 ***** 201504281200 270   3 *** *** SCT * * * 18.8 ** ** ** ** ** ** ** ** *   80   58 ****** ***** ****** *** *** ***** ***** ***** ***** **
677730 ***** 201504290600 070   5 *** *** SCT * * * 18.8 ** ** ** ** ** ** ** ** *   65   58 ****** ***** ****** ***  52 ***** ***** ***** ***** **
677730 ***** 201504291200 270   6 *** *** SCT * * * 18.8 ** ** ** ** ** ** ** ** *   79   57 ****** ***** ****** *** *** ***** ***** ***** ***** **
677730 ***** 201504300600 070   3 *** *** *** * * * 18.8 ** ** ** ** ** ** ** ** *   66   59 ****** ***** ****** ***  52 ***** ***** ***** ***** **
677730 ***** 201505010600 ***   0 *** *** *** * * * 12.5 05 ** ** ** ** ** ** ** 0   68   59 ****** ***** ****** ***  54 ***** ***** ***** ***** **
677730 ***** 201505020600 080   7 *** *** *** * * * 12.5 05 ** ** ** ** ** ** ** 0   69   62 ****** ***** ****** ***  56 ***** ***** ***** ***** **
677730 ***** 201505021200 020   3 *** *** SCT * * * 18.8 ** ** ** ** ** ** ** ** *   78   62 ****** ***** ****** *** *** ***** ***** ***** ***** **
677730 ***** 201505030600 050   1 *** *** *** * * * 12.5 05 ** ** ** ** ** ** ** 0   66   60 ****** ***** ****** ***  56 ***** ***** ***** ***** **
677730 ***** 201505040600 030   1 *** *** SCT * * * 12.5 05 ** ** ** ** ** ** ** 0   67   60 ****** ***** ****** ***  60 ***** ***** ***** ***** **
677730 ***** 201505041200 360   3 *** *** SCT * * * 18.8 ** ** ** ** ** ** ** ** *   81   54 ****** ***** ****** *** *** ***** ***** ***** ***** **
677730 ***** 201505050600 070  10 *** *** SCT * * * 12.5 ** ** ** ** ** ** ** ** *   66   60 ****** ***** ****** ***  55 ***** ***** ***** ***** **
677730 ***** 201505060600 100   2 *** *** *** * * * 12.5 05 ** ** ** ** ** ** ** 0   65   59 ****** ***** ****** ***  56 ***** ***** ***** ***** **
677730 ***** 201505061200 180   6 *** *** SCT * * * 18.8 ** ** ** ** ** ** ** ** *   82   57 ****** ***** ****** *** *** ***** ***** ***** ***** **
677730 ***** 201505070600 070   5 *** *** *** * * * 18.8 ** ** ** ** ** ** ** ** *   67   59 ****** ***** ****** ***  56 ***** ***** ***** ***** **
677730 ***** 201505071200 060   6 *** *** SCT * * * 18.8 ** ** ** ** ** ** ** ** *   83   51 ****** ***** ****** *** *** ***** ***** ***** ***** **
677730 ***** 201505080600 040   6 *** *** SCT * * * 18.8 ** ** ** ** ** ** ** ** *   65   57 ****** ***** ****** ***  54 ***** ***** ***** ***** **
677730 ***** 201505081200 070   8 ***  39 BKN * * * 18.8 ** ** ** ** ** ** ** ** *   74   56 ****** ***** ****** *** *** ***** ***** ***** ***** **
677730 ***** 201505090600 090   7 ***  98 BKN * * * 12.5 05 ** ** ** ** ** ** ** 1   61   58 ****** ***** ****** ***  53 ***** ***** ***** ***** **
677730 ***** 201505091200 030   3 *** *** SCT * * * 18.8 ** ** ** ** ** ** ** ** *   75   60 ****** ***** ****** *** *** ***** ***** ***** ***** **
677730 ***** 201505100600 ***   0 ***  16 BKN * * * 18.8 ** ** ** ** ** ** ** ** *   62   59 ****** ***** ****** ***  53 ***** ***** ***** ***** **
677730 ***** 201505101200 230   5 *** *** SCT * * * 18.8 ** ** ** ** ** ** ** ** *   77   58 ****** ***** ****** *** *** ***** ***** ***** ***** **
677730 ***** 201505110600 090   6 *** *** *** * * * 18.8 ** ** ** ** ** ** ** ** *   65   60 ****** ***** ****** ***  54 ***** ***** ***** ***** **
677730 ***** 201505111200 320   6 ***  44 BKN * * * 18.8 ** ** ** ** ** ** ** ** *   81   56 ****** ***** ****** *** *** ***** ***** ***** ***** **
677730 ***** 201505120600 080  10 *** *** SCT * * * 18.8 ** ** ** ** ** ** ** ** *   66   59 ****** ***** ****** ***  58 ***** ***** ***** ***** **
677730 ***** 201505121200 360   7 ***  47 BKN * * * 18.8 ** ** ** ** ** ** ** ** *   78   60 ****** ***** ****** *** *** ***** ***** ***** ***** **
677730 ***** 201505131200 360   6 *** *** SCT * * * 18.8 ** ** ** ** ** ** ** ** *   80   59 ****** ***** ****** *** *** ***** ***** ***** ***** **
677730 ***** 201505141200 280   3 *** *** SCT * * * 12.5 ** ** ** ** ** ** ** ** *   82   58 ****** ***** ****** *** *** ***** ***** ***** ***** **
677730 ***** 201505150600 060   6 ***  98 BKN * * * 12.5 05 ** ** ** ** ** ** ** 1   65   58 ****** ***** ****** ***  53 ***** ***** ***** ***** **
677730 ***** 201505151200 350   3 *** *** SCT * * * 18.8 ** ** ** ** ** ** ** ** *   82   52 ****** ***** ****** *** *** ***** ***** ***** ***** **
677730 ***** 201505160600 100  10 *** *** *** * * * 18.8 ** ** ** ** ** ** ** ** *   66   51 ****** ***** ****** ***  51 ***** ***** ***** ***** **
677730 ***** 201505161200 270   9 ***  98 BKN * * * 18.8 ** ** ** ** ** ** ** ** *   82   53 ****** ***** ****** *** *** ***** ***** ***** ***** **
677730 ***** 201505170600 050   3 *** *** *** * * * 18.8 ** ** ** ** ** ** ** ** *   62   51 ****** ***** ****** ***  45 ***** ***** ***** ***** **
677730 ***** 201505180600 060   8 *** *** SCT * * * 12.5 05 ** ** ** ** ** ** ** 0   60   53 ****** ***** ****** ***  45 ***** ***** ***** ***** **
677730 ***** 201505181200 060  10 *** *** SCT * * * 18.8 ** ** ** ** ** ** ** ** *   76   51 ****** ***** ****** *** *** ***** ***** ***** ***** **
677730 ***** 201505190600 050   7 *** *** SCT * * * 18.8 ** ** ** ** ** ** ** ** *   63   54 ****** ***** ****** ***  48 ***** ***** ***** ***** **
677730 ***** 201505191200 040   9 *** *** *** * * * 18.8 ** ** ** ** ** ** ** ** *   78   52 ****** ***** ****** *** *** ***** ***** ***** ***** **
677730 ***** 201505200600 050   3 *** *** *** * * * 12.5 05 ** ** ** ** ** ** ** 0   62   54 ****** ***** ****** ***  44 ***** ***** ***** ***** **
677730 ***** 201505201200 350   6 *** *** *** * * * 18.8 ** ** ** ** ** ** ** ** *   80   47 ****** ***** ****** *** *** ***** ***** ***** ***** **
677730 ***** 201505210600 040   2 *** *** *** * * * 12.5 05 ** ** ** ** ** ** ** 0   60   55 ****** ***** ****** ***  47 ***** ***** ***** ***** **
677730 ***** 201505211200 060   6 *** *** *** * * * 18.8 ** ** ** ** ** ** ** ** *   78   49 ****** ***** ****** *** *** ***** ***** ***** ***** **
677730 ***** 201505220600 040   2 *** *** *** * * * 18.8 ** ** ** ** ** ** ** ** *   60   54 ****** ***** ****** ***  46 ***** ***** ***** ***** **
677730 ***** 201505221200 070   9 *** *** SCT * * * 21.9 ** ** ** ** ** ** ** ** *   76   51 ****** ***** ****** *** *** ***** ***** ***** ***** **
677730 ***** 201505230600 120   7 *** *** *** * * * 18.8 ** ** ** ** ** ** ** ** *   61   47 ****** ***** ****** ***  46 ***** ***** ***** ***** **
677730 ***** 201505231200 070  10 *** *** SCT * * * 18.8 ** ** ** ** ** ** ** ** *   76   47 ****** ***** ****** *** *** ***** ***** ***** ***** **
677730 ***** 201505240600 ***   0 ***  98 BKN * * * 18.8 ** ** ** ** ** ** ** ** *   63   57 ****** ***** ****** ***  51 ***** ***** ***** ***** **
677730 ***** 201505241200 070   8 ***  30 BKN * * * 18.8 ** ** ** ** ** ** ** ** *   74   53 ****** ***** ****** *** *** ***** ***** ***** ***** **
677730 ***** 201505250600 040   3 *** *** *** * * * 18.8 ** ** ** ** ** ** ** ** *   63   57 ****** ***** ****** ***  49 ***** ***** ***** ***** **
677730 ***** 201505260600 070   7 *** *** *** * * * 18.8 ** ** ** ** ** ** ** ** *   62   54 ****** ***** ****** ***  47 ***** ***** ***** ***** **
677730 ***** 201505261200 360   5 *** *** SCT * * * 18.8 ** ** ** ** ** ** ** ** *   80   54 ****** ***** ****** *** *** ***** ***** ***** ***** **
677730 ***** 201505270600 050   3 *** *** SCT * * * 18.8 ** ** ** ** ** ** ** ** *   64   53 ****** ***** ****** ***  47 ***** ***** ***** ***** **
677730 ***** 201505271200 040  10 *** *** SCT * * * 18.8 ** ** ** ** ** ** ** ** *   79   54 ****** ***** ****** *** *** ***** ***** ***** ***** **
677730 ***** 201505280600 080  10 *** *** *** * * * 18.8 ** ** ** ** ** ** ** ** *   64   56 ****** ***** ****** ***  51 ***** ***** ***** ***** **
677730 ***** 201505290600 060   8 *** *** *** * * * 18.8 ** ** ** ** ** ** ** ** *   64   56 ****** ***** ****** ***  51 ***** ***** ***** ***** **
677730 ***** 201505291200 360   2 *** *** *** * * * 21.9 ** ** ** ** ** ** ** ** *   80   45 ****** ***** ****** *** *** ***** ***** ***** ***** **
677730 ***** 201505300600 090   1 *** *** *** * * * 18.8 ** ** ** ** ** ** ** ** *   63   51 ****** ***** ****** ***  48 ***** ***** ***** ***** **
677730 ***** 201505301200 030   6 *** *** *** * * * 18.8 ** ** ** ** ** ** ** ** *   79   52 ****** ***** ****** *** *** ***** ***** ***** ***** **
677730 ***** 201505310600 080   8 *** *** SCT * * * 18.8 ** ** ** ** ** ** ** ** *   62   52 ****** ***** ****** ***  46 ***** ***** ***** ***** **
677730 ***** 201506010600 080   8 *** *** SCT * * * 18.8 ** ** ** ** ** ** ** ** *   64   58 ****** ***** ****** ***  50 ***** ***** ***** ***** **
677730 ***** 201506011200 060   5 ***  39 BKN * * * 18.8 ** ** ** ** ** ** ** ** *   77   57 ****** ***** ****** *** *** ***** ***** ***** ***** **
677730 ***** 201506020600 090   9 *** *** SCT * * * 18.8 ** ** ** ** ** ** ** ** *   66   56 ****** ***** ****** ***  54 ***** ***** ***** ***** **
677730 ***** 201506021200 360   6 *** *** SCT * * * 18.8 ** ** ** ** ** ** ** ** *   79   54 ****** ***** ****** *** *** ***** ***** ***** ***** **
677730 ***** 201506030600 090  10 *** *** *** * * * 18.8 ** ** ** ** ** ** ** ** *   64   56 ****** ***** ****** ***  51 ***** ***** ***** ***** **
677730 ***** 201506031200 050   7 *** *** SCT * * * 18.8 ** ** ** ** ** ** ** ** *   78   55 ****** ***** ****** *** *** ***** ***** ***** ***** **
677730 ***** 201506040600 120   2 *** *** *** * * * 18.8 ** ** ** ** ** ** ** ** *   62   54 ****** ***** ****** ***  48 ***** ***** ***** ***** **
677730 ***** 201506041200 060   3 *** *** *** * * * 18.8 ** ** ** ** ** ** ** ** *   82   55 ****** ***** ****** *** *** ***** ***** ***** ***** **
677730 ***** 201506050600 340   2 *** *** *** * * * 12.5 05 ** ** ** ** ** ** ** 0   67   55 ****** ***** ****** ***  54 ***** ***** ***** ***** **
677730 ***** 201506051200 180   6 ***  98 BKN * * * 18.8 ** ** ** ** ** ** ** ** *   86   44 ****** ***** ****** *** *** ***** ***** ***** ***** **
677730 ***** 201506060600 090   7 *** *** SCT * * * 18.8 ** ** ** ** ** ** ** ** *   61   49 ****** ***** ****** ***  56 ***** ***** ***** ***** **
677730 ***** 201506061200 080   8 *** *** SCT * * * 18.8 ** ** ** ** ** ** ** ** *   69   53 ****** ***** ****** *** *** ***** ***** ***** ***** **
677730 ***** 201506070600 080   6 *** *** *** * * * 18.8 ** ** ** ** ** ** ** ** *   58   50 ****** ***** ****** ***  46 ***** ***** ***** ***** **
677730 ***** 201506080600 080   6 *** *** *** * * * 18.8 ** ** ** ** ** ** ** ** *   60   52 ****** ***** ****** ***  45 ***** ***** ***** ***** **
677730 ***** 201506081200 360   5 *** *** SCT * * * 18.8 ** ** ** ** ** ** ** ** *   75   51 ****** ***** ****** *** *** ***** ***** ***** ***** **
677730 ***** 201506090600 100   6 *** *** *** * * * 18.8 ** ** ** ** ** ** ** ** *   59   49 ****** ***** ****** ***  44 ***** ***** ***** ***** **
677730 ***** 201506091200 090   9 *** *** SCT * * * 18.8 ** ** ** ** ** ** ** ** *   76   45 ****** ***** ****** *** *** ***** ***** ***** ***** **
677730 ***** 201506100600 070   7 *** *** SCT * * * 18.8 ** ** ** ** ** ** ** ** *   61   49 ****** ***** ****** ***  45 ***** ***** ***** ***** **
677730 ***** 201506101200 040  16 *** *** SCT * * * 21.9 ** ** ** ** ** ** ** ** *   72   46 ****** ***** ****** *** *** ***** ***** ***** ***** **
677730 ***** 201506110600 080   6 *** *** *** * * * 18.8 ** ** ** ** ** ** ** ** *   58   50 ****** ***** ****** ***  46 ***** ***** ***** ***** **
677730 ***** 201506111200 030   8 *** *** SCT * * * 18.8 ** ** ** ** ** ** ** ** *   70   46 ****** ***** ****** *** *** ***** ***** ***** ***** **
677730 ***** 201506120600 090   5 *** *** *** * * * 18.8 ** ** ** ** ** ** ** ** *   55   49 ****** ***** ****** ***  41 ***** ***** ***** ***** **
677730 ***** 201506130600 080   3 *** *** *** * * * 18.8 ** ** ** ** ** ** ** ** *   56   49 ****** ***** ****** ***  43 ***** ***** ***** ***** **
677730 ***** 201506140600 060   7 *** *** *** * * * 12.5 05 ** ** ** ** ** ** ** 0   58   45 ****** ***** ****** ***  40 ***** ***** ***** ***** **
677730 ***** 201506150600 130   2 ***  15 BKN * * * 12.5 ** ** ** ** ** ** ** ** *   55   49 ****** ***** ****** ***  40 ***** ***** ***** ***** **
677730 ***** 201506151200 180   5 *** *** SCT * * * 18.8 ** ** ** ** ** ** ** ** *   73   45 ****** ***** ****** *** *** ***** ***** ***** ***** **
677730 ***** 201506160600 100   6 *** *** *** * * * 12.5 05 ** ** ** ** ** ** ** 0   53   46 ****** ***** ****** ***  40 ***** ***** ***** ***** **
677730 ***** 201506170600 070   1 *** *** *** * * * 12.5 05 ** ** ** ** ** ** ** 0   55   46 ****** ***** ****** ***  39 ***** ***** ***** ***** **
677730 ***** 201506171200 150   6 *** *** *** * * * 18.8 ** ** ** ** ** ** ** ** *   77   45 ****** ***** ****** *** *** ***** ***** ***** ***** **
677730 ***** 201506180600 070   5 *** *** *** * * * 18.8 ** ** ** ** ** ** ** ** *   55   44 ****** ***** ****** ***  42 ***** ***** ***** ***** **
677730 ***** 201506181200 150   5 *** *** *** * * * 18.8 ** ** ** ** ** ** ** ** *   78   44 ****** ***** ****** *** *** ***** ***** ***** ***** **
677730 ***** 201506190600 090  11 *** *** SCT * * * 12.5 05 ** ** ** ** ** ** ** 0   62   53 ****** ***** ****** ***  49 ***** ***** ***** ***** **
677730 ***** 201506191200 110   8 *** *** SCT * * * 18.8 ** ** ** ** ** ** ** ** *   74   47 ****** ***** ****** *** *** ***** ***** ***** ***** **
677730 ***** 201506200600 090   7 *** *** SCT * * * 18.8 ** ** ** ** ** ** ** ** *   60   49 ****** ***** ****** ***  47 ***** ***** ***** ***** **
677730 ***** 201506201200 090   9 ***  28 BKN * * * 18.8 ** ** ** ** ** ** ** ** *   64   47 ****** ***** ****** *** *** ***** ***** ***** ***** **
677730 ***** 201506230600 070   6 *** *** SCT * * * 18.8 ** ** ** ** ** ** ** ** *   63   52 ****** ***** ****** ***  51 ***** ***** ***** ***** **
677730 ***** 201506231200 300   2 *** *** SCT * * * 18.8 ** ** ** ** ** ** ** ** *   76   47 ****** ***** ****** *** *** ***** ***** ***** ***** **
677730 ***** 201506240600 090   3 *** *** *** * * * 18.8 ** ** ** ** ** ** ** ** *   59   49 ****** ***** ****** ***  46 ***** ***** ***** ***** **
677730 ***** 201506241200 360   7 *** *** SCT * * * 18.8 ** ** ** ** ** ** ** ** *   77   52 ****** ***** ****** *** *** ***** ***** ***** ***** **
677730 ***** 201506250600 090   5 *** *** SCT * * * 18.8 ** ** ** ** ** ** ** ** *   61   56 ****** ***** ****** ***  48 ***** ***** ***** ***** **
677730 ***** 201506251200 250   8 *** *** SCT * * * 18.8 ** ** ** ** ** ** ** ** *   79   53 ****** ***** ****** *** *** ***** ***** ***** ***** **
677730 ***** 201506260600 090  11 ***  89 BKN * * * 18.8 ** ** ** ** ** ** ** ** *   64   59 ****** ***** ****** ***  53 ***** ***** ***** ***** **
677730 ***** 201506271200 360   5 *** *** SCT * * * 18.8 ** ** ** ** ** ** ** ** *   75   52 ****** ***** ****** *** *** ***** ***** ***** ***** **
677730 ***** 201506280600 100   2 *** *** *** * * * 12.5 05 ** ** ** ** ** ** ** 0   56   50 ****** ***** ****** ***  44 ***** ***** ***** ***** **
677730 ***** 201506290600 050   2 *** *** *** * * * 18.8 ** ** ** ** ** ** ** ** *   56   48 ****** ***** ****** ***  41 ***** ***** ***** ***** **
677730 ***** 201506291200 350   5 *** *** *** * * * 18.8 ** ** ** ** ** ** ** ** *   77   40 ****** ***** ****** *** *** ***** ***** ***** ***** **
677730 ***** 201506300600 090   7 *** *** *** * * * 18.8 ** ** ** ** ** ** ** ** *   61   49 ****** ***** ****** ***  45 ***** ***** ***** ***** **
677730 ***** 201507010600 080   9 *** *** *** * * * 18.8 ** ** ** ** ** ** ** ** *   58   39 ****** ***** ****** ***  45 ***** ***** ***** ***** **
677730 ***** 201507011200 050   8 *** *** *** * * * 18.8 ** ** ** ** ** ** ** ** *   73   37 ****** ***** ****** *** *** ***** ***** ***** ***** **
677730 ***** 201507020600 080  10 *** *** SCT * * * 12.5 05 ** ** ** ** ** ** ** 0   59   51 ****** ***** ****** ***  44 ***** ***** ***** ***** **
677730 ***** 201507021200 090   8 ***  30 BKN * * * 18.8 ** ** ** ** ** ** ** ** *   67   51 ****** ***** ****** *** *** ***** ***** ***** ***** **
677730 ***** 201507030600 080  13 *** *** SCT * * * 12.5 05 ** ** ** ** ** ** ** 0   57   45 ****** ***** ****** ***  50 ***** ***** ***** ***** **
677730 ***** 201507031200 060  15 *** *** SCT * * * 18.8 ** ** ** ** ** ** ** ** *   71   42 ****** ***** ****** *** *** ***** ***** ***** ***** **
677730 ***** 201507040600 080  10 *** *** *** * * * 18.8 ** ** ** ** ** ** ** ** *   56   49 ****** ***** ****** ***  44 ***** ***** ***** ***** **
677730 ***** 201507050600 120   2 *** *** *** * * * 12.5 05 ** ** ** ** ** ** ** 0   55   48 ****** ***** ****** ***  40 ***** ***** ***** ***** **
677730 ***** 201507060600 100   2 *** *** *** * * * 18.8 ** ** ** ** ** ** ** ** *   59   49 ****** ***** ****** ***  40 ***** ***** ***** ***** **
677730 ***** 201507061200 350   3 *** *** *** * * * 18.8 ** ** ** ** ** ** ** ** *   78   46 ****** ***** ****** *** *** ***** ***** ***** ***** **
677730 ***** 201507070600 090   8 *** *** SCT * * * 18.8 ** ** ** ** ** ** ** ** *   62   49 ****** ***** ****** ***  49 ***** ***** ***** ***** **
677730 ***** 201507071200 110  11 *** *** SCT * * * 18.8 ** ** ** ** ** ** ** ** *   72   48 ****** ***** ****** *** *** ***** ***** ***** ***** **
677730 ***** 201507080600 120   3 *** *** SCT * * * 12.5 ** ** ** ** ** ** ** ** *   57   48 ****** ***** ****** ***  42 ***** ***** ***** ***** **
677730 ***** 201507081200 050  10 *** *** SCT * * * 18.8 ** ** ** ** ** ** ** ** *   72   49 ****** ***** ****** *** *** ***** ***** ***** ***** **
677730 ***** 201507090600 060   2 *** *** SCT * * * 18.8 ** ** ** ** ** ** ** ** *   58   51 ****** ***** ****** ***  46 ***** ***** ***** ***** **
677730 ***** 201507091200 150   9 *** *** *** * * * 18.8 ** ** ** ** ** ** ** ** *   76   48 ****** ***** ****** *** *** ***** ***** ***** ***** **
677730 ***** 201507100600 070   9 *** *** *** * * * 18.8 ** ** ** ** ** ** ** ** *   59   49 ****** ***** ****** ***  46 ***** ***** ***** ***** **
677730 ***** 201507101200 040   9 *** *** *** * * * 18.8 ** ** ** ** ** ** ** ** *   74   48 ****** ***** ****** *** *** ***** ***** ***** ***** **
677730 ***** 201507110600 070   7 *** *** *** * * * 18.8 ** ** ** ** ** ** ** ** *   57   46 ****** ***** ****** ***  46 ***** ***** ***** ***** **
677730 ***** 201507111200 050   3 *** *** *** * * * 18.8 ** ** ** ** ** ** ** ** *   73   44 ****** ***** ****** *** *** ***** ***** ***** ***** **
677730 ***** 201507120600 060   3 *** *** *** * * * 12.5 05 ** ** ** ** ** ** ** 0   54   49 ****** ***** ****** ***  42 ***** ***** ***** ***** **
677730 ***** 201507121200 340   5 *** *** *** * * * 18.8 ** ** ** ** ** ** ** ** *   74   49 ****** ***** ****** *** *** ***** ***** ***** ***** **
677730 ***** 201507130600 120   5 *** *** *** * * * 12.5 05 ** ** ** ** ** ** ** 0   56   46 ****** ***** ****** ***  41 ***** ***** ***** ***** **
677730 ***** 201507131200 360   5 *** *** *** * * * 18.8 ** ** ** ** ** ** ** ** *   78   45 ****** ***** ****** *** *** ***** ***** ***** ***** **
677730 ***** 201507140600 090   7 *** *** *** * * * 18.8 ** ** ** ** ** ** ** ** *   62   48 ****** ***** ****** ***  43 ***** ***** ***** ***** **
677730 ***** 201507150600 100   8 *** *** *** * * * 12.5 05 ** ** ** ** ** ** ** 0   61   53 ****** ***** ****** ***  51 ***** ***** ***** ***** **
677730 ***** 201507151200 360   6 *** *** *** * * * 18.8 ** ** ** ** ** ** ** ** *   76   49 ****** ***** ****** *** *** ***** ***** ***** ***** **
677730 ***** 201507160600 070   6 *** *** *** * * * 18.8 ** ** ** ** ** ** ** ** *   59   50 ****** ***** ****** ***  43 ***** ***** ***** ***** **
677730 ***** 201507161200 330   7 *** *** *** * * * 18.8 ** ** ** ** ** ** ** ** *   75   48 ****** ***** ****** *** *** ***** ***** ***** ***** **
677730 ***** 201507170600 070   2 *** *** *** * * * 18.8 ** ** ** ** ** ** ** ** *   57   48 ****** ***** ****** ***  42 ***** ***** ***** ***** **
677730 ***** 201507171200 340   8 *** *** *** * * * 18.8 ** ** ** ** ** ** ** ** *   78   47 ****** ***** ****** *** *** ***** ***** ***** ***** **
677730 ***** 201507180600 ***   0 *** *** *** * * * 12.5 05 ** ** ** ** ** ** ** 0   58   47 ****** ***** ****** ***  42 ***** ***** ***** ***** **
677730 ***** 201507181200 340   3 *** *** *** * * * 18.8 ** ** ** ** ** ** ** ** *   82   46 ****** ***** ****** *** *** ***** ***** ***** ***** **
677730 ***** 201507190600 ***   0 *** *** *** * * * 18.8 ** ** ** ** ** ** ** ** *   63   46 ****** ***** ****** ***  47 ***** ***** ***** ***** **
677730 ***** 201507200600 080  10 *** *** SCT * * * 18.8 ** ** ** ** ** ** ** ** *   65   55 ****** ***** ****** ***  53 ***** ***** ***** ***** **
677730 ***** 201507201200 070  10 *** *** SCT * * * 18.8 ** ** ** ** ** ** ** ** *   78   47 ****** ***** ****** *** *** ***** ***** ***** ***** **
677730 ***** 201507210600 080  10 *** *** SCT * * * 18.8 ** ** ** ** ** ** ** ** *   65   51 ****** ***** ****** ***  55 ***** ***** ***** ***** **
677730 ***** 201507211200 060   6 ***  31 BKN * * * 18.8 ** ** ** ** ** ** ** ** *   72   48 ****** ***** ****** *** *** ***** ***** ***** ***** **
677730 ***** 201507220600 080  13 *** *** SCT * * * 18.8 ** ** ** ** ** ** ** ** *   65   52 ****** ***** ****** ***  52 ***** ***** ***** ***** **
677730 ***** 201507221200 060  10 *** *** SCT * * * 18.8 ** ** ** ** ** ** ** ** *   76   51 ****** ***** ****** *** *** ***** ***** ***** ***** **
677730 ***** 201507230600 080   9 *** *** SCT * * * 12.5 05 ** ** ** ** ** ** ** 0   63   53 ****** ***** ****** ***  54 ***** ***** ***** ***** **
677730 ***** 201507231200 040   8 ***  30 BKN * * * 18.8 ** ** ** ** ** ** ** ** *   74   53 ****** ***** ****** *** *** ***** ***** ***** ***** **
677730 ***** 201507240600 090   3 *** *** SCT * * * 18.8 ** ** ** ** ** ** ** ** *   63   52 ****** ***** ****** ***  49 ***** ***** ***** ***** **
677730 ***** 201507241200 050   7 *** *** SCT * * * 18.8 ** ** ** ** ** ** ** ** *   76   51 ****** ***** ****** *** *** ***** ***** ***** ***** **
677730 ***** 201507250600 100   3 *** *** *** * * * 12.5 05 ** ** ** ** ** ** ** 0   58   49 ****** ***** ****** ***  47 ***** ***** ***** ***** **
677730 ***** 201507251200 320   6 *** *** *** * * * 12.5 05 ** ** ** ** ** ** ** 0   82   47 ****** ***** ****** *** *** ***** ***** ***** ***** **
677730 ***** 201507260600 090   5 *** *** *** * * * 12.5 05 ** ** ** ** ** ** ** 0   60   49 ****** ***** ****** ***  48 ***** ***** ***** ***** **
677730 ***** 201507261200 130   5 *** *** SCT * * * 12.5 05 ** ** ** ** ** ** ** 0   86   48 ****** ***** ****** *** *** ***** ***** ***** ***** **
677730 ***** 201507270600 100   2 *** *** *** * * *  9.4 05 ** ** ** ** ** ** ** 0   60   46 ****** ***** ****** ***  52 ***** ***** ***** ***** **
677730 ***** 201507271200 350   1 *** *** *** * * * 12.5 05 ** ** ** ** ** ** ** 0   75   47 ****** ***** ****** *** *** ***** ***** ***** ***** **
677730 ***** 201507280600 080   7 *** *** *** * * * 12.5 05 ** ** ** ** ** ** ** 0   60   45 ****** ***** ****** ***  48 ***** ***** ***** ***** **
677730 ***** 201507290600 090   5 *** *** *** * * * 12.5 05 ** ** ** ** ** ** ** 0   60   54 ****** ***** ****** ***  49 ***** ***** ***** ***** **
677730 ***** 201507291200 360   7 *** *** SCT * * * 18.8 ** ** ** ** ** ** ** ** *   79   48 ****** ***** ****** *** *** ***** ***** ***** ***** **
677730 ***** 201507300600 080   6 *** *** SCT * * * 12.5 05 ** ** ** ** ** ** ** 0   60   49 ****** ***** ****** ***  47 ***** ***** ***** ***** **
677730 ***** 201507301200 350   3 *** *** *** * * * 18.8 ** ** ** ** ** ** ** ** *   82   48 ****** ***** ****** *** *** ***** ***** ***** ***** **
677730 ***** 201507310600 060   5 *** *** *** * * * 12.5 05 ** ** ** ** ** ** ** 0   64   50 ****** ***** ****** ***  49 ***** ***** ***** ***** **
677730 ***** 201507311200 240   6 *** *** *** * * * 12.5 05 ** ** ** ** ** ** ** 0   89   43 ****** ***** ****** *** *** ***** ***** ***** ***** **
677730 ***** 201508010600 090  13 *** *** *** * * * 18.8 ** ** ** ** ** ** ** ** *   65   33 ****** ***** ****** ***  47 ***** ***** ***** ***** **
677730 ***** 201508011200 050  11 *** *** *** * * * 12.5 05 ** ** ** ** ** ** ** 0   76   48 ****** ***** ****** *** *** ***** ***** ***** ***** **
677730 ***** 201508020600 070  21 *** *** *** * * * 18.8 ** ** ** ** ** ** ** ** *   57   39 ****** ***** ****** ***  51 ***** ***** ***** ***** **
677730 ***** 201508030600 070  13 *** *** *** * * * 12.5 05 ** ** ** ** ** ** ** 0   58   42 ****** ***** ****** ***  46 ***** ***** ***** ***** **
677730 ***** 201508040600 060   7 *** *** *** * * * 18.8 ** ** ** ** ** ** ** ** *   57   48 ****** ***** ****** ***  38 ***** ***** ***** ***** **
677730 ***** 201508041200 100   7 *** *** *** * * * 18.8 ** ** ** ** ** ** ** ** *   75   41 ****** ***** ****** *** *** ***** ***** ***** ***** **
677730 ***** 201508050600 090   2 *** *** *** * * * 18.8 ** ** ** ** ** ** ** ** *   56   42 ****** ***** ****** ***  39 ***** ***** ***** ***** **
677730 ***** 201508051200 050   5 *** *** *** * * * 18.8 ** ** ** ** ** ** ** ** *   80   34 ****** ***** ****** *** *** ***** ***** ***** ***** **
677730 ***** 201508060600 060   5 *** *** *** * * * 12.5 05 ** ** ** ** ** ** ** 0   57   43 ****** ***** ****** ***  41 ***** ***** ***** ***** **
677730 ***** 201508061200 120  10 *** *** *** * * * 12.5 05 ** ** ** ** ** ** ** 0   78   37 ****** ***** ****** *** *** ***** ***** ***** ***** **
677730 ***** 201508070600 100  14 *** *** *** * * * 18.8 ** ** ** ** ** ** ** ** *   60   47 ****** ***** ****** ***  50 ***** ***** ***** ***** **
677730 ***** 201508071200 050   7 *** *** *** * * * 18.8 ** ** ** ** ** ** ** ** *   75   39 ****** ***** ****** *** *** ***** ***** ***** ***** **
677730 ***** 201508080600 130   3 *** *** *** * * * 18.8 ** ** ** ** ** ** ** ** *   58   47 ****** ***** ****** ***  40 ***** ***** ***** ***** **
677730 ***** 201508081200 040   6 *** *** *** * * * 18.8 ** ** ** ** ** ** ** ** *   77   37 ****** ***** ****** *** *** ***** ***** ***** ***** **
677730 ***** 201508090600 090   5 *** *** *** * * * 12.5 05 ** ** ** ** ** ** ** 0   59   50 ****** ***** ****** ***  43 ***** ***** ***** ***** **
677730 ***** 201508091200 050   8 *** *** *** * * * 18.8 ** ** ** ** ** ** ** ** *   78   40 ****** ***** ****** *** *** ***** ***** ***** ***** **
677730 ***** 201508100600 110   6 *** *** *** * * * 12.5 05 ** ** ** ** ** ** ** 0   56   46 ****** ***** ****** ***  42 ***** ***** ***** ***** **
677730 ***** 201508110600 060   9 *** *** *** * * * 11.2 05 ** ** ** ** ** ** ** 0   65   47 ****** ***** ****** ***  46 ***** ***** ***** ***** **
677730 ***** 201508111200 030   5 *** *** *** * * * 12.5 05 ** ** ** ** ** ** ** 0   78   42 ****** ***** ****** *** *** ***** ***** ***** ***** **
677730 ***** 201508120600 100   5 *** *** *** * * * 12.5 05 ** ** ** ** ** ** ** 0   65   47 ****** ***** ****** ***  48 ***** ***** ***** ***** **
677730 ***** 201508121200 020  11 *** *** *** * * * 11.2 05 ** ** ** ** ** ** ** 0   79   41 ****** ***** ****** *** *** ***** ***** ***** ***** **
677730 ***** 201508130600 060   5 *** *** *** * * * 12.5 05 ** ** ** ** ** ** ** 0   66   49 ****** ***** ****** ***  50 ***** ***** ***** ***** **
677730 ***** 201508131200 030   9 *** *** *** * * * 12.5 05 ** ** ** ** ** ** ** 0   80   42 ****** ***** ****** *** *** ***** ***** ***** ***** **
677730 ***** 201508140600 080   6 *** *** SCT * * * 12.5 05 ** ** ** ** ** ** ** 0   67   45 ****** ***** ****** ***  48 ***** ***** ***** ***** **
677730 ***** 201508141200 080  13 ***  98 BKN * * * 12.5 05 ** ** ** ** ** ** ** 0   83   38 ****** ***** ****** *** *** ***** ***** ***** ***** **
677730 ***** 201508150600 080  15 *** *** *** * * * 11.2 05 ** ** ** ** ** ** ** 0   67   37 ****** ***** ****** ***  55 ***** ***** ***** ***** **
677730 ***** 201508151200 060  13 *** *** *** * * * 12.5 05 ** ** ** ** ** ** ** 0   82   40 ****** ***** ****** *** *** ***** ***** ***** ***** **
677730 ***** 201508160600 070  17 *** *** *** * * * 11.2 05 ** ** ** ** ** ** ** 0   67   54 ****** ***** ****** ***  51 ***** ***** ***** ***** **
677730 ***** 201508170600 090  10 *** *** *** * * * 12.5 05 ** ** ** ** ** ** ** 0   68   52 ****** ***** ****** ***  54 ***** ***** ***** ***** **
677730 ***** 201508171200 120  15 *** *** *** * * * 18.8 ** ** ** ** ** ** ** ** *   82   49 ****** ***** ****** *** *** ***** ***** ***** ***** **
677730 ***** 201508180600 060   7 *** *** *** * * * 11.2 05 ** ** ** ** ** ** ** 0   65   50 ****** ***** ****** ***  54 ***** ***** ***** ***** **
677730 ***** 201508181200 050   5 *** *** *** * * * 12.5 05 ** ** ** ** ** ** ** 0   82   49 ****** ***** ****** *** *** ***** ***** ***** ***** **
677730 ***** 201508190600 090   9 *** *** *** * * * 12.5 05 ** ** ** ** ** ** ** 0   65   52 ****** ***** ****** ***  51 ***** ***** ***** ***** **
677730 ***** 201508191200 360   7 *** *** *** * * * 12.5 05 ** ** ** ** ** ** ** 0   83   49 ****** ***** ****** *** *** ***** ***** ***** ***** **
677730 ***** 201508200600 080   5 *** *** *** * * * 11.2 05 ** ** ** ** ** ** ** 0   75   40 ****** ***** ****** ***  49 ***** ***** ***** ***** **
677730 ***** 201508201200 030   6 *** *** *** * * * 12.5 05 ** ** ** ** ** ** ** 0   86   44 ****** ***** ****** *** *** ***** ***** ***** ***** **
677730 ***** 201508210600 ***   0 *** *** *** * * * 12.5 05 ** ** ** ** ** ** ** 0   55   40 ****** ***** ****** ***  46 ***** ***** ***** ***** **
677730 ***** 201508211200 360  13 *** *** *** * * * 12.5 05 ** ** ** ** ** ** ** 0   83   52 ****** ***** ****** *** *** ***** ***** ***** ***** **
677730 ***** 201508220600 060   6 *** *** *** * * * 11.2 05 ** ** ** ** ** ** ** 0   66   53 ****** ***** ****** ***  53 ***** ***** ***** ***** **
677730 ***** 201508221200 050   9 *** *** *** * * * 12.5 05 ** ** ** ** ** ** ** 0   85   49 ****** ***** ****** *** *** ***** ***** ***** ***** **
677730 ***** 201508230600 080   5 *** *** *** * * * 11.2 05 ** ** ** ** ** ** ** 0   68   53 ****** ***** ****** ***  56 ***** ***** ***** ***** **
677730 ***** 201508231200 030  11 *** *** *** * * * 11.2 05 ** ** ** ** ** ** ** 0   83   53 ****** ***** ****** *** *** ***** ***** ***** ***** **
677730 ***** 201508240600 080  10 *** *** *** * * * 12.5 05 ** ** ** ** ** ** ** 0   66   54 ****** ***** ****** ***  58 ***** ***** ***** ***** **
677730 ***** 201508250600 090   5 *** *** *** * * * 12.5 05 ** ** ** ** ** ** ** 0   64   56 ****** ***** ****** ***  52 ***** ***** ***** ***** **
677730 ***** 201508251200 360   7 *** *** *** * * * 18.8 ** ** ** ** ** ** ** ** *   82   52 ****** ***** ****** *** *** ***** ***** ***** ***** **
677730 ***** 201508260600 070  15 *** *** *** * * * 12.5 05 ** ** ** ** ** ** ** 0   64   52 ****** ***** ****** ***  52 ***** ***** ***** ***** **
677730 ***** 201508261200 350   6 *** *** SCT * * * 18.8 ** ** ** ** ** ** ** ** *   82   48 ****** ***** ****** *** *** ***** ***** ***** ***** **
677730 ***** 201508270600 060   8 *** *** *** * * * 12.5 05 ** ** ** ** ** ** ** 0   66   51 ****** ***** ****** ***  55 ***** ***** ***** ***** **
677730 ***** 201508280600 070  11 *** *** *** * * * 11.2 05 ** ** ** ** ** ** ** 0   69   50 ****** ***** ****** ***  54 ***** ***** ***** ***** **
677730 ***** 201508281200 030   5 *** *** SCT * * * 12.5 05 ** ** ** ** ** ** ** 0   83   53 ****** ***** ****** *** *** ***** ***** ***** ***** **
677730 ***** 201508290600 090  13 *** *** *** * * * 11.2 05 ** ** ** ** ** ** ** 0   69   47 ****** ***** ****** ***  55 ***** ***** ***** ***** **
677730 ***** 201508291200 100  10 *** *** *** * * * 12.5 05 ** ** ** ** ** ** ** 0   85   46 ****** ***** ****** *** *** ***** ***** ***** ***** **
677730 ***** 201508300600 050   5 *** *** *** * * * 11.2 05 ** ** ** ** ** ** ** 0   69   49 ****** ***** ****** ***  56 ***** ***** ***** ***** **
677730 ***** 201508310600 090   6 *** *** *** * * * 11.2 05 ** ** ** ** ** ** ** 0   68   49 ****** ***** ****** ***  59 ***** ***** ***** ***** **
677730 ***** 201508311200 030   9 *** *** SCT * * * 12.5 05 ** ** ** ** ** ** ** 0   83   49 ****** ***** ****** *** *** ***** ***** ***** ***** **
677730 ***** 201509010600 070   7 *** *** *** * * * 12.5 05 ** ** ** ** ** ** ** 0   70   50 ****** ***** ****** ***  53 ***** ***** ***** ***** **
677730 ***** 201509011200 040   9 *** *** *** * * * 12.5 05 ** ** ** ** ** ** ** 0   84   48 ****** ***** ****** *** *** ***** ***** ***** ***** **
677730 ***** 201509020600 ***   0 *** *** *** * * * 11.2 05 ** ** ** ** ** ** ** 0   66   49 ****** ***** ****** ***  52 ***** ***** ***** ***** **
677730 ***** 201509021200 050   6 *** *** *** * * * 12.5 05 ** ** ** ** ** ** ** 0   88   46 ****** ***** ****** *** *** ***** ***** ***** ***** **
677730 ***** 201509030600 060   9 *** *** *** * * * 10.6 05 ** ** ** ** ** ** ** 0   74   47 ****** ***** ****** ***  56 ***** ***** ***** ***** **
677730 ***** 201509031200 050  13 *** *** *** * * * 11.2 05 ** ** ** ** ** ** ** 0   89   46 ****** ***** ****** *** *** ***** ***** ***** ***** **
677730 ***** 201509040600 080  14 *** *** SCT * * * 11.2 05 ** ** ** ** ** ** ** 0   66   55 ****** ***** ****** ***  61 ***** ***** ***** ***** **
677730 ***** 201509041200 060  11 ***  44 BKN * * * 12.5 05 ** ** ** ** ** ** ** 1   75   53 ****** ***** ****** *** *** ***** ***** ***** ***** **
677730 ***** 201509050600 070  15 *** *** SCT * * * 12.5 05 ** ** ** ** ** ** ** 0   64   56 ****** ***** ****** ***  60 ***** ***** ***** ***** **
677730 ***** 201509051200 080  10 *** *** SCT * * * 18.8 ** ** ** ** ** ** ** ** *   77   54 ****** ***** ****** *** *** ***** ***** ***** ***** **
677730 ***** 201509060600 060  17 *** *** SCT * * * 18.8 ** ** ** ** ** ** ** ** *   65   55 ****** ***** ****** ***  55 ***** ***** ***** ***** **
677730 ***** 201509061200 040  13 *** *** SCT * * * 18.8 ** ** ** ** ** ** ** ** *   81   53 ****** ***** ****** *** *** ***** ***** ***** ***** **
677730 ***** 201509070600 060  15 *** *** *** * * * 12.5 05 ** ** ** ** ** ** ** 0   68   56 ****** ***** ****** ***  57 ***** ***** ***** ***** **
677730 ***** 201509071200 350  10 *** *** SCT * * * 18.8 ** ** ** ** ** ** ** ** *   82   56 ****** ***** ****** *** *** ***** ***** ***** ***** **
677730 ***** 201509080600 060  11 *** *** *** * * * 12.5 05 ** ** ** ** ** ** ** 0   71   56 ****** ***** ****** ***  53 ***** ***** ***** ***** **
677730 ***** 201509081200 340   9 *** *** SCT * * * 12.5 05 ** ** ** ** ** ** ** 0   87   50 ****** ***** ****** *** *** ***** ***** ***** ***** **
677730 ***** 201509090600 060  11 *** *** *** * * * 11.2 05 ** ** ** ** ** ** ** 0   76   46 ****** ***** ****** ***  59 ***** ***** ***** ***** **
677730 ***** 201509091200 040   7 *** *** *** * * * 12.5 05 ** ** ** ** ** ** ** 0   90   46 ****** ***** ****** *** *** ***** ***** ***** ***** **
677730 ***** 201509100600 060   6 *** *** *** * * *  3.1 05 ** ** ** ** ** ** ** 0   74   46 ****** ***** ****** ***  59 ***** ***** ***** ***** **
677730 ***** 201509101200 040  10 *** *** *** * * * 10.6 05 ** ** ** ** ** ** ** 0   91   35 ****** ***** ****** *** *** ***** ***** ***** ***** **
677730 ***** 201509110600 050   1 *** *** *** * * * 11.2 05 ** ** ** ** ** ** ** 0   72   48 ****** ***** ****** ***  49 ***** ***** ***** ***** **
677730 ***** 201509120600 090  17 *** *** *** * * *  9.4 05 ** ** ** ** ** ** ** 0   70   50 ****** ***** ****** ***  59 ***** ***** ***** ***** **
677730 ***** 201509121200 080  17 *** *** SCT * * * 18.8 ** ** ** ** ** ** ** ** *   82   49 ****** ***** ****** *** *** ***** ***** ***** ***** **
677730 ***** 201509130600 060  10 *** *** *** * * * 18.8 ** ** ** ** ** ** ** ** *   66   54 ****** ***** ****** ***  58 ***** ***** ***** ***** **
677730 ***** 201509140600 060   9 ***  16 BKN * * * 18.8 ** ** ** ** ** ** ** ** *   62   49 ****** ***** ****** ***  53 ***** ***** ***** ***** **
677730 ***** 201509141200 360   9 *** *** SCT * * * 18.8 ** ** ** ** ** ** ** ** *   72   48 ****** ***** ****** *** *** ***** ***** ***** ***** **
677730 ***** 201509150600 080  11 *** *** SCT * * * 18.8 ** ** ** ** ** ** ** ** *   60   46 ****** ***** ****** ***  42 ***** ***** ***** ***** **
677730 ***** 201509151200 090   8 *** *** *** * * * 21.9 ** ** ** ** ** ** ** ** *   73   45 ****** ***** ****** *** *** ***** ***** ***** ***** **
677730 ***** 201509160600 050   8 *** *** *** * * * 18.8 ** ** ** ** ** ** ** ** *   66   43 ****** ***** ****** ***  44 ***** ***** ***** ***** **
677730 ***** 201509161200 040   8 *** *** *** * * * 18.8 ** ** ** ** ** ** ** ** *   84   40 ****** ***** ****** *** *** ***** ***** ***** ***** **
677730 ***** 201509170600 050   3 *** *** *** * * * 18.8 ** ** ** ** ** ** ** ** *   71   43 ****** ***** ****** ***  48 ***** ***** ***** ***** **
677730 ***** 201509171200 360   6 *** *** *** * * * 12.5 05 ** ** ** ** ** ** ** 0   87   37 ****** ***** ****** *** *** ***** ***** ***** ***** **
677730 ***** 201509180600 090   3 *** *** *** * * * 12.5 05 ** ** ** ** ** ** ** 0   74   42 ****** ***** ****** ***  52 ***** ***** ***** ***** **
677730 ***** 201509181200 340   7 *** *** *** * * * 12.5 05 ** ** ** ** ** ** ** 0   92   37 ****** ***** ****** *** *** ***** ***** ***** ***** **
677730 ***** 201509190600 100  15 *** *** *** * * *  6.2 05 ** ** ** ** ** ** ** 0   78   56 ****** ***** ****** ***  69 ***** ***** ***** ***** **
677730 ***** 201509191200 070  14 *** *** SCT * * * 12.5 05 ** ** ** ** ** ** ** 0   91   49 ****** ***** ****** *** *** ***** ***** ***** ***** **
