  USAF  WBAN YR--MODAHRMN DIR SPD GUS CLG SKC L M H  VSB MW MW MW MW AW AW AW AW W TEMP DEWP    SLP   ALT    STP MAX MIN PCP01 PCP06 PCP24 PCPXX SD
679510 ***** 201501020600 150   6 ***  20 OVC * * * 15.6 ** ** ** ** ** ** ** ** *   65   61 ****** ***** ****** ***  63 ***** *****  0.00 ***** **
679510 ***** 201501021200 150   9 ***  25 BKN * * * 15.6 02 ** ** ** ** ** ** ** 6   71   63 ****** ***** ****** *** *** ***** ***** ***** ***** **
679510 ***** 201501030600 150  11 *** *** SCT * * * 18.8 ** ** ** ** ** ** ** ** *   69   57 ****** ***** ****** ***  61 ***** *****  0.00 ***** **
679510 ***** 201501031200 120   8 *** *** SCT * * * 18.8 ** ** ** ** ** ** ** ** *   82   55 ****** ***** ****** *** *** ***** ***** ***** ***** **
679510 ***** 201501040600 090   9 *** *** SCT * * * 18.8 ** ** ** ** ** ** ** ** *   73   62 ****** ***** ****** ***  61 ***** ***** ***** ***** **
679510 ***** 201501041200 150  10 *** *** SCT * * * 18.8 ** ** ** ** ** ** ** ** *   82   61 ****** ***** ****** *** *** ***** ***** ***** ***** **
679510 ***** 201501050600 120   8 *** *** SCT * * * 18.8 ** ** ** ** ** ** ** ** *   73   61 ****** ***** ****** ***  64 ***** ***** ***** ***** **
679510 ***** 201501051200 170   8 *** *** SCT * * * 18.8 ** ** ** ** ** ** ** ** *   85   56 ****** ***** ****** *** *** ***** ***** ***** ***** **
679510 ***** 201501060600 120   8 *** *** SCT * * * 18.8 ** ** ** ** ** ** ** ** *   75   58 ****** ***** ****** ***  62 ***** ***** ***** ***** **
679510 ***** 201501061200 150   8 *** *** SCT * * * 18.8 ** ** ** ** ** ** ** ** *   86   50 ****** ***** ****** *** *** ***** ***** ***** ***** **
679510 ***** 201501070600 150   8 *** 295 BKN * * * 18.8 ** ** ** ** ** ** ** ** *   73   58 ****** ***** ****** ***  64 ***** ***** ***** ***** **
679510 ***** 201501071200 060  10 *** 295 BKN * * * 18.8 ** ** ** ** ** ** ** ** *   82   58 ****** ***** ****** *** *** ***** ***** ***** ***** **
679510 ***** 201501080600 150   9 *** *** SCT * * * 18.8 ** ** ** ** ** ** ** ** *   70   60 ****** ***** ****** ***  62 ***** ***** ***** ***** **
679510 ***** 201501081200 160  10 *** *** SCT * * * 18.8 ** ** ** ** ** ** ** ** *   82   58 ****** ***** ****** *** *** ***** ***** ***** ***** **
679510 ***** 201501090600 060   7 *** 295 BKN * * * 18.8 ** ** ** ** ** ** ** ** *   70   56 ****** ***** ****** ***  59 ***** ***** ***** ***** **
679510 ***** 201501091200 150   7 *** *** SCT * * * 18.8 ** ** ** ** ** ** ** ** *   86   50 ****** ***** ****** *** *** ***** ***** ***** ***** **
679510 ***** 201501100600 120   8 *** *** SCT * * * 18.8 ** ** ** ** ** ** ** ** *   72   62 ****** ***** ****** ***  64 ***** ***** ***** ***** **
679510 ***** 201501101200 150   7 *** *** SCT * * * 18.8 ** ** ** ** ** ** ** ** *   82   56 ****** ***** ****** *** *** ***** ***** ***** ***** **
679510 ***** 201501110600 150   7 *** *** SCT * * * 18.8 ** ** ** ** ** ** ** ** *   69   59 ****** ***** ****** ***  61 ***** ***** ***** ***** **
679510 ***** 201501120600 150  10 *** *** SCT * * * 18.8 ** ** ** ** ** ** ** ** *   69   58 ****** ***** ****** ***  60 ***** ***** ***** ***** **
679510 ***** 201501121200 150   8 *** *** BKN * * * 18.8 ** ** ** ** ** ** ** ** *   81   57 ****** ***** ****** *** *** ***** ***** ***** ***** **
679510 ***** 201501130600 050   7 *** *** SCT * * * 18.8 ** ** ** ** ** ** ** ** *   75   61 ****** ***** ****** ***  63 ***** ***** ***** ***** **
679510 ***** 201501131200 270   9 *** *** SCT * * * 18.8 ** ** ** ** ** ** ** ** *   86   59 ****** ***** ****** *** *** ***** ***** ***** ***** **
679510 ***** 201501140600 020   7 *** 295 BKN * * * 18.8 ** ** ** ** ** ** ** ** *   75   64 ****** ***** ****** ***  63 ***** ***** ***** ***** **
679510 ***** 201501141200 050   6 ***  30 BKN * * * 15.6 95 ** ** ** ** ** ** ** 9   68   64 ****** ***** ****** *** *** ***** ***** ***** ***** **
679510 ***** 201501150600 060   7 *** *** BKN * * * 18.8 ** ** ** ** ** ** ** ** *   72 **** ****** ***** ****** *** *** ***** ***** ***** ***** **
679510 ***** 201501151200 120   1 *** *** BKN * * * 15.6 95 ** ** ** ** ** ** ** 9   69   66 ****** ***** ****** *** *** ***** ***** ***** ***** **
679510 ***** 201501160600 020   8 *** *** SCT * * * 18.8 ** ** ** ** ** ** ** ** *   72   63 ****** ***** ****** ***  63 ***** *****  0.08 ***** **
679510 ***** 201501161200 210   7 *** *** BKN * * * 18.8 ** ** ** ** ** ** ** ** *   83   60 ****** ***** ****** *** *** ***** ***** ***** ***** **
679510 ***** 201501170600 030   6 *** *** SCT * * * 18.8 ** ** ** ** ** ** ** ** *   77   64 ****** ***** ****** ***  65 ***** ***** ***** ***** **
679510 ***** 201501171200 160   8 *** *** BKN * * * 18.8 ** ** ** ** ** ** ** ** *   88   59 ****** ***** ****** *** *** ***** ***** ***** ***** **
679510 ***** 201501180600 090   8 *** 295 BKN * * * 15.6 ** ** ** ** ** ** ** ** *   50 **** ****** ***** ****** *** *** ***** ***** ***** ***** **
679510 ***** 201501181200 180   7 ***  98 BKN * * * 18.8 80 ** ** ** ** ** ** ** 9   73   63 ****** ***** ****** *** *** ***** ***** ***** ***** **
679510 ***** 201501190600 020   9 ***  98 BKN * * * 15.6 ** ** ** ** ** ** ** ** *   70   60 ****** ***** ****** ***  62 ***** *****  0.00T***** **
679510 ***** 201501191200 060   8 ***  98 OVC * * * 15.6 61 ** ** ** ** ** ** ** 9   67   64 ****** ***** ****** *** *** ***** ***** ***** ***** **
679510 ***** 201501200600 090  13 *** *** BKN * * * 18.8 ** ** ** ** ** ** ** ** *   66   56 ****** ***** ****** ***  60 ***** *****  1.93 ***** **
679510 ***** 201501201200 150   9 ***  25 BKN * * * 18.8 ** ** ** ** ** ** ** ** *   74   58 ****** ***** ****** *** *** ***** ***** ***** ***** **
679510 ***** 201501211200 100   1 ***  30 BKN * * * 18.8 ** ** ** ** ** ** ** ** *   78   58 ****** ***** ****** *** *** ***** ***** ***** ***** **
679510 ***** 201501220600 090   9 *** *** SCT * * * 18.8 ** ** ** ** ** ** ** ** *   70   56 ****** ***** ****** ***  59 ***** ***** ***** ***** **
679510 ***** 201501221200 060   8 *** 295 BKN * * * 18.8 ** ** ** ** ** ** ** ** *   83   51 ****** ***** ****** *** *** ***** ***** ***** ***** **
679510 ***** 201501230600 090   8 *** 295 BKN * * * 18.8 ** ** ** ** ** ** ** ** *   69   58 ****** ***** ****** ***  61 ***** ***** ***** ***** **
679510 ***** 201501240600 120   8 *** *** SCT * * * 18.8 ** ** ** ** ** ** ** ** *   69   55 ****** ***** ****** ***  59 ***** ***** ***** ***** **
679510 ***** 201501241200 170   7 *** *** SCT * * * 18.8 ** ** ** ** ** ** ** ** *   81   47 ****** ***** ****** *** *** ***** ***** ***** ***** **
679510 ***** 201501250600 060   7 *** *** *** * * * 18.8 ** ** ** ** ** ** ** ** *   71   55 ****** ***** ****** ***  59 ***** ***** ***** ***** **
679510 ***** 201501261200 060  10 *** *** SCT * * * 18.8 ** ** ** ** ** ** ** ** *   89   45 ****** ***** ****** *** *** ***** ***** ***** ***** **
679510 ***** 201501270600 030  10 *** *** SCT * * * 18.8 ** ** ** ** ** ** ** ** *   73   56 ****** ***** ****** ***  65 ***** ***** ***** ***** **
679510 ***** 201501271200 170   7 ***  89 BKN * * * 18.8 15 ** ** ** ** ** ** ** 2   89   57 ****** ***** ****** *** *** ***** ***** ***** ***** **
679510 ***** 201501280600 360   8 *** 295 BKN * * * 18.8 ** ** ** ** ** ** ** ** *   73   61 ****** ***** ****** ***  64 ***** ***** ***** ***** **
679510 ***** 201501281200 170  10 *** 295 BKN * * * 18.8 15 ** ** ** ** ** ** ** 9   89   55 ****** ***** ****** *** *** ***** ***** ***** ***** **
679510 ***** 201501290600 170   8 ***  49 BKN * * * 15.6 ** ** ** ** ** ** ** ** *   68   64 ****** ***** ****** ***  63 ***** *****  0.00 ***** **
679510 ***** 201501301200 130   8 ***  30 BKN * * * 15.6 15 ** ** ** ** ** ** ** 2   77   61 ****** ***** ****** *** *** ***** ***** ***** ***** **
679510 ***** 201501310600 090  11 *** *** SCT * * * 18.8 ** ** ** ** ** ** ** ** *   71   62 ****** ***** ****** ***  63 ***** ***** ***** ***** **
679510 ***** 201501311200 170   3 ***  39 BKN * * * 12.5 15 ** ** ** ** ** ** ** 9   78   62 ****** ***** ****** *** *** ***** ***** ***** ***** **
679510 ***** 201502010600 360   9 *** 295 BKN * * * 18.8 ** ** ** ** ** ** ** ** *   71   64 ****** ***** ****** ***  64 ***** *****  0.00 ***** **
679510 ***** 201502011200 170   9 ***  47 BKN * * * 12.5 17 ** ** ** ** ** ** ** 9   82   62 ****** ***** ****** *** *** ***** ***** ***** ***** **
679510 ***** 201502021200 020   7 *** 295 BKN * * * 18.8 ** ** ** ** ** ** ** ** *   83   62 ****** ***** ****** *** *** ***** ***** ***** ***** **
679510 ***** 201502031200 330   8 ***  49 BKN * * * 18.8 ** ** ** ** ** ** ** ** *   84   60 ****** ***** ****** *** *** ***** ***** ***** ***** **
679510 ***** 201502041200 040   7 ***  34 BKN * * * 12.5 15 ** ** ** ** ** ** ** 9   72   62 ****** ***** ****** *** *** ***** ***** ***** ***** **
679510 ***** 201502050600 070   8 ***  89 BKN * * * 12.5 ** ** ** ** ** ** ** ** *   71   62 ****** ***** ****** ***  61 ***** *****  0.24 ***** **
679510 ***** 201502060600 360   3 ***  98 BKN * * * 15.6 ** ** ** ** ** ** ** ** *   71   61 ****** ***** ****** ***  64 ***** *****  0.16 ***** **
679510 ***** 201502061200 190   2 *** *** SCT * * * 18.8 ** ** ** ** ** ** ** ** *   87   60 ****** ***** ****** *** *** ***** ***** ***** ***** **
679510 ***** 201502070600 030  10 *** *** SCT * * * 18.8 ** ** ** ** ** ** ** ** *   74   63 ****** ***** ****** ***  63 ***** ***** ***** ***** **
679510 ***** 201502071200 060   5 ***  39 BKN * * * 18.8 ** ** ** ** ** ** ** ** *   87   60 ****** ***** ****** *** *** ***** ***** ***** ***** **
679510 ***** 201502080600 060  10 *** *** SCT * * * 18.8 ** ** ** ** ** ** ** ** *   74   65 ****** ***** ****** ***  65 ***** *****  0.00 ***** **
679510 ***** 201502090600 040   9 *** *** SCT * * * 18.8 ** ** ** ** ** ** ** ** *   91   64 ****** ***** ****** ***  65 ***** *****  0.00 ***** **
679510 ***** 201502091200 160   5 ***  49 BKN * * * 18.8 ** ** ** ** ** ** ** ** *   87   54 ****** ***** ****** *** *** ***** ***** ***** ***** **
679510 ***** 201502100600 060   8 *** *** *** * * * 18.8 ** ** ** ** ** ** ** ** *   72   60 ****** ***** ****** ***  64 ***** ***** ***** ***** **
679510 ***** 201502101200 150  11 *** *** SCT * * * 18.8 ** ** ** ** ** ** ** ** *   85   47 ****** ***** ****** *** *** ***** ***** ***** ***** **
679510 ***** 201502110600 060   8 *** *** SCT * * * 18.8 ** ** ** ** ** ** ** ** *   76   52 ****** ***** ****** ***  63 ***** ***** ***** ***** **
679510 ***** 201502111200 120   9 *** 295 BKN * * * 18.8 ** ** ** ** ** ** ** ** *   89   53 ****** ***** ****** *** *** ***** ***** ***** ***** **
679510 ***** 201502120600 080   7 *** *** SCT * * * 18.8 ** ** ** ** ** ** ** ** *   75   56 ****** ***** ****** ***  65 ***** ***** ***** ***** **
679510 ***** 201502130600 060  11 *** *** SCT * * * 18.8 ** ** ** ** ** ** ** ** *   73   62 ****** ***** ****** ***  64 ***** ***** ***** ***** **
679510 ***** 201502131200 070   6 ***  49 BKN * * * 18.8 ** ** ** ** ** ** ** ** *   86   56 ****** ***** ****** *** *** ***** ***** ***** ***** **
679510 ***** 201502140600 030   8 *** 295 BKN * * * 18.8 ** ** ** ** ** ** ** ** *   73   62 ****** ***** ****** ***  66 ***** ***** ***** ***** **
679510 ***** 201502141200 280   3 ***  49 BKN * * * 18.8 17 ** ** ** ** ** ** ** 9   86   58 ****** ***** ****** *** *** ***** ***** ***** ***** **
679510 ***** 201502150600 300   6 *** 295 BKN * * * 18.8 ** ** ** ** ** ** ** ** *   72   51 ****** ***** ****** ***  62 ***** *****  0.00 ***** **
679510 ***** 201502151200 330  11 *** *** BKN * * * 18.8 15 ** ** ** ** ** ** ** 1   87   62 ****** ***** ****** *** *** ***** ***** ***** ***** **
679510 ***** 201502160600 100   7 ***  49 BKN * * * 15.6 ** ** ** ** ** ** ** ** *   67   61 ****** ***** ****** ***  62 ***** *****  0.00 ***** **
679510 ***** 201502161200 220   5 ***  89 BKN * * * 12.5 95 ** ** ** ** ** ** ** 9   62   60 ****** ***** ****** *** *** ***** ***** ***** ***** **
679510 ***** 201502170600 100   7 ***  39 BKN * * * 15.6 ** ** ** ** ** ** ** ** *   66   56 ****** ***** ****** ***  58 ***** *****  1.46 ***** **
679510 ***** 201502180600 150   7 *** *** SCT * * * 18.8 ** ** ** ** ** ** ** ** *   66   53 ****** ***** ****** ***  56 ***** ***** ***** ***** **
679510 ***** 201502181200 130   6 *** *** SCT * * * 18.8 ** ** ** ** ** ** ** ** *   81   50 ****** ***** ****** *** *** ***** ***** ***** ***** **
679510 ***** 201502190600 080   5 *** 295 BKN * * * 18.8 ** ** ** ** ** ** ** ** *   73   53 ****** ***** ****** ***  57 ***** ***** ***** ***** **
679510 ***** 201502191200 110   8 *** 295 BKN * * * 18.8 ** ** ** ** ** ** ** ** *   85   47 ****** ***** ****** *** *** ***** ***** ***** ***** **
679510 ***** 201502200600 060   6 *** 295 BKN * * * 18.8 ** ** ** ** ** ** ** ** *   71   54 ****** ***** ****** ***  64 ***** ***** ***** ***** **
679510 ***** 201502201200 140   9 *** 295 BKN * * * 18.8 ** ** ** ** ** ** ** ** *   88   53 ****** ***** ****** *** *** ***** ***** ***** ***** **
679510 ***** 201502210600 080  10 *** *** SCT * * * 18.8 ** ** ** ** ** ** ** ** *   71   58 ****** ***** ****** ***  63 ***** ***** ***** ***** **
679510 ***** 201502211200 150   3 *** 295 BKN * * * 18.8 ** ** ** ** ** ** ** ** *   90   48 ****** ***** ****** *** *** ***** ***** ***** ***** **
679510 ***** 201502220600 100   7 *** *** SCT * * * 18.8 ** ** ** ** ** ** ** ** *   75   55 ****** ***** ****** ***  63 ***** ***** ***** ***** **
679510 ***** 201502230600 100   9 ***  39 BKN * * * 15.6 ** ** ** ** ** ** ** ** *   67   57 ****** ***** ****** ***  62 ***** ***** ***** ***** **
679510 ***** 201502231200 120   9 ***  39 BKN * * * 18.8 ** ** ** ** ** ** ** ** *   81   55 ****** ***** ****** *** *** ***** ***** ***** ***** **
679510 ***** 201502240600 100   6 *** *** SCT * * * 18.8 ** ** ** ** ** ** ** ** *   68   60 ****** ***** ****** ***  60 ***** ***** ***** ***** **
679510 ***** 201502241200 350   7 ***  49 BKN * * * 18.8 ** ** ** ** ** ** ** ** *   85   56 ****** ***** ****** *** *** ***** ***** ***** ***** **
679510 ***** 201502250600 080   7 *** *** SCT * * * 15.6 ** ** ** ** ** ** ** ** *   68   56 ****** ***** ****** ***  60 ***** ***** ***** ***** **
679510 ***** 201502251200 170   3 *** *** SCT * * * 18.8 ** ** ** ** ** ** ** ** *   86   54 ****** ***** ****** *** *** ***** ***** ***** ***** **
679510 ***** 201502260600 060   7 *** *** SCT * * * 15.6 ** ** ** ** ** ** ** ** *   71   54 ****** ***** ****** ***  62 ***** ***** ***** ***** **
679510 ***** 201502270600 030   5 *** *** BKN * * * 15.6 ** ** ** ** ** ** ** ** *   72   61 ****** ***** ****** ***  61 ***** ***** ***** ***** **
679510 ***** 201502280600 060   8 ***  98 BKN * * * 15.6 ** ** ** ** ** ** ** ** *   71   63 ****** ***** ****** ***  66 ***** *****  0.04 ***** **
679510 ***** 201502281200 320   5 ***  89 BKN * * * 15.6 15 ** ** ** ** ** ** ** 9   83   59 ****** ***** ****** *** *** ***** ***** ***** ***** **
679510 ***** 201503020600 080   7 ***  89 BKN * * * 15.6 15 ** ** ** ** ** ** ** 6   71   62 ****** ***** ****** ***  60 ***** *****  0.79 ***** **
679510 ***** 201503021200 120   5 ***  39 BKN * * * 15.6 15 ** ** ** ** ** ** ** 9   75   62 ****** ***** ****** *** *** ***** ***** ***** ***** **
679510 ***** 201503030600 120   8 ***  89 OVC * * *  9.4 58 ** ** ** ** ** ** ** 6   56   53 ****** ***** ****** ***  54 ***** *****  0.04 ***** **
679510 ***** 201503031200 140  10 ***  39 BKN * * * 12.5 ** ** ** ** ** ** ** ** *   62   56 ****** ***** ****** *** *** ***** ***** ***** ***** **
679510 ***** 201503040600 100  10 *** *** SCT * * * 15.6 ** ** ** ** ** ** ** ** *   63   52 ****** ***** ****** ***  55 ***** *****  0.00T***** **
679510 ***** 201503041200 100   9 *** *** SCT * * * 18.8 ** ** ** ** ** ** ** ** *   78   45 ****** ***** ****** *** *** ***** ***** ***** ***** **
679510 ***** 201503050600 030  10 *** *** SCT * * * 18.8 ** ** ** ** ** ** ** ** *   63   51 ****** ***** ****** ***  53 ***** ***** ***** ***** **
679510 ***** 201503051200 220   6 *** *** SCT * * * 18.8 ** ** ** ** ** ** ** ** *   83   41 ****** ***** ****** *** *** ***** ***** ***** ***** **
679510 ***** 201503060600 120   7 *** *** *** * * * 18.8 ** ** ** ** ** ** ** ** *   71   51 ****** ***** ****** ***  62 ***** ***** ***** ***** **
679510 ***** 201503061200 100   9 *** *** SCT * * * 18.8 ** ** ** ** ** ** ** ** *   82   51 ****** ***** ****** *** *** ***** ***** ***** ***** **
679510 ***** 201503070600 150   7 *** *** SCT * * * 18.8 ** ** ** ** ** ** ** ** *   66   53 ****** ***** ****** ***  56 ***** ***** ***** ***** **
679510 ***** 201503071200 090   8 *** *** SCT * * * 18.8 ** ** ** ** ** ** ** ** *   83   43 ****** ***** ****** *** *** ***** ***** ***** ***** **
679510 ***** 201503080600 100   7 *** *** SCT * * * 18.8 ** ** ** ** ** ** ** ** *   71   51 ****** ***** ****** ***  59 ***** ***** ***** ***** **
679510 ***** 201503090600 120   2 ***  98 BKN * * * 18.8 ** ** ** ** ** ** ** ** *   63   51 ****** ***** ****** ***  56 ***** ***** ***** ***** **
679510 ***** 201503100600 120   7 *** *** BKN * * * 18.8 ** ** ** ** ** ** ** ** *   68   60 ****** ***** ****** ***  63 ***** ***** ***** ***** **
679510 ***** 201503101200 130   5 *** *** BKN * * * 18.8 ** ** ** ** ** ** ** ** *   81   49 ****** ***** ****** *** *** ***** ***** ***** ***** **
679510 ***** 201503110600 060   7 *** *** *** * * * 18.8 ** ** ** ** ** ** ** ** *   71   47 ****** ***** ****** ***  57 ***** ***** ***** ***** **
679510 ***** 201503111200 120  13 *** *** SCT * * * 18.8 ** ** ** ** ** ** ** ** *   85   42 ****** ***** ****** *** *** ***** ***** ***** ***** **
679510 ***** 201503120600 080   9 *** *** *** * * * 18.8 ** ** ** ** ** ** ** ** *   70   52 ****** ***** ****** ***  62 ***** ***** ***** ***** **
679510 ***** 201503121200 110   7 *** *** SCT * * * 18.8 ** ** ** ** ** ** ** ** *   85   47 ****** ***** ****** *** *** ***** ***** ***** ***** **
679510 ***** 201503130600 050   8 *** *** *** * * * 18.8 ** ** ** ** ** ** ** ** *   70   53 ****** ***** ****** ***  60 ***** ***** ***** ***** **
679510 ***** 201503140600 040   9 *** *** *** * * * 18.8 ** ** ** ** ** ** ** ** *   73   52 ****** ***** ****** ***  64 ***** ***** ***** ***** **
679510 ***** 201503141200 140  11 *** *** SCT * * * 18.8 ** ** ** ** ** ** ** ** *   91   46 ****** ***** ****** *** *** ***** ***** ***** ***** **
679510 ***** 201503150600 050   6 *** *** *** * * * 18.8 ** ** ** ** ** ** ** ** *   71   52 ****** ***** ****** ***  62 ***** ***** ***** ***** **
679510 ***** 201503160600 110   6 *** *** *** * * * 18.8 ** ** ** ** ** ** ** ** *   73   52 ****** ***** ****** ***  62 ***** ***** ***** ***** **
679510 ***** 201503170600 030   8 *** *** SCT * * * 18.8 ** ** ** ** ** ** ** ** *   73   55 ****** ***** ****** ***  64 ***** ***** ***** ***** **
679510 ***** 201503171200 170   3 ***  49 BKN * * * 18.8 95 ** ** ** ** ** ** ** 9   89   52 ****** ***** ****** *** *** ***** ***** ***** ***** **
679510 ***** 201503180600 120   5 ***  89 BKN * * * 12.5 15 ** ** ** ** ** ** ** 6   70   58 ****** ***** ****** ***  66 ***** *****  0.04 ***** **
679510 ***** 201503190600 060   8 *** *** SCT * * * 18.8 ** ** ** ** ** ** ** ** *   72   59 ****** ***** ****** ***  66 ***** *****  0.04 ***** **
679510 ***** 201503191200 030   7 ***  49 BKN * * * 18.8 17 ** ** ** ** ** ** ** 9   89   57 ****** ***** ****** *** *** ***** ***** ***** ***** **
679510 ***** 201503200600 060   2 ***  98 BKN * * * 12.5 ** ** ** ** ** ** ** ** *   68   60 ****** ***** ****** ***  64 ***** *****  0.28 ***** **
679510 ***** 201503201200 170   7 ***  49 BKN * * * 12.5 17 ** ** ** ** ** ** ** 9   84   58 ****** ***** ****** *** *** ***** ***** ***** ***** **
679510 ***** 201503210600 050  10 *** *** SCT * * * 18.8 ** ** ** ** ** ** ** ** *   72   56 ****** ***** ****** ***  64 ***** *****  0.08 ***** **
679510 ***** 201503211200 060   6 ***  59 BKN * * * 18.8 ** ** ** ** ** ** ** ** *   86   53 ****** ***** ****** *** *** ***** ***** ***** ***** **
679510 ***** 201503220600 060   8 *** *** SCT * * * 18.8 ** ** ** ** ** ** ** ** *   72   55 ****** ***** ****** ***  65 ***** ***** ***** ***** **
679510 ***** 201503230600 060  11 *** *** SCT * * * 18.8 ** ** ** ** ** ** ** ** *   71   54 ****** ***** ****** ***  64 ***** ***** ***** ***** **
679510 ***** 201503231200 060   6 ***  59 BKN * * * 18.8 ** ** ** ** ** ** ** ** *   88   54 ****** ***** ****** *** *** ***** ***** ***** ***** **
679510 ***** 201503240600 050   9 *** *** SCT * * * 18.8 ** ** ** ** ** ** ** ** *   70   53 ****** ***** ****** *** *** ***** ***** ***** ***** **
679510 ***** 201503241200 040   8 ***  59 BKN * * * 18.8 ** ** ** ** ** ** ** ** *   89   57 ****** ***** ****** *** *** ***** ***** ***** ***** **
679510 ***** 201503250600 030   9 *** *** SCT * * * 18.8 ** ** ** ** ** ** ** ** *   72   57 ****** ***** ****** ***  66 ***** ***** ***** ***** **
679510 ***** 201503251200 100   5 ***  59 BKN * * * 18.8 ** ** ** ** ** ** ** ** *   87   57 ****** ***** ****** *** *** ***** ***** ***** ***** **
679510 ***** 201503260600 050   9 *** *** SCT * * * 18.8 ** ** ** ** ** ** ** ** *   74   57 ****** ***** ****** ***  64 ***** ***** ***** ***** **
679510 ***** 201503271200 240   2 ***  89 BKN * * * 15.6 95 ** ** ** ** ** ** ** 9   79   65 ****** ***** ****** *** *** ***** ***** ***** ***** **
679510 ***** 201504010600 100   8 ***  98 BKN * * * 18.8 ** ** ** ** ** ** ** ** *   65   58 ****** ***** ****** ***  60 ***** *****  0.08 ***** **
679510 ***** 201504020600 080   6 *** *** SCT * * * 18.8 ** ** ** ** ** ** ** ** *   66   56 ****** ***** ****** ***  58 ***** ***** ***** ***** **
679510 ***** 201504030600 060  10 *** *** SCT * * * 18.8 ** ** ** ** ** ** ** ** *   68   53 ****** ***** ****** ***  60 ***** ***** ***** ***** **
679510 ***** 201504031200 030   6 ***  34 BKN * * * 18.8 17 ** ** ** ** ** ** ** 9   79   60 ****** ***** ****** *** *** ***** ***** ***** ***** **
679510 ***** 201504040600 060   2 ***   8 OVC * * * 12.5 58 ** ** ** ** ** ** ** 6   64   59 ****** ***** ****** ***  60 ***** *****  0.04 ***** **
679510 ***** 201504050600 050   5 ***   8 BKN * * * 15.6 ** ** ** ** ** ** ** ** *   65   60 ****** ***** ****** ***  58 ***** *****  0.83 ***** **
679510 ***** 201504060600 090   6 ***  98 BKN * * * 15.6 ** ** ** ** ** ** ** ** *   67   54 ****** ***** ****** ***  60 ***** *****  0.59 ***** **
679510 ***** 201504070600 140   8 ***   8 BKN * * * 12.5 58 ** ** ** ** ** ** ** 6   63   60 ****** ***** ****** ***  61 ***** *****  0.04 ***** **
679510 ***** 201504071200 100   8 ***   8 OVC * * * 15.6 15 ** ** ** ** ** ** ** 6   70   60 ****** ***** ****** *** *** ***** ***** ***** ***** **
679510 ***** 201504081200 120   6 ***  10 BKN * * * 15.6 ** ** ** ** ** ** ** ** *   66   57 ****** ***** ****** *** *** ***** ***** ***** ***** **
679510 ***** 201504090600 100   8 *** *** *** * * * 15.6 ** ** ** ** ** ** ** ** *   60   53 ****** ***** ****** ***  55 ***** ***** ***** ***** **
679510 ***** 201504091200 120  10 ***  39 BKN * * * 18.8 ** ** ** ** ** ** ** ** *   71   55 ****** ***** ****** *** *** ***** ***** ***** ***** **
679510 ***** 201504100600 070  10 *** *** SCT * * * 15.6 ** ** ** ** ** ** ** ** *   61   54 ****** ***** ****** ***  55 ***** ***** ***** ***** **
679510 ***** 201504101200 120   7 ***  39 BKN * * * 18.8 ** ** ** ** ** ** ** ** *   74   52 ****** ***** ****** *** *** ***** ***** ***** ***** **
679510 ***** 201504130600 100   3 ***  98 BKN * * * 18.8 ** ** ** ** ** ** ** ** *   63   56 ****** ***** ****** ***  58 ***** *****  0.00 ***** **
679510 ***** 201504131200 150   9 *** 295 BKN * * * 18.8 ** ** ** ** ** ** ** ** *   76   55 ****** ***** ****** *** *** ***** ***** ***** ***** **
679510 ***** 201504140600 100   2 *** *** SCT * * * 18.8 ** ** ** ** ** ** ** ** *   64   53 ****** ***** ****** ***  56 ***** *****  0.00 ***** **
679510 ***** 201504150600 040   8 *** *** SCT * * *  9.4 05 ** ** ** ** ** ** ** 0   62   59 ****** ***** ****** ***  55 ***** ***** ***** ***** **
679510 ***** 201504151200 120   5 *** 295 BKN * * * 18.8 ** ** ** ** ** ** ** ** *   80   49 ****** ***** ****** *** *** ***** ***** ***** ***** **
679510 ***** 201504160600 010   7 *** *** SCT * * * 18.8 ** ** ** ** ** ** ** ** *   65   56 ****** ***** ****** ***  59 ***** ***** ***** ***** **
679510 ***** 201504161200 290   7 *** 295 BKN * * * 18.8 ** ** ** ** ** ** ** ** *   85   50 ****** ***** ****** *** *** ***** ***** ***** ***** **
679510 ***** 201504170600 030   7 *** *** SCT * * * 18.8 ** ** ** ** ** ** ** ** *   66   60 ****** ***** ****** ***  59 ***** ***** ***** ***** **
679510 ***** 201504171200 080   3 ***  39 BKN * * * 18.8 ** ** ** ** ** ** ** ** *   82   55 ****** ***** ****** *** *** ***** ***** ***** ***** **
679510 ***** 201504180600 050   7 ***  98 BKN * * * 15.6 ** ** ** ** ** ** ** ** *   65   55 ****** ***** ****** ***  58 ***** *****  0.00 ***** **
679510 ***** 201504200600 070   5 ***  98 OVC * * * 15.6 ** ** ** ** ** ** ** ** *   61   56 ****** ***** ****** ***  57 ***** ***** *****  0.16 **
679510 ***** 201504201200 010   2 ***  39 BKN * * * 15.6 91 ** ** ** ** ** ** ** 9   72   60 ****** ***** ****** *** *** ***** ***** ***** ***** **
679510 ***** 201504210600 ***   0 *** *** SCT * * * 18.8 ** ** ** ** ** ** ** ** * ****   59 ****** ***** ****** ***  58 ***** *****  0.00T***** **
679510 ***** 201504211200 160   7 ***  39 BKN * * * 18.8 ** ** ** ** ** ** ** ** *   79   51 ****** ***** ****** *** *** ***** ***** ***** ***** **
679510 ***** 201504220600 080   9 *** *** SCT * * * 15.6 ** ** ** ** ** ** ** ** *   65   58 ****** ***** ****** ***  58 ***** ***** ***** ***** **
679510 ***** 201504221200 140   6 ***  39 BKN * * * 18.8 80 ** ** ** ** ** ** ** 8   74   56 ****** ***** ****** *** *** ***** ***** ***** ***** **
679510 ***** 201504230600 080   5 *** *** SCT * * * 18.8 ** ** ** ** ** ** ** ** *   65   58 ****** ***** ****** ***  58 ***** *****  0.00T***** **
679510 ***** 201504231200 210   6 *** *** SCT * * * 18.8 ** ** ** ** ** ** ** ** *   80   47 ****** ***** ****** *** *** ***** ***** ***** ***** **
679510 ***** 201504240600 110   9 *** *** *** * * * 18.8 ** ** ** ** ** ** ** ** *   65   54 ****** ***** ****** ***  58 ***** ***** ***** ***** **
679510 ***** 201504241200 100  10 *** *** SCT * * * 18.8 ** ** ** ** ** ** ** ** *   78   46 ****** ***** ****** *** *** ***** ***** ***** ***** **
679510 ***** 201504250600 080   5 *** *** SCT * * * 18.8 ** ** ** ** ** ** ** ** *   62   56 ****** ***** ****** ***  55 ***** ***** ***** ***** **
679510 ***** 201504260600 100   2 *** *** *** * * * 18.8 ** ** ** ** ** ** ** ** *   67   54 ****** ***** ****** ***  56 ***** ***** ***** ***** **
679510 ***** 201504270600 050   5 *** *** *** * * * 18.8 ** ** ** ** ** ** ** ** *   68   52 ****** ***** ****** ***  57 ***** ***** ***** ***** **
679510 ***** 201504271200 060   5 ***  39 BKN * * * 18.8 ** ** ** ** ** ** ** ** *   79   47 ****** ***** ****** *** *** ***** ***** ***** ***** **
679510 ***** 201504280600 030   5 *** *** *** * * * 18.8 ** ** ** ** ** ** ** ** *   67   47 ****** ***** ****** *** *** ***** ***** ***** ***** **
679510 ***** 201504281200 170   3 *** 118 BKN * * * 18.8 ** ** ** ** ** ** ** ** *   81   48 ****** ***** ****** *** *** ***** ***** ***** ***** **
679510 ***** 201504290600 030   3 ***  30 BKN * * * 18.8 ** ** ** ** ** ** ** ** *   66   47 ****** ***** ****** ***  55 ***** ***** ***** ***** **
679510 ***** 201504291200 180   5 ***  98 BKN * * * 18.8 ** ** ** ** ** ** ** ** *   82   35 ****** ***** ****** *** *** ***** ***** ***** ***** **
679510 ***** 201504300600 020   6 *** *** SCT * * * 18.8 ** ** ** ** ** ** ** ** *   65   49 ****** ***** ****** ***  55 ***** ***** ***** ***** **
679510 ***** 201505020600 070   6 *** *** SCT * * * 18.8 ** ** ** ** ** ** ** ** *   65   53 ****** ***** ****** ***  56 ***** ***** ***** ***** **
679510 ***** 201505021200 150   8 ***  39 BKN * * * 18.8 ** ** ** ** ** ** ** ** *   77   42 ****** ***** ****** *** *** ***** ***** ***** ***** **
679510 ***** 201505050600 090   1 *** *** *** * * * 18.8 ** ** ** ** ** ** ** ** *   67   44 ****** ***** ****** ***  54 ***** ***** ***** ***** **
679510 ***** 201505051200 150   6 *** *** *** * * * 18.8 ** ** ** ** ** ** ** ** *   82   34 ****** ***** ****** *** *** ***** ***** ***** ***** **
679510 ***** 201505060600 060   1 *** *** *** * * * 18.8 ** ** ** ** ** ** ** ** *   68   42 ****** ***** ****** ***  53 ***** ***** ***** ***** **
679510 ***** 201505061200 170   9 *** *** *** * * * 18.8 ** ** ** ** ** ** ** ** *   82   35 ****** ***** ****** *** *** ***** ***** ***** ***** **
679510 ***** 201505080600 090   8 *** *** *** * * * 18.8 ** ** ** ** ** ** ** ** *   62   54 ****** ***** ****** ***  55 ***** ***** ***** ***** **
679510 ***** 201505081200 150   8 *** *** SCT * * * 18.8 ** ** ** ** ** ** ** ** *   75   51 ****** ***** ****** *** *** ***** ***** ***** ***** **
679510 ***** 201505090600 120   6 *** *** *** * * * 18.8 ** ** ** ** ** ** ** ** *   61   49 ****** ***** ****** ***  53 ***** ***** ***** ***** **
679510 ***** 201505100600 090   1 *** *** *** * * * 18.8 ** ** ** ** ** ** ** ** *   68   38 ****** ***** ****** ***  50 ***** ***** ***** ***** **
679510 ***** 201505110600 030   7 *** *** *** * * * 18.8 ** ** ** ** ** ** ** ** *   63   42 ****** ***** ****** ***  54 ***** ***** ***** ***** **
679510 ***** 201505111200 150   9 *** *** SCT * * * 18.8 ** ** ** ** ** ** ** ** *   76   37 ****** ***** ****** *** *** ***** ***** ***** ***** **
679510 ***** 201505120600 030   8 *** *** *** * * * 18.8 ** ** ** ** ** ** ** ** *   65   42 ****** ***** ****** ***  57 ***** ***** ***** ***** **
679510 ***** 201505121200 060   7 *** *** SCT * * * 18.8 ** ** ** ** ** ** ** ** *   80   35 ****** ***** ****** *** *** ***** ***** ***** ***** **
679510 ***** 201505130600 030   8 *** *** *** * * * 18.8 ** ** ** ** ** ** ** ** *   64   48 ****** ***** ****** ***  55 ***** ***** ***** ***** **
679510 ***** 201505140600 360   3 *** *** *** * * * 18.8 ** ** ** ** ** ** ** ** *   68   44 ****** ***** ****** ***  52 ***** ***** ***** ***** **
679510 ***** 201505141200 180   7 *** *** SCT * * * 18.8 ** ** ** ** ** ** ** ** *   82   39 ****** ***** ****** *** *** ***** ***** ***** ***** **
679510 ***** 201505150600 ***   0 *** *** *** * * * 18.8 ** ** ** ** ** ** ** ** *   69   46 ****** ***** ****** ***  49 ***** ***** ***** ***** **
679510 ***** 201505160600 060   7 *** *** *** * * * 18.8 ** ** ** ** ** ** ** ** *   66   40 ****** ***** ****** ***  57 ***** ***** ***** ***** **
679510 ***** 201505170600 150   8 *** *** *** * * * 18.8 ** ** ** ** ** ** ** ** *   69   36 ****** ***** ****** ***  59 ***** ***** ***** ***** **
679510 ***** 201505171200 090   9 *** *** *** * * * 18.8 ** ** ** ** ** ** ** ** *   80   22 ****** ***** ****** *** *** ***** ***** ***** ***** **
679510 ***** 201505180600 090   8 *** *** *** * * * 18.8 ** ** ** ** ** ** ** ** *   60   46 ****** ***** ****** ***  53 ***** ***** ***** ***** **
679510 ***** 201505181200 060   9 *** *** *** * * * 18.8 ** ** ** ** ** ** ** ** *   79   40 ****** ***** ****** *** *** ***** ***** ***** ***** **
679510 ***** 201505190600 030   7 *** *** *** * * * 18.8 ** ** ** ** ** ** ** ** *   63   47 ****** ***** ****** *** *** ***** ***** ***** ***** **
679510 ***** 201505191200 090   2 *** *** SCT * * * 18.8 ** ** ** ** ** ** ** ** *   83   37 ****** ***** ****** *** *** ***** ***** ***** ***** **
679510 ***** 201505200600 360   6 *** *** *** * * * 18.8 ** ** ** ** ** ** ** ** *   65   44 ****** ***** ****** ***  53 ***** ***** ***** ***** **
679510 ***** 201505201200 160   1 *** *** *** * * * 18.8 ** ** ** ** ** ** ** ** *   83   29 ****** ***** ****** *** *** ***** ***** ***** ***** **
679510 ***** 201505210600 120   9 *** *** *** * * * 18.8 ** ** ** ** ** ** ** ** *   64   49 ****** ***** ****** ***  56 ***** ***** ***** ***** **
679510 ***** 201505221200 150  14 *** *** *** * * * 18.8 ** ** ** ** ** ** ** ** *   76   39 ****** ***** ****** *** *** ***** ***** ***** ***** **
679510 ***** 201505230600 120   8 *** *** *** * * * 18.8 ** ** ** ** ** ** ** ** *   60   45 ****** ***** ****** ***  52 ***** ***** ***** ***** **
679510 ***** 201505231200 030   8 *** *** *** * * * 18.8 ** ** ** ** ** ** ** ** *   75   44 ****** ***** ****** *** *** ***** ***** ***** ***** **
679510 ***** 201505250600 060   3 *** *** *** * * * 18.8 ** ** ** ** ** ** ** ** *   65   47 ****** ***** ****** ***  53 ***** ***** ***** ***** **
679510 ***** 201505261200 180   9 *** *** *** * * * 18.8 ** ** ** ** ** ** ** ** *   79   32 ****** ***** ****** *** *** ***** ***** ***** ***** **
679510 ***** 201505280600 120   7 *** *** *** * * * 18.8 ** ** ** ** ** ** ** ** *   65   33 ****** ***** ****** ***  56 ***** ***** ***** ***** **
679510 ***** 201505290600 140   7 *** *** *** * * * 18.8 ** ** ** ** ** ** ** ** *   66   35 ****** ***** ****** ***  55 ***** ***** ***** ***** **
679510 ***** 201505300600 090   6 *** *** *** * * * 18.8 ** ** ** ** ** ** ** ** *   64   34 ****** ***** ****** ***  54 ***** ***** ***** ***** **
679510 ***** 201505301200 210   3 *** *** *** * * * 18.8 ** ** ** ** ** ** ** ** *   82   34 ****** ***** ****** *** *** ***** ***** ***** ***** **
679510 ***** 201505310600 080   7 *** *** SCT * * * 18.8 ** ** ** ** ** ** ** ** *   64   36 ****** ***** ****** ***  55 ***** ***** ***** ***** **
679510 ***** 201506010600 050   7 *** *** *** * * * 18.8 ** ** ** ** ** ** ** ** *   63   39 ****** ***** ****** ***  54 ***** ***** ***** ***** **
679510 ***** 201506020600 080   8 *** *** *** * * * 18.8 ** ** ** ** ** ** ** ** *   63   48 ****** ***** ****** ***  57 ***** ***** ***** ***** **
679510 ***** 201506030600 030  10 *** *** *** * * * 18.8 ** ** ** ** ** ** ** ** *   62   49 ****** ***** ****** ***  56 ***** ***** ***** ***** **
679510 ***** 201506031200 020   8 *** *** SCT * * * 18.8 ** ** ** ** ** ** ** ** *   80   50 ****** ***** ****** *** *** ***** ***** ***** ***** **
679510 ***** 201506040600 190   9 *** *** SCT * * * 18.8 ** ** ** ** ** ** ** ** *   55   32 ****** ***** ****** ***  53 ***** ***** ***** ***** **
679510 ***** 201506041200 270  14 *** *** SCT * * * 18.8 ** ** ** ** ** ** ** ** *   72   23 ****** ***** ****** *** *** ***** ***** ***** ***** **
679510 ***** 201506050600 160   8 *** *** *** * * * 18.8 ** ** ** ** ** ** ** ** *   50   35 ****** ***** ****** ***  44 ***** ***** ***** ***** **
679510 ***** 201506060600 120   9 *** *** *** * * * 18.8 ** ** ** ** ** ** ** ** *   51   39 ****** ***** ****** ***  41 ***** ***** ***** ***** **
679510 ***** 201506061200 120   8 *** *** SCT * * * 18.8 ** ** ** ** ** ** ** ** *   69   34 ****** ***** ****** *** *** ***** ***** ***** ***** **
679510 ***** 201506070600 100   7 *** *** *** * * * 18.8 ** ** ** ** ** ** ** ** *   51   42 ****** ***** ****** ***  46 ***** ***** ***** ***** **
679510 ***** 201506071200 230   8 *** *** SCT * * * 18.8 ** ** ** ** ** ** ** ** *   72   40 ****** ***** ****** *** *** ***** ***** ***** ***** **
679510 ***** 201506081200 030   6 *** *** SCT * * * 18.8 ** ** ** ** ** ** ** ** *   74   38 ****** ***** ****** *** *** ***** ***** ***** ***** **
679510 ***** 201506090600 080   7 *** *** *** * * * 18.8 ** ** ** ** ** ** ** ** *   60   37 ****** ***** ****** ***  52 ***** ***** ***** ***** **
679510 ***** 201506091200 210   8 *** *** *** * * * 18.8 ** ** ** ** ** ** ** ** *   74   30 ****** ***** ****** *** *** ***** ***** ***** ***** **
679510 ***** 201506100600 060  11 *** *** *** * * * 18.8 ** ** ** ** ** ** ** ** *   56   37 ****** ***** ****** ***  49 ***** ***** ***** ***** **
679510 ***** 201506101200 090  10 *** *** SCT * * * 18.8 ** ** ** ** ** ** ** ** *   73   36 ****** ***** ****** *** *** ***** ***** ***** ***** **
679510 ***** 201506110600 060  10 *** *** *** * * * 18.8 ** ** ** ** ** ** ** ** *   56   38 ****** ***** ****** ***  49 ***** ***** ***** ***** **
679510 ***** 201506111200 120   6 *** *** SCT * * * 18.8 ** ** ** ** ** ** ** ** *   72   43 ****** ***** ****** *** *** ***** ***** ***** ***** **
679510 ***** 201506120600 050   7 *** *** *** * * * 18.8 ** ** ** ** ** ** ** ** *   58   46 ****** ***** ****** ***  48 ***** ***** ***** ***** **
679510 ***** 201506121200 180   8 *** *** SCT * * * 18.8 ** ** ** ** ** ** ** ** *   75   37 ****** ***** ****** *** *** ***** ***** ***** ***** **
679510 ***** 201506130600 050   8 *** *** *** * * * 18.8 ** ** ** ** ** ** ** ** *   57   43 ****** ***** ****** ***  51 ***** ***** ***** ***** **
679510 ***** 201506131200 150   7 *** *** *** * * * 18.8 ** ** ** ** ** ** ** ** *   70   36 ****** ***** ****** *** *** ***** ***** ***** ***** **
679510 ***** 201506140600 150   7 *** *** *** * * * 18.8 ** ** ** ** ** ** ** ** *   55   40 ****** ***** ****** ***  49 ***** ***** ***** ***** **
679510 ***** 201506150600 090   2 *** *** *** * * * 18.8 ** ** ** ** ** ** ** ** *   59   35 ****** ***** ****** ***  51 ***** ***** ***** ***** **
679510 ***** 201506151200 240   8 *** *** *** * * * 18.8 ** ** ** ** ** ** ** ** *   75   26 ****** ***** ****** *** *** ***** ***** ***** ***** **
679510 ***** 201506160600 050   1 *** *** *** * * * 18.8 ** ** ** ** ** ** ** ** *   59   34 ****** ***** ****** ***  47 ***** ***** ***** ***** **
679510 ***** 201506161200 090   7 *** *** *** * * * 18.8 ** ** ** ** ** ** ** ** *   79   30 ****** ***** ****** *** *** ***** ***** ***** ***** **
679510 ***** 201506171200 240  13 *** *** *** * * * 18.8 05 ** ** ** ** ** ** ** 0   74   22 ****** ***** ****** *** *** ***** ***** ***** ***** **
679510 ***** 201506180600 120   8 *** *** *** * * * 18.8 ** ** ** ** ** ** ** ** *   53   24 ****** ***** ****** ***  43 ***** ***** ***** ***** **
679510 ***** 201506181200 300   1 *** *** *** * * * 18.8 ** ** ** ** ** ** ** ** *   74   29 ****** ***** ****** *** *** ***** ***** ***** ***** **
679510 ***** 201506191200 180   5 *** *** *** * * * 18.8 ** ** ** ** ** ** ** ** *   71   34 ****** ***** ****** *** *** ***** ***** ***** ***** **
679510 ***** 201506200600 120   8 *** *** SCT * * * 18.8 ** ** ** ** ** ** ** ** *   53   43 ****** ***** ****** ***  47 ***** ***** ***** ***** **
679510 ***** 201506230600 030   5 *** *** *** * * * 18.8 ** ** ** ** ** ** ** ** *   57   42 ****** ***** ****** ***  47 ***** ***** ***** ***** **
679510 ***** 201506231200 270   6 *** *** *** * * * 18.8 ** ** ** ** ** ** ** ** *   74   40 ****** ***** ****** *** *** ***** ***** ***** ***** **
679510 ***** 201506240600 020   7 *** *** *** * * * 18.8 ** ** ** ** ** ** ** ** *   57   40 ****** ***** ****** ***  50 ***** ***** ***** ***** **
679510 ***** 201506241200 270   9 *** *** *** * * * 18.8 ** ** ** ** ** ** ** ** *   75   36 ****** ***** ****** *** *** ***** ***** ***** ***** **
679510 ***** 201506250600 ***   0 *** *** *** * * * 18.8 ** ** ** ** ** ** ** ** *   59   42 ****** ***** ****** ***  44 ***** ***** ***** ***** **
679510 ***** 201506251200 090   9 *** *** *** * * * 18.8 ** ** ** ** ** ** ** ** *   74   38 ****** ***** ****** *** *** ***** ***** ***** ***** **
679510 ***** 201506260600 080   8 *** *** SCT * * * 18.8 ** ** ** ** ** ** ** ** *   63   40 ****** ***** ****** ***  53 ***** ***** ***** ***** **
679510 ***** 201506270600 030  11 ***  98 BKN * * * 18.8 ** ** ** ** ** ** ** ** *   56   50 ****** ***** ****** ***  52 ***** ***** ***** ***** **
679510 ***** 201506271200 240   8 *** *** SCT * * *  3.1 ** ** ** ** ** ** ** ** *   72   49 ****** ***** ****** *** *** ***** ***** ***** ***** **
679510 ***** 201506280600 090   9 *** *** SCT * * * 18.8 ** ** ** ** ** ** ** ** *   58   44 ****** ***** ****** ***  51 ***** ***** ***** ***** **
679510 ***** 201506290600 050   7 *** *** *** * * * 18.8 ** ** ** ** ** ** ** ** *   60   42 ****** ***** ****** ***  52 ***** ***** ***** ***** **
679510 ***** 201506291200 210   6 *** *** SCT * * * 18.8 ** ** ** ** ** ** ** ** *   76   42 ****** ***** ****** *** *** ***** ***** ***** ***** **
679510 ***** 201506300600 120   7 *** *** *** * * * 18.8 ** ** ** ** ** ** ** ** *   62   41 ****** ***** ****** ***  55 ***** ***** ***** ***** **
679510 ***** 201507021200 050   9 *** *** SCT * * * 18.8 ** ** ** ** ** ** ** ** *   73   39 ****** ***** ****** *** *** ***** ***** ***** ***** **
679510 ***** 201507030600 120   9 *** *** SCT * * * 18.8 ** ** ** ** ** ** ** ** *   56   40 ****** ***** ****** ***  50 ***** ***** ***** ***** **
679510 ***** 201507031200 150   8 *** *** *** * * * 18.8 ** ** ** ** ** ** ** ** *   68   36 ****** ***** ****** *** *** ***** ***** ***** ***** **
679510 ***** 201507040600 080   6 *** *** *** * * * 18.8 ** ** ** ** ** ** ** ** *   55   41 ****** ***** ****** ***  48 ***** ***** ***** ***** **
679510 ***** 201507050600 060   7 *** *** *** * * * 18.8 ** ** ** ** ** ** ** ** *   55   40 ****** ***** ****** ***  48 ***** ***** ***** ***** **
679510 ***** 201507051200 020   6 *** *** SCT * * * 18.8 ** ** ** ** ** ** ** ** *   73   39 ****** ***** ****** *** *** ***** ***** ***** ***** **
679510 ***** 201507060600 150   7 *** *** *** * * * 18.8 ** ** ** ** ** ** ** ** *   59   38 ****** ***** ****** ***  49 ***** ***** ***** ***** **
679510 ***** 201507061200 150   7 *** *** SCT * * * 18.8 ** ** ** ** ** ** ** ** *   75   39 ****** ***** ****** *** *** ***** ***** ***** ***** **
679510 ***** 201507071200 150   8 *** *** SCT * * * 18.8 ** ** ** ** ** ** ** ** *   67   44 ****** ***** ****** *** *** ***** ***** ***** ***** **
679510 ***** 201507080600 090  10 *** *** SCT * * * 18.8 ** ** ** ** ** ** ** ** *   55   44 ****** ***** ****** ***  49 ***** ***** ***** ***** **
679510 ***** 201507081200 150   6 *** *** SCT * * * 18.8 ** ** ** ** ** ** ** ** *   73   41 ****** ***** ****** *** *** ***** ***** ***** ***** **
679510 ***** 201507090600 070   6 *** *** *** * * * 18.8 ** ** ** ** ** ** ** ** *   60   45 ****** ***** ****** ***  48 ***** ***** ***** ***** **
679510 ***** 201507100600 080   9 *** *** *** * * * 18.8 ** ** ** ** ** ** ** ** *   58   42 ****** ***** ****** ***  52 ***** ***** ***** ***** **
679510 ***** 201507101200 180   3 *** *** *** * * * 18.8 ** ** ** ** ** ** ** ** *   73   41 ****** ***** ****** *** *** ***** ***** ***** ***** **
679510 ***** 201507110600 090  10 *** *** *** * * * 18.8 ** ** ** ** ** ** ** ** *   55   43 ****** ***** ****** ***  49 ***** ***** ***** ***** **
679510 ***** 201507111200 360   3 *** *** *** * * * 18.8 ** ** ** ** ** ** ** ** *   74   41 ****** ***** ****** *** *** ***** ***** ***** ***** **
679510 ***** 201507120600 020   7 *** *** SCT * * * 18.8 ** ** ** ** ** ** ** ** *   55   39 ****** ***** ****** ***  48 ***** ***** ***** ***** **
679510 ***** 201507130600 020   6 *** *** *** * * * 18.8 ** ** ** ** ** ** ** ** *   58   36 ****** ***** ****** ***  46 ***** ***** ***** ***** **
679510 ***** 201507131200 290   8 *** *** *** * * * 18.8 ** ** ** ** ** ** ** ** *   77   30 ****** ***** ****** *** *** ***** ***** ***** ***** **
679510 ***** 201507140600 060   8 *** *** SCT * * * 18.8 ** ** ** ** ** ** ** ** *   61   35 ****** ***** ****** ***  51 ***** ***** ***** ***** **
679510 ***** 201507141200 030   9 *** *** *** * * * 18.8 05 ** ** ** ** ** ** ** 0   79   34 ****** ***** ****** *** *** ***** ***** ***** ***** **
679510 ***** 201507150600 050   9 *** *** *** * * * 18.8 ** ** ** ** ** ** ** ** *   58   46 ****** ***** ****** ***  51 ***** ***** ***** ***** **
679510 ***** 201507151200 350   2 *** *** *** * * * 18.8 ** ** ** ** ** ** ** ** *   77   42 ****** ***** ****** *** *** ***** ***** ***** ***** **
679510 ***** 201507160600 060   8 *** *** *** * * * 18.8 ** ** ** ** ** ** ** ** *   58   40 ****** ***** ****** ***  49 ***** ***** ***** ***** **
679510 ***** 201507161200 270   8 *** *** *** * * * 18.8 ** ** ** ** ** ** ** ** *   76   38 ****** ***** ****** *** *** ***** ***** ***** ***** **
679510 ***** 201507170600 360   9 *** *** *** * * * 18.8 ** ** ** ** ** ** ** ** *   56   40 ****** ***** ****** ***  51 ***** ***** ***** ***** **
679510 ***** 201507171200 290  10 *** *** *** * * * 18.8 ** ** ** ** ** ** ** ** *   76   40 ****** ***** ****** *** *** ***** ***** ***** ***** **
679510 ***** 201507180600 080   7 *** *** *** * * * 18.8 ** ** ** ** ** ** ** ** *   61   36 ****** ***** ****** ***  49 ***** ***** ***** ***** **
679510 ***** 201507181200 330  11 *** *** SCT * * * 18.8 ** ** ** ** ** ** ** ** *   81   31 ****** ***** ****** *** *** ***** ***** ***** ***** **
679510 ***** 201507190600 030   7 *** *** *** * * * 18.8 ** ** ** ** ** ** ** ** *   62   38 ****** ***** ****** ***  55 ***** ***** ***** ***** **
679510 ***** 201507191200 020   6 *** *** SCT * * * 18.8 ** ** ** ** ** ** ** ** *   81   30 ****** ***** ****** *** *** ***** ***** ***** ***** **
679510 ***** 201507200600 020   9 *** *** *** * * * 18.8 ** ** ** ** ** ** ** ** *   61   42 ****** ***** ****** ***  55 ***** ***** ***** ***** **
679510 ***** 201507201200 060   8 *** *** SCT * * * 18.8 ** ** ** ** ** ** ** ** *   75   36 ****** ***** ****** *** *** ***** ***** ***** ***** **
679510 ***** 201507211200 280   5 *** *** SCT * * * 18.8 ** ** ** ** ** ** ** ** *   76   38 ****** ***** ****** *** *** ***** ***** ***** ***** **
679510 ***** 201507220600 120   8 *** *** SCT * * * 18.8 ** ** ** ** ** ** ** ** *   60   42 ****** ***** ****** ***  54 ***** ***** ***** ***** **
679510 ***** 201507221200 090   8 *** *** SCT * * * 18.8 ** ** ** ** ** ** ** ** *   75   38 ****** ***** ****** *** *** ***** ***** ***** ***** **
679510 ***** 201507230600 060   9 *** *** SCT * * * 18.8 ** ** ** ** ** ** ** ** *   58   47 ****** ***** ****** ***  53 ***** ***** ***** ***** **
679510 ***** 201507231200 030  13 *** *** SCT * * * 18.8 ** ** ** ** ** ** ** ** *   74   43 ****** ***** ****** *** *** ***** ***** ***** ***** **
679510 ***** 201507240600 360  11 *** *** *** * * * 18.8 ** ** ** ** ** ** ** ** *   59   46 ****** ***** ****** ***  52 ***** ***** ***** ***** **
679510 ***** 201507241200 350  11 *** *** *** * * * 12.5 ** ** ** ** ** ** ** ** *   78   45 ****** ***** ****** *** *** ***** ***** ***** ***** **
679510 ***** 201507251200 300  13 *** *** SCT * * * 12.5 05 ** ** ** ** ** ** ** 0   78   42 ****** ***** ****** *** *** ***** ***** ***** ***** **
679510 ***** 201507260600 210  11 *** *** *** * * * 18.8 ** ** ** ** ** ** ** ** *   47    5 ****** ***** ****** ***  42 ***** ***** ***** ***** **
679510 ***** 201507270600 150   8 *** *** *** * * * 18.8 ** ** ** ** ** ** ** ** *   51   28 ****** ***** ****** ***  45 ***** ***** ***** ***** **
679510 ***** 201507271200 090   2 *** *** *** * * * 18.8 ** ** ** ** ** ** ** ** *   71   29 ****** ***** ****** *** *** ***** ***** ***** ***** **
679510 ***** 201507280600 080  10 *** *** *** * * * 18.8 ** ** ** ** ** ** ** ** *   56   40 ****** ***** ****** ***  47 ***** ***** ***** ***** **
679510 ***** 201507290600 050   8 *** *** *** * * * 18.8 ** ** ** ** ** ** ** ** *   58   43 ****** ***** ****** ***  52 ***** ***** ***** ***** **
679510 ***** 201507291200 340   8 *** *** *** * * * 18.8 ** ** ** ** ** ** ** ** *   78   36 ****** ***** ****** *** *** ***** ***** ***** ***** **
679510 ***** 201507300600 030   9 *** *** *** * * * 18.8 ** ** ** ** ** ** ** ** *   60   37 ****** ***** ****** ***  54 ***** ***** ***** ***** **
679510 ***** 201507311200 180  10 *** *** *** * * * 18.8 ** ** ** ** ** ** ** ** *   71   -2 ****** ***** ****** *** *** ***** ***** ***** ***** **
679510 ***** 201508011200 150  13 *** *** *** * * * 18.8 ** ** ** ** ** ** ** ** *   65   38 ****** ***** ****** *** *** ***** ***** ***** ***** **
679510 ***** 201508020600 120  14 *** *** *** * * * 18.8 ** ** ** ** ** ** ** ** *   50   36 ****** ***** ****** ***  42 ***** ***** ***** ***** **
679510 ***** 201508021200 090  11 *** *** *** * * * 18.8 ** ** ** ** ** ** ** ** *   70   19 ****** ***** ****** *** *** ***** ***** ***** ***** **
679510 ***** 201508030600 020  10 *** *** *** * * * 18.8 ** ** ** ** ** ** ** ** *   53   36 ****** ***** ****** ***  45 ***** ***** ***** ***** **
679510 ***** 201508040600 ***   0 *** *** *** * * * 18.8 ** ** ** ** ** ** ** ** *   56   29 ****** ***** ****** ***  45 ***** ***** ***** ***** **
679510 ***** 201508041200 180   1 *** *** *** * * * 18.8 ** ** ** ** ** ** ** ** *   74   23 ****** ***** ****** *** *** ***** ***** ***** ***** **
679510 ***** 201508050600 170   3 *** 295 BKN * * * 18.8 ** ** ** ** ** ** ** ** *   60   24 ****** ***** ****** ***  47 ***** ***** ***** ***** **
679510 ***** 201508051200 180  10 *** *** SCT * * * 18.8 ** ** ** ** ** ** ** ** *   76   18 ****** ***** ****** *** *** ***** ***** ***** ***** **
679510 ***** 201508060600 150   6 *** *** SCT * * * 18.8 ** ** ** ** ** ** ** ** *   54   36 ****** ***** ****** ***  50 ***** ***** ***** ***** **
679510 ***** 201508061200 090   9 *** *** *** * * * 18.8 ** ** ** ** ** ** ** ** *   67   42 ****** ***** ****** *** *** ***** ***** ***** ***** **
679510 ***** 201508070600 090   8 *** *** *** * * * 18.8 ** ** ** ** ** ** ** ** *   54   41 ****** ***** ****** ***  46 ***** ***** ***** ***** **
679510 ***** 201508071200 090  11 *** *** *** * * * 18.8 ** ** ** ** ** ** ** ** *   73   29 ****** ***** ****** *** *** ***** ***** ***** ***** **
679510 ***** 201508080600 120   8 *** *** *** * * * 18.8 ** ** ** ** ** ** ** ** *   59   27 ****** ***** ****** ***  47 ***** ***** ***** ***** **
679510 ***** 201508081200 160   9 *** *** *** * * * 18.8 ** ** ** ** ** ** ** ** *   75   15 ****** ***** ****** *** *** ***** ***** ***** ***** **
679510 ***** 201508090600 080   1 *** *** *** * * * 18.8 ** ** ** ** ** ** ** ** *   62   32 ****** ***** ****** ***  47 ***** ***** ***** ***** **
679510 ***** 201508100600 ***   0 *** *** *** * * * 18.8 ** ** ** ** ** ** ** ** *   64   29 ****** ***** ****** ***  48 ***** ***** ***** ***** **
679510 ***** 201508110600 060  10 *** *** *** * * * 18.8 ** ** ** ** ** ** ** ** *   60   38 ****** ***** ****** ***  53 ***** ***** ***** ***** **
679510 ***** 201508130600 020   7 *** 295 BKN * * * 18.8 ** ** ** ** ** ** ** ** *   61   28 ****** ***** ****** *** *** ***** ***** ***** ***** **
679510 ***** 201508131200 280   7 *** *** SCT * * * 18.8 ** ** ** ** ** ** ** ** *   83   26 ****** ***** ****** *** *** ***** ***** ***** ***** **
679510 ***** 201508140600 050   9 *** *** *** * * * 18.8 ** ** ** ** ** ** ** ** *   64   29 ****** ***** ****** ***  57 ***** ***** ***** ***** **
679510 ***** 201508150600 010  13 *** *** *** * * * 18.8 ** ** ** ** ** ** ** ** *   62   37 ****** ***** ****** ***  59 ***** ***** ***** ***** **
679510 ***** 201508151200 150   8 *** *** *** * * * 18.8 ** ** ** ** ** ** ** ** *   80   25 ****** ***** ****** *** *** ***** ***** ***** ***** **
679510 ***** 201508161200 150  10 *** *** *** * * * 18.8 ** ** ** ** ** ** ** ** *   80   37 ****** ***** ****** *** *** ***** ***** ***** ***** **
679510 ***** 201508170600 080  11 *** *** *** * * * 18.8 ** ** ** ** ** ** ** ** *   63   46 ****** ***** ****** ***  55 ***** ***** ***** ***** **
679510 ***** 201508171200 180   7 *** *** *** * * * 18.8 ** ** ** ** ** ** ** ** *   80   39 ****** ***** ****** *** *** ***** ***** ***** ***** **
679510 ***** 201508180600 090   7 *** *** *** * * * 18.8 ** ** ** ** ** ** ** ** *   64   44 ****** ***** ****** ***  55 ***** ***** ***** ***** **
679510 ***** 201508190600 050  10 *** *** *** * * * 18.8 ** ** ** ** ** ** ** ** *   67   39 ****** ***** ****** ***  57 ***** ***** ***** ***** **
679510 ***** 201508191200 210   8 *** *** *** * * * 18.8 ** ** ** ** ** ** ** ** *   84   38 ****** ***** ****** *** *** ***** ***** ***** ***** **
679510 ***** 201508200600 090  10 *** *** *** * * * 18.8 ** ** ** ** ** ** ** ** *   70   35 ****** ***** ****** ***  60 ***** ***** ***** ***** **
679510 ***** 201508201200 360   7 *** *** *** * * * 18.8 ** ** ** ** ** ** ** ** *   85   35 ****** ***** ****** *** *** ***** ***** ***** ***** **
679510 ***** 201508211200 050   9 *** *** *** * * * 18.8 ** ** ** ** ** ** ** ** *   87   40 ****** ***** ****** *** *** ***** ***** ***** ***** **
679510 ***** 201508220600 060   9 *** *** *** * * * 18.8 ** ** ** ** ** ** ** ** *   69   44 ****** ***** ****** ***  59 ***** ***** ***** ***** **
679510 ***** 201508230600 150  10 *** *** *** * * * 18.8 ** ** ** ** ** ** ** ** *   65   51 ****** ***** ****** ***  59 ***** ***** ***** ***** **
679510 ***** 201508240600 080   9 *** *** SCT * * * 18.8 ** ** ** ** ** ** ** ** *   63   51 ****** ***** ****** ***  57 ***** ***** ***** ***** **
679510 ***** 201508250600 060   9 *** *** SCT * * * 18.8 ** ** ** ** ** ** ** ** *   64   53 ****** ***** ****** ***  56 ***** ***** ***** ***** **
679510 ***** 201508251200 160   6 *** *** SCT * * * 18.8 ** ** ** ** ** ** ** ** *   83   35 ****** ***** ****** *** *** ***** ***** ***** ***** **
679510 ***** 201508260600 030   8 *** *** *** * * * 18.8 ** ** ** ** ** ** ** ** *   61   46 ****** ***** ****** ***  55 ***** ***** ***** ***** **
679510 ***** 201508261200 150  10 *** *** *** * * * 18.8 ** ** ** ** ** ** ** ** *   82   27 ****** ***** ****** *** *** ***** ***** ***** ***** **
679510 ***** 201508270600 020   6 *** *** *** * * * 18.8 ** ** ** ** ** ** ** ** *   65   42 ****** ***** ****** ***  59 ***** ***** ***** ***** **
679510 ***** 201508271200 160   2 *** *** *** * * * 12.5 05 ** ** ** ** ** ** ** 0   85   37 ****** ***** ****** *** *** ***** ***** ***** ***** **
679510 ***** 201508280600 060  10 *** *** *** * * * 12.5 05 ** ** ** ** ** ** ** 0   66   40 ****** ***** ****** ***  57 ***** ***** ***** ***** **
679510 ***** 201508290600 030  13 *** *** *** * * * 12.5 05 ** ** ** ** ** ** ** 0   69   42 ****** ***** ****** ***  49 ***** ***** ***** ***** **
679510 ***** 201508291200 120  10 *** *** SCT * * * 12.5 05 ** ** ** ** ** ** ** 0   85   35 ****** ***** ****** *** *** ***** ***** ***** ***** **
679510 ***** 201508300600 030   9 *** *** *** * * * 12.5 05 ** ** ** ** ** ** ** 0   69   42 ****** ***** ****** ***  59 ***** ***** ***** ***** **
679510 ***** 201508310600 050   9 *** *** *** * * * 12.5 05 ** ** ** ** ** ** ** 0   69   45 ****** ***** ****** ***  62 ***** ***** ***** ***** **
679510 ***** 201509010600 360  14 *** *** *** * * * 12.5 05 ** ** ** ** ** ** ** 0   69   40 ****** ***** ****** ***  61 ***** ***** ***** ***** **
679510 ***** 201509020600 170   5 *** *** *** * * * 12.5 05 ** ** ** ** ** ** ** 0   67   35 ****** ***** ****** ***  58 ***** ***** ***** ***** **
679510 ***** 201509030600 120  11 *** *** SCT * * * 12.5 05 ** ** ** ** ** ** ** 0   62   56 ****** ***** ****** ***  58 ***** ***** ***** ***** **
679510 ***** 201509031200 150  14 *** *** SCT * * * 12.5 05 ** ** ** ** ** ** ** 1   74   56 ****** ***** ****** *** *** ***** ***** ***** ***** **
679510 ***** 201509040600 150   8 ***  15 OVC * * * 15.6 50 ** ** ** ** ** ** ** 5   56   53 ****** ***** ****** ***  54 ***** *****  0.00T***** **
679510 ***** 201509051200 080  10 *** *** SCT * * * 12.5 05 ** ** ** ** ** ** ** 6   66   54 ****** ***** ****** *** *** ***** ***** ***** ***** **
679510 ***** 201509060600 140   5 ***  15 OVC * * * 15.6 61 ** ** ** ** ** ** ** 9   54   53 ****** ***** ****** ***  53 ***** *****  0.31 ***** **
679510 ***** 201509061200 090   8 *** *** SCT * * * 18.8 03 ** ** ** ** ** ** ** 6   73 **** ****** ***** 1013.1 *** *** ***** ***** ***** ***** **
679510 ***** 201509070600 150   7 *** *** *** * * * 18.8 ** ** ** ** ** ** ** ** *   63   41 ****** ***** ****** ***  50 ***** *****  0.04 ***** **
679510 ***** 201509071200 210  10 *** *** SCT * * * 18.8 ** ** ** ** ** ** ** ** *   78   29 ****** ***** ****** *** *** ***** ***** ***** ***** **
679510 ***** 201509080600 030   8 *** *** *** * * * 18.8 ** ** ** ** ** ** ** ** *   72   29 ****** ***** ****** ***  59 ***** ***** ***** ***** **
679510 ***** 201509081200 060   6 *** *** SCT * * * 18.8 ** ** ** ** ** ** ** ** *   87   39 ****** ***** ****** *** *** ***** ***** ***** ***** **
679510 ***** 201509090600 050  13 *** *** SCT * * * 18.8 ** ** ** ** ** ** ** ** *   70   45 ****** ***** ****** ***  64 ***** ***** ***** ***** **
679510 ***** 201509091200 330   9 *** *** SCT * * * 12.5 05 ** ** ** ** ** ** ** 0   90   39 ****** ***** ****** *** *** ***** ***** ***** ***** **
679510 ***** 201509100600 020  10 *** *** *** * * * 12.5 05 ** ** ** ** ** ** ** 0   72   42 ****** ***** ****** ***  65 ***** ***** ***** ***** **
679510 ***** 201509101200 050   8 *** *** SCT * * * 12.5 05 ** ** ** ** ** ** ** 0   91   43 ****** ***** ****** *** *** ***** ***** ***** ***** **
679510 ***** 201509110600 360   8 *** *** *** * * * 12.5 05 ** ** ** ** ** ** ** 0   75   38 ****** ***** ****** ***  66 ***** ***** ***** ***** **
679510 ***** 201509111200 150   7 *** *** SCT * * * 12.5 05 ** ** ** ** ** ** ** 0   93   38 ****** ***** ****** *** *** ***** ***** ***** ***** **
679510 ***** 201509120600 150  15 *** *** SCT * * * 12.5 05 ** ** ** ** ** ** ** 0   64   53 ****** ***** ****** ***  60 ***** ***** ***** ***** **
679510 ***** 201509140600 120  10 ***  20 BKN * * * 18.8 ** ** ** ** ** ** ** ** *   55   47 ****** ***** ****** ***  50 ***** ***** ***** ***** **
679510 ***** 201509150600 080   8 *** *** SCT * * * 18.8 ** ** ** ** ** ** ** ** *   60   35 ****** ***** ****** ***  47 ***** ***** ***** ***** **
679510 ***** 201509151200 150   7 *** 295 BKN * * * 18.8 ** ** ** ** ** ** ** ** *   78   26 ****** ***** ****** *** *** ***** ***** ***** ***** **
679510 ***** 201509160600 020   9 *** *** SCT * * * 18.8 ** ** ** ** ** ** ** ** *   63   36 ****** ***** ****** ***  45 ***** ***** ***** ***** **
679510 ***** 201509161200 090   7 *** *** *** * * * 18.8 ** ** ** ** ** ** ** ** *   83   25 ****** ***** ****** *** *** ***** ***** ***** ***** **
679510 ***** 201509170600 030   7 *** *** *** * * * 18.8 ** ** ** ** ** ** ** ** *   68   34 ****** ***** ****** ***  58 ***** ***** ***** ***** **
679510 ***** 201509180600 360   8 *** *** *** * * * 18.8 ** ** ** ** ** ** ** ** *   76   32 ****** ***** ****** ***  64 ***** ***** ***** ***** **
679510 ***** 201509181200 100   2 *** *** SCT * * * 12.5 05 ** ** ** ** ** ** ** 0   94   38 ****** ***** ****** *** *** ***** ***** ***** ***** **
679510 ***** 201509190600 120   9 *** *** SCT * * * 12.5 05 ** ** ** ** ** ** ** 0   69   55 ****** ***** ****** ***  59 ***** ***** ***** ***** **
679510 ***** 201509191200 030  11 *** *** *** * * * 12.5 05 ** ** ** ** ** ** ** 0   86   52 ****** ***** ****** *** *** ***** ***** ***** ***** **
