  USAF  WBAN YR--MODAHRMN DIR SPD GUS CLG SKC L M H  VSB MW MW MW MW AW AW AW AW W TEMP DEWP    SLP   ALT    STP MAX MIN PCP01 PCP06 PCP24 PCPXX SD
821130 ***** 201509011200 360   0 ***   2 BKN * * *  2.5 21 ** ** ** ** ** ** ** 6   76   73 ****** ***** ******  75  73 ***** *****  0.94 ***** **
821130 ***** 201509020000 360   0 *** *** BKN * * *  0.6 ** ** ** ** ** ** ** ** *   81   77 ****** ***** ****** *** *** ***** ***** ***** ***** **
821130 ***** 201509021200 050   1 *** 722 CLR * * *  2.5 ** ** ** ** ** ** ** ** *   77   71 ****** ***** ****** ***  74 ***** ***** ***** ***** **
821130 ***** 201509030000 360   0 *** *** SCT * * *  1.2 ** ** ** ** ** ** ** ** *   84   78 ****** ***** ****** *** *** ***** ***** ***** ***** **
821130 ***** 201509031200 360   0 *** *** OVC * * *  2.5 ** ** ** ** ** ** ** ** *   75   73 ****** ***** ****** *** *** ***** ***** ***** ***** **
821130 ***** 201509040000 360   0 *** *** BKN * * *  0.6 ** ** ** ** ** ** ** ** *   80   77 ****** ***** ****** *** *** ***** ***** ***** ***** **
821130 ***** 201509041200 230   2 *** *** SCT * * *  2.5 ** ** ** ** ** ** ** ** *   78   74 ****** ***** ****** ***  74 ***** ***** ***** ***** **
821130 ***** 201509050000 360   0 ***  41 BKN * * *  1.2 ** ** ** ** ** ** ** ** *   79   75 ****** ***** ****** *** *** ***** ***** ***** ***** **
821130 ***** 201509051200 230   2 ***  20 BKN * * *  2.5 ** ** ** ** ** ** ** ** *   76   75 ****** ***** ****** ***  72 ***** ***** ***** ***** **
821130 ***** 201509060000 360   0 *** *** BKN * * *  0.6 ** ** ** ** ** ** ** ** *   80   75 ****** ***** ****** *** *** ***** ***** ***** ***** **
821130 ***** 201509061200 230   2 ***  20 BKN * * *  2.5 ** ** ** ** ** ** ** ** *   78   76 ****** ***** ****** ***  69 ***** ***** ***** ***** **
821130 ***** 201509070000 360   0 *** *** SCT * * *  1.2 ** ** ** ** ** ** ** ** *   85   78 ****** ***** ****** *** *** ***** ***** ***** ***** **
821130 ***** 201509080000 360   0 *** *** SCT * * *  1.2 ** ** ** ** ** ** ** ** *   78   76 ****** ***** ****** *** *** ***** ***** ***** ***** **
821130 ***** 201509081200 230   2 ***  41 BKN * * *  2.5 ** ** ** ** ** ** ** ** *   78   76 ****** ***** ****** ***  74 ***** ***** ***** ***** **
821130 ***** 201509090000 360   0 ***  20 BKN * * *  0.6 ** ** ** ** ** ** ** ** *   85   78 ****** ***** ****** *** *** ***** ***** ***** ***** **
821130 ***** 201509091200 230   2 ***  20 BKN * * *  2.5 ** ** ** ** ** ** ** ** *   84   75 ****** ***** ****** ***  76 ***** ***** ***** ***** **
821130 ***** 201509100000 360   0 *** *** BKN * * *  0.6 ** ** ** ** ** ** ** ** *   85   72 ****** ***** ****** *** *** ***** ***** ***** ***** **
821130 ***** 201509101200 320   1 ***  20 BKN * * *  1.2 ** ** ** ** ** ** ** ** *   82   76 ****** ***** ****** ***  82 ***** ***** ***** ***** **
821130 ***** 201509110000 360   0 *** *** BKN * * *  0.6 ** ** ** ** ** ** ** ** *   85   82 ****** ***** ****** *** *** ***** ***** ***** ***** **
821130 ***** 201509111200 320   1 ***  20 BKN * * *  2.5 ** ** ** ** ** ** ** ** *   81   75 ****** ***** ****** ***  75 ***** ***** ***** ***** **
821130 ***** 201509120000 360   0 *** *** BKN * * *  0.6 ** ** ** ** ** ** ** ** *   85   83 ****** ***** ****** *** *** ***** ***** ***** ***** **
821130 ***** 201509121200 360   0 ***  20 BKN * * *  2.5 ** ** ** ** ** ** ** ** *   83   76 ****** ***** ****** ***  81 ***** ***** ***** ***** **
821130 ***** 201509130000 360   0 *** *** BKN * * *  1.2 ** ** ** ** ** ** ** ** *   84   76 ****** ***** ****** *** *** ***** ***** ***** ***** **
821130 ***** 201509131200 320   1 *** *** SCT * * *  2.5 ** ** ** ** ** ** ** ** *   80   76 ****** ***** ****** ***  74 ***** ***** ***** ***** **
821130 ***** 201509140000 360   0 *** *** BKN * * *  0.6 ** ** ** ** ** ** ** ** *   84   76 ****** ***** ****** *** *** ***** ***** ***** ***** **
821130 ***** 201509141200 050   3 ***  20 BKN * * *  2.5 ** ** ** ** ** ** ** ** *   80   75 ****** ***** ****** ***  78 ***** ***** ***** ***** **
821130 ***** 201509150000 360   0 *** *** SCT * * *  0.6 ** ** ** ** ** ** ** ** *   79   74 ****** ***** ****** *** *** ***** ***** ***** ***** **
821130 ***** 201509151200 360   0 ***  41 BKN * * *  2.5 ** ** ** ** ** ** ** ** *   76   72 ****** ***** ****** ***  76 ***** ***** ***** ***** **
821130 ***** 201509160000 360   0 *** *** BKN * * *  0.6 03 ** ** ** ** ** ** ** 6   76   76 ****** ***** ****** *** *** *****  0.08 ***** ***** **
821130 ***** 201509161200 320   1 ***  20 BKN * * *  2.5 ** ** ** ** ** ** ** ** *   76   74 ****** ***** ****** ***  76 ***** ***** ***** ***** **
821130 ***** 201509170000 320   1 *** *** BKN * * *  0.6 ** ** ** ** ** ** ** ** *   81   73 ****** ***** ****** *** *** ***** ***** ***** ***** **
821130 ***** 201509171200 050   1 *** *** BKN * * *  2.5 ** ** ** ** ** ** ** ** *   79   76 ****** ***** ****** ***  74 ***** ***** ***** ***** **
821130 ***** 201509180000 360   0 *** *** BKN * * *  0.6 ** ** ** ** ** ** ** ** *   82   77 ****** ***** ****** *** *** ***** ***** ***** ***** **
821130 ***** 201509181200 230   1 *** *** SCT * * *  2.5 ** ** ** ** ** ** ** ** *   84   77 ****** ***** ****** ***  85 ***** ***** ***** ***** **
821130 ***** 201509190000 360   0 *** *** BKN * * *  0.6 ** ** ** ** ** ** ** ** *   85   71 ****** ***** ****** *** *** ***** ***** ***** ***** **
821130 ***** 201509191200 230   1 *** *** SCT * * *  2.5 ** ** ** ** ** ** ** ** *   83   75 ****** ***** ****** ***  74 ***** ***** ***** ***** **
