  USAF  WBAN YR--MODAHRMN DIR SPD GUS CLG SKC L M H  VSB MW MW MW MW AW AW AW AW W TEMP DEWP    SLP   ALT    STP MAX MIN PCP01 PCP06 PCP24 PCPXX SD
822460 ***** 201502021800 090   2 ***  26 OVC * * *  2.5 03 ** ** ** ** ** ** ** 6   78   77 1013.6 *****  993.6 *** *** *****  0.12 ***** ***** **
822460 ***** 201503061800 360   0 ***  26 OVC * * *  2.5 ** ** ** ** ** ** ** ** *   83   77 1011.2 *****  991.4 *** *** ***** ***** ***** ***** **
822460 ***** 201503121800 360   0 *** *** BKN * * *  2.5 ** ** ** ** ** ** ** ** *   83   77 1011.8 *****  992.0 *** *** ***** ***** ***** ***** **
822460 ***** 201503301200 180   2 ***  26 BKN * * *  2.5 10 ** ** ** ** ** ** ** 2   80   78 1014.6 *****  994.7 ***  72 ***** ***** ***** ***** **
822460 ***** 201503311800 160   2 ***  26 BKN * * *  2.5 ** ** ** ** ** ** ** ** *   87   80 1012.7 *****  992.9 *** *** ***** ***** ***** ***** **
822460 ***** 201504021200 090   2 ***  26 OVC * * *  2.5 ** ** ** ** ** ** ** ** *   76   75 1015.3 *****  995.4 ***  71 ***** *****  0.04 ***** **
822460 ***** 201504231200 140   2 ***  26 OVC * * *  2.5 03 ** ** ** ** ** ** ** 6   79   77 1013.4 *****  993.6 ***  73 ***** *****  0.39 ***** **
822460 ***** 201505051200 140   2 ***  26 BKN * * *  2.5 03 ** ** ** ** ** ** ** 6   77   76 1014.4 *****  994.5 ***  73 ***** *****  0.08 ***** **
822460 ***** 201506131200 140   2 *** *** BKN * * *  6.2 ** ** ** ** ** ** ** ** *   76   74 1012.8 *****  992.9 ***  73 ***** ***** ***** ***** **
822460 ***** 201507011200 140   2 *** *** BKN * * *  2.5 03 ** ** ** ** ** ** ** 6   78   76 1013.9 *****  994.1 ***  71 ***** *****  0.16 ***** **
822460 ***** 201507131200 140   2 *** *** BKN * * *  6.2 ** ** ** ** ** ** ** ** *   77   77 1014.4 *****  994.5 ***  71 ***** ***** ***** ***** **
822460 ***** 201507191800 090   2 ***  26 BKN * * *  6.2 ** ** ** ** ** ** ** ** *   86   77 1012.1 *****  992.4 *** *** ***** ***** ***** ***** **
822460 ***** 201507301200 160   2 *** *** BKN * * *  6.2 10 ** ** ** ** ** ** ** 1   78   76 1014.1 *****  994.3 ***  73 ***** ***** ***** ***** **
822460 ***** 201507301800 090   2 *** *** BKN * * *  6.2 ** ** ** ** ** ** ** ** *   84   77 1012.5 *****  992.7 *** *** ***** ***** ***** ***** **
822460 ***** 201507310000 090   2 *** *** SCT * * *  6.2 ** ** ** ** ** ** ** ** *   80   76 1012.9 *****  993.1 *** *** ***** ***** ***** ***** **
822460 ***** 201507311200 230   2 ***  20 BKN * * *  2.5 10 ** ** ** ** ** ** ** 2   79   77 1015.2 *****  995.3 ***  72 ***** ***** ***** ***** **
822460 ***** 201507311800 160   2 *** *** BKN * * *  6.2 ** ** ** ** ** ** ** ** *   87   78 1012.9 *****  993.1 *** *** ***** ***** ***** ***** **
822460 ***** 201508010000 090   2 *** *** BKN * * *  6.2 ** ** ** ** ** ** ** ** *   80   77 1013.3 *****  993.5 *** *** ***** ***** ***** ***** **
822460 ***** 201508011200 090   2 *** *** BKN * * *  6.2 ** ** ** ** ** ** ** ** *   78   77 1014.6 *****  994.7 ***  73 ***** ***** ***** ***** **
822460 ***** 201508021200 360   0 ***  20 OVC * * *  2.5 ** ** ** ** ** ** ** ** *   76   75 1013.1 *****  993.2 ***  71 ***** ***** ***** ***** **
822460 ***** 201508021800 140   2 *** *** BKN * * *  6.2 ** ** ** ** ** ** ** ** *   90   77 1011.8 *****  992.2 *** *** ***** ***** ***** ***** **
822460 ***** 201508031200 230   2 ***  20 OVC * * *  2.5 29 ** ** ** ** ** ** ** 2   77   76 1013.7 *****  993.9 ***  71 ***** ***** ***** ***** **
822460 ***** 201508031800 160   2 *** *** BKN * * *  6.2 ** ** ** ** ** ** ** ** *   89   80 1012.5 *****  992.8 *** *** ***** ***** ***** ***** **
822460 ***** 201508040000 360   0 *** 722 CLR * * *  6.2 ** ** ** ** ** ** ** ** *   80   77 1012.3 *****  992.5 *** *** ***** ***** ***** ***** **
822460 ***** 201508041200 180   2 *** *** BKN * * *  6.2 10 ** ** ** ** ** ** ** 1   79   76 1013.5 *****  993.7 ***  73 ***** ***** ***** ***** **
822460 ***** 201508041800 020   2 *** *** BKN * * *  6.2 ** ** ** ** ** ** ** ** *   89   78 1012.6 *****  992.9 *** *** ***** ***** ***** ***** **
822460 ***** 201508050000 360   0 *** 722 CLR * * *  6.2 ** ** ** ** ** ** ** ** *   80   76 1012.0 *****  992.2 *** *** ***** ***** ***** ***** **
822460 ***** 201508051200 180   2 *** *** BKN * * *  6.2 ** ** ** ** ** ** ** ** *   79   77 1013.7 *****  993.9 ***  71 ***** ***** ***** ***** **
822460 ***** 201508051800 140   2 *** *** BKN * * *  6.2 ** ** ** ** ** ** ** ** *   82   73 1012.1 *****  992.4 *** *** ***** ***** ***** ***** **
822460 ***** 201508060000 360   0 *** 722 CLR * * *  6.2 ** ** ** ** ** ** ** ** *   81   78 1011.9 *****  992.2 *** *** ***** ***** ***** ***** **
822460 ***** 201508061200 140   2 *** *** BKN * * *  6.2 ** ** ** ** ** ** ** ** *   80   76 1015.0 *****  995.2 ***  71 ***** ***** ***** ***** **
822460 ***** 201508061800 020   3 *** *** BKN * * *  6.2 ** ** ** ** ** ** ** ** *   89   76 1012.7 *****  993.0 *** *** ***** ***** ***** ***** **
822460 ***** 201508071200 090   2 *** *** BKN * * *  6.2 10 ** ** ** ** ** ** ** 1   79   77 1014.0 *****  994.2 ***  72 ***** ***** ***** ***** **
822460 ***** 201508071800 090   2 *** *** BKN * * *  6.2 ** ** ** ** ** ** ** ** *   89   80 1012.4 *****  992.7 *** *** ***** ***** ***** ***** **
822460 ***** 201508080000 360   0 *** 722 CLR * * *  6.2 ** ** ** ** ** ** ** ** *   79   77 1012.5 *****  992.7 *** *** ***** ***** ***** ***** **
822460 ***** 201508081200 160   2 *** *** SCT * * *  6.2 10 ** ** ** ** ** ** ** 1   78   75 1013.8 *****  994.0 ***  72 ***** ***** ***** ***** **
822460 ***** 201508081800 020   2 *** *** BKN * * *  6.2 ** ** ** ** ** ** ** ** *   88   77 1011.5 *****  991.9 *** *** ***** ***** ***** ***** **
822460 ***** 201508091200 140   2 ***  20 OVC * * *  2.5 ** ** ** ** ** ** ** ** *   76   75 1014.0 *****  994.1 ***  71 ***** ***** ***** ***** **
822460 ***** 201508091800 140   2 ***  20 BKN * * *  6.2 ** ** ** ** ** ** ** ** *   88   75 1011.8 *****  992.2 *** *** ***** ***** ***** ***** **
822460 ***** 201508101200 140   2 *** *** BKN * * *  2.5 ** ** ** ** ** ** ** ** *   78   76 1012.9 *****  993.1 ***  73 ***** ***** ***** ***** **
822460 ***** 201508101800 140   2 *** *** BKN * * *  6.2 ** ** ** ** ** ** ** ** *   89   75 1012.3 *****  992.6 *** *** ***** ***** ***** ***** **
822460 ***** 201508110000 360   0 *** 722 CLR * * *  6.2 ** ** ** ** ** ** ** ** *   82   82 1012.1 *****  992.4 *** *** ***** ***** ***** ***** **
822460 ***** 201508111200 090   2 *** *** SCT * * *  6.2 10 ** ** ** ** ** ** ** 1   79   77 1013.5 *****  993.7 ***  73 ***** ***** ***** ***** **
822460 ***** 201508111800 020   3 *** *** BKN * * *  6.2 ** ** ** ** ** ** ** ** *   89   78 1012.5 *****  992.8 *** *** ***** ***** ***** ***** **
822460 ***** 201508120000 360   0 *** 722 CLR * * *  6.2 ** ** ** ** ** ** ** ** *   80   77 1011.9 *****  992.1 *** *** ***** ***** ***** ***** **
822460 ***** 201508121200 050   2 *** *** BKN * * *  6.2 ** ** ** ** ** ** ** ** *   80   76 1014.3 *****  994.5 ***  73 ***** ***** ***** ***** **
822460 ***** 201508121800 090   2 ***  10 BKN * * *  6.2 ** ** ** ** ** ** ** ** *   89   79 1011.7 *****  992.1 *** *** ***** ***** ***** ***** **
822460 ***** 201508130000 360   0 ***  20 BKN * * *  2.5 ** ** ** ** ** ** ** ** *   80   77 1012.0 *****  992.3 *** *** ***** ***** ***** ***** **
822460 ***** 201508131200 140   2 ***  20 BKN * * *  2.5 ** ** ** ** ** ** ** ** *   80   76 1013.9 *****  994.1 ***  73 ***** ***** ***** ***** **
822460 ***** 201508131800 140   2 ***  20 BKN * * *  2.5 ** ** ** ** ** ** ** ** *   89   79 1011.3 *****  991.7 *** *** ***** ***** ***** ***** **
822460 ***** 201508140000 360   0 *** 722 CLR * * *  6.2 ** ** ** ** ** ** ** ** *   80   76 1012.1 *****  992.4 *** *** ***** ***** ***** ***** **
822460 ***** 201508141200 110   2 *** 722 CLR * * * 12.5 ** ** ** ** ** ** ** ** *   80   76 1014.8 *****  995.0 ***  73 ***** ***** ***** ***** **
822460 ***** 201508141800 020   2 *** *** BKN * * *  6.2 ** ** ** ** ** ** ** ** *   90   77 1013.3 *****  993.7 *** *** ***** ***** ***** ***** **
822460 ***** 201508150000 360   0 *** 722 CLR * * *  6.2 ** ** ** ** ** ** ** ** *   80   77 1012.6 *****  992.8 *** *** ***** ***** ***** ***** **
822460 ***** 201508151200 140   2 *** *** SCT * * *  6.2 ** ** ** ** ** ** ** ** *   80   74 1014.5 *****  994.7 ***  72 ***** ***** ***** ***** **
822460 ***** 201508151800 110   2 ***  10 BKN * * *  6.2 ** ** ** ** ** ** ** ** *   90   79 1013.2 *****  993.5 *** *** ***** ***** ***** ***** **
822460 ***** 201508161200 140   2 *** *** BKN * * *  6.2 ** ** ** ** ** ** ** ** *   81   76 1013.0 *****  993.2 ***  73 ***** ***** ***** ***** **
822460 ***** 201508161800 140   2 ***  20 BKN * * *  2.5 ** ** ** ** ** ** ** ** *   86   76 1011.6 *****  992.0 *** *** ***** ***** ***** ***** **
822460 ***** 201508170000 360   0 *** 722 CLR * * *  6.2 ** ** ** ** ** ** ** ** *   81   77 1010.8 *****  991.1 *** *** ***** ***** ***** ***** **
822460 ***** 201508171200 090   2 *** *** BKN * * *  6.2 10 ** ** ** ** ** ** ** 1   81   76 1013.5 *****  993.7 ***  72 ***** ***** ***** ***** **
822460 ***** 201508171800 070   2 ***  20 BKN * * *  2.5 29 ** ** ** ** ** ** ** 2   92   81 1012.0 *****  992.4 *** *** ***** ***** ***** ***** **
822460 ***** 201508180000 360   0 *** 722 CLR * * *  6.2 ** ** ** ** ** ** ** ** *   80   76 1011.3 *****  991.6 *** *** ***** ***** ***** ***** **
822460 ***** 201508181200 090   2 *** *** SCT * * *  6.2 10 ** ** ** ** ** ** ** 1   81   76 1013.9 *****  994.1 ***  72 ***** ***** ***** ***** **
822460 ***** 201508181800 180   2 *** *** BKN * * *  6.2 ** ** ** ** ** ** ** ** *   93   81 1011.2 *****  991.6 *** *** ***** ***** ***** ***** **
822460 ***** 201508190000 360   0 ***  20 BKN * * *  2.5 ** ** ** ** ** ** ** ** *   82   78 1011.2 *****  991.6 *** *** ***** ***** ***** ***** **
822460 ***** 201508191200 140   2 ***  20 BKN * * *  6.2 ** ** ** ** ** ** ** ** *   81   76 1012.5 *****  992.7 ***  73 ***** ***** ***** ***** **
822460 ***** 201508191800 140   2 *** *** BKN * * *  6.2 ** ** ** ** ** ** ** ** *   91   82 1011.3 *****  991.7 *** *** ***** ***** ***** ***** **
822460 ***** 201508200000 360   0 *** 722 CLR * * *  6.2 ** ** ** ** ** ** ** ** *   82   78 1011.2 *****  991.5 *** *** ***** ***** ***** ***** **
822460 ***** 201508201200 020   2 *** *** BKN * * *  6.2 10 ** ** ** ** ** ** ** 3   80   78 1012.9 *****  993.1 ***  73 ***** ***** ***** ***** **
822460 ***** 201508201800 090   2 *** *** BKN * * *  6.2 ** ** ** ** ** ** ** ** *   92   79 1011.2 *****  991.6 *** *** ***** ***** ***** ***** **
822460 ***** 201508210000 360   0 *** 722 CLR * * *  6.2 ** ** ** ** ** ** ** ** *   80   77 1011.0 *****  991.4 *** *** ***** ***** ***** ***** **
822460 ***** 201508211200 160   2 *** *** BKN * * *  6.2 ** ** ** ** ** ** ** ** *   80   77 1013.7 *****  993.9 ***  73 ***** ***** ***** ***** **
822460 ***** 201508211800 110   2 *** *** BKN * * *  6.2 ** ** ** ** ** ** ** ** *   89   80 1011.5 *****  991.9 *** *** ***** ***** ***** ***** **
822460 ***** 201508231200 140   2 *** *** BKN * * *  6.2 ** ** ** ** ** ** ** ** *   82   79 1012.5 *****  992.8 ***  73 ***** ***** ***** ***** **
822460 ***** 201508231800 090   2 *** *** BKN * * *  6.2 ** ** ** ** ** ** ** ** *   89   78 1011.2 *****  991.6 *** *** ***** ***** ***** ***** **
822460 ***** 201508240000 360   0 *** 722 CLR * * *  6.2 ** ** ** ** ** ** ** ** *   82   77 1011.2 *****  991.6 *** *** ***** ***** ***** ***** **
822460 ***** 201508241200 160   2 *** *** BKN * * *  6.2 ** ** ** ** ** ** ** ** *   81   76 1012.9 *****  993.1 ***  73 ***** ***** ***** ***** **
822460 ***** 201508241800 180   2 *** *** BKN * * *  6.2 ** ** ** ** ** ** ** ** *   89   78 1011.0 *****  991.4 *** *** ***** ***** ***** ***** **
822460 ***** 201508250000 360   0 *** *** BKN * * *  2.5 ** ** ** ** ** ** ** ** *   82   78 1011.2 *****  991.6 *** *** ***** ***** ***** ***** **
822460 ***** 201508261200 160   2 ***  20 BKN * * *  2.5 10 ** ** ** ** ** ** ** 2   79   76 1013.4 *****  993.6 ***  72 ***** ***** ***** ***** **
822460 ***** 201508261800 090   3 *** *** BKN * * *  6.2 ** ** ** ** ** ** ** ** *   89   77 1012.7 *****  993.0 *** *** ***** ***** ***** ***** **
822460 ***** 201508270000 360   0 *** 722 CLR * * *  6.2 ** ** ** ** ** ** ** ** *   80   76 1012.4 *****  992.6 *** *** ***** ***** ***** ***** **
822460 ***** 201508271200 110   2 *** *** BKN * * *  6.2 ** ** ** ** ** ** ** ** *   80   76 1015.2 *****  995.4 ***  72 ***** ***** ***** ***** **
822460 ***** 201508271800 140   2 *** *** BKN * * *  6.2 ** ** ** ** ** ** ** ** *   89   77 1013.2 *****  993.5 *** *** ***** ***** ***** ***** **
822460 ***** 201508280000 360   0 *** 722 CLR * * *  6.2 ** ** ** ** ** ** ** ** *   82   77 1012.8 *****  993.0 *** *** ***** ***** ***** ***** **
822460 ***** 201508281200 140   2 *** *** BKN * * *  6.2 ** ** ** ** ** ** ** ** *   81   76 1013.8 *****  994.1 ***  73 ***** ***** ***** ***** **
822460 ***** 201508290000 360   0 *** 722 CLR * * *  6.2 ** ** ** ** ** ** ** ** *   83   77 1012.2 *****  992.5 *** *** ***** ***** ***** ***** **
822460 ***** 201508291200 160   2 ***  20 OVC * * *  2.5 ** ** ** ** ** ** ** ** *   79   76 1013.7 *****  993.9 ***  72 ***** ***** ***** ***** **
822460 ***** 201508291800 090   2 *** *** BKN * * *  6.2 ** ** ** ** ** ** ** ** *   90   78 1012.4 *****  992.8 *** *** ***** ***** ***** ***** **
822460 ***** 201508301200 050   2 *** *** BKN * * *  6.2 ** ** ** ** ** ** ** ** *   80   75 1013.7 *****  993.9 ***  73 ***** ***** ***** ***** **
822460 ***** 201508301800 160   2 *** *** SCT * * *  6.2 ** ** ** ** ** ** ** ** *   91   77 1012.9 ***** ****** *** *** ***** ***** ***** ***** **
822460 ***** 201508310000 360   0 *** 722 CLR * * *  6.2 ** ** ** ** ** ** ** ** *   81   76 1012.3 *****  992.5 *** *** ***** ***** ***** ***** **
822460 ***** 201508311200 140   2 *** *** BKN * * *  6.2 ** ** ** ** ** ** ** ** *   81   76 1014.1 *****  994.3 ***  73 ***** ***** ***** ***** **
822460 ***** 201508311800 050   2 *** *** BKN * * *  6.2 ** ** ** ** ** ** ** ** *   90   77 1012.3 *****  992.6 *** *** ***** ***** ***** ***** **
822460 ***** 201509010000 360   0 *** 722 CLR * * *  6.2 ** ** ** ** ** ** ** ** *   82   75 1012.4 *****  992.6 *** *** ***** ***** ***** ***** **
822460 ***** 201509011200 090   2 *** 722 CLR * * * 12.5 ** ** ** ** ** ** ** ** *   82   75 1014.5 *****  994.8 ***  73 ***** ***** ***** ***** **
822460 ***** 201509011800 090   2 *** *** BKN * * *  6.2 ** ** ** ** ** ** ** ** *   90   77 1012.9 *****  993.2 *** *** ***** ***** ***** ***** **
822460 ***** 201509020000 360   0 *** 722 CLR * * *  6.2 ** ** ** ** ** ** ** ** *   81   76 1012.0 *****  992.3 *** *** ***** ***** ***** ***** **
822460 ***** 201509021200 360   2 *** 722 CLR * * *  6.2 ** ** ** ** ** ** ** ** *   80   76 1015.2 *****  995.4 ***  74 ***** ***** ***** ***** **
822460 ***** 201509021800 050   2 ***  20 OVC * * *  2.5 21 ** ** ** ** ** ** ** 6   77   76 1013.6 *****  993.7 *** *** *****  1.34 ***** ***** **
822460 ***** 201509030000 090   2 ***  20 OVC * * *  2.5 03 ** ** ** ** ** ** ** 6   75   74 1012.2 *****  992.3 *** *** *****  3.07 ***** ***** **
822460 ***** 201509031200 140   2 ***  20 OVC * * *  2.5 ** ** ** ** ** ** ** ** *   79   76 1014.0 *****  994.1 ***  73 ***** *****  4.45 ***** **
822460 ***** 201509031800 160   2 ***  20 BKN * * *  2.5 ** ** ** ** ** ** ** ** *   91   78 1012.8 *****  993.1 *** *** ***** ***** ***** ***** **
822460 ***** 201509040000 090   2 ***  20 BKN * * *  2.5 13 ** ** ** ** ** ** ** 2   80   77 1011.5 *****  991.8 *** *** ***** ***** ***** ***** **
822460 ***** 201509041200 200   2 *** *** BKN * * *  6.2 10 ** ** ** ** ** ** ** 1   79   77 1015.4 *****  995.5 ***  72 ***** ***** ***** ***** **
822460 ***** 201509041800 180   2 ***  20 BKN * * *  2.5 ** ** ** ** ** ** ** ** *   91   78 1012.7 *****  993.1 *** *** ***** ***** ***** ***** **
822460 ***** 201509050000 180   2 *** *** SCT * * *  6.2 ** ** ** ** ** ** ** ** *   80   76 1012.6 *****  992.8 *** *** ***** ***** ***** ***** **
822460 ***** 201509051200 110   2 *** *** SCT * * * 12.5 ** ** ** ** ** ** ** ** *   82   77 1015.4 *****  995.5 ***  72 ***** ***** ***** ***** **
822460 ***** 201509051800 140   2 *** *** BKN * * *  6.2 ** ** ** ** ** ** ** ** *   90   76 1013.1 *****  993.4 *** *** ***** ***** ***** ***** **
822460 ***** 201509060000 090   2 *** 722 CLR * * *  6.2 ** ** ** ** ** ** ** ** *   82   77 1012.6 *****  992.9 *** *** ***** ***** ***** ***** **
822460 ***** 201509061200 140   2 *** *** BKN * * *  2.5 ** ** ** ** ** ** ** ** *   80   75 1013.1 *****  993.3 ***  73 ***** ***** ***** ***** **
822460 ***** 201509061800 140   2 *** *** BKN * * *  6.2 ** ** ** ** ** ** ** ** *   90   74 1012.0 *****  992.4 *** *** ***** ***** ***** ***** **
822460 ***** 201509070000 360   0 ***  20 BKN * * *  2.5 ** ** ** ** ** ** ** ** *   81   76 1011.6 *****  991.9 *** *** ***** ***** ***** ***** **
822460 ***** 201509071200 090   2 *** *** BKN * * *  2.5 ** ** ** ** ** ** ** ** *   80   76 1013.7 *****  993.9 ***  73 ***** ***** ***** ***** **
822460 ***** 201509071800 180   3 *** *** BKN * * *  6.2 ** ** ** ** ** ** ** ** *   89   74 1011.3 *****  991.5 *** *** ***** ***** ***** ***** **
822460 ***** 201509080000 090   3 *** 722 CLR * * *  6.2 ** ** ** ** ** ** ** ** *   80   75 1011.5 *****  991.8 *** *** ***** ***** ***** ***** **
822460 ***** 201509081200 110   2 *** *** SCT * * *  6.2 ** ** ** ** ** ** ** ** *   81   75 1012.8 *****  993.0 ***  73 ***** ***** ***** ***** **
822460 ***** 201509081800 090   2 *** *** SCT * * *  6.2 ** ** ** ** ** ** ** ** *   90   74 1011.1 *****  991.5 *** *** ***** ***** ***** ***** **
822460 ***** 201509090000 090   2 *** 722 CLR * * *  6.2 ** ** ** ** ** ** ** ** *   81   76 1011.1 *****  991.4 *** *** ***** ***** ***** ***** **
822460 ***** 201509091200 140   2 *** *** OVC * * *  2.5 ** ** ** ** ** ** ** ** *   76   72 1012.9 *****  992.6 ***  73 ***** ***** ***** ***** **
822460 ***** 201509091800 140   2 ***  20 BKN * * *  6.2 ** ** ** ** ** ** ** ** *   90   74 1011.1 *****  991.5 *** *** ***** ***** ***** ***** **
822460 ***** 201509100000 360   0 ***  20 BKN * * *  6.2 ** ** ** ** ** ** ** ** *   81   76 1011.5 *****  991.8 *** *** ***** ***** ***** ***** **
822460 ***** 201509101200 090   3 *** *** SCT * * *  6.2 ** ** ** ** ** ** ** ** *   80   75 1013.3 *****  993.5 ***  73 ***** ***** ***** ***** **
822460 ***** 201509101800 200   2 *** *** BKN * * *  6.2 ** ** ** ** ** ** ** ** *   90   77 1011.1 *****  991.5 *** *** ***** ***** ***** ***** **
822460 ***** 201509110000 360   0 *** 722 CLR * * *  6.2 ** ** ** ** ** ** ** ** *   80   75 1011.8 *****  992.1 *** *** ***** ***** ***** ***** **
822460 ***** 201509111200 140   2 *** 722 CLR * * * 12.5 ** ** ** ** ** ** ** ** *   82   74 1014.0 *****  994.3 ***  73 ***** ***** ***** ***** **
822460 ***** 201509111800 160   2 ***  20 BKN * * *  2.5 ** ** ** ** ** ** ** ** *   93   83 1012.3 *****  992.7 *** *** ***** ***** ***** ***** **
822460 ***** 201509120000 360   0 *** 722 CLR * * *  6.2 ** ** ** ** ** ** ** ** *   81   76 1011.9 *****  992.3 *** *** ***** ***** ***** ***** **
822460 ***** 201509121200 020   2 *** 722 CLR * * * 12.5 ** ** ** ** ** ** ** ** *   82   77 1015.2 *****  995.4 ***  74 ***** ***** ***** ***** **
822460 ***** 201509121800 090   2 *** *** SCT * * *  6.2 ** ** ** ** ** ** ** ** *   92   80 1012.8 *****  993.2 *** *** ***** ***** ***** ***** **
822460 ***** 201509130000 140   2 *** 722 CLR * * *  6.2 ** ** ** ** ** ** ** ** *   82   76 1012.6 *****  992.9 *** *** ***** ***** ***** ***** **
822460 ***** 201509131200 140   2 *** 722 CLR * * *  6.2 ** ** ** ** ** ** ** ** *   82   77 1015.0 *****  995.2 ***  73 ***** ***** ***** ***** **
822460 ***** 201509131800 140   2 *** *** BKN * * *  6.2 ** ** ** ** ** ** ** ** *   92   76 1012.3 *****  992.7 *** *** ***** ***** ***** ***** **
822460 ***** 201509140000 360   0 *** 722 CLR * * *  6.2 ** ** ** ** ** ** ** ** *   82   76 1011.6 *****  991.9 *** *** ***** ***** ***** ***** **
822460 ***** 201509141200 140   2 ***  20 BKN * * *  2.5 ** ** ** ** ** ** ** ** *   80   77 1013.5 *****  993.7 ***  73 ***** ***** ***** ***** **
822460 ***** 201509141800 090   2 ***  20 BKN * * *  6.2 ** ** ** ** ** ** ** ** *   91   77 1012.0 *****  992.4 *** *** ***** ***** ***** ***** **
822460 ***** 201509150000 140   2 ***  20 BKN * * *  2.5 ** ** ** ** ** ** ** ** *   81   76 1011.1 *****  991.4 *** *** ***** ***** ***** ***** **
822460 ***** 201509151200 050   2 *** 722 CLR * * * 12.5 ** ** ** ** ** ** ** ** *   83   77 1014.3 *****  994.6 ***  74 ***** ***** ***** ***** **
822460 ***** 201509151800 020   2 *** 722 CLR * * * 12.5 ** ** ** ** ** ** ** ** *   91   76 1012.6 *****  993.0 *** *** ***** ***** ***** ***** **
822460 ***** 201509160000 020   2 *** 722 CLR * * *  6.2 ** ** ** ** ** ** ** ** *   82   77 1012.4 *****  992.7 *** *** ***** ***** ***** ***** **
822460 ***** 201509161200 090   2 *** 722 CLR * * * 12.5 ** ** ** ** ** ** ** ** *   83   77 1013.2 *****  993.5 ***  74 ***** ***** ***** ***** **
822460 ***** 201509161800 110   2 *** *** BKN * * *  6.2 ** ** ** ** ** ** ** ** *   91   77 1011.9 *****  992.3 *** *** ***** ***** ***** ***** **
822460 ***** 201509170000 360   0 *** 722 CLR * * *  6.2 ** ** ** ** ** ** ** ** *   82   76 1011.6 *****  992.0 *** *** ***** ***** ***** ***** **
822460 ***** 201509171200 140   2 ***  20 BKN * * *  6.2 ** ** ** ** ** ** ** ** *   81   77 1012.5 *****  992.7 ***  73 ***** ***** ***** ***** **
822460 ***** 201509171800 110   2 *** *** BKN * * *  6.2 ** ** ** ** ** ** ** ** *   90   77 1012.5 *****  992.4 *** *** ***** ***** ***** ***** **
822460 ***** 201509180000 360   0 *** 722 CLR * * *  6.2 ** ** ** ** ** ** ** ** *   82   76 1011.7 *****  992.0 *** *** ***** ***** ***** ***** **
822460 ***** 201509181200 140   2 *** *** BKN * * *  6.2 ** ** ** ** ** ** ** ** *   81   76 1012.9 *****  993.1 ***  73 ***** ***** ***** ***** **
822460 ***** 201509181800 110   2 ***  20 BKN * * *  6.2 ** ** ** ** ** ** ** ** *   90   77 1010.5 *****  990.9 *** *** ***** ***** ***** ***** **
822460 ***** 201509190000 360   0 *** 722 CLR * * *  6.2 ** ** ** ** ** ** ** ** *   82   78 1010.8 *****  991.1 *** *** ***** ***** ***** ***** **
822460 ***** 201509191200 050   2 *** *** BKN * * *  6.2 ** ** ** ** ** ** ** ** *   81   76 1014.0 *****  994.2 ***  74 ***** ***** ***** ***** **
