  USAF  WBAN YR--MODAHRMN DIR SPD GUS CLG SKC L M H  VSB MW MW MW MW AW AW AW AW W TEMP DEWP    SLP   ALT    STP MAX MIN PCP01 PCP06 PCP24 PCPXX SD
827650 ***** 201501311800 360   0 ***  26 OVC * * * 12.5 ** ** ** ** ** ** ** ** *   89   74 1011.5 *****  987.8 *** *** ***** ***** ***** ***** **
827650 ***** 201502081200 360   0 ***  15 BKN * * * 12.5 ** ** ** ** ** ** ** ** *   78   75 1015.7 *****  991.6 ***  75 ***** ***** ***** ***** **
827650 ***** 201502091200 360   0 *** *** SCT * * * 12.5 ** ** ** ** ** ** ** ** *   75   73 1015.2 *****  991.1 ***  72 ***** *****  1.42 ***** **
827650 ***** 201502261200 360   0 *** *** BKN * * * 12.5 ** ** ** ** ** ** ** ** *   77   76 1016.1 *****  992.1 ***  73 ***** *****  0.02 ***** **
827650 ***** 201503051200 360   0 *** *** BKN * * * 12.5 ** ** ** ** ** ** ** ** *   80   77 1015.4 *****  991.4 ***  72 ***** *****  0.39 ***** **
827650 ***** 201503221800 360   0 *** *** BKN * * * 12.5 ** ** ** ** ** ** ** ** *   87   72 1012.8 *****  988.9 *** *** ***** ***** ***** ***** **
827650 ***** 201504171800 180 *** ***  26 BKN * * * 12.5 ** ** ** ** ** ** ** ** *   91   74 1011.1 *****  987.5 *** *** ***** ***** ***** ***** **
827650 ***** 201504221800 320 *** *** *** BKN * * *  6.2 29 ** ** ** ** ** ** ** 2   77   74 1012.7 *****  988.6 *** *** *****  1.22 ***** ***** **
827650 ***** 201504261200 360   0 *** *** SCT * * * 12.5 02 ** ** ** ** ** ** ** 5   81   76 1016.6 *****  992.5 ***  73 ***** *****  0.59 ***** **
827650 ***** 201505221800 090 *** *** *** BKN * * * 12.5 ** ** ** ** ** ** ** ** *   91   71 1014.5 *****  990.8 *** *** ***** ***** ***** ***** **
827650 ***** 201506021200 360   0 *** *** SCT * * * 12.5 ** ** ** ** ** ** ** ** *   82   71 1016.2 *****  992.4 ***  71 ***** ***** ***** ***** **
827650 ***** 201507041200 090 *** *** *** SCT * * * 12.5 ** ** ** ** ** ** ** ** *   84   73 1016.8 *****  993.0 ***  74 ***** ***** ***** ***** **
827650 ***** 201507101200 090 *** *** *** SCT * * * 12.5 ** ** ** ** ** ** ** ** *   82   70 1018.2 *****  994.4 ***  71 ***** ***** ***** ***** **
827650 ***** 201507151800 090 *** *** 722 CLR * * * 12.5 ** ** ** ** ** ** ** ** *   93   54 1014.0 *****  990.3 *** *** ***** ***** ***** ***** **
827650 ***** 201507251200 090 *** *** *** SCT * * * 12.5 ** ** ** ** ** ** ** ** *   82   64 1018.2 *****  994.3 ***  68 ***** ***** ***** ***** **
827650 ***** 201507301200 090 *** *** *** SCT * * * 12.5 ** ** ** ** ** ** ** ** *   82   56 1017.0 *****  993.1 ***  69 ***** ***** ***** ***** **
827650 ***** 201507301800 050 *** *** *** SCT * * * 12.5 ** ** ** ** ** ** ** ** *   96   56 1013.4 *****  989.8 *** *** ***** ***** ***** ***** **
827650 ***** 201507310000 050 *** ***  57 BKN * * * 12.5 ** ** ** ** ** ** ** ** *   83   62 1015.5 *****  991.7 *** *** ***** ***** ***** ***** **
827650 ***** 201507311200 090 *** *** *** SCT * * * 12.5 ** ** ** ** ** ** ** ** *   81   60 1017.6 *****  993.7 ***  71 ***** ***** ***** ***** **
827650 ***** 201507311800 090 *** *** *** SCT * * * 12.5 ** ** ** ** ** ** ** ** *   95   57 1014.0 *****  990.4 *** *** ***** ***** ***** ***** **
827650 ***** 201508010000 090 *** *** 722 CLR * * * 12.5 ** ** ** ** ** ** ** ** *   82   60 1016.3 *****  992.4 *** *** ***** ***** ***** ***** **
827650 ***** 201508011200 090 *** *** 722 CLR * * * 12.5 ** ** ** ** ** ** ** ** *   75   59 1018.1 *****  994.0 ***  64 ***** ***** ***** ***** **
827650 ***** 201508011800 140 *** *** 722 CLR * * * 12.5 ** ** ** ** ** ** ** ** *   95   59 1012.7 *****  989.2 *** *** ***** ***** ***** ***** **
827650 ***** 201508020000 360   0 *** 722 CLR * * * 12.5 ** ** ** ** ** ** ** ** *   82   61 1015.3 *****  991.3 *** *** ***** ***** ***** ***** **
827650 ***** 201508021200 090 *** *** 722 CLR * * * 12.5 ** ** ** ** ** ** ** ** *   75   59 1017.2 *****  993.1 ***  65 ***** ***** ***** ***** **
827650 ***** 201508021800 140 *** *** 722 CLR * * * 12.5 ** ** ** ** ** ** ** ** *   94   56 1012.9 *****  989.1 *** *** ***** ***** ***** ***** **
827650 ***** 201508031200 090 *** *** 722 CLR * * * 12.5 ** ** ** ** ** ** ** ** *   79   61 1017.7 *****  993.7 ***  70 ***** ***** ***** ***** **
827650 ***** 201508031800 140 *** *** 722 CLR * * * 12.5 ** ** ** ** ** ** ** ** *   94   58 1013.9 *****  990.3 *** *** ***** ***** ***** ***** **
827650 ***** 201508040000 360   0 *** 722 CLR * * * 12.5 ** ** ** ** ** ** ** ** *   82   63 1016.0 *****  992.1 *** *** ***** ***** ***** ***** **
827650 ***** 201508041200 110 *** *** 722 CLR * * * 12.5 ** ** ** ** ** ** ** ** *   80   60 1018.8 *****  994.8 ***  68 ***** ***** ***** ***** **
827650 ***** 201508041800 090 *** *** *** SCT * * * 12.5 ** ** ** ** ** ** ** ** *   96   57 1014.3 *****  990.6 *** *** ***** ***** ***** ***** **
827650 ***** 201508050000 360   0 *** 722 CLR * * * 12.5 ** ** ** ** ** ** ** ** *   83   64 1016.1 *****  992.2 *** *** ***** ***** ***** ***** **
827650 ***** 201508051200 090 *** *** 722 CLR * * * 12.5 ** ** ** ** ** ** ** ** *   84   61 1017.8 *****  994.0 ***  67 ***** ***** ***** ***** **
827650 ***** 201508051800 140 *** *** *** SCT * * * 12.5 ** ** ** ** ** ** ** ** *   95   55 1013.7 *****  990.1 *** *** ***** ***** ***** ***** **
827650 ***** 201508060000 360   0 *** 722 CLR * * * 12.5 ** ** ** ** ** ** ** ** *   82   65 1015.7 *****  991.9 *** *** ***** ***** ***** ***** **
827650 ***** 201508061200 140 *** *** *** SCT * * * 12.5 ** ** ** ** ** ** ** ** *   81   61 1017.5 *****  993.6 ***  66 ***** ***** ***** ***** **
827650 ***** 201508061800 360   0 *** 722 CLR * * * 12.5 ** ** ** ** ** ** ** ** *   96   57 1012.8 *****  989.1 *** *** ***** ***** ***** ***** **
827650 ***** 201508070000 050 *** *** 722 CLR * * * 12.5 ** ** ** ** ** ** ** ** *   83   61 1014.2 *****  990.4 *** *** ***** ***** ***** ***** **
827650 ***** 201508071200 360   0 *** *** SCT * * * 12.5 ** ** ** ** ** ** ** ** *   81   62 1016.2 *****  992.3 ***  66 ***** ***** ***** ***** **
827650 ***** 201508071800 050 *** *** *** SCT * * * 12.5 ** ** ** ** ** ** ** ** *   95   60 1012.0 *****  988.4 *** *** ***** ***** ***** ***** **
827650 ***** 201508080000 360   0 *** 722 CLR * * * 12.5 ** ** ** ** ** ** ** ** *   83   63 1014.6 *****  990.7 *** *** ***** ***** ***** ***** **
827650 ***** 201508081200 360   0 *** *** SCT * * * 12.5 ** ** ** ** ** ** ** ** *   82   63 1016.0 *****  992.2 ***  70 ***** ***** ***** ***** **
827650 ***** 201508081800 180 *** *** *** SCT * * * 12.5 ** ** ** ** ** ** ** ** *   96   56 1012.0 *****  988.5 *** *** ***** ***** ***** ***** **
827650 ***** 201508090000 180 *** *** 722 CLR * * * 12.5 ** ** ** ** ** ** ** ** *   83   57 1014.4 *****  990.6 *** *** ***** ***** ***** ***** **
827650 ***** 201508091200 050 *** *** 722 CLR * * * 12.5 ** ** ** ** ** ** ** ** *   81   57 1016.7 *****  992.8 ***  69 ***** ***** ***** ***** **
827650 ***** 201508091800 140 *** *** *** SCT * * * 12.5 ** ** ** ** ** ** ** ** *   95   55 1013.0 *****  989.4 *** *** ***** ***** ***** ***** **
827650 ***** 201508100000 360   0 *** 722 CLR * * * 12.5 ** ** ** ** ** ** ** ** *   81   80 1015.0 *****  991.1 *** *** ***** ***** ***** ***** **
827650 ***** 201508101200 090 *** *** 722 CLR * * * 12.5 ** ** ** ** ** ** ** ** *   84   56 1016.3 *****  992.5 ***  66 ***** ***** ***** ***** **
827650 ***** 201508101800 140 *** *** *** SCT * * * 12.5 ** ** ** ** ** ** ** ** *   95   56 1013.8 *****  990.2 *** *** ***** ***** ***** ***** **
827650 ***** 201508110000 360   0 ***  20 BKN * * * 12.5 ** ** ** ** ** ** ** ** *   85   60 1016.4 *****  992.6 *** *** ***** ***** ***** ***** **
827650 ***** 201508111200 110 *** *** 722 CLR * * * 12.5 ** ** ** ** ** ** ** ** *   83   59 1018.1 *****  994.3 ***  68 ***** ***** ***** ***** **
827650 ***** 201508111800 090 *** *** *** SCT * * * 12.5 ** ** ** ** ** ** ** ** *   94   57 1013.7 *****  990.1 *** *** ***** ***** ***** ***** **
827650 ***** 201508120000 360   0 *** 722 CLR * * * 12.5 ** ** ** ** ** ** ** ** *   83   62 1016.0 *****  992.2 *** *** ***** ***** ***** ***** **
827650 ***** 201508121200 090 *** *** 722 CLR * * * 12.5 ** ** ** ** ** ** ** ** *   82   55 1018.4 *****  994.5 ***  70 ***** ***** ***** ***** **
827650 ***** 201508121800 140 *** *** 722 CLR * * * 12.5 ** ** ** ** ** ** ** ** *   94   57 1013.0 *****  989.4 *** *** ***** ***** ***** ***** **
827650 ***** 201508130000 140 *** *** 722 CLR * * * 12.5 ** ** ** ** ** ** ** ** *   81   60 1016.1 *****  992.2 *** *** ***** ***** ***** ***** **
827650 ***** 201508131200 140 *** *** 722 CLR * * * 12.5 ** ** ** ** ** ** ** ** *   79   54 1019.3 *****  995.3 ***  67 ***** ***** ***** ***** **
827650 ***** 201508131800 140 *** *** 722 CLR * * * 12.5 ** ** ** ** ** ** ** ** *   92   51 1014.5 *****  990.7 *** *** ***** ***** ***** ***** **
827650 ***** 201508140000 360   0 *** 722 CLR * * * 12.5 ** ** ** ** ** ** ** ** *   80   58 1017.0 *****  993.0 *** *** ***** ***** ***** ***** **
827650 ***** 201508141200 140 *** *** 722 CLR * * * 12.5 ** ** ** ** ** ** ** ** *   77   54 1019.4 *****  995.3 ***  65 ***** ***** ***** ***** **
827650 ***** 201508141800 090 *** *** 722 CLR * * * 12.5 ** ** ** ** ** ** ** ** *   94   56 1014.2 *****  990.5 *** *** ***** ***** ***** ***** **
827650 ***** 201508150000 050 *** *** 722 CLR * * * 12.5 ** ** ** ** ** ** ** ** *   82   62 1016.5 *****  992.5 *** *** ***** ***** ***** ***** **
827650 ***** 201508151200 360   0 *** 722 CLR * * * 12.5 ** ** ** ** ** ** ** ** *   80   61 1018.7 *****  994.7 ***  68 ***** ***** ***** ***** **
827650 ***** 201508151800 050 *** *** *** SCT * * * 12.5 ** ** ** ** ** ** ** ** *   96   58 1013.7 *****  990.1 *** *** ***** ***** ***** ***** **
827650 ***** 201508161200 180 *** *** 722 CLR * * * 12.5 ** ** ** ** ** ** ** ** *   85   60 1017.1 *****  993.4 ***  71 ***** ***** ***** ***** **
827650 ***** 201508161800 140 *** *** *** SCT * * * 12.5 ** ** ** ** ** ** ** ** *   98   58 1012.6 *****  989.1 *** *** ***** ***** ***** ***** **
827650 ***** 201508170000 360   0 *** 722 CLR * * * 12.5 ** ** ** ** ** ** ** ** *   86   62 1014.9 *****  991.2 *** *** ***** ***** ***** ***** **
827650 ***** 201508171200 140 *** *** 722 CLR * * * 12.5 ** ** ** ** ** ** ** ** *   84   54 1017.9 *****  994.2 ***  72 ***** ***** ***** ***** **
827650 ***** 201508171800 140 *** *** *** SCT * * * 12.5 ** ** ** ** ** ** ** ** *   95   57 1013.5 *****  989.9 *** *** ***** ***** ***** ***** **
827650 ***** 201508180000 360   0 *** 722 CLR * * * 12.5 ** ** ** ** ** ** ** ** *   83   62 1014.9 *****  991.1 *** *** ***** ***** ***** ***** **
827650 ***** 201508181200 090 *** *** 722 CLR * * * 12.5 ** ** ** ** ** ** ** ** *   83   58 1017.4 *****  993.6 ***  69 ***** ***** ***** ***** **
827650 ***** 201508181800 050 *** *** *** SCT * * * 12.5 ** ** ** ** ** ** ** ** *   98   57 1012.3 *****  988.8 *** *** ***** ***** ***** ***** **
827650 ***** 201508190000 050 *** *** 722 CLR * * * 12.5 ** ** ** ** ** ** ** ** *   84   62 1014.5 *****  990.7 *** *** ***** ***** ***** ***** **
827650 ***** 201508191200 090 *** *** 722 CLR * * * 12.5 ** ** ** ** ** ** ** ** *   82   55 1016.0 *****  992.5 ***  69 ***** ***** ***** ***** **
827650 ***** 201508191800 090 *** *** 722 CLR * * * 12.5 ** ** ** ** ** ** ** ** *   98   54 1011.3 *****  987.9 *** *** ***** ***** ***** ***** **
827650 ***** 201508200000 360   0 *** 722 CLR * * * 12.5 ** ** ** ** ** ** ** ** *   85   59 1013.4 *****  989.7 *** *** ***** ***** ***** ***** **
827650 ***** 201508201200 360   0 *** 722 CLR * * * 12.5 ** ** ** ** ** ** ** ** *   82   59 1015.6 *****  991.8 ***  67 ***** ***** ***** ***** **
827650 ***** 201508201800 050 *** *** *** SCT * * * 12.5 ** ** ** ** ** ** ** ** *   98   57 1012.0 *****  988.5 *** *** ***** ***** ***** ***** **
827650 ***** 201508210000 360   0 *** *** SCT * * * 12.5 ** ** ** ** ** ** ** ** *   85   69 1014.1 *****  990.4 *** *** ***** ***** ***** ***** **
827650 ***** 201508211200 270 *** *** *** SCT * * * 12.5 ** ** ** ** ** ** ** ** *   86   69 1015.7 *****  992.1 ***  72 ***** ***** ***** ***** **
827650 ***** 201508211800 090 *** *** *** SCT * * * 12.5 ** ** ** ** ** ** ** ** *   98   63 1012.7 *****  988.7 *** *** ***** ***** ***** ***** **
827650 ***** 201508220000 360   0 *** *** SCT * * * 12.5 ** ** ** ** ** ** ** ** *   88   66 1013.3 *****  989.8 *** *** ***** ***** ***** ***** **
827650 ***** 201508221200 320 *** *** 722 CLR * * * 12.5 ** ** ** ** ** ** ** ** *   85   70 1015.3 *****  991.7 ***  71 ***** ***** ***** ***** **
827650 ***** 201508221800 360 *** *** *** SCT * * * 12.5 ** ** ** ** ** ** ** ** *   96   67 1011.0 *****  987.5 *** *** ***** ***** ***** ***** **
827650 ***** 201508230000 360   0 *** 722 CLR * * * 12.5 ** ** ** ** ** ** ** ** *   85   69 1013.2 *****  989.6 *** *** ***** ***** ***** ***** **
827650 ***** 201508231200 360   0 *** 722 CLR * * * 12.5 ** ** ** ** ** ** ** ** *   85   75 1014.4 *****  990.7 ***  72 ***** ***** ***** ***** **
827650 ***** 201508231800 050 *** *** *** SCT * * * 12.5 ** ** ** ** ** ** ** ** *   97   65 1010.2 *****  986.8 *** *** ***** ***** ***** ***** **
827650 ***** 201508240000 360   0 *** *** SCT * * * 12.5 ** ** ** ** ** ** ** ** *   88   74 1012.5 *****  988.9 *** *** ***** ***** ***** ***** **
827650 ***** 201508241200 050 *** *** *** SCT * * * 12.5 ** ** ** ** ** ** ** ** *   85   68 1015.2 *****  991.6 ***  71 ***** ***** ***** ***** **
827650 ***** 201508241800 270 *** ***  20 BKN * * * 12.5 ** ** ** ** ** ** ** ** *   95   68 1010.3 *****  986.8 *** *** ***** ***** ***** ***** **
827650 ***** 201508250000 360   0 *** *** SCT * * * 12.5 ** ** ** ** ** ** ** ** *   86   69 1012.0 *****  988.5 *** *** ***** ***** ***** ***** **
827650 ***** 201508251200 050 *** *** *** SCT * * * 12.5 ** ** ** ** ** ** ** ** *   85   71 1015.6 *****  992.0 ***  76 ***** ***** ***** ***** **
827650 ***** 201508251800 090 *** *** *** BKN * * * 12.5 ** ** ** ** ** ** ** ** *   95   66 1011.2 *****  987.8 *** *** ***** ***** ***** ***** **
827650 ***** 201508260000 360   0 *** 722 CLR * * * 12.5 ** ** ** ** ** ** ** ** *   86   69 1012.6 *****  989.0 *** *** ***** ***** ***** ***** **
827650 ***** 201508261200 360 *** *** *** SCT * * * 12.5 ** ** ** ** ** ** ** ** *   81   70 1016.9 *****  993.1 ***  75 ***** ***** ***** ***** **
827650 ***** 201508261800 050 *** *** *** BKN * * * 12.5 ** ** ** ** ** ** ** ** *   98   67 1011.7 *****  988.3 *** *** ***** ***** ***** ***** **
827650 ***** 201508270000 360   0 *** *** SCT * * * 12.5 00 ** ** ** ** ** ** ** 6   85   74 1013.6 *****  989.9 *** *** *****  0.20 ***** ***** **
827650 ***** 201508271200 360 *** *** *** SCT * * * 12.5 ** ** ** ** ** ** ** ** *   84   69 1016.6 *****  992.8 ***  75 ***** *****  0.20 ***** **
827650 ***** 201508271800 320 *** *** *** SCT * * * 12.5 ** ** ** ** ** ** ** ** *   95   69 1011.5 *****  988.1 *** *** ***** ***** ***** ***** **
827650 ***** 201508280000 360   0 *** 722 CLR * * * 12.5 ** ** ** ** ** ** ** ** *   87   75 1013.0 *****  989.4 *** *** ***** ***** ***** ***** **
827650 ***** 201508281200 270 *** *** *** BKN * * * 12.5 ** ** ** ** ** ** ** ** *   85   72 1016.4 *****  992.8 ***  75 ***** ***** ***** ***** **
827650 ***** 201508281800 320 *** ***  20 OVC * * * 12.5 ** ** ** ** ** ** ** ** *   83   71 1014.0 *****  990.2 *** *** ***** ***** ***** ***** **
827650 ***** 201508290000 360   0 *** *** BKN * * * 12.5 ** ** ** ** ** ** ** ** *   78   75 1015.2 *****  991.3 *** *** ***** ***** ***** ***** **
827650 ***** 201508291200 320 *** *** *** BKN * * * 12.5 ** ** ** ** ** ** ** ** *   82   72 1018.0 *****  994.0 ***  72 ***** ***** ***** ***** **
827650 ***** 201508291800 090 *** ***  20 BKN * * * 12.5 ** ** ** ** ** ** ** ** *   94   67 1012.6 *****  988.9 *** *** ***** ***** ***** ***** **
827650 ***** 201508300000 360   0 *** 722 CLR * * * 12.5 ** ** ** ** ** ** ** ** *   85   73 1014.6 *****  990.9 *** *** ***** ***** ***** ***** **
827650 ***** 201508301200 050 *** *** *** SCT * * * 12.5 ** ** ** ** ** ** ** ** *   79   64 1017.9 *****  994.0 ***  73 ***** ***** ***** ***** **
827650 ***** 201508301800 090 *** *** *** SCT * * * 12.5 ** ** ** ** ** ** ** ** *   96   61 1013.5 *****  989.9 *** *** ***** ***** ***** ***** **
827650 ***** 201508310000 360   0 *** *** SCT * * * 12.5 ** ** ** ** ** ** ** ** *   85   65 1015.6 *****  991.7 *** *** ***** ***** ***** ***** **
827650 ***** 201508311200 090 *** *** *** SCT * * *  6.2 05 ** ** ** ** ** ** ** 1   86   63 1017.3 *****  993.6 ***  72 ***** ***** ***** ***** **
827650 ***** 201508311800 050 *** *** *** SCT * * * 12.5 ** ** ** ** ** ** ** ** *   98   58 1012.8 *****  989.3 *** *** ***** ***** ***** ***** **
827650 ***** 201509010000 360   0 *** *** SCT * * * 12.5 ** ** ** ** ** ** ** ** *   85   64 1015.2 *****  991.6 *** *** ***** ***** ***** ***** **
827650 ***** 201509011200 360 *** *** *** BKN * * * 12.5 ** ** ** ** ** ** ** ** *   85   58 1018.2 *****  994.5 ***  73 ***** ***** ***** ***** **
827650 ***** 201509011800 140 *** *** *** BKN * * * 12.5 ** ** ** ** ** ** ** ** *   97   56 1013.2 *****  989.7 *** *** ***** ***** ***** ***** **
827650 ***** 201509020000 360   0 *** 722 CLR * * * 12.5 ** ** ** ** ** ** ** ** *   85   64 1014.7 *****  991.0 *** *** ***** ***** ***** ***** **
827650 ***** 201509021200 050 *** *** 722 CLR * * *  0.3 04 ** ** ** ** ** ** ** 0   80   60 1016.7 *****  992.8 ***  68 ***** ***** ***** ***** **
827650 ***** 201509021800 270 *** *** *** SCT * * * 12.5 ** ** ** ** ** ** ** ** *   99   58 1011.4 *****  988.0 *** *** ***** ***** ***** ***** **
827650 ***** 201509030000 360   0 *** 722 CLR * * * 12.5 ** ** ** ** ** ** ** ** *   85   64 1012.9 *****  989.3 *** *** ***** ***** ***** ***** **
827650 ***** 201509031200 360 *** *** 722 CLR * * * 12.5 ** ** ** ** ** ** ** ** *   88   70 1015.6 *****  992.0 ***  77 ***** ***** ***** ***** **
827650 ***** 201509031800 140 *** *** *** SCT * * * 12.5 ** ** ** ** ** ** ** ** *   95   66 1012.8 *****  989.2 *** *** ***** ***** ***** ***** **
827650 ***** 201509040000 360   0 *** 722 CLR * * * 12.5 ** ** ** ** ** ** ** ** *   87   73 1013.3 *****  989.8 *** *** ***** ***** ***** ***** **
827650 ***** 201509041200 360 *** *** *** SCT * * * 12.5 ** ** ** ** ** ** ** ** *   86   69 1016.3 *****  992.7 ***  74 ***** ***** ***** ***** **
827650 ***** 201509041800 360 *** *** *** SCT * * * 12.5 ** ** ** ** ** ** ** ** *   98   65 1012.1 *****  988.7 *** *** ***** ***** ***** ***** **
827650 ***** 201509050000 360   0 *** 722 CLR * * * 12.5 ** ** ** ** ** ** ** ** *   87   72 1013.7 *****  990.2 *** *** ***** ***** ***** ***** **
827650 ***** 201509051200 360 *** *** *** SCT * * * 12.5 ** ** ** ** ** ** ** ** *   87   71 1016.4 *****  992.8 ***  76 ***** ***** ***** ***** **
827650 ***** 201509051800 320 *** *** *** SCT * * * 12.5 ** ** ** ** ** ** ** ** *   97   69 1011.3 *****  988.0 *** *** ***** ***** ***** ***** **
827650 ***** 201509060000 360   0 *** 722 CLR * * * 12.5 ** ** ** ** ** ** ** ** *   87   72 1013.2 *****  989.7 *** *** ***** ***** ***** ***** **
827650 ***** 201509061200 360 *** ***  20 BKN * * * 12.5 ** ** ** ** ** ** ** ** *   83   71 1017.2 *****  993.4 ***  78 ***** ***** ***** ***** **
827650 ***** 201509061800 270 *** *** *** BKN * * * 12.5 ** ** ** ** ** ** ** ** *   89   72 1013.7 *****  989.7 *** *** ***** ***** ***** ***** **
827650 ***** 201509070000 270 *** *** *** SCT * * * 12.5 ** ** ** ** ** ** ** ** *   82   74 1014.0 *****  990.2 *** *** ***** ***** ***** ***** **
827650 ***** 201509071200 360 *** *** *** BKN * * * 12.5 ** ** ** ** ** ** ** ** *   85   71 1015.7 *****  992.0 ***  73 ***** ***** ***** ***** **
827650 ***** 201509071800 050 *** *** *** BKN * * * 12.5 ** ** ** ** ** ** ** ** *   94   68 1011.2 *****  987.7 *** *** ***** ***** ***** ***** **
827650 ***** 201509080000 360   0 *** 722 CLR * * * 12.5 ** ** ** ** ** ** ** ** *   85   72 1010.3 *****  986.5 *** *** ***** ***** ***** ***** **
827650 ***** 201509081200 050 *** *** *** SCT * * * 12.5 ** ** ** ** ** ** ** ** *   86   69 1014.0 *****  990.4 ***  76 ***** ***** ***** ***** **
827650 ***** 201509081800 270 *** *** *** SCT * * * 12.5 ** ** ** ** ** ** ** ** *   94   70 1019.5 *****  986.1 *** *** ***** ***** ***** ***** **
827650 ***** 201509090000 320 *** *** 722 CLR * * * 12.5 ** ** ** ** ** ** ** ** *   84   71 1010.3 *****  986.5 *** *** ***** ***** ***** ***** **
827650 ***** 201509091200 360 *** *** 722 CLR * * * 12.5 ** ** ** ** ** ** ** ** *   85   70 1014.9 *****  991.2 ***  73 ***** ***** ***** ***** **
827650 ***** 201509091800 090 *** ***  20 BKN * * * 12.5 ** ** ** ** ** ** ** ** *   97   63 1010.3 *****  986.9 *** *** ***** ***** ***** ***** **
827650 ***** 201509100000 360   0 *** 722 CLR * * * 12.5 ** ** ** ** ** ** ** ** *   87   67 1012.3 *****  988.7 *** *** ***** ***** ***** ***** **
827650 ***** 201509101200 050 *** *** 722 CLR * * * 12.5 ** ** ** ** ** ** ** ** *   85   67 1014.8 *****  991.2 ***  73 ***** ***** ***** ***** **
827650 ***** 201509101800 360   0 ***  20 BKN * * * 12.5 ** ** ** ** ** ** ** ** *   97   65 1009.8 *****  986.5 *** *** ***** ***** ***** ***** **
827650 ***** 201509110000 360   0 *** 722 CLR * * * 12.5 ** ** ** ** ** ** ** ** *   89   70 1011.4 *****  987.9 *** *** ***** ***** ***** ***** **
827650 ***** 201509111200 320 *** *** 722 CLR * * * 12.5 ** ** ** ** ** ** ** ** *   86   68 1016.0 *****  992.5 ***  74 ***** ***** ***** ***** **
827650 ***** 201509111800 230 *** *** *** SCT * * * 12.5 ** ** ** ** ** ** ** ** *   97   62 1010.4 *****  987.0 *** *** ***** ***** ***** ***** **
827650 ***** 201509120000 360   0 *** 722 CLR * * * 12.5 ** ** ** ** ** ** ** ** *   86   69 1013.7 *****  990.1 *** *** ***** ***** ***** ***** **
827650 ***** 201509121200 360 *** ***  41 BKN * * * 12.5 ** ** ** ** ** ** ** ** *   84   71 1016.3 *****  992.6 *** *** ***** ***** ***** ***** **
827650 ***** 201509121800 360   0 *** *** SCT * * * 12.5 ** ** ** ** ** ** ** ** *   98   67 1010.3 *****  987.0 *** *** ***** ***** ***** ***** **
827650 ***** 201509130000 360   0 *** 722 CLR * * * 12.5 ** ** ** ** ** ** ** ** *   89   85 1012.8 *****  989.3 *** *** ***** ***** ***** ***** **
827650 ***** 201509131200 270 *** ***  41 BKN * * * 12.5 ** ** ** ** ** ** ** ** *   85   73 1015.6 *****  992.1 ***  79 ***** ***** ***** ***** **
827650 ***** 201509131800 270 *** *** *** BKN * * * 12.5 ** ** ** ** ** ** ** ** *   94   73 1012.2 *****  988.8 *** *** ***** ***** ***** ***** **
827650 ***** 201509140000 360   0 *** 722 CLR * * * 12.5 ** ** ** ** ** ** ** ** *   86   71 1013.9 *****  990.3 *** *** ***** ***** ***** ***** **
827650 ***** 201509141200 090 *** ***  41 BKN * * * 12.5 ** ** ** ** ** ** ** ** *   85   71 1017.8 *****  994.1 ***  79 ***** ***** ***** ***** **
827650 ***** 201509141800 320 *** *** *** BKN * * * 12.5 ** ** ** ** ** ** ** ** *   95   72 1012.5 *****  989.3 *** *** ***** ***** ***** ***** **
827650 ***** 201509150000 180 *** *** 722 CLR * * * 12.5 ** ** ** ** ** ** ** ** *   88   74 1014.1 *****  990.5 *** *** ***** ***** ***** ***** **
827650 ***** 201509151200 020 *** *** *** SCT * * * 12.5 ** ** ** ** ** ** ** ** *   88   70 1017.1 *****  993.5 ***  76 ***** ***** ***** ***** **
827650 ***** 201509151800 090 *** *** *** SCT * * * 12.5 ** ** ** ** ** ** ** ** *  100   57 1011.1 *****  987.9 *** *** ***** ***** ***** ***** **
827650 ***** 201509160000 360   0 *** 722 CLR * * * 12.5 ** ** ** ** ** ** ** ** *   85   63 1013.1 *****  989.6 *** *** ***** ***** ***** ***** **
827650 ***** 201509161200 090 *** *** 722 CLR * * * 12.5 ** ** ** ** ** ** ** ** *   90   59 1016.3 *****  992.7 ***  75 ***** ***** ***** ***** **
827650 ***** 201509161800 140 *** *** *** SCT * * * 12.5 ** ** ** ** ** ** ** ** *  100   55 1010.6 *****  987.3 *** *** ***** ***** ***** ***** **
827650 ***** 201509170000 090 *** *** 722 CLR * * * 12.5 ** ** ** ** ** ** ** ** *   86   60 1012.1 *****  988.7 *** *** ***** ***** ***** ***** **
827650 ***** 201509171200 050 *** *** 722 CLR * * * 12.5 ** ** ** ** ** ** ** ** *   89   60 1015.3 *****  991.8 ***  76 ***** ***** ***** ***** **
827650 ***** 201509171800 140 *** *** *** SCT * * * 12.5 ** ** ** ** ** ** ** ** *   93   62 1010.7 *****  987.3 *** *** ***** ***** ***** ***** **
827650 ***** 201509180000 360   0 *** 722 CLR * * * 12.5 ** ** ** ** ** ** ** ** *   87   65 1012.1 *****  988.6 *** *** ***** ***** ***** ***** **
827650 ***** 201509181200 050 *** *** *** SCT * * * 12.5 ** ** ** ** ** ** ** ** *   89   58 1014.6 *****  991.1 ***  76 ***** ***** ***** ***** **
827650 ***** 201509181800 090 *** *** *** SCT * * *  6.2 04 ** ** ** ** ** ** ** 1  100   52 1009.7 *****  986.5 *** *** ***** ***** ***** ***** **
827650 ***** 201509190000 360   0 *** 722 CLR * * * 12.5 ** ** ** ** ** ** ** ** *   85   57 1012.7 *****  989.2 *** *** ***** ***** ***** ***** **
827650 ***** 201509191200 050 *** *** 722 CLR * * *  1.2 04 ** ** ** ** ** ** ** 0   89   59 1015.6 *****  992.0 ***  74 ***** ***** ***** ***** **
