  USAF  WBAN YR--MODAHRMN DIR SPD GUS CLG SKC L M H  VSB MW MW MW MW AW AW AW AW W TEMP DEWP    SLP   ALT    STP MAX MIN PCP01 PCP06 PCP24 PCPXX SD
832350 ***** 201507301200 090   7 *** 722 CLR * * * 12.5 ** ** ** ** ** ** ** ** *   74   59 1016.6 *****  949.6 ***  66 ***** ***** ***** ***** **
832350 ***** 201507310000 360   0 *** 722 CLR * * *  6.2 ** ** ** ** ** ** ** ** *   76   54 1014.7 *****  947.9 *** *** ***** ***** ***** ***** **
832350 ***** 201507311200 090   7 *** 722 CLR * * * 12.5 ** ** ** ** ** ** ** ** *   76   55 1016.5 *****  949.6 ***  66 ***** ***** ***** ***** **
832350 ***** 201508010000 360   0 *** 722 CLR * * *  6.2 ** ** ** ** ** ** ** ** *   77   50 1014.5 *****  947.8 *** *** ***** ***** ***** ***** **
832350 ***** 201508011200 090   7 *** 722 CLR * * * 12.5 ** ** ** ** ** ** ** ** *   75   65 1016.5 *****  949.6 ***  66 ***** ***** ***** ***** **
832350 ***** 201508020000 360   0 *** 722 CLR * * *  6.2 ** ** ** ** ** ** ** ** *   73   52 1013.8 *****  947.0 *** *** ***** ***** ***** ***** **
832350 ***** 201508021200 090   7 *** 722 CLR * * * 12.5 ** ** ** ** ** ** ** ** *   76   60 1015.6 *****  948.6 ***  67 ***** ***** ***** ***** **
832350 ***** 201508030000 360   0 *** 722 CLR * * *  6.2 ** ** ** ** ** ** ** ** *   76   56 1013.0 *****  946.4 *** *** ***** ***** ***** ***** **
832350 ***** 201508031200 140   7 *** 722 CLR * * * 12.5 ** ** ** ** ** ** ** ** *   76   59 1015.8 *****  949.0 ***  67 ***** ***** ***** ***** **
832350 ***** 201508040000 140   2 *** 722 CLR * * *  6.2 ** ** ** ** ** ** ** ** *   76   50 1014.7 *****  948.0 *** *** ***** ***** ***** ***** **
832350 ***** 201508041200 090   7 *** 722 CLR * * * 12.5 ** ** ** ** ** ** ** ** *   78   53 1016.1 *****  949.4 ***  69 ***** ***** ***** ***** **
832350 ***** 201508050000 360   0 *** 722 CLR * * *  6.2 ** ** ** ** ** ** ** ** *   76   47 1013.8 *****  947.2 *** *** ***** ***** ***** ***** **
832350 ***** 201508051200 050   2 *** 722 CLR * * * 12.5 ** ** ** ** ** ** ** ** *   77   48 1015.3 *****  948.7 ***  67 ***** ***** ***** ***** **
832350 ***** 201508060000 360   0 *** 722 CLR * * *  6.2 ** ** ** ** ** ** ** ** *   76   49 1013.7 *****  947.1 *** *** ***** ***** ***** ***** **
832350 ***** 201508061200 090   2 *** 722 CLR * * * 12.5 ** ** ** ** ** ** ** ** *   79   47 1014.1 *****  947.5 ***  71 ***** ***** ***** ***** **
832350 ***** 201508070000 090   2 *** 722 CLR * * *  6.2 ** ** ** ** ** ** ** ** *   78   47 1011.5 *****  945.2 *** *** ***** ***** ***** ***** **
832350 ***** 201508071200 360   7 *** 722 CLR * * * 12.5 ** ** ** ** ** ** ** ** *   80   48 1013.2 *****  946.8 ***  71 ***** ***** ***** ***** **
832350 ***** 201508080000 360   0 *** 722 CLR * * *  6.2 ** ** ** ** ** ** ** ** *   79   50 1012.2 *****  945.9 *** *** ***** ***** ***** ***** **
832350 ***** 201508081200 090   2 *** *** SCT * * * 12.5 ** ** ** ** ** ** ** ** *   77   51 1014.2 *****  947.6 ***  70 ***** ***** ***** ***** **
832350 ***** 201508090000 360   0 *** 722 CLR * * *  6.2 ** ** ** ** ** ** ** ** *   75   55 1012.9 *****  946.3 *** *** ***** ***** ***** ***** **
832350 ***** 201508091200 090   9 *** 722 CLR * * * 12.5 ** ** ** ** ** ** ** ** *   73   51 1016.0 *****  949.0 ***  67 ***** ***** ***** ***** **
832350 ***** 201508100000 360   0 *** 722 CLR * * *  6.2 ** ** ** ** ** ** ** ** *   75   53 1013.8 *****  947.0 *** *** ***** ***** ***** ***** **
832350 ***** 201508101200 090   7 *** 722 CLR * * * 12.5 ** ** ** ** ** ** ** ** *   76   56 1017.0 *****  950.0 ***  67 ***** ***** ***** ***** **
832350 ***** 201508110000 360   0 *** 722 CLR * * *  6.2 ** ** ** ** ** ** ** ** *   77   55 1015.1 *****  948.4 *** *** ***** ***** ***** ***** **
832350 ***** 201508111200 090   7 *** *** SCT * * * 12.5 ** ** ** ** ** ** ** ** *   73   58 1017.4 *****  950.4 ***  67 ***** ***** ***** ***** **
832350 ***** 201508120000 360   0 *** 722 CLR * * *  6.2 ** ** ** ** ** ** ** ** *   74   57 1016.0 *****  949.0 *** *** ***** ***** ***** ***** **
832350 ***** 201508121200 090   7 *** *** SCT * * * 12.5 ** ** ** ** ** ** ** ** *   70   52 1018.1 *****  950.8 ***  65 ***** ***** ***** ***** **
832350 ***** 201508130000 360   0 *** 722 CLR * * *  6.2 ** ** ** ** ** ** ** ** *   71   50 1016.1 *****  948.8 *** *** ***** ***** ***** ***** **
832350 ***** 201508131200 090   7 *** 722 CLR * * * 12.5 ** ** ** ** ** ** ** ** *   73   52 1019.0 *****  951.6 ***  63 ***** ***** ***** ***** **
832350 ***** 201508140000 360   0 *** 722 CLR * * *  6.2 ** ** ** ** ** ** ** ** *   71   51 1015.9 *****  948.8 *** *** ***** ***** ***** ***** **
832350 ***** 201508141200 090   7 *** 722 CLR * * * 12.5 ** ** ** ** ** ** ** ** *   74   54 1018.3 *****  951.0 ***  61 ***** ***** ***** ***** **
832350 ***** 201508150000 360   0 *** 722 CLR * * *  6.2 ** ** ** ** ** ** ** ** *   76   56 1015.2 *****  948.4 *** *** ***** ***** ***** ***** **
832350 ***** 201508151200 140   2 *** 722 CLR * * * 12.5 ** ** ** ** ** ** ** ** *   76   62 1017.1 *****  950.2 ***  65 ***** ***** ***** ***** **
832350 ***** 201508160000 360   0 *** 722 CLR * * *  6.2 ** ** ** ** ** ** ** ** *   77   56 1015.1 *****  948.4 *** *** ***** ***** ***** ***** **
832350 ***** 201508161200 090   2 *** *** SCT * * * 12.5 ** ** ** ** ** ** ** ** *   77   62 1016.4 *****  949.6 ***  70 ***** ***** ***** ***** **
832350 ***** 201508170000 090   2 *** 722 CLR * * *  6.2 ** ** ** ** ** ** ** ** *   78   62 1014.4 *****  947.8 *** *** ***** ***** ***** ***** **
832350 ***** 201508171200 140   7 *** 722 CLR * * * 12.5 ** ** ** ** ** ** ** ** *   76   53 1016.5 *****  949.8 ***  68 ***** ***** ***** ***** **
832350 ***** 201508180000 360   0 *** 722 CLR * * *  6.2 ** ** ** ** ** ** ** ** *   76   55 1013.9 *****  947.2 *** *** ***** ***** ***** ***** **
832350 ***** 201508181200 090   7 *** 722 CLR * * * 12.5 ** ** ** ** ** ** ** ** *   76   59 1016.9 *****  950.0 ***  64 ***** ***** ***** ***** **
832350 ***** 201508190000 360   0 *** 722 CLR * * *  6.2 ** ** ** ** ** ** ** ** *   77   58 1012.9 *****  946.4 *** *** ***** ***** ***** ***** **
832350 ***** 201508191200 090   9 *** 722 CLR * * * 12.5 ** ** ** ** ** ** ** ** *   78   58 1013.6 *****  947.1 ***  69 ***** ***** ***** ***** **
832350 ***** 201508191800 090   2 *** *** SCT * * * 12.5 ** ** ** ** ** ** ** ** *   88   56 1010.7 *****  944.0 *** *** ***** ***** ***** ***** **
832350 ***** 201508200000 360   0 *** 722 CLR * * *  6.2 ** ** ** ** ** ** ** ** *   81   56 1009.9 *****  943.8 *** *** ***** ***** ***** ***** **
832350 ***** 201508201200 090   7 *** *** SCT * * * 12.5 ** ** ** ** ** ** ** ** *   82   56 1012.7 *****  946.6 ***  74 ***** ***** ***** ***** **
832350 ***** 201508201800 360   0 ***  41 BKN * * * 12.5 ** ** ** ** ** ** ** ** *   93   53 1009.7 *****  943.5 *** *** ***** ***** ***** ***** **
832350 ***** 201508210000 360   0 *** *** SCT * * *  6.2 ** ** ** ** ** ** ** ** *   81   56 1010.8 *****  944.8 *** *** ***** ***** ***** ***** **
832350 ***** 201508211200 360   0 ***  41 BKN * * * 12.5 ** ** ** ** ** ** ** ** *   84   55 1012.5 *****  946.4 ***  77 ***** ***** ***** ***** **
832350 ***** 201508211800 360   0 *** *** SCT * * * 12.5 ** ** ** ** ** ** ** ** *   94   55 1009.5 *****  943.4 *** *** ***** ***** ***** ***** **
832350 ***** 201508220000 360   0 *** *** SCT * * *  6.2 ** ** ** ** ** ** ** ** *   83   55 1009.6 *****  943.8 *** *** ***** ***** ***** ***** **
832350 ***** 201508221200 090   2 *** 722 CLR * * * 12.5 ** ** ** ** ** ** ** ** *   86   53 1011.6 *****  945.8 ***  74 ***** ***** ***** ***** **
832350 ***** 201508221800 270   2 *** *** SCT * * * 12.5 ** ** ** ** ** ** ** ** *   95   55 1008.1 *****  942.0 *** *** ***** ***** ***** ***** **
832350 ***** 201508230000 360   0 *** *** SCT * * *  6.2 ** ** ** ** ** ** ** ** *   85   57 1009.0 *****  943.4 *** *** ***** ***** ***** ***** **
832350 ***** 201508231200 090   7 *** *** SCT * * * 12.5 ** ** ** ** ** ** ** ** *   83   57 1010.6 *****  944.8 ***  75 ***** ***** ***** ***** **
832350 ***** 201508231800 360   0 *** *** SCT * * * 12.5 ** ** ** ** ** ** ** ** *   93   60 1009.3 *****  943.2 *** *** ***** ***** ***** ***** **
832350 ***** 201508240000 360   0 *** *** SCT * * *  6.2 ** ** ** ** ** ** ** ** *   84   58 1009.1 *****  943.2 *** *** ***** ***** ***** ***** **
832350 ***** 201508241200 090   7 *** *** SCT * * * 12.5 ** ** ** ** ** ** ** ** *   83   59 1011.5 *****  945.6 ***  76 ***** ***** ***** ***** **
832350 ***** 201508241800 050   2 *** *** SCT * * * 12.5 ** ** ** ** ** ** ** ** *   95   57 1008.7 *****  942.7 *** *** ***** ***** ***** ***** **
832350 ***** 201508250000 360   0 *** 722 CLR * * *  6.2 ** ** ** ** ** ** ** ** *   83   65 1009.1 *****  943.2 *** *** ***** ***** ***** ***** **
832350 ***** 201508251200 090   9 *** 722 CLR * * * 12.5 ** ** ** ** ** ** ** ** *   82   56 1011.0 *****  945.1 ***  76 ***** ***** ***** ***** **
832350 ***** 201508251800 360   0 *** *** SCT * * * 12.5 ** ** ** ** ** ** ** ** *   95   54 1007.7 *****  942.0 *** *** ***** ***** ***** ***** **
832350 ***** 201508260000 090   2 *** 722 CLR * * *  6.2 ** ** ** ** ** ** ** ** *   81   53 1009.1 *****  943.2 *** *** ***** ***** ***** ***** **
832350 ***** 201508261200 090   2 *** *** SCT * * * 12.5 ** ** ** ** ** ** ** ** *   84   55 1012.4 *****  946.3 ***  74 ***** ***** ***** ***** **
832350 ***** 201508261800 360   0 *** *** SCT * * * 12.5 ** ** ** ** ** ** ** ** *   94   49 1009.6 *****  943.4 *** *** ***** ***** ***** ***** **
832350 ***** 201508270000 360   0 *** 722 CLR * * *  6.2 ** ** ** ** ** ** ** ** *   83   53 1010.7 *****  944.8 *** *** ***** ***** ***** ***** **
832350 ***** 201508271200 090   5 *** 722 CLR * * * 12.5 ** ** ** ** ** ** ** ** *   86   67 1012.3 *****  946.4 ***  76 ***** ***** ***** ***** **
832350 ***** 201508271800 090   2 *** 722 CLR * * * 12.5 ** ** ** ** ** ** ** ** *   97   67 1009.5 *****  943.8 *** *** ***** ***** ***** ***** **
832350 ***** 201508280000 050   2 *** 722 CLR * * *  6.2 ** ** ** ** ** ** ** ** *   83   47 1010.5 *****  944.7 *** *** ***** ***** ***** ***** **
832350 ***** 201508281200 360   0 *** 722 CLR * * * 12.5 ** ** ** ** ** ** ** ** *   83   54 1012.2 *****  946.2 ***  74 ***** ***** ***** ***** **
832350 ***** 201508281800 180   2 *** *** SCT * * * 12.5 ** ** ** ** ** ** ** ** *   96   46 1009.4 *****  943.2 *** *** ***** ***** ***** ***** **
832350 ***** 201508290000 360   0 *** 722 CLR * * *  6.2 ** ** ** ** ** ** ** ** *   82   53 1011.6 *****  945.6 *** *** ***** ***** ***** ***** **
832350 ***** 201508291200 090   9 *** 722 CLR * * * 12.5 ** ** ** ** ** ** ** ** *   80   57 1013.8 *****  947.6 ***  75 ***** ***** ***** ***** **
832350 ***** 201508291800 090   5 *** *** SCT * * * 12.5 ** ** ** ** ** ** ** ** *   93   55 1011.1 *****  944.8 *** *** ***** ***** ***** ***** **
832350 ***** 201508300000 360   0 *** *** SCT * * *  6.2 ** ** ** ** ** ** ** ** *   80   56 1013.0 *****  946.8 *** *** ***** ***** ***** ***** **
832350 ***** 201508301200 090   7 *** 722 CLR * * * 12.5 ** ** ** ** ** ** ** ** *   80   59 1015.5 *****  949.1 ***  73 ***** ***** ***** ***** **
832350 ***** 201508301800 090   2 *** *** SCT * * * 12.5 ** ** ** ** ** ** ** ** *   90   57 1012.7 *****  946.4 *** *** ***** ***** ***** ***** **
832350 ***** 201508310000 360   0 *** 164 BKN * * *  6.2 ** ** ** ** ** ** ** ** *   80   58 1013.9 *****  947.5 *** *** ***** ***** ***** ***** **
832350 ***** 201508311200 090   7 *** *** SCT * * * 12.5 ** ** ** ** ** ** ** ** *   80   58 1015.5 *****  949.0 ***  71 ***** ***** ***** ***** **
832350 ***** 201508311800 140   7 *** *** SCT * * * 12.5 ** ** ** ** ** ** ** ** *   92   54 1011.1 *****  945.0 *** *** ***** ***** ***** ***** **
832350 ***** 201509010000 360   0 *** *** SCT * * *  6.2 ** ** ** ** ** ** ** ** *   79   54 1013.2 *****  946.8 *** *** ***** ***** ***** ***** **
832350 ***** 201509011200 090   2 *** *** SCT * * * 12.5 ** ** ** ** ** ** ** ** *   80   54 1016.1 *****  949.5 ***  71 ***** ***** ***** ***** **
832350 ***** 201509011800 360   0 *** *** SCT * * * 12.5 ** ** ** ** ** ** ** ** *   93   49 1010.2 *****  944.3 *** *** ***** ***** ***** ***** **
832350 ***** 201509020000 360   0 *** *** SCT * * *  6.2 ** ** ** ** ** ** ** ** *   79   47 1011.9 *****  945.6 *** *** ***** ***** ***** ***** **
832350 ***** 201509021200 090   2 *** 722 CLR * * *  6.2 05 ** ** ** ** ** ** ** 4   87   50 1015.8 *****  949.5 ***  56 ***** ***** ***** ***** **
832350 ***** 201509021800 360   0 *** *** SCT * * *  6.2 00 ** ** ** ** ** ** ** 0   96   44 1008.7 *****  943.1 *** *** ***** ***** ***** ***** **
832350 ***** 201509030000 360   0 *** 722 CLR * * *  6.2 00 ** ** ** ** ** ** ** 4   81   48 1010.8 *****  945.0 *** *** ***** ***** ***** ***** **
832350 ***** 201509031200 090   7 *** 722 CLR * * *  6.2 05 ** ** ** ** ** ** ** 4   79   48 1014.0 *****  947.6 ***  72 ***** ***** ***** ***** **
832350 ***** 201509031800 360   0 *** *** SCT * * *  6.2 05 ** ** ** ** ** ** ** 4   96   46 1009.2 *****  943.6 *** *** ***** ***** ***** ***** **
832350 ***** 201509041200 090   2 *** 722 CLR * * *  6.2 05 ** ** ** ** ** ** ** 4   88   50 1013.0 *****  947.0 ***  72 ***** ***** ***** ***** **
832350 ***** 201509041800 360   0 *** *** SCT * * *  6.2 05 ** ** ** ** ** ** ** 4   98   48 1008.6 *****  943.1 *** *** ***** ***** ***** ***** **
832350 ***** 201509050000 360   0 *** 722 CLR * * *  6.2 00 ** ** ** ** ** ** ** 4   81   52 1010.9 *****  945.1 *** *** ***** ***** ***** ***** **
832350 ***** 201509051200 360   0 *** 722 CLR * * *  6.2 05 ** ** ** ** ** ** ** 4   91   51 1011.9 *****  946.2 ***  75 ***** ***** ***** ***** **
832350 ***** 201509051800 360   0 *** *** SCT * * *  6.2 05 ** ** ** ** ** ** ** 4   99   47 1007.2 *****  941.9 *** *** ***** ***** ***** ***** **
832350 ***** 201509060000 360   0 *** 722 CLR * * *  6.2 00 ** ** ** ** ** ** ** 4   85   53 1008.5 *****  943.2 *** *** ***** ***** ***** ***** **
832350 ***** 201509061200 360   0 *** *** SCT * * *  6.2 05 ** ** ** ** ** ** ** 4   91   51 1011.9 *****  946.3 ***  75 ***** ***** ***** ***** **
832350 ***** 201509061800 360   0 *** *** SCT * * *  6.2 05 ** ** ** ** ** ** ** 4   98   55 1007.4 *****  942.0 *** *** ***** ***** ***** ***** **
832350 ***** 201509070000 360   0 *** 722 CLR * * *  6.2 00 ** ** ** ** ** ** ** 4   89   60 1008.8 *****  943.5 *** *** ***** ***** ***** ***** **
832350 ***** 201509071200 360   0 *** *** SCT * * *  6.2 05 ** ** ** ** ** ** ** 4   89   58 1011.3 *****  945.8 ***  77 ***** ***** ***** ***** **
832350 ***** 201509071800 360   0 ***  41 BKN * * *  6.2 05 ** ** ** ** ** ** ** 4   95   56 1006.2 *****  941.0 *** *** ***** ***** ***** ***** **
832350 ***** 201509080000 360   0 *** 722 CLR * * *  6.2 00 ** ** ** ** ** ** ** 4   84   53 1007.8 *****  942.4 *** *** ***** ***** ***** ***** **
832350 ***** 201509081200 360   2 *** *** SCT * * *  6.2 05 ** ** ** ** ** ** ** 4   86   51 1001.6 *****  945.8 ***  76 ***** ***** ***** ***** **
832350 ***** 201509090000 360   0 *** 722 CLR * * *  6.2 00 ** ** ** ** ** ** ** 4   82   54 1007.5 *****  941.9 *** *** ***** ***** ***** ***** **
832350 ***** 201509091200 090   7 *** *** SCT * * * 12.5 05 ** ** ** ** ** ** ** 4   86   48 1011.9 *****  946.0 ***  77 ***** ***** ***** ***** **
832350 ***** 201509091800 270   2 *** *** SCT * * * 12.5 05 ** ** ** ** ** ** ** 4   98   50 1010.4 *****  944.0 *** *** ***** ***** ***** ***** **
832350 ***** 201509100000 360   0 *** 722 CLR * * *  6.2 00 ** ** ** ** ** ** ** 4   84   55 1008.8 *****  943.2 *** *** ***** ***** ***** ***** **
832350 ***** 201509101200 360   0 *** *** SCT * * *  6.2 05 ** ** ** ** ** ** ** 4   84   58 1012.2 *****  946.3 ***  72 ***** ***** ***** ***** **
832350 ***** 201509101800 360   0 *** *** SCT * * *  6.2 05 ** ** ** ** ** ** ** 4   98   51 1006.0 *****  940.7 *** *** ***** ***** ***** ***** **
832350 ***** 201509110000 360   0 *** 722 CLR * * *  6.2 00 ** ** ** ** ** ** ** 4   83   56 1008.0 *****  942.4 *** *** ***** ***** ***** ***** **
832350 ***** 201509111200 050   2 *** *** SCT * * *  6.2 05 ** ** ** ** ** ** ** 4   83   53 1011.5 *****  945.5 ***  75 ***** ***** ***** ***** **
832350 ***** 201509111800 360   0 *** *** SCT * * *  6.2 05 ** ** ** ** ** ** ** 4   98   52 1006.6 *****  941.4 *** *** ***** ***** ***** ***** **
832350 ***** 201509120000 360   0 *** 722 CLR * * *  6.2 00 ** ** ** ** ** ** ** 4   82   59 1009.9 *****  944.0 *** *** ***** ***** ***** ***** **
832350 ***** 201509121200 090   2 *** *** SCT * * *  6.2 05 ** ** ** ** ** ** ** 4   88   55 1011.6 *****  945.8 ***  75 ***** ***** ***** ***** **
832350 ***** 201509121800 360   0 *** *** SCT * * * 12.5 05 ** ** ** ** ** ** ** 4   99   55 1007.7 *****  941.8 *** *** ***** ***** ***** ***** **
832350 ***** 201509130000 360   0 *** 722 CLR * * *  6.2 05 ** ** ** ** ** ** ** 4   84   56 1008.8 *****  943.2 *** *** ***** ***** ***** ***** **
832350 ***** 201509131200 360   0 *** 722 CLR * * * 12.5 05 ** ** ** ** ** ** ** 4   88   53 1011.3 *****  945.6 ***  76 ***** ***** ***** ***** **
832350 ***** 201509131800 360   0 *** *** SCT * * * 12.5 05 ** ** ** ** ** ** ** 4  101   56 1007.3 *****  941.9 *** *** ***** ***** ***** ***** **
832350 ***** 201509140000 360   0 *** 722 CLR * * *  6.2 ** ** ** ** ** ** ** ** *   91   53 1010.7 *****  945.0 *** *** ***** ***** ***** ***** **
832350 ***** 201509141200 360   0 *** *** SCT * * * 12.5 05 ** ** ** ** ** ** ** 4   88   60 1013.1 *****  947.6 ***  81 ***** ***** ***** ***** **
832350 ***** 201509141800 360   0 ***  41 BKN * * * 12.5 05 ** ** ** ** ** ** ** 4   96   60 1008.8 ***** ****** *** *** ***** ***** ***** ***** **
832350 ***** 201509150000 360   0 ***  41 BKN * * *  6.2 ** ** ** ** ** ** ** ** *   86   61 1011.4 *****  945.8 *** *** ***** ***** ***** ***** **
832350 ***** 201509151200 090   7 *** 722 CLR * * * 12.5 05 ** ** ** ** ** ** ** 4   83   57 1014.3 *****  948.2 ***  76 ***** ***** ***** ***** **
832350 ***** 201509151800 090   9 *** *** SCT * * * 12.5 05 ** ** ** ** ** ** ** 4   97   55 1009.3 *****  943.6 *** *** ***** ***** ***** ***** **
832350 ***** 201509160000 360   0 *** 722 CLR * * *  6.2 05 ** ** ** ** ** ** ** 4   84   56 1011.7 *****  945.8 *** *** ***** ***** ***** ***** **
832350 ***** 201509161800 050   2 *** 722 CLR * * * 12.5 05 ** ** ** ** ** ** ** 4   94   55 1010.0 *****  943.8 *** *** ***** ***** ***** ***** **
832350 ***** 201509170000 360   0 *** *** SCT * * *  6.2 05 ** ** ** ** ** ** ** 4   80   44 1010.8 *****  944.7 *** *** ***** ***** ***** ***** **
832350 ***** 201509171200 090   7 *** 722 CLR * * * 12.5 05 ** ** ** ** ** ** ** 4   82   56 1013.8 *****  947.6 ***  74 ***** ***** ***** ***** **
832350 ***** 201509171800 140   7 *** 722 CLR * * * 12.5 05 ** ** ** ** ** ** ** 4   95   51 1009.0 *****  943.1 *** *** ***** ***** ***** ***** **
832350 ***** 201509180000 360   0 *** 722 CLR * * *  6.2 05 ** ** ** ** ** ** ** 4   81   58 1011.3 *****  945.2 *** *** ***** ***** ***** ***** **
832350 ***** 201509181200 090   7 *** 722 CLR * * * 12.5 05 ** ** ** ** ** ** ** 4   83   53 1012.3 *****  946.2 ***  76 ***** ***** ***** ***** **
832350 ***** 201509181800 090   2 *** *** SCT * * * 12.5 05 ** ** ** ** ** ** ** 4   97   50 1008.4 *****  942.3 *** *** ***** ***** ***** ***** **
832350 ***** 201509190000 360   0 *** *** SCT * * *  6.2 05 ** ** ** ** ** ** ** 4   83   43 1010.2 *****  944.3 *** *** ***** ***** ***** ***** **
832350 ***** 201509191200 090   7 *** 722 CLR * * * 12.5 05 ** ** ** ** ** ** ** 4   85   58 1012.7 *****  946.8 ***  74 ***** ***** ***** ***** **
832350 ***** 201509191800 360   0 *** *** SCT * * * 12.5 05 ** ** ** ** ** ** ** 4   97   48 1009.3 *****  943.1 *** *** ***** ***** ***** ***** **
