  USAF  WBAN YR--MODAHRMN DIR SPD GUS CLG SKC L M H  VSB MW MW MW MW AW AW AW AW W TEMP DEWP    SLP   ALT    STP MAX MIN PCP01 PCP06 PCP24 PCPXX SD
833580 ***** 201501011800 320   7 ***  41 BKN * * * 12.5 ** ** ** ** ** ** ** ** *   87   74 1009.5 *****  969.8 *** *** ***** ***** ***** ***** **
833580 ***** 201501020000 360   0 *** *** OVC * * *  0.3 ** ** ** ** ** ** ** ** *   81   75 1007.2 *****  967.8 *** *** ***** ***** ***** ***** **
833580 ***** 201501021200 360   0 *** *** BKN * * * 12.5 ** ** ** ** ** ** ** ** *   80   74 1011.6 *****  972.0 ***  71 ***** ***** ***** ***** **
833580 ***** 201501041800 230   7 *** *** BKN * * * 12.5 ** ** ** ** ** ** ** ** *   89   70 1009.2 *****  969.6 *** *** ***** ***** ***** ***** **
833580 ***** 201501051200 360   0 *** *** BKN * * * 12.5 01 ** ** ** ** ** ** ** 6   73   70 1011.3 *****  971.6 ***  70 ***** *****  0.59 ***** **
833580 ***** 201501061200 360   0 *** *** BKN * * * 12.5 ** ** ** ** ** ** ** ** *   76   73 1012.2 *****  972.3 ***  69 ***** *****  0.28 ***** **
833580 ***** 201501061800 320   7 *** *** BKN * * * 12.5 ** ** ** ** ** ** ** ** *   90   73 1009.1 ***** ****** *** *** ***** ***** ***** ***** **
833580 ***** 201501070000 360   0 *** *** OVC * * *  0.3 ** ** ** ** ** ** ** ** *   77   69 1010.5 *****  970.7 *** *** ***** ***** ***** ***** **
833580 ***** 201501071800 360   7 ***  26 BKN * * * 12.5 ** ** ** ** ** ** ** ** *   92   71 1008.2 *****  968.7 *** *** ***** ***** ***** ***** **
833580 ***** 201501081800 180   7 *** *** BKN * * * 12.5 09 ** ** ** ** ** ** ** 4   90   75 1009.0 *****  969.4 *** *** ***** ***** ***** ***** **
833580 ***** 201501091200 360   0 *** *** BKN * * * 12.5 ** ** ** ** ** ** ** ** *   77   72 1011.7 *****  971.9 ***  70 ***** ***** ***** ***** **
833580 ***** 201501101200 360   0 ***  26 OVC * * * 12.5 01 ** ** ** ** ** ** ** 6   69   68 1013.2 *****  973.7 ***  67 ***** *****  0.31 ***** **
833580 ***** 201501101800 320   7 *** *** BKN * * * 12.5 ** ** ** ** ** ** ** ** *   88   74 1011.3 *****  971.5 *** *** ***** ***** ***** ***** **
833580 ***** 201501111200 360   0 *** *** SCT * * * 12.5 ** ** ** ** ** ** ** ** *   78   74 1011.0 *****  971.4 ***  69 ***** ***** ***** ***** **
833580 ***** 201501111800 320   7 *** *** SCT * * * 12.5 ** ** ** ** ** ** ** ** *   94   71 1009.2 *****  969.7 *** *** ***** ***** ***** ***** **
833580 ***** 201501120000 360   0 *** *** OVC * * *  0.3 12 ** ** ** ** ** ** ** 3   80   74 1008.9 *****  969.3 *** *** ***** ***** ***** ***** **
833580 ***** 201501121200 360   0 *** *** BKN * * * 12.5 ** ** ** ** ** ** ** ** *   80   73 1011.9 *****  972.3 ***  72 ***** ***** ***** ***** **
833580 ***** 201501121800 180   7 ***  26 OVC * * * 12.5 09 ** ** ** ** ** ** ** 4   82   65 1012.4 *****  972.5 *** *** ***** ***** ***** ***** **
833580 ***** 201501130000 360   0 *** *** OVC * * *  0.3 03 ** ** ** ** ** ** ** 6   75   67 1009.5 *****  969.6 *** *** *****  1.10 ***** ***** **
833580 ***** 201501131800 360   0 *** *** BKN * * * 12.5 01 ** ** ** ** ** ** ** 6   73   69 1010.7 *****  970.6 *** *** *****  0.28 ***** ***** **
833580 ***** 201501141200 360   0 *** *** SCT * * * 12.5 ** ** ** ** ** ** ** ** *   76   74 1012.0 *****  972.2 ***  69 ***** *****  0.28 ***** **
833580 ***** 201501141800 230   7 ***  26 BKN * * * 12.5 ** ** ** ** ** ** ** ** *   92   67 1008.9 *****  969.4 *** *** ***** ***** ***** ***** **
833580 ***** 201501150000 230   5 *** *** OVC * * *  0.3 31 ** ** ** ** ** ** ** 2   74   69 1010.1 *****  970.3 *** *** ***** ***** ***** ***** **
833580 ***** 201501151200 360   0 *** *** SCT * * * 12.5 ** ** ** ** ** ** ** ** *   77   73 1012.6 *****  972.7 ***  71 ***** ***** ***** ***** **
833580 ***** 201501161200 360   0 *** *** BKN * * * 12.5 01 ** ** ** ** ** ** ** 6   73   70 1012.6 *****  972.7 ***  68 ***** *****  0.28 ***** **
833580 ***** 201501161800 230   7 *** *** BKN * * * 12.5 ** ** ** ** ** ** ** ** *   89   73 1008.9 *****  969.3 *** *** ***** ***** ***** ***** **
833580 ***** 201501170000 360   0 *** *** OVC * * *  0.3 13 ** ** ** ** ** ** ** 2   74   71 1010.5 *****  970.5 *** *** ***** ***** ***** ***** **
833580 ***** 201501171200 360   0 *** *** BKN * * * 12.5 ** ** ** ** ** ** ** ** *   72   70 1012.9 *****  972.9 ***  68 ***** ***** ***** ***** **
833580 ***** 201501171800 320  23 *** *** OVC * * * 12.5 ** ** ** ** ** ** ** ** *   81   73 1012.5 *****  972.6 *** *** ***** ***** ***** ***** **
833580 ***** 201501180000 360   0 ***  26 OVC * * *  0.3 ** ** ** ** ** ** ** ** *   76   73 1010.9 *****  970.9 *** *** ***** ***** ***** ***** **
833580 ***** 201501181200 360   0 *** *** BKN * * * 12.5 ** ** ** ** ** ** ** ** *   73   72 1012.6 *****  972.7 ***  68 ***** ***** ***** ***** **
833580 ***** 201501181800 230   9 *** *** SCT * * * 12.5 ** ** ** ** ** ** ** ** *   87   74 1010.0 *****  970.7 *** *** ***** ***** ***** ***** **
833580 ***** 201501191200 360   0 ***  26 OVC * * * 12.5 01 ** ** ** ** ** ** ** 6   73   71 1012.1 *****  972.3 ***  69 ***** *****  0.08 ***** **
833580 ***** 201501200000 360   0 *** *** OVC * * *  0.3 ** ** ** ** ** ** ** ** *   73   70 1008.9 *****  969.0 *** *** ***** ***** ***** ***** **
833580 ***** 201501201200 360   0 *** *** BKN * * * 12.5 ** ** ** ** ** ** ** ** *   73   71 1009.9 *****  970.0 ***  69 ***** ***** ***** ***** **
833580 ***** 201501201800 320   7 ***  26 OVC * * * 12.5 01 ** ** ** ** ** ** ** 9   71   67 1009.6 *****  969.5 *** *** *****  0.55 ***** ***** **
833580 ***** 201501210000 360   0 *** *** OVC * * *  0.3 ** ** ** ** ** ** ** ** *   72   70 1008.5 *****  968.6 *** *** ***** ***** ***** ***** **
833580 ***** 201501211200 360   0 *** *** BKN * * * 12.5 ** ** ** ** ** ** ** ** *   71   69 1010.9 *****  970.9 ***  65 ***** *****  0.55 ***** **
833580 ***** 201501211800 270   7 *** *** BKN * * * 12.5 ** ** ** ** ** ** ** ** *   89   74 1008.5 *****  968.8 *** *** ***** ***** ***** ***** **
833580 ***** 201501220000 360   0 *** *** OVC * * *  0.3 13 ** ** ** ** ** ** ** 2   82   73 1008.8 *****  969.1 *** *** ***** ***** ***** ***** **
833580 ***** 201501221200 360   0 *** *** BKN * * * 12.5 ** ** ** ** ** ** ** ** *   76   71 1011.3 *****  971.6 ***  70 ***** ***** ***** ***** **
833580 ***** 201501221800 360   0 *** *** BKN * * * 12.5 ** ** ** ** ** ** ** ** *   89   74 1008.8 *****  969.3 *** *** ***** ***** ***** ***** **
833580 ***** 201501230000 360   0 *** *** OVC * * *  0.3 ** ** ** ** ** ** ** ** *   82   74 1007.3 *****  967.7 *** *** ***** ***** ***** ***** **
833580 ***** 201501231200 360   0 *** *** BKN * * * 12.5 ** ** ** ** ** ** ** ** *   76   74 1011.2 *****  971.5 ***  71 ***** ***** ***** ***** **
833580 ***** 201501231800 320   7 ***  41 OVC * * * 12.5 09 ** ** ** ** ** ** ** 4   84   69 1009.3 *****  969.6 *** *** ***** ***** ***** ***** **
833580 ***** 201501240000 360   0 *** *** OVC * * *  0.3 ** ** ** ** ** ** ** ** *   76   71 1009.5 *****  969.7 *** *** ***** ***** ***** ***** **
833580 ***** 201501241200 360   0 *** *** BKN * * * 12.5 ** ** ** ** ** ** ** ** *   73   70 1010.8 *****  970.9 ***  69 ***** ***** ***** ***** **
833580 ***** 201501251200 360   7 *** *** BKN * * * 12.5 ** ** ** ** ** ** ** ** *   75   70 1011.0 *****  971.2 ***  68 ***** ***** ***** ***** **
833580 ***** 201501261200 360   7 *** *** BKN * * * 12.5 ** ** ** ** ** ** ** ** *   75   72 1011.1 *****  971.2 ***  71 ***** *****  0.08 ***** **
833580 ***** 201501270000 360   0 *** *** OVC * * *  0.3 ** ** ** ** ** ** ** ** *   79   76 1008.3 *****  968.6 *** *** ***** ***** ***** ***** **
833580 ***** 201501271200 320   5 ***  41 OVC * * * 12.5 ** ** ** ** ** ** ** ** *   76   73 1011.3 *****  971.5 ***  72 ***** *****  0.08 ***** **
833580 ***** 201501271800 360   0 ***  41 OVC * * * 12.5 01 ** ** ** ** ** ** ** 6   73   72 1009.3 *****  969.4 *** *** *****  0.39 ***** ***** **
833580 ***** 201501280000 360   0 *** *** OVC * * *  0.3 03 ** ** ** ** ** ** ** 6   75   73 1009.2 *****  969.4 *** *** *****  0.04 ***** ***** **
833580 ***** 201501281200 360   0 *** *** BKN * * * 12.5 ** ** ** ** ** ** ** ** *   79   74 1011.3 *****  971.5 ***  71 ***** *****  0.43 ***** **
833580 ***** 201501281800 270   5 ***  41 OVC * * * 12.5 ** ** ** ** ** ** ** ** *   76   71 1009.6 *****  969.7 *** *** ***** ***** ***** ***** **
833580 ***** 201501290000 360   0 *** *** OVC * * *  0.3 03 ** ** ** ** ** ** ** 6   74   70 1009.6 *****  969.9 *** *** *****  0.08 ***** ***** **
833580 ***** 201501291200 360   0 ***  26 OVC * * * 12.5 ** ** ** ** ** ** ** ** *   73   73 1011.7 *****  971.7 ***  71 ***** *****  0.08 ***** **
833580 ***** 201501291800 230   5 *** *** BKN * * *  6.2 ** ** ** ** ** ** ** ** *   82   74 1009.5 *****  969.8 *** *** ***** ***** ***** ***** **
833580 ***** 201501301200 360   0 *** *** BKN * * * 12.5 ** ** ** ** ** ** ** ** *   75   72 1010.7 *****  970.8 ***  69 ***** ***** ***** ***** **
833580 ***** 201501301800 230   7 *** *** BKN * * * 12.5 ** ** ** ** ** ** ** ** *   93   72 1008.3 *****  968.8 *** *** ***** ***** ***** ***** **
833580 ***** 201501311200 360   0 *** *** SCT * * * 12.5 ** ** ** ** ** ** ** ** *   77   74 1010.9 *****  971.3 ***  70 ***** ***** ***** ***** **
833580 ***** 201501311800 230   7 *** *** SCT * * * 12.5 ** ** ** ** ** ** ** ** *   93   71 1010.4 *****  970.8 *** *** ***** ***** ***** ***** **
833580 ***** 201502011200 230   7 ***  41 BKN * * * 12.5 ** ** ** ** ** ** ** ** *   74   70 1010.8 *****  971.1 ***  71 ***** ***** ***** ***** **
833580 ***** 201502011800 320   7 *** *** SCT * * * 12.5 ** ** ** ** ** ** ** ** *   91   69 1010.9 *****  971.3 *** *** ***** ***** ***** ***** **
833580 ***** 201502021200 360   0 *** *** BKN * * * 12.5 ** ** ** ** ** ** ** ** *   81   69 1011.3 *****  971.5 ***  67 ***** ***** ***** ***** **
833580 ***** 201502021800 360   7 *** *** BKN * * * 12.5 09 ** ** ** ** ** ** ** 4   87   73 1009.0 *****  969.3 *** *** ***** ***** ***** ***** **
833580 ***** 201502030000 360   0 *** *** OVC * * *  0.3 29 ** ** ** ** ** ** ** 2   71   69 1012.9 *****  973.0 *** *** ***** ***** ***** ***** **
833580 ***** 201502031200 360   0 *** *** BKN * * * 12.5 ** ** ** ** ** ** ** ** *   76   71 1011.0 *****  971.2 ***  68 ***** ***** ***** ***** **
833580 ***** 201502031800 270   5 *** *** BKN * * * 12.5 ** ** ** ** ** ** ** ** *   93   71 1006.5 *****  967.1 *** *** ***** ***** ***** ***** **
833580 ***** 201502041200 360   0 ***  41 OVC * * * 12.5 ** ** ** ** ** ** ** ** *   77   74 1008.9 *****  969.3 ***  73 ***** ***** ***** ***** **
833580 ***** 201502041800 360   7 ***  26 OVC * * * 12.5 09 ** ** ** ** ** ** ** 4   84   71 1005.3 *****  965.8 *** *** ***** ***** ***** ***** **
833580 ***** 201502051200 360   0 *** *** BKN * * * 12.5 01 ** ** ** ** ** ** ** 6   76   73 1008.6 *****  968.9 ***  70 ***** *****  0.39 ***** **
833580 ***** 201502061800 270   9 *** *** BKN * * * 12.5 ** ** ** ** ** ** ** ** *   84   75 1004.8 *****  965.3 *** *** ***** ***** ***** ***** **
833580 ***** 201502070000 360   0 *** *** OVC * * *  0.3 ** ** ** ** ** ** ** ** *   79   74 1005.6 *****  966.0 *** *** ***** ***** ***** ***** **
833580 ***** 201502071200 320   7 ***  26 OVC * * * 12.5 ** ** ** ** ** ** ** ** *   77   73 1007.4 *****  967.8 ***  72 ***** ***** ***** ***** **
833580 ***** 201502071800 320   7 *** *** OVC * * * 12.5 ** ** ** ** ** ** ** ** *   87   74 1005.3 *****  965.9 *** *** ***** ***** ***** ***** **
833580 ***** 201502081200 360   7 ***  41 OVC * * * 12.5 ** ** ** ** ** ** ** ** *   79   73 1007.7 *****  968.0 ***  72 ***** ***** ***** ***** **
833580 ***** 201502081800 320   7 ***  41 BKN * * * 12.5 ** ** ** ** ** ** ** ** *   86   74 1006.6 *****  967.1 *** *** ***** ***** ***** ***** **
833580 ***** 201502091200 320   7 ***  41 OVC * * * 12.5 ** ** ** ** ** ** ** ** *   76   72 1010.0 *****  970.2 ***  72 ***** ***** ***** ***** **
833580 ***** 201502091800 320   5 ***  41 OVC * * * 12.5 02 ** ** ** ** ** ** ** 6   78   74 1008.5 *****  968.7 *** *** *****  0.24 ***** ***** **
833580 ***** 201502101200 360   5 *** *** BKN * * * 12.5 ** ** ** ** ** ** ** ** *   75   72 1010.7 *****  970.7 ***  72 ***** *****  0.28 ***** **
833580 ***** 201502110000 360   0 *** *** OVC * * *  0.3 01 ** ** ** ** ** ** ** 6   77   74 1008.3 *****  968.5 *** *** *****  0.35 ***** ***** **
833580 ***** 201502111200 360   0 *** *** BKN * * * 12.5 01 ** ** ** ** ** ** ** 6   75   74 1013.1 *****  973.2 ***  71 ***** *****  2.17 ***** **
833580 ***** 201502111800 320   7 ***  41 BKN * * * 12.5 ** ** ** ** ** ** ** ** *   89   75 1009.6 *****  970.0 *** *** ***** ***** ***** ***** **
833580 ***** 201502121200 360   0 ***  41 OVC * * * 12.5 01 ** ** ** ** ** ** ** 6   74   72 1013.9 *****  973.8 ***  70 ***** *****  0.16 ***** **
833580 ***** 201502130000 360   0 *** *** OVC * * *  0.3 03 ** ** ** ** ** ** ** 6   73   73 1011.0 *****  971.0 *** *** *****  0.55 ***** ***** **
833580 ***** 201502131200 360   0 *** *** BKN * * * 12.5 ** ** ** ** ** ** ** ** *   73   71 1012.8 *****  972.8 ***  71 ***** *****  0.55 ***** **
833580 ***** 201502131800 230   7 *** *** BKN * * *  2.5 ** ** ** ** ** ** ** ** *   92   73 1009.4 *****  969.8 *** *** ***** ***** ***** ***** **
833580 ***** 201502140000 360   0 *** *** OVC * * *  0.3 03 ** ** ** ** ** ** ** 6   78   73 1010.3 *****  970.5 *** *** *****  0.08 ***** ***** **
833580 ***** 201502141200 360   0 *** *** SCT * * * 12.5 ** ** ** ** ** ** ** ** *   77   74 1012.8 *****  972.9 ***  70 ***** *****  0.08 ***** **
833580 ***** 201502141800 230   7 ***  41 BKN * * * 12.5 ** ** ** ** ** ** ** ** *   91   73 1010.5 *****  970.9 *** *** ***** ***** ***** ***** **
833580 ***** 201502150000 360   0 *** *** OVC * * *  0.3 ** ** ** ** ** ** ** ** *   81   70 1009.3 *****  969.7 *** *** ***** ***** ***** ***** **
833580 ***** 201502151800 270   7 *** *** OVC * * * 12.5 29 ** ** ** ** ** ** ** 2   78   71 1009.4 *****  969.5 *** *** ***** ***** ***** ***** **
833580 ***** 201502160000 360   0 *** *** OVC * * *  0.3 ** ** ** ** ** ** ** ** *   79   73 1008.2 *****  968.6 *** *** ***** ***** ***** ***** **
833580 ***** 201502161200 360   0 ***  41 OVC * * * 12.5 ** ** ** ** ** ** ** ** *   74   72 1010.9 *****  971.1 ***  71 ***** ***** ***** ***** **
833580 ***** 201502161800 320   7 ***  41 BKN * * * 12.5 ** ** ** ** ** ** ** ** *   89   73 1007.7 *****  968.2 *** *** ***** ***** ***** ***** **
833580 ***** 201502170000 360   0 *** *** OVC * * *  6.2 ** ** ** ** ** ** ** ** *   80   75 1007.9 *****  968.2 *** *** ***** ***** ***** ***** **
833580 ***** 201502171200 360   0 *** *** BKN * * * 12.5 ** ** ** ** ** ** ** ** *   76   74 1009.7 *****  970.1 ***  72 ***** ***** ***** ***** **
833580 ***** 201502171800 320   7 *** *** OVC * * * 12.5 29 ** ** ** ** ** ** ** 2   78   73 1007.0 *****  967.3 *** *** ***** ***** ***** ***** **
833580 ***** 201502180000 360   0 *** *** OVC * * *  0.3 03 ** ** ** ** ** ** ** 6   73   72 1008.1 *****  968.4 *** *** *****  0.47 ***** ***** **
833580 ***** 201502181200 360   0 ***  26 OVC * * * 12.5 01 ** ** ** ** ** ** ** 6   73   72 1010.2 *****  970.3 ***  71 ***** *****  0.63 ***** **
833580 ***** 201502181800 360   7 ***  41 BKN * * * 12.5 ** ** ** ** ** ** ** ** *   84   77 1007.3 *****  967.6 *** *** ***** ***** ***** ***** **
833580 ***** 201502191200 320   7 ***  41 OVC * * * 12.5 ** ** ** ** ** ** ** ** *   76   72 1008.7 *****  969.1 ***  72 ***** ***** ***** ***** **
833580 ***** 201502191800 360   7 *** *** BKN * * * 12.5 01 ** ** ** ** ** ** ** 6   78   76 1005.5 *****  965.8 *** *** *****  0.16 ***** ***** **
833580 ***** 201502200000 360   0 *** *** OVC * * *  0.3 03 ** ** ** ** ** ** ** 6   74   73 1008.0 *****  969.0 *** *** *****  0.39 ***** ***** **
833580 ***** 201502201200 360   0 ***  26 OVC * * * 12.5 01 ** ** ** ** ** ** ** 6   71   70 1010.1 *****  970.1 ***  69 ***** *****  3.23 ***** **
833580 ***** 201502201800 360   0 ***  41 OVC * * * 12.5 ** ** ** ** ** ** ** ** *   78   75 1007.9 *****  968.1 *** *** ***** ***** ***** ***** **
833580 ***** 201502211200 360   0 ***  26 OVC * * * 12.5 01 ** ** ** ** ** ** ** 6   71   71 1011.3 *****  971.4 ***  69 ***** *****  2.52 ***** **
833580 ***** 201502211800 320   9 ***  41 BKN * * * 12.5 ** ** ** ** ** ** ** ** *   86   70 1009.8 *****  970.1 *** *** ***** ***** ***** ***** **
833580 ***** 201502220000 360   0 *** *** OVC * * *  0.3 ** ** ** ** ** ** ** ** *   77   73 1008.5 *****  969.3 *** *** ***** ***** ***** ***** **
833580 ***** 201502221200 360   0 *** *** BKN * * * 12.5 ** ** ** ** ** ** ** ** *   72   71 1011.9 *****  972.0 ***  66 ***** ***** ***** ***** **
833580 ***** 201502221800 230   7 *** *** SCT * * * 12.5 ** ** ** ** ** ** ** ** *   90   75 1010.2 *****  970.5 *** *** ***** ***** ***** ***** **
833580 ***** 201502231800 320   7 *** *** SCT * * * 12.5 ** ** ** ** ** ** ** ** *   85   71 1010.0 *****  970.3 *** *** ***** ***** ***** ***** **
833580 ***** 201502240000 360   0 *** *** OVC * * *  0.3 ** ** ** ** ** ** ** ** *   79   74 1009.2 *****  969.5 *** *** ***** ***** ***** ***** **
833580 ***** 201502241200 360   0 *** *** SCT * * * 12.5 ** ** ** ** ** ** ** ** *   74   71 1011.6 *****  971.8 ***  68 ***** ***** ***** ***** **
833580 ***** 201502241800 320   7 *** *** BKN * * * 12.5 ** ** ** ** ** ** ** ** *   77   69 1010.9 *****  970.9 *** *** ***** ***** ***** ***** **
833580 ***** 201502250000 360   0 *** *** OVC * * *  0.3 ** ** ** ** ** ** ** ** *   76   73 1010.8 *****  970.9 *** *** ***** ***** ***** ***** **
833580 ***** 201502251200 360   0 *** *** SCT * * * 12.5 ** ** ** ** ** ** ** ** *   74   72 1011.7 *****  971.8 ***  68 ***** ***** ***** ***** **
833580 ***** 201502251800 360   7 ***  41 BKN * * * 12.5 ** ** ** ** ** ** ** ** *   91   71 1008.7 *****  969.1 *** *** ***** ***** ***** ***** **
833580 ***** 201502260000 360   0 *** *** OVC * * *  0.3 03 ** ** ** ** ** ** ** 6   76   73 1000.7 *****  970.8 *** *** *****  0.35 ***** ***** **
833580 ***** 201502261200 360   0 *** *** SCT * * * 12.5 ** ** ** ** ** ** ** ** *   76   73 1011.7 *****  971.8 ***  69 ***** *****  0.35 ***** **
833580 ***** 201502261800 230   7 ***  26 OVC * * * 12.5 01 ** ** ** ** ** ** ** 6   72   70 1009.0 *****  969.0 *** *** *****  0.75 ***** ***** **
833580 ***** 201502270000 360   0 *** *** OVC * * *  0.3 03 ** ** ** ** ** ** ** 6   71   71 1008.7 *****  968.8 *** *** *****  0.04 ***** ***** **
833580 ***** 201502271200 360   0 *** *** BKN * * * 12.5 ** ** ** ** ** ** ** ** *   75   72 1011.2 *****  971.2 ***  71 ***** *****  0.79 ***** **
833580 ***** 201502271800 360   0 ***  41 OVC * * * 12.5 ** ** ** ** ** ** ** ** *   84   74 1008.7 *****  969.0 *** *** ***** ***** ***** ***** **
833580 ***** 201502280000 360   0 *** *** OVC * * *  0.3 ** ** ** ** ** ** ** ** *   79   74 1008.2 *****  968.5 *** *** ***** ***** ***** ***** **
833580 ***** 201502281200 360   0 *** *** BKN * * * 12.5 ** ** ** ** ** ** ** ** *   78   74 1011.1 *****  971.4 ***  71 ***** ***** ***** ***** **
833580 ***** 201503011200 360   0 *** *** BKN * * * 12.5 ** ** ** ** ** ** ** ** *   77   74 1009.8 *****  970.1 ***  72 ***** ***** ***** ***** **
833580 ***** 201503011800 320   9 *** *** OVC * * * 12.5 29 ** ** ** ** ** ** ** 2   83   71 1008.4 *****  968.7 *** *** ***** ***** ***** ***** **
833580 ***** 201503021800 360   9 *** *** BKN * * * 12.5 09 ** ** ** ** ** ** ** 4   83   71 1006.4 *****  966.8 *** *** ***** ***** ***** ***** **
833580 ***** 201503030000 360   0 *** *** OVC * * *  0.3 ** ** ** ** ** ** ** ** *   76   73 1007.3 *****  967.6 *** *** ***** ***** ***** ***** **
833580 ***** 201503031200 360   0 ***  41 OVC * * * 12.5 10 ** ** ** ** ** ** ** 0   74   73 1009.3 *****  969.5 ***  71 ***** ***** ***** ***** **
833580 ***** 201503031800 360   9 *** *** BKN * * * 12.5 ** ** ** ** ** ** ** ** *   91   72 1006.3 *****  966.9 *** *** ***** ***** ***** ***** **
833580 ***** 201503040000 360   0 *** *** OVC * * *  0.3 ** ** ** ** ** ** ** ** *   77   75 1008.5 *****  968.7 *** *** ***** ***** ***** ***** **
833580 ***** 201503041200 360   0 *** *** BKN * * * 12.5 ** ** ** ** ** ** ** ** *   77   74 1011.1 *****  971.3 ***  73 ***** ***** ***** ***** **
833580 ***** 201503041800 360   0 ***  26 OVC * * * 12.5 01 ** ** ** ** ** ** ** 6   76   75 1009.0 *****  969.2 *** *** *****  0.71 ***** ***** **
833580 ***** 201503051200 360   0 ***  41 OVC * * * 12.5 ** ** ** ** ** ** ** ** *   72   71 1012.0 *****  971.9 ***  68 ***** *****  1.14 ***** **
833580 ***** 201503051800 270   7 *** *** BKN * * * 12.5 ** ** ** ** ** ** ** ** *   89   71 1008.2 *****  968.6 *** *** ***** ***** ***** ***** **
833580 ***** 201503060000 360   0 *** *** OVC * * *  0.6 ** ** ** ** ** ** ** ** *   79   73 1008.0 *****  968.3 *** *** ***** ***** ***** ***** **
833580 ***** 201503061200 360   0 *** *** BKN * * * 12.5 ** ** ** ** ** ** ** ** *   76   73 1011.0 *****  971.2 ***  70 ***** ***** ***** ***** **
833580 ***** 201503071200 270   5 *** *** BKN * * * 12.5 ** ** ** ** ** ** ** ** *   80   75 1010.5 *****  970.8 ***  72 ***** ***** ***** ***** **
833580 ***** 201503071800 270   7 ***  41 BKN * * * 12.5 ** ** ** ** ** ** ** ** *   88   75 1010.0 *****  970.4 *** *** ***** ***** ***** ***** **
833580 ***** 201503080000 360   0 *** *** OVC * * *  0.3 ** ** ** ** ** ** ** ** *   74   71 1009.6 *****  969.9 *** *** ***** ***** ***** ***** **
833580 ***** 201503090000 360   0 *** *** OVC * * *  0.3 ** ** ** ** ** ** ** ** *   80   76 1007.6 *****  968.0 *** *** ***** ***** ***** ***** **
833580 ***** 201503101200 360   0 ***  26 OVC * * * 12.5 ** ** ** ** ** ** ** ** *   74   73 1009.7 *****  969.9 ***  72 ***** *****  0.12 ***** **
833580 ***** 201503111200 *** *** *** *** SCT * * * 12.5 ** ** ** ** ** ** ** ** *   78   75 1009.5 *****  969.8 ***  71 ***** *****  0.24 ***** **
833580 ***** 201503111800 270   7 *** *** BKN * * * 12.5 ** ** ** ** ** ** ** ** *   91   73 1005.0 *****  965.6 *** *** ***** ***** ***** ***** **
833580 ***** 201503121800 360   0 ***  26 OVC * * * 12.5 01 ** ** ** ** ** ** ** 9   74   72 1007.5 *****  967.6 *** *** *****  1.18 ***** ***** **
833580 ***** 201503131200 360   0 ***  26 OVC * * * 12.5 ** ** ** ** ** ** ** ** *   74   73 1009.9 *****  970.1 ***  69 ***** *****  1.38 ***** **
833580 ***** 201503131800 360   5 ***  41 BKN * * * 12.5 01 ** ** ** ** ** ** ** 6   76   76 1007.3 *****  967.5 *** *** *****  1.02 ***** ***** **
833580 ***** 201503151200 230   5 *** *** BKN * * * 12.5 ** ** ** ** ** ** ** ** *   75   73 1011.2 *****  971.3 ***  69 ***** *****  0.04 ***** **
833580 ***** 201503161200 360   0 *** *** SCT * * * 12.5 ** ** ** ** ** ** ** ** *   73   72 1010.2 *****  970.4 ***  67 ***** *****  0.51 ***** **
833580 ***** 201503161800 360   5 *** *** BKN * * * 12.5 ** ** ** ** ** ** ** ** *   89   72 1006.5 *****  966.9 *** *** ***** ***** ***** ***** **
833580 ***** 201503170000 360   0 *** *** OVC * * *  0.3 03 ** ** ** ** ** ** ** 6   76   74 1008.5 *****  968.7 *** *** *****  1.02 ***** ***** **
833580 ***** 201503171200 360   7 *** *** SCT * * * 12.5 ** ** ** ** ** ** ** ** *   78   72 1009.8 *****  970.1 ***  71 ***** *****  1.02 ***** **
833580 ***** 201503171800 360   9 *** *** BKN * * * 12.5 ** ** ** ** ** ** ** ** *   89   72 1006.4 *****  967.0 *** *** ***** ***** ***** ***** **
833580 ***** 201503181200 360   0 *** *** BKN * * * 12.5 01 ** ** ** ** ** ** ** 6   71   70 1009.5 *****  969.7 ***  68 ***** *****  2.44 ***** **
833580 ***** 201503181800 360   0 *** *** BKN * * * 12.5 ** ** ** ** ** ** ** ** *   85   74 1006.7 *****  967.1 *** *** ***** ***** ***** ***** **
833580 ***** 201503190000 230   5 *** *** OVC * * *  0.3 ** ** ** ** ** ** ** ** *   78   74 1008.4 *****  968.6 *** *** ***** ***** ***** ***** **
833580 ***** 201503191200 320   7 ***  26 OVC * * * 12.5 ** ** ** ** ** ** ** ** *   74   71 1010.6 *****  970.8 ***  71 ***** ***** ***** ***** **
833580 ***** 201503191800 360   7 *** *** BKN * * * 12.5 ** ** ** ** ** ** ** ** *   86   72 1007.2 *****  967.6 *** *** ***** ***** ***** ***** **
833580 ***** 201503201200 320   7 ***  57 OVC * * * 12.5 ** ** ** ** ** ** ** ** *   73   70 1009.3 *****  969.5 ***  68 ***** ***** ***** ***** **
833580 ***** 201503201800 320   7 *** *** BKN * * * 12.5 ** ** ** ** ** ** ** ** *   87   74 1005.9 *****  966.3 *** *** ***** ***** ***** ***** **
833580 ***** 201503210000 360   0 *** *** OVC * * *  0.3 13 ** ** ** ** ** ** ** 2   76   71 1006.9 *****  967.2 *** *** ***** ***** ***** ***** **
833580 ***** 201503211200 360   0 *** *** SCT * * * 12.5 01 ** ** ** ** ** ** ** 6   75   72 1008.8 *****  969.0 ***  68 ***** *****  0.08 ***** **
833580 ***** 201503220000 360   0 *** *** OVC * * *  1.2 ** ** ** ** ** ** ** ** *   76   71 1006.9 *****  967.2 *** *** ***** ***** ***** ***** **
833580 ***** 201503221800 230   7 *** *** SCT * * * 12.5 ** ** ** ** ** ** ** ** *   87   72 1006.8 *****  967.2 *** *** ***** ***** ***** ***** **
833580 ***** 201503230000 360   0 *** *** OVC * * *  0.3 ** ** ** ** ** ** ** ** *   77   72 1009.2 *****  969.5 *** *** ***** ***** ***** ***** **
833580 ***** 201503231200 360   0 *** *** BKN * * * 12.5 ** ** ** ** ** ** ** ** *   76   73 1011.8 *****  972.0 ***  70 ***** ***** ***** ***** **
833580 ***** 201503231800 050   7 ***  26 BKN * * *  6.2 ** ** ** ** ** ** ** ** *   90   72 1008.5 *****  969.0 *** *** ***** ***** ***** ***** **
833580 ***** 201503240000 360   0 ***   0 *** * * *  0.3 ** ** ** ** ** ** ** ** *   78   73 1010.5 *****  970.7 *** *** ***** ***** ***** ***** **
833580 ***** 201503241200 360   0 *** *** SCT * * * 12.5 ** ** ** ** ** ** ** ** *   78   75 1012.9 *****  973.1 ***  72 ***** ***** ***** ***** **
833580 ***** 201503241800 180   7 *** *** BKN * * * 12.5 09 ** ** ** ** ** ** ** 4   91   73 1009.6 *****  970.0 *** *** ***** ***** ***** ***** **
833580 ***** 201503250000 360   0 *** *** OVC * * *  0.3 03 ** ** ** ** ** ** ** 6   77   74 1010.8 *****  971.0 *** *** *****  0.35 ***** ***** **
833580 ***** 201503251200 360   0 *** *** BKN * * * 12.5 ** ** ** ** ** ** ** ** *   79   75 1013.1 *****  973.3 ***  70 ***** *****  0.35 ***** **
833580 ***** 201503251800 270   7 ***  41 OVC * * * 12.5 09 ** ** ** ** ** ** ** 4   83   72 1009.5 *****  969.8 *** *** ***** ***** ***** ***** **
833580 ***** 201503260000 360   0 *** *** OVC * * *  0.3 13 ** ** ** ** ** ** ** 2   77   74 1011.4 *****  971.7 *** *** ***** ***** ***** ***** **
833580 ***** 201503261200 360   0 ***  26 OVC * * * 12.5 01 ** ** ** ** ** ** ** 9   71   70 1012.4 *****  972.5 ***  69 ***** *****  0.83 ***** **
833580 ***** 201503261800 270   7 *** *** BKN * * * 12.5 ** ** ** ** ** ** ** ** *   87   77 1007.5 *****  967.9 *** *** ***** ***** ***** ***** **
833580 ***** 201503270000 360   0 ***   0 *** * * *  0.3 ** ** ** ** ** ** ** ** *   80   75 1008.7 *****  968.9 *** *** ***** ***** ***** ***** **
833580 ***** 201503271200 230   5 ***  41 OVC * * * 12.5 ** ** ** ** ** ** ** ** *   74   72 1013.5 *****  973.6 ***  71 ***** ***** ***** ***** **
833580 ***** 201503280000 360   0 *** *** OVC * * *  0.3 ** ** ** ** ** ** ** ** *   75   73 1012.9 *****  973.0 *** *** ***** ***** ***** ***** **
833580 ***** 201503281200 360   0 *** *** BKN * * * 12.5 ** ** ** ** ** ** ** ** *   74   73 1014.7 *****  974.6 ***  71 ***** *****  0.08 ***** **
833580 ***** 201503281800 230   7 ***  41 BKN * * * 12.5 ** ** ** ** ** ** ** ** *   89   76 1011.3 *****  971.7 *** *** ***** ***** ***** ***** **
833580 ***** 201503290000 360   0 *** *** OVC * * *  0.3 ** ** ** ** ** ** ** ** *   80   76 1010.6 *****  970.8 *** *** ***** ***** ***** ***** **
833580 ***** 201503291200 360   0 *** *** SCT * * * 12.5 ** ** ** ** ** ** ** ** *   77   74 1012.8 *****  973.0 ***  71 ***** ***** ***** ***** **
833580 ***** 201503301200 320   7 *** *** BKN * * * 12.5 02 ** ** ** ** ** ** ** 6   73   71 1010.6 *****  970.8 ***  69 ***** *****  0.35 ***** **
833580 ***** 201503301800 360   7 *** *** BKN * * * 12.5 ** ** ** ** ** ** ** ** *   91   71 1007.8 *****  968.3 *** *** ***** ***** ***** ***** **
833580 ***** 201503311800 320   7 *** *** SCT * * * 12.5 ** ** ** ** ** ** ** ** *   93   71 1007.3 *****  967.8 *** *** ***** ***** ***** ***** **
833580 ***** 201504010000 360   0 *** 722 CLR * * *  1.2 ** ** ** ** ** ** ** ** *   80   75 1008.6 *****  969.0 *** *** ***** ***** ***** ***** **
833580 ***** 201504011200 360   0 *** *** BKN * * * 12.5 ** ** ** ** ** ** ** ** *   79   74 1012.6 *****  972.9 ***  73 ***** ***** ***** ***** **
833580 ***** 201504021200 360   0 ***  41 OVC * * * 12.5 ** ** ** ** ** ** ** ** *   73   72 1012.3 *****  972.3 ***  69 ***** *****  1.65 ***** **
833580 ***** 201504021800 230   7 *** *** SCT * * * 12.5 ** ** ** ** ** ** ** ** *   91   76 1009.6 *****  970.1 *** *** ***** ***** ***** ***** **
833580 ***** 201504061200 360   0 *** *** BKN * * * 12.5 ** ** ** ** ** ** ** ** *   75   74 1009.6 *****  969.8 ***  71 ***** ***** ***** ***** **
833580 ***** 201504061800 230   7 *** *** BKN * * * 12.5 01 ** ** ** ** ** ** ** 6   86   76 1006.2 *****  966.7 *** *** *****  0.24 ***** ***** **
833580 ***** 201504070000 360   0 *** *** OVC * * *  0.3 03 ** ** ** ** ** ** ** 6   74   73 1008.1 *****  968.4 *** *** *****  1.69 ***** ***** **
833580 ***** 201504071200 230   7 *** *** SCT * * * 12.5 01 ** ** ** ** ** ** ** 6   78   76 1008.8 *****  969.1 ***  72 ***** *****  2.20 ***** **
833580 ***** 201504081200 320   7 *** *** BKN * * * 12.5 ** ** ** ** ** ** ** ** *   76   73 1010.5 *****  970.8 ***  71 ***** ***** ***** ***** **
833580 ***** 201504091200 360   0 *** *** BKN * * * 12.5 ** ** ** ** ** ** ** ** *   78   74 1011.4 *****  971.6 ***  70 ***** *****  0.16 ***** **
833580 ***** 201504100000 360   0 *** *** OVC * * *  0.6 01 ** ** ** ** ** ** ** 6   75   72 1010.6 *****  970.8 *** *** *****  0.16 ***** ***** **
833580 ***** 201504101800 360   0 *** *** BKN * * * 12.5 ** ** ** ** ** ** ** ** *   88   75 1010.0 *****  970.4 *** *** ***** ***** ***** ***** **
833580 ***** 201504110000 230   9 *** *** OVC * * *  0.3 29 ** ** ** ** ** ** ** 2   81   73 1011.2 *****  971.5 *** *** ***** ***** ***** ***** **
833580 ***** 201504111200 360   0 *** *** BKN * * * 12.5 ** ** ** ** ** ** ** ** *   78   74 1013.0 *****  973.3 ***  72 ***** ***** ***** ***** **
833580 ***** 201504111800 360   0 *** *** OVC * * *  0.3 03 ** ** ** ** ** ** ** 6   74   73 1011.6 *****  972.6 *** *** *****  0.47 ***** ***** **
833580 ***** 201504121200 360   0 *** *** BKN * * * 12.5 ** ** ** ** ** ** ** ** *   75   73 1012.6 *****  972.7 ***  69 ***** *****  0.47 ***** **
833580 ***** 201504121800 230   7 *** *** BKN * * * 12.5 ** ** ** ** ** ** ** ** *   89   72 1009.5 *****  969.9 *** *** ***** ***** ***** ***** **
833580 ***** 201504131200 360   7 *** *** BKN * * * 12.5 ** ** ** ** ** ** ** ** *   77   74 1012.2 *****  972.4 ***  71 ***** ***** ***** ***** **
833580 ***** 201504131800 360   7 ***  26 OVC * * * 12.5 ** ** ** ** ** ** ** ** *   83   74 1009.4 *****  969.7 *** *** ***** ***** ***** ***** **
833580 ***** 201504140000 360   0 *** *** OVC * * *  0.3 03 ** ** ** ** ** ** ** 6   73   73 1010.5 *****  970.6 *** *** *****  1.61 ***** ***** **
833580 ***** 201504141200 360   0 *** *** BKN * * * 12.5 ** ** ** ** ** ** ** ** *   77   75 1013.3 *****  973.4 ***  71 ***** *****  1.61 ***** **
833580 ***** 201504151200 360   7 *** *** OVC * * * 12.5 ** ** ** ** ** ** ** ** *   80   75 1011.7 *****  972.0 ***  72 ***** ***** ***** ***** **
833580 ***** 201504151800 230   9 *** *** BKN * * * 12.5 ** ** ** ** ** ** ** ** *   86   74 1007.8 *****  968.2 *** *** ***** ***** ***** ***** **
833580 ***** 201504161800 230   7 *** *** OVC * * *  0.3 29 ** ** ** ** ** ** ** 2   78   73 1010.7 *****  970.7 *** *** ***** ***** ***** ***** **
833580 ***** 201504171200 360   0 ***  26 OVC * * * 12.5 01 ** ** ** ** ** ** ** 6   70   69 1011.8 *****  971.8 ***  68 ***** *****  0.59 ***** **
833580 ***** 201504171800 360   0 *** *** BKN * * * 12.5 ** ** ** ** ** ** ** ** *   85   74 1009.4 *****  969.7 *** *** ***** ***** ***** ***** **
833580 ***** 201504180000 360   0 *** *** OVC * * *  0.3 ** ** ** ** ** ** ** ** *   78   74 1008.3 *****  968.4 *** *** ***** ***** ***** ***** **
833580 ***** 201504181800 320   7 *** *** SCT * * * 12.5 ** ** ** ** ** ** ** ** *   89   74 1010.8 *****  971.1 *** *** ***** ***** ***** ***** **
833580 ***** 201504190000 360   0 *** *** OVC * * *  0.3 03 ** ** ** ** ** ** ** 6   75   74 1010.3 *****  970.5 *** *** *****  0.63 ***** ***** **
833580 ***** 201504191200 360   0 *** *** BKN * * * 12.5 ** ** ** ** ** ** ** ** *   73   72 1010.0 *****  970.1 ***  68 ***** *****  0.63 ***** **
833580 ***** 201504191800 360   0 *** *** BKN * * * 12.5 ** ** ** ** ** ** ** ** *   88   74 1006.8 *****  967.3 *** *** ***** ***** ***** ***** **
833580 ***** 201504201200 360   0 *** *** SCT * * * 12.5 ** ** ** ** ** ** ** ** *   77   75 1010.4 *****  970.7 ***  71 ***** ***** ***** ***** **
833580 ***** 201504201800 320   7 *** *** BKN * * * 12.5 ** ** ** ** ** ** ** ** *   92   72 1007.2 *****  967.8 *** *** ***** ***** ***** ***** **
833580 ***** 201504210000 360   0 *** *** OVC * * *  0.3 29 ** ** ** ** ** ** ** 2   76   72 1010.5 *****  970.7 *** *** ***** ***** ***** ***** **
833580 ***** 201504211800 360   7 *** *** SCT * * * 12.5 ** ** ** ** ** ** ** ** *   89   74 1007.7 *****  968.2 *** *** ***** ***** ***** ***** **
833580 ***** 201504221200 360   0 ***  57 BKN * * * 12.5 ** ** ** ** ** ** ** ** *   73   72 1011.6 *****  971.7 ***  71 ***** ***** ***** ***** **
833580 ***** 201504221800 230   7 *** *** BKN * * * 12.5 ** ** ** ** ** ** ** ** *   88   75 1007.3 *****  967.8 *** *** ***** ***** ***** ***** **
833580 ***** 201504231200 360   0 ***  26 OVC * * * 12.5 ** ** ** ** ** ** ** ** *   73   72 1012.1 *****  972.2 ***  71 ***** ***** ***** ***** **
833580 ***** 201504231800 360   7 ***  57 BKN * * * 12.5 09 ** ** ** ** ** ** ** 4   89   75 1009.0 *****  969.5 *** *** ***** ***** ***** ***** **
833580 ***** 201504241200 360   0 ***  41 OVC * * * 12.5 ** ** ** ** ** ** ** ** *   73   72 1013.6 *****  973.5 ***  71 ***** *****  0.12 ***** **
833580 ***** 201504241800 270   7 *** *** BKN * * * 12.5 ** ** ** ** ** ** ** ** *   88   76 1010.0 *****  970.4 *** *** ***** ***** ***** ***** **
833580 ***** 201504250000 230   9 *** *** OVC * * *  0.3 29 ** ** ** ** ** ** ** 2   77   73 1012.2 *****  972.3 *** *** ***** ***** ***** ***** **
833580 ***** 201504251800 230   7 ***  41 BKN * * * 12.5 ** ** ** ** ** ** ** ** *   88   72 1010.7 *****  971.0 *** *** ***** ***** ***** ***** **
833580 ***** 201504261800 360   0 *** *** OVC * * * 12.5 03 ** ** ** ** ** ** ** 6   81   75 1009.7 *****  970.0 *** *** *****  0.16 ***** ***** **
833580 ***** 201504271200 360   0 *** *** BKN * * * 12.5 ** ** ** ** ** ** ** ** *   75   74 1011.9 *****  972.1 ***  72 ***** *****  0.16 ***** **
833580 ***** 201504271800 360   7 *** *** BKN * * * 12.5 ** ** ** ** ** ** ** ** *   88   76 1008.5 *****  969.0 *** *** ***** ***** ***** ***** **
833580 ***** 201504281200 360   0 *** *** BKN * * * 12.5 ** ** ** ** ** ** ** ** *   74   73 1011.1 *****  971.1 ***  70 ***** *****  0.24 ***** **
833580 ***** 201504281800 230   5 *** *** BKN * * * 12.5 ** ** ** ** ** ** ** ** *   89   75 1007.7 *****  968.1 *** *** ***** ***** ***** ***** **
833580 ***** 201504291200 360   0 ***  26 OVC * * * 12.5 ** ** ** ** ** ** ** ** *   74   72 1010.8 *****  970.9 ***  70 ***** ***** ***** ***** **
833580 ***** 201504291800 360   7 ***  41 BKN * * * 12.5 09 ** ** ** ** ** ** ** 4   89   69 1008.5 *****  968.9 *** *** ***** ***** ***** ***** **
833580 ***** 201504300000 360   0 *** *** OVC * * *  0.3 ** ** ** ** ** ** ** ** *   75   73 1009.3 *****  969.5 *** *** ***** ***** ***** ***** **
833580 ***** 201504301200 360   0 *** *** BKN * * * 12.5 ** ** ** ** ** ** ** ** *   76   74 1011.2 *****  971.3 ***  68 ***** ***** ***** ***** **
833580 ***** 201505010000 360   0 *** *** OVC * * *  0.3 ** ** ** ** ** ** ** ** *   76   73 1010.4 *****  970.5 *** *** ***** ***** ***** ***** **
833580 ***** 201505011200 360   0 *** *** SCT * * * 12.5 01 ** ** ** ** ** ** ** 6   75   73 1010.2 *****  970.4 ***  71 ***** *****  0.20 ***** **
833580 ***** 201505020000 360   0 *** *** OVC * * *  0.3 ** ** ** ** ** ** ** ** *   80   72 1007.8 *****  968.1 *** *** ***** ***** ***** ***** **
833580 ***** 201505021200 360   0 *** 722 CLR * * * 12.5 ** ** ** ** ** ** ** ** *   72   69 1009.7 *****  970.0 ***  63 ***** ***** ***** ***** **
833580 ***** 201505030000 360   0 *** *** OVC * * *  0.3 ** ** ** ** ** ** ** ** *   83   72 1007.3 *****  967.6 *** *** ***** ***** ***** ***** **
833580 ***** 201505031200 360   0 *** *** SCT * * * 12.5 ** ** ** ** ** ** ** ** *   77   71 1009.8 *****  970.2 ***  68 ***** ***** ***** ***** **
833580 ***** 201505031800 320   7 ***  41 BKN * * * 12.5 ** ** ** ** ** ** ** ** *   88   72 1008.5 *****  968.7 *** *** ***** ***** ***** ***** **
833580 ***** 201505041200 360   0 ***  41 OVC * * * 12.5 ** ** ** ** ** ** ** ** *   74   72 1010.2 *****  970.5 ***  71 ***** ***** ***** ***** **
833580 ***** 201505041800 320   7 ***  26 OVC * * * 12.5 09 ** ** ** ** ** ** ** 4   84   73 1008.6 *****  968.9 *** *** ***** ***** ***** ***** **
833580 ***** 201505051200 360   0 ***  26 OVC * * * 12.5 ** ** ** ** ** ** ** ** *   72   71 1012.6 *****  972.5 ***  69 ***** *****  0.59 ***** **
833580 ***** 201505060000 230   5 *** *** OVC * * *  0.3 ** ** ** ** ** ** ** ** *   78   73 1011.6 *****  971.7 *** *** ***** ***** ***** ***** **
833580 ***** 201505061200 360   0 ***  26 OVC * * * 12.5 ** ** ** ** ** ** ** ** *   74   73 1014.3 *****  974.3 ***  72 ***** ***** ***** ***** **
833580 ***** 201505071200 360   0 *** *** SCT * * * 12.5 ** ** ** ** ** ** ** ** *   73   73 1012.7 *****  972.8 ***  68 ***** *****  0.12 ***** **
833580 ***** 201505071800 230   7 *** *** SCT * * * 12.5 ** ** ** ** ** ** ** ** *   86   70 1010.3 *****  970.5 *** *** ***** ***** ***** ***** **
833580 ***** 201505080000 360   0 *** *** OVC * * *  0.3 ** ** ** ** ** ** ** ** *   75   72 1010.5 *****  970.5 *** *** ***** ***** ***** ***** **
833580 ***** 201505081800 270   5 *** *** SCT * * * 12.5 ** ** ** ** ** ** ** ** *   89   70 1010.3 *****  970.5 *** *** ***** ***** ***** ***** **
833580 ***** 201505091200 360   0 *** *** SCT * * * 12.5 ** ** ** ** ** ** ** ** *   71   68 1013.1 *****  973.1 *** *** ***** ***** ***** ***** **
833580 ***** 201505091800 360   7 *** *** SCT * * * 12.5 ** ** ** ** ** ** ** ** *   89   71 1010.5 *****  971.7 *** *** ***** ***** ***** ***** **
833580 ***** 201505100000 360   7 *** *** OVC * * *  0.3 ** ** ** ** ** ** ** ** 2   78   73 1010.4 *****  970.4 *** *** ***** ***** ***** ***** **
833580 ***** 201505101200 360   7 *** *** BKN * * * 12.5 ** ** ** ** ** ** ** ** *   76   73 1011.9 *****  972.1 ***  70 ***** ***** ***** ***** **
833580 ***** 201505101800 230   7 *** *** BKN * * * 12.5 ** ** ** ** ** ** ** ** *   87   76 1008.3 *****  968.7 *** *** ***** ***** ***** ***** **
833580 ***** 201505110000 360   5 *** *** OVC * * *  0.3 03 ** ** ** ** ** ** ** 6   74   70 1010.5 *****  970.7 *** *** *****  0.35 ***** ***** **
833580 ***** 201505111200 270   7 ***  26 OVC * * * 12.5 01 ** ** ** ** ** ** ** 6   71   71 1011.9 *****  971.9 ***  70 ***** *****  0.98 ***** **
833580 ***** 201505111800 230   7 ***  41 OVC * * * 12.5 ** ** ** ** ** ** ** ** *   81   74 1010.2 *****  970.4 *** *** ***** ***** ***** ***** **
833580 ***** 201505121200 360   0 *** *** BKN * * * 12.5 ** ** ** ** ** ** ** ** *   71   70 1013.3 *****  973.3 ***  67 ***** ***** ***** ***** **
833580 ***** 201505121800 360   0 ***  57 OVC * * * 12.5 ** ** ** ** ** ** ** ** *   80   70 1010.9 *****  970.9 *** *** ***** ***** ***** ***** **
833580 ***** 201505140000 360   0 *** *** OVC * * *  0.3 ** ** ** ** ** ** ** ** *   74   70 1012.8 *****  972.7 *** *** ***** ***** ***** ***** **
833580 ***** 201505141200 360   0 ***  57 BKN * * * 12.5 ** ** ** ** ** ** ** ** *   67   66 1013.1 *****  973.0 ***  60 ***** ***** ***** ***** **
833580 ***** 201505141800 360   0 *** *** BKN * * * 12.5 ** ** ** ** ** ** ** ** *   81   70 1010.2 *****  970.2 *** *** ***** ***** ***** ***** **
833580 ***** 201505151200 360   0 ***  41 OVC * * * 12.5 ** ** ** ** ** ** ** ** *   71   69 1013.2 *****  973.1 ***  67 ***** ***** ***** ***** **
833580 ***** 201505151800 230   5 *** *** BKN * * * 12.5 ** ** ** ** ** ** ** ** *   84   75 1010.9 *****  971.0 *** *** ***** ***** ***** ***** **
833580 ***** 201505160000 360   0 *** *** OVC * * *  0.3 03 ** ** ** ** ** ** ** 6   71   69 1013.2 *****  973.1 *** *** *****  0.47 ***** ***** **
833580 ***** 201505161200 360   0 *** *** BKN * * * 12.5 01 ** ** ** ** ** ** ** 6   71   70 1014.7 *****  974.5 ***  68 ***** *****  0.55 ***** **
833580 ***** 201505161800 230   7 *** *** OVC * * * 12.5 ** ** ** ** ** ** ** ** *   81   76 1013.9 *****  973.9 *** *** ***** ***** ***** ***** **
833580 ***** 201505170000 360   0 *** *** OVC * * *  0.3 ** ** ** ** ** ** ** ** *   76   75 1014.1 *****  974.0 *** *** ***** ***** ***** ***** **
833580 ***** 201505180000 360   0 *** *** OVC * * *  0.3 ** ** ** ** ** ** ** ** *   76   73 1013.9 *****  973.8 *** *** ***** ***** ***** ***** **
833580 ***** 201505181800 270   7 *** *** SCT * * * 12.5 ** ** ** ** ** ** ** ** *   89   70 1011.3 *****  971.5 *** *** ***** ***** ***** ***** **
833580 ***** 201505190000 360   0 *** *** OVC * * *  0.3 ** ** ** ** ** ** ** ** *   80   74 1013.3 *****  973.4 *** *** ***** ***** ***** ***** **
833580 ***** 201505191200 360   0 *** *** BKN * * * 12.5 ** ** ** ** ** ** ** ** *   71   70 1014.6 *****  974.6 ***  68 ***** ***** ***** ***** **
833580 ***** 201505200000 360   0 *** *** OVC * * *  0.3 03 ** ** ** ** ** ** ** 6   72   71 1013.7 *****  973.6 *** *** *****  0.20 ***** ***** **
833580 ***** 201505201200 360   0 ***  26 OVC * * * 12.5 ** ** ** ** ** ** ** ** *   69   67 1014.3 *****  974.0 ***  66 ***** *****  0.20 ***** **
833580 ***** 201505201800 230   7 *** *** BKN * * * 12.5 ** ** ** ** ** ** ** ** *   85   73 1010.5 *****  970.6 *** *** ***** ***** ***** ***** **
833580 ***** 201505210000 360   0 *** *** OVC * * *  0.3 ** ** ** ** ** ** ** ** *   76   73 1010.2 *****  970.2 *** *** ***** ***** ***** ***** **
833580 ***** 201505211800 270   5 *** *** BKN * * * 12.5 ** ** ** ** ** ** ** ** *   86   71 1011.5 *****  971.7 *** *** ***** ***** ***** ***** **
833580 ***** 201505220000 360   0 *** *** OVC * * *  0.3 03 ** ** ** ** ** ** ** 6   70   69 1009.4 *****  969.4 *** *** *****  1.06 ***** ***** **
833580 ***** 201505221200 360   0 *** *** BKN * * * 12.5 ** ** ** ** ** ** ** ** *   71   69 1015.2 *****  974.9 ***  65 ***** *****  1.06 ***** **
833580 ***** 201505221800 360   7 *** *** BKN * * * 12.5 ** ** ** ** ** ** ** ** *   89   73 1011.6 *****  971.8 *** *** ***** ***** ***** ***** **
833580 ***** 201505231200 360   0 *** *** BKN * * * 12.5 ** ** ** ** ** ** ** ** *   73   71 1014.2 *****  974.3 ***  66 ***** ***** ***** ***** **
833580 ***** 201505231800 230   7 *** *** BKN * * * 12.5 ** ** ** ** ** ** ** ** *   87   69 1012.2 *****  972.4 *** *** ***** ***** ***** ***** **
833580 ***** 201505240000 360   0 *** *** OVC * * *  6.2 ** ** ** ** ** ** ** ** *   75   73 1012.4 *****  972.4 *** *** ***** ***** ***** ***** **
833580 ***** 201505241200 360   0 *** *** BKN * * * 12.5 ** ** ** ** ** ** ** ** *   72   71 1013.4 *****  973.4 ***  68 ***** ***** ***** ***** **
833580 ***** 201505241800 320   7 *** *** SCT * * * 12.5 ** ** ** ** ** ** ** ** *   91   72 1010.7 *****  971.0 *** *** ***** ***** ***** ***** **
833580 ***** 201505250000 360   0 *** *** OVC * * *  0.3 ** ** ** ** ** ** ** ** *   80   75 1010.8 *****  971.0 *** *** ***** ***** ***** ***** **
833580 ***** 201505251200 360   0 *** *** SCT * * * 12.5 ** ** ** ** ** ** ** ** *   72   69 1013.5 *****  973.6 ***  66 ***** ***** ***** ***** **
833580 ***** 201505260000 360   0 *** *** OVC * * * 12.5 ** ** ** ** ** ** ** ** *   77   74 1011.1 *****  971.2 *** *** ***** ***** ***** ***** **
833580 ***** 201505261200 360   0 *** *** SCT * * * 12.5 ** ** ** ** ** ** ** ** *   71   68 1014.0 *****  974.0 ***  64 ***** ***** ***** ***** **
833580 ***** 201505261800 230   7 *** *** SCT * * * 12.5 ** ** ** ** ** ** ** ** *   89   70 1009.6 *****  969.9 *** *** ***** ***** ***** ***** **
833580 ***** 201505270000 360   0 *** *** SCT * * *  0.6 ** ** ** ** ** ** ** ** *   74   71 1010.3 *****  970.4 *** *** ***** ***** ***** ***** **
833580 ***** 201505271200 360   0 *** *** BKN * * * 12.5 ** ** ** ** ** ** ** ** *   69   66 1012.8 *****  972.7 ***  62 ***** ***** ***** ***** **
833580 ***** 201505271800 360   0 *** *** BKN * * * 12.5 ** ** ** ** ** ** ** ** *   86   71 1010.2 *****  970.3 *** *** ***** ***** ***** ***** **
833580 ***** 201505280000 360   0 *** *** OVC * * *  0.3 ** ** ** ** ** ** ** ** *   80   74 1010.1 *****  970.3 *** *** ***** ***** ***** ***** **
833580 ***** 201505281200 360   0 *** *** BKN * * * 12.5 ** ** ** ** ** ** ** ** *   72   70 1013.9 *****  974.0 ***  68 ***** ***** ***** ***** **
833580 ***** 201505281800 270   7 ***  57 BKN * * * 12.5 ** ** ** ** ** ** ** ** *   82   73 1010.6 *****  970.7 *** *** ***** ***** ***** ***** **
833580 ***** 201505291200 360   0 ***  41 BKN * * * 12.5 ** ** ** ** ** ** ** ** *   66   64 1012.0 *****  971.9 ***  61 ***** ***** ***** ***** **
833580 ***** 201505291800 270   7 *** *** BKN * * * 12.5 ** ** ** ** ** ** ** ** *   85   70 1007.6 *****  967.8 *** *** ***** ***** ***** ***** **
833580 ***** 201505301200 360   0 *** *** SCT * * * 12.5 ** ** ** ** ** ** ** ** *   68   67 1012.1 *****  972.1 ***  64 ***** ***** ***** ***** **
833580 ***** 201505301800 360   9 *** *** SCT * * * 12.5 ** ** ** ** ** ** ** ** *   89   68 1009.9 *****  970.2 *** *** ***** ***** ***** ***** **
833580 ***** 201505310000 360   0 *** 722 CLR * * *  0.3 ** ** ** ** ** ** ** ** *   78   73 1009.0 *****  969.0 *** *** ***** ***** ***** ***** **
833580 ***** 201505311200 360   0 *** *** BKN * * * 12.5 10 ** ** ** ** ** ** ** 0   69   68 1013.1 *****  973.1 ***  65 ***** ***** ***** ***** **
833580 ***** 201505311800 360   7 ***  41 BKN * * * 12.5 ** ** ** ** ** ** ** ** *   91   76 1011.4 *****  971.7 *** *** ***** ***** ***** ***** **
833580 ***** 201506010000 270   7 *** *** OVC * * *  0.3 ** ** ** ** ** ** ** ** *   81   76 1010.5 *****  971.5 *** *** ***** ***** ***** ***** **
833580 ***** 201506011200 360   0 ***  26 OVC * * * 12.5 10 ** ** ** ** ** ** ** 0   71   70 1013.9 *****  974.0 ***  68 ***** ***** ***** ***** **
833580 ***** 201506020000 360   0 *** *** BKN * * *  0.3 ** ** ** ** ** ** ** ** *   75   72 1011.7 *****  971.7 *** *** ***** ***** ***** ***** **
833580 ***** 201506021800 230   7 *** *** BKN * * * 12.5 ** ** ** ** ** ** ** ** *   89   74 1010.0 *****  970.4 *** *** ***** ***** ***** ***** **
833580 ***** 201506031200 360   0 ***  41 OVC * * * 12.5 10 ** ** ** ** ** ** ** 0   70   68 1013.9 *****  973.8 ***  68 ***** ***** ***** ***** **
833580 ***** 201506031800 360   0 ***  41 BKN * * * 12.5 ** ** ** ** ** ** ** ** *   86   72 1010.7 *****  970.9 *** *** ***** ***** ***** ***** **
833580 ***** 201506041200 360   0 *** *** SCT * * * 12.5 ** ** ** ** ** ** ** ** *   70   68 1015.0 *****  975.0 ***  64 ***** ***** ***** ***** **
833580 ***** 201506050000 360   0 *** 722 CLR * * *  0.6 ** ** ** ** ** ** ** ** *   80   73 1012.8 *****  972.9 *** *** ***** ***** ***** ***** **
833580 ***** 201506051200 360   0 *** *** SCT * * * 12.5 ** ** ** ** ** ** ** ** *   67   65 1015.0 *****  974.9 ***  61 ***** ***** ***** ***** **
833580 ***** 201506051800 050   7 *** 722 CLR * * * 12.5 ** ** ** ** ** ** ** ** *   88   66 1007.9 *****  968.1 *** *** ***** ***** ***** ***** **
833580 ***** 201506060000 360   0 *** *** OVC * * *  0.3 ** ** ** ** ** ** ** ** *   73   67 1012.8 *****  972.6 *** *** ***** ***** ***** ***** **
833580 ***** 201506061200 360   0 *** 722 CLR * * * 12.5 ** ** ** ** ** ** ** ** *   67   63 1013.4 *****  973.4 ***  58 ***** ***** ***** ***** **
833580 ***** 201506061800 360   7 *** 722 CLR * * * 12.5 ** ** ** ** ** ** ** ** *   89   65 1011.7 *****  971.7 *** *** ***** ***** ***** ***** **
833580 ***** 201506070000 360   0 *** *** OVC * * *  0.3 ** ** ** ** ** ** ** ** *   75   69 1011.9 *****  971.8 *** *** ***** ***** ***** ***** **
833580 ***** 201506071200 360   0 *** 722 CLR * * * 12.5 ** ** ** ** ** ** ** ** *   70   62 1013.8 *****  973.7 ***  60 ***** ***** ***** ***** **
833580 ***** 201506071800 320   7 *** *** SCT * * * 12.5 ** ** ** ** ** ** ** ** *   89   65 1011.5 *****  971.6 *** *** ***** ***** ***** ***** **
833580 ***** 201506081200 360   0 *** 722 CLR * * * 12.5 ** ** ** ** ** ** ** ** *   66   62 1013.4 *****  973.3 ***  59 ***** ***** ***** ***** **
833580 ***** 201506081800 230   7 *** *** BKN * * * 12.5 ** ** ** ** ** ** ** ** *   88   68 1011.0 *****  971.0 *** *** ***** ***** ***** ***** **
833580 ***** 201506090000 360   0 *** 722 CLR * * *  0.6 ** ** ** ** ** ** ** ** *   81   52 1010.9 *****  970.9 *** *** ***** ***** ***** ***** **
833580 ***** 201506091200 360   0 *** *** SCT * * * 12.5 ** ** ** ** ** ** ** ** *   68   65 1013.2 *****  973.3 ***  60 ***** ***** ***** ***** **
833580 ***** 201506100000 360   0 *** *** SCT * * *  0.3 ** ** ** ** ** ** ** ** *   75   70 1010.8 *****  970.8 *** *** ***** ***** ***** ***** **
833580 ***** 201506101200 360   0 *** 722 CLR * * * 12.5 ** ** ** ** ** ** ** ** *   70   65 1013.9 *****  973.8 ***  61 ***** ***** ***** ***** **
833580 ***** 201506101800 270   7 *** *** BKN * * * 12.5 ** ** ** ** ** ** ** ** *   90   66 1010.7 *****  970.8 *** *** ***** ***** ***** ***** **
833580 ***** 201506110000 360   0 *** *** OVC * * *  0.3 ** ** ** ** ** ** ** ** *   81   72 1010.9 *****  971.0 *** *** ***** ***** ***** ***** **
833580 ***** 201506111200 360   0 *** *** BKN * * * 12.5 ** ** ** ** ** ** ** ** *   68   64 1013.1 *****  973.2 ***  61 ***** ***** ***** ***** **
833580 ***** 201506121200 360   0 *** *** SCT * * * 12.5 ** ** ** ** ** ** ** ** *   67   63 1014.5 *****  974.4 ***  59 ***** ***** ***** ***** **
833580 ***** 201506121800 230   7 *** *** SCT * * * 12.5 ** ** ** ** ** ** ** ** *   89   68 1010.6 *****  970.6 *** *** ***** ***** ***** ***** **
833580 ***** 201506151200 360   0 *** 722 CLR * * * 12.5 ** ** ** ** ** ** ** ** *   69   65 1012.9 *****  972.9 ***  62 ***** ***** ***** ***** **
833580 ***** 201506151800 320   9 *** *** BKN * * * 12.5 ** ** ** ** ** ** ** ** *   91   70 1010.9 *****  971.1 *** *** ***** ***** ***** ***** **
833580 ***** 201506160000 270   7 *** *** BKN * * *  0.3 ** ** ** ** ** ** ** ** *   75   69 1012.7 *****  972.6 *** *** ***** ***** ***** ***** **
833580 ***** 201506161200 360   0 ***  41 OVC * * * 12.5 ** ** ** ** ** ** ** ** *   69   68 1014.0 *****  973.8 ***  65 ***** ***** ***** ***** **
833580 ***** 201506161800 230   7 *** *** BKN * * * 12.5 ** ** ** ** ** ** ** ** *   88   71 1010.5 *****  970.7 *** *** ***** ***** ***** ***** **
833580 ***** 201506171800 360   9 *** *** SCT * * * 12.5 ** ** ** ** ** ** ** ** *   94   66 1009.3 *****  969.6 *** *** ***** ***** ***** ***** **
833580 ***** 201506180000 360   0 ***   0 *** * * *  0.3 ** ** ** ** ** ** ** ** *   75   68 1010.9 *****  970.9 *** *** ***** ***** ***** ***** **
833580 ***** 201506181200 360   0 *** 722 CLR * * * 12.5 ** ** ** ** ** ** ** ** *   67   64 1014.9 *****  974.7 ***  60 ***** ***** ***** ***** **
833580 ***** 201506181800 230   9 *** *** BKN * * * 12.5 ** ** ** ** ** ** ** ** *   88   70 1011.3 *****  971.4 *** *** ***** ***** ***** ***** **
833580 ***** 201506190000 270   9 ***  26 OVC * * *  0.3 ** ** ** ** ** ** ** ** *   74   68 1010.3 *****  970.2 *** *** ***** ***** ***** ***** **
833580 ***** 201506191200 270   5 ***  26 OVC * * * 12.5 ** ** ** ** ** ** ** ** *   65   62 1018.4 *****  977.9 ***  63 ***** ***** ***** ***** **
833580 ***** 201506191800 270   7 ***  41 OVC * * * 12.5 ** ** ** ** ** ** ** ** *   70   64 1016.0 *****  975.5 *** *** ***** ***** ***** ***** **
833580 ***** 201506200000 270   7 ***   0 *** * * *  0.3 ** ** ** ** ** ** ** ** *   66   63 1015.7 *****  975.2 *** *** ***** ***** ***** ***** **
833580 ***** 201506201200 360   0 ***  26 OVC * * * 12.5 ** ** ** ** ** ** ** ** *   66   63 1016.8 *****  976.3 ***  64 ***** ***** ***** ***** **
833580 ***** 201506201800 230   7 *** 722 CLR * * * 12.5 ** ** ** ** ** ** ** ** *   84   70 1013.3 *****  973.4 *** *** ***** ***** ***** ***** **
833580 ***** 201506210000 360   0 *** 722 CLR * * *  0.6 ** ** ** ** ** ** ** ** *   71   67 1015.4 *****  975.1 *** *** ***** ***** ***** ***** **
833580 ***** 201506211200 360   0 *** *** SCT * * * 12.5 ** ** ** ** ** ** ** ** *   67   62 1017.3 *****  976.9 ***  57 ***** ***** ***** ***** **
833580 ***** 201506211800 320   7 *** *** SCT * * * 12.5 ** ** ** ** ** ** ** ** *   90   60 1013.9 *****  973.8 *** *** ***** ***** ***** ***** **
833580 ***** 201506220000 360   0 *** 722 CLR * * *  0.6 ** ** ** ** ** ** ** ** *   75 **** 1016.0 *****  975.8 *** *** ***** ***** ***** ***** **
833580 ***** 201506221800 320   7 *** *** SCT * * * 12.5 ** ** ** ** ** ** ** ** *   89   63 1014.9 *****  974.7 *** *** ***** ***** ***** ***** **
833580 ***** 201506230000 360   0 *** 722 CLR * * *  0.6 ** ** ** ** ** ** ** ** *   78   66 1014.6 *****  974.3 *** *** ***** ***** ***** ***** **
833580 ***** 201506231800 130   7 *** *** SCT * * * 12.5 ** ** ** ** ** ** ** ** *   89   64 1015.2 *****  975.0 *** *** ***** ***** ***** ***** **
833580 ***** 201506241200 360   0 *** *** SCT * * * 12.5 ** ** ** ** ** ** ** ** *   61   58 1017.8 *****  977.5 ***  53 ***** ***** ***** ***** **
833580 ***** 201506250000 360   0 *** 722 CLR * * *  0.6 ** ** ** ** ** ** ** ** *   71   61 1016.1 *****  975.6 *** *** ***** ***** ***** ***** **
833580 ***** 201506251200 360   0 ***  41 OVC * * * 12.5 ** ** ** ** ** ** ** ** *   61   58 1017.7 *****  977.1 ***  53 ***** ***** ***** ***** **
833580 ***** 201506251800 360   7 *** *** SCT * * * 12.5 ** ** ** ** ** ** ** ** *   89   58 1014.2 *****  974.0 *** *** ***** ***** ***** ***** **
833580 ***** 201506260000 360   0 *** 722 CLR * * *  0.6 ** ** ** ** ** ** ** ** *   77   67 1015.8 *****  975.5 *** *** ***** ***** ***** ***** **
833580 ***** 201506270000 360   0 *** 722 CLR * * *  0.6 ** ** ** ** ** ** ** ** *   77   70 1017.1 *****  976.8 *** *** ***** ***** ***** ***** **
833580 ***** 201506271200 360   0 *** *** SCT * * * 12.5 ** ** ** ** ** ** ** ** *   68   63 1018.7 *****  978.4 ***  60 ***** ***** ***** ***** **
833580 ***** 201506280000 360   0 *** 722 CLR * * *  0.6 ** ** ** ** ** ** ** ** *   70   63 1015.9 *****  975.5 *** *** ***** ***** ***** ***** **
833580 ***** 201506281200 360   0 *** 722 CLR * * * 12.5 04 ** ** ** ** ** ** ** 4   64   59 1017.5 *****  976.9 ***  53 ***** ***** ***** ***** **
833580 ***** 201506281800 230   7 *** *** SCT * * * 12.5 04 ** ** ** ** ** ** ** 4   89   63 1012.0 *****  972.7 *** *** ***** ***** ***** ***** **
833580 ***** 201506291200 360   0 *** *** SCT * * * 12.5 04 ** ** ** ** ** ** ** 4   61   58 1015.5 *****  974.9 ***  53 ***** ***** ***** ***** **
833580 ***** 201506300000 360   0 *** 722 CLR * * *  0.6 ** ** ** ** ** ** ** ** *   81   68 1010.6 *****  970.6 *** *** ***** ***** ***** ***** **
833580 ***** 201506301200 360   0 ***  41 OVC * * * 12.5 ** ** ** ** ** ** ** ** *   69   64 1014.6 *****  974.6 ***  62 ***** ***** ***** ***** **
833580 ***** 201506301800 360   9 *** *** BKN * * * 12.5 ** ** ** ** ** ** ** ** *   91   67 1011.8 *****  972.0 *** *** ***** ***** ***** ***** **
833580 ***** 201507010000 360   0 *** *** SCT * * *  0.6 ** ** ** ** ** ** ** ** *   73   70 1013.0 *****  972.8 *** *** ***** ***** ***** ***** **
833580 ***** 201507011200 360   0 *** *** BKN * * * 12.5 ** ** ** ** ** ** ** ** *   65   61 1016.1 *****  985.7 ***  57 ***** ***** ***** ***** **
833580 ***** 201507011800 360   0 *** *** BKN * * * 12.5 ** ** ** ** ** ** ** ** *   90   67 1011.2 *****  971.3 *** *** ***** ***** ***** ***** **
833580 ***** 201507020000 360   0 *** 722 CLR * * *  0.6 ** ** ** ** ** ** ** ** *   80   71 1011.4 *****  971.4 *** *** ***** ***** ***** ***** **
833580 ***** 201507021200 360   0 *** *** BKN * * * 12.5 ** ** ** ** ** ** ** ** *   67   63 1013.6 *****  983.5 ***  59 ***** ***** ***** ***** **
833580 ***** 201507021800 320   7 *** *** BKN * * * 12.5 ** ** ** ** ** ** ** ** *   93   62 1009.6 *****  969.8 *** *** ***** ***** ***** ***** **
833580 ***** 201507030000 360   0 *** *** SCT * * *  0.6 ** ** ** ** ** ** ** ** *   73   69 1009.9 *****  969.8 *** *** ***** ***** ***** ***** **
833580 ***** 201507031200 360   0 *** 722 CLR * * * 12.5 ** ** ** ** ** ** ** ** *   65   59 1013.0 *****  972.7 ***  54 ***** ***** ***** ***** **
833580 ***** 201507031800 320   9 *** *** BKN * * * 12.5 ** ** ** ** ** ** ** ** *   92   67 1009.4 *****  969.4 *** *** ***** ***** ***** ***** **
833580 ***** 201507040000 360   0 *** 722 CLR * * *  0.6 ** ** ** ** ** ** ** ** *   74   67 1011.2 *****  971.1 *** *** ***** ***** ***** ***** **
833580 ***** 201507041200 360   0 ***  41 OVC * * * 12.5 ** ** ** ** ** ** ** ** *   72   69 1014.2 *****  974.1 ***  60 ***** ***** ***** ***** **
833580 ***** 201507041800 270   9 *** *** OVC * * * 12.5 ** ** ** ** ** ** ** ** *   73   68 1015.1 *****  974.6 *** *** ***** ***** ***** ***** **
833580 ***** 201507051200 270   7 ***  26 OVC * * * 12.5 10 ** ** ** ** ** ** ** 0   62   61 1014.2 *****  973.7 ***  60 ***** ***** ***** ***** **
833580 ***** 201507051800 230   7 *** *** SCT * * * 12.5 ** ** ** ** ** ** ** ** *   79   68 1010.7 *****  970.6 *** *** ***** ***** ***** ***** **
833580 ***** 201507060000 360   0 *** *** OVC * * *  0.3 ** ** ** ** ** ** ** ** *   73   67 1010.8 *****  970.6 *** *** ***** ***** ***** ***** **
833580 ***** 201507061200 360   0 ***  26 OVC * * * 12.5 ** ** ** ** ** ** ** ** *   65   64 1013.1 *****  982.9 ***  62 ***** ***** ***** ***** **
833580 ***** 201507061800 360   0 ***  41 OVC * * * 12.5 ** ** ** ** ** ** ** ** *   85   73 1010.3 *****  970.4 *** *** ***** ***** ***** ***** **
833580 ***** 201507070000 230   5 *** *** OVC * * *  0.3 03 ** ** ** ** ** ** ** 6   71   69 1012.0 *****  971.7 *** *** *****  0.51 ***** ***** **
833580 ***** 201507071200 360   0 ***  26 OVC * * * 12.5 ** ** ** ** ** ** ** ** *   67   66 1014.3 *****  974.0 ***  65 ***** *****  0.51 ***** **
833580 ***** 201507071800 360   0 *** *** OVC * * * 12.5 ** ** ** ** ** ** ** ** *   74   71 1011.6 *****  971.4 *** *** ***** ***** ***** ***** **
833580 ***** 201507080000 360   0 *** *** OVC * * *  0.3 03 ** ** ** ** ** ** ** 6   73   73 1010.5 *****  970.4 *** *** *****  0.04 ***** ***** **
833580 ***** 201507081200 360   0 ***  26 OVC * * * 12.5 01 ** ** ** ** ** ** ** 6   61   60 1017.2 *****  976.7 ***  60 ***** *****  2.01 ***** **
833580 ***** 201507081800 360   0 ***  41 OVC * * * 12.5 ** ** ** ** ** ** ** ** *   73   65 1013.6 *****  973.2 *** *** ***** ***** ***** ***** **
833580 ***** 201507090000 360   0 *** 722 CLR * * *  0.6 ** ** ** ** ** ** ** ** *   67   65 1013.2 *****  972.7 *** *** ***** ***** ***** ***** **
833580 ***** 201507100000 360   0 *** *** SCT * * *  0.3 ** ** ** ** ** ** ** ** *   75   70 1012.3 *****  972.1 *** *** ***** ***** ***** ***** **
833580 ***** 201507110000 360   0 ***   0 *** * * *  0.3 ** ** ** ** ** ** ** ** *   68 **** 1012.8 *****  972.7 *** *** ***** ***** ***** ***** **
833580 ***** 201507111200 360   0 *** 722 CLR * * * 12.5 ** ** ** ** ** ** ** ** *   69   65 1015.3 *****  975.1 ***  62 ***** ***** ***** ***** **
833580 ***** 201507121200 360   0 *** 722 CLR * * * 12.5 ** ** ** ** ** ** ** ** *   72   67 1013.3 *****  973.3 ***  64 ***** ***** ***** ***** **
833580 ***** 201507121800 360   9 *** *** SCT * * * 12.5 ** ** ** ** ** ** ** ** *   94   70 1008.7 *****  969.1 *** *** ***** ***** ***** ***** **
833580 ***** 201507130000 360   0 *** *** OVC * * *  0.3 ** ** ** ** ** ** ** ** *   78   69 1010.2 *****  970.4 *** *** ***** ***** ***** ***** **
833580 ***** 201507131800 360   7 *** *** BKN * * * 12.5 ** ** ** ** ** ** ** ** *   94   70 1007.8 *****  968.2 *** *** ***** ***** ***** ***** **
833580 ***** 201507140000 360   0 *** *** OVC * * *  0.3 ** ** ** ** ** ** ** ** *   76   69 1010.0 *****  970.1 *** *** ***** ***** ***** ***** **
833580 ***** 201507141200 360   0 *** *** BKN * * * 12.5 ** ** ** ** ** ** ** ** *   71   67 1013.0 *****  973.0 ***  65 ***** ***** ***** ***** **
833580 ***** 201507141800 360   7 *** *** BKN * * * 12.5 ** ** ** ** ** ** ** ** *   94   71 1009.8 *****  970.2 *** *** ***** ***** ***** ***** **
833580 ***** 201507151200 360   0 *** *** SCT * * * 12.5 ** ** ** ** ** ** ** ** *   71   67 1015.1 *****  975.0 ***  62 ***** ***** ***** ***** **
833580 ***** 201507151800 360   7 *** *** BKN * * * 12.5 ** ** ** ** ** ** ** ** *   92   72 1011.4 *****  971.6 *** *** ***** ***** ***** ***** **
833580 ***** 201507160000 230   7 *** *** OVC * * *  0.3 ** ** ** ** ** ** ** ** *   83   72 1013.1 *****  973.2 *** *** ***** ***** ***** ***** **
833580 ***** 201507161800 230   7 *** *** BKN * * * 12.5 ** ** ** ** ** ** ** ** *   89   75 1011.5 *****  971.8 *** *** ***** ***** ***** ***** **
833580 ***** 201507171200 360   0 *** *** BKN * * * 12.5 ** ** ** ** ** ** ** ** *   67   64 1017.0 *****  976.8 ***  59 ***** ***** ***** ***** **
833580 ***** 201507171800 230   7 *** *** BKN * * * 12.5 ** ** ** ** ** ** ** ** *   87   72 1014.1 *****  974.0 *** *** ***** ***** ***** ***** **
833580 ***** 201507181200 360   0 *** 722 CLR * * * 12.5 ** ** ** ** ** ** ** ** *   64   62 1015.4 *****  975.0 ***  56 ***** ***** ***** ***** **
833580 ***** 201507190000 360   0 *** *** OVC * * *  0.3 ** ** ** ** ** ** ** ** *   70   65 1014.6 *****  974.4 *** *** ***** ***** ***** ***** **
833580 ***** 201507191200 360   0 *** 722 CLR * * * 12.5 ** ** ** ** ** ** ** ** *   63   58 1015.5 *****  975.0 ***  54 ***** ***** ***** ***** **
833580 ***** 201507191800 360   7 *** 722 CLR * * * 12.5 ** ** ** ** ** ** ** ** *   90   62 1010.0 *****  971.0 *** *** ***** ***** ***** ***** **
833580 ***** 201507200000 360   0 *** *** OVC * * *  0.3 ** ** ** ** ** ** ** ** *   83   67 1011.1 *****  971.1 *** *** ***** ***** ***** ***** **
833580 ***** 201507201200 360   0 *** 722 CLR * * * 12.5 ** ** ** ** ** ** ** ** *   62   58 1014.8 *****  974.7 ***  55 ***** ***** ***** ***** **
833580 ***** 201507230000 360   0 *** *** OVC * * *  0.3 ** ** ** ** ** ** ** ** *   69   65 1014.4 *****  974.1 *** *** ***** ***** ***** ***** **
833580 ***** 201507231200 360   0 ***  26 OVC * * * 12.5 10 ** ** ** ** ** ** ** 0   61   60 1017.2 *****  976.6 ***  58 ***** ***** ***** ***** **
833580 ***** 201507241200 360   0 *** *** SCT * * * 12.5 ** ** ** ** ** ** ** ** *   63   60 1016.6 *****  976.4 ***  57 ***** ***** ***** ***** **
833580 ***** 201507241800 360   0 *** *** SCT * * * 12.5 ** ** ** ** ** ** ** ** *   91   57 1012.5 *****  972.5 *** *** ***** ***** ***** ***** **
833580 ***** 201507250000 360   0 *** 722 CLR * * *  0.6 ** ** ** ** ** ** ** ** *   76   65 1014.3 *****  974.0 *** *** ***** ***** ***** ***** **
833580 ***** 201507251200 360   0 *** 722 CLR * * * 12.5 ** ** ** ** ** ** ** ** *   65   62 1016.1 *****  975.8 ***  59 ***** ***** ***** ***** **
833580 ***** 201507251800 230   7 *** 722 CLR * * * 12.5 ** ** ** ** ** ** ** ** *   87   64 1012.3 *****  972.2 *** *** ***** ***** ***** ***** **
833580 ***** 201507260000 360   0 *** 722 CLR * * *  0.6 ** ** ** ** ** ** ** ** *   72   65 1013.3 *****  973.0 *** *** ***** ***** ***** ***** **
833580 ***** 201507261800 230   7 *** 722 CLR * * * 12.5 ** ** ** ** ** ** ** ** *   90   62 1012.2 *****  972.3 *** *** ***** ***** ***** ***** **
833580 ***** 201507270000 360   0 *** 722 CLR * * *  0.6 ** ** ** ** ** ** ** ** *   71   67 1011.9 *****  971.7 *** *** ***** ***** ***** ***** **
833580 ***** 201507271200 360   0 *** 722 CLR * * * 12.5 ** ** ** ** ** ** ** ** *   62   59 1014.2 *****  973.8 ***  56 ***** ***** ***** ***** **
833580 ***** 201507280000 360   0 *** 722 CLR * * *  0.6 ** ** ** ** ** ** ** ** *   75   64 1011.1 *****  971.0 *** *** ***** ***** ***** ***** **
833580 ***** 201507281200 360   0 *** *** SCT * * * 12.5 ** ** ** ** ** ** ** ** *   64   58 1013.9 *****  973.6 ***  54 ***** ***** ***** ***** **
833580 ***** 201507281800 230   7 *** *** SCT * * * 12.5 ** ** ** ** ** ** ** ** *   94   62 1010.2 *****  970.4 *** *** ***** ***** ***** ***** **
833580 ***** 201507291200 360   0 *** 722 CLR * * * 31.2 ** ** ** ** ** ** ** ** *   69   63 1014.3 *****  974.2 ***  61 ***** ***** ***** ***** **
833580 ***** 201507301200 360   0 *** *** SCT * * *  2.5 ** ** ** ** ** ** ** ** *   69   64 1015.0 *****  974.7 ***  61 ***** ***** ***** ***** **
833580 ***** 201507301800 180   7 *** *** BKN * * * 12.5 ** ** ** ** ** ** ** ** *   93   57 1011.7 *****  971.9 *** *** ***** ***** ***** ***** **
833580 ***** 201507311200 360   0 *** 722 CLR * * * 12.5 04 ** ** ** ** ** ** ** 4   63   57 1015.0 *****  974.7 ***  54 ***** ***** ***** ***** **
833580 ***** 201507311800 360   7 *** 722 CLR * * * 12.5 04 ** ** ** ** ** ** ** 4   94   57 1010.5 *****  970.5 *** *** ***** ***** ***** ***** **
833580 ***** 201508010000 360   0 *** 722 CLR * * *  0.6 ** ** ** ** ** ** ** ** *   72   61 1013.3 *****  973.0 *** *** ***** ***** ***** ***** **
833580 ***** 201508011200 360   0 *** 722 CLR * * * 12.5 04 ** ** ** ** ** ** ** 4   63   57 1015.5 *****  975.1 ***  53 ***** ***** ***** ***** **
833580 ***** 201508011800 230   5 *** 722 CLR * * * 12.5 04 ** ** ** ** ** ** ** 4   94   56 1011.2 *****  971.2 *** *** ***** ***** ***** ***** **
833580 ***** 201508020000 360   0 *** 722 CLR * * *  0.6 ** ** ** ** ** ** ** ** *   72   62 1011.9 *****  971.6 *** *** ***** ***** ***** ***** **
833580 ***** 201508021200 360   0 *** 722 CLR * * * 12.5 ** ** ** ** ** ** ** ** *   66   57 1013.2 *****  972.9 ***  53 ***** ***** ***** ***** **
833580 ***** 201508021800 360   7 *** 722 CLR * * * 12.5 ** ** ** ** ** ** ** ** *   93   54 1010.8 *****  970.8 *** *** ***** ***** ***** ***** **
833580 ***** 201508030000 360   0 *** 722 CLR * * *  0.6 ** ** ** ** ** ** ** ** *   74   62 1011.0 *****  970.9 *** *** ***** ***** ***** ***** **
833580 ***** 201508031200 360   0 *** 722 CLR * * * 12.5 04 ** ** ** ** ** ** ** 4   62   55 1013.8 *****  973.5 ***  53 ***** ***** ***** ***** **
833580 ***** 201508031800 360   7 *** 722 CLR * * * 12.5 ** ** ** ** ** ** ** ** *   93   58 1011.2 *****  971.2 *** *** ***** ***** ***** ***** **
833580 ***** 201508040000 360   0 *** 722 CLR * * *  0.6 ** ** ** ** ** ** ** ** *   74   63 1013.0 *****  972.7 *** *** ***** ***** ***** ***** **
833580 ***** 201508041200 360   0 *** 722 CLR * * * 12.5 04 ** ** ** ** ** ** ** 4   62   57 1015.1 *****  974.7 ***  55 ***** ***** ***** ***** **
833580 ***** 201508041800 360   7 *** *** SCT * * * 12.5 ** ** ** ** ** ** ** ** *   95   57 1011.5 *****  971.6 *** *** ***** ***** ***** ***** **
833580 ***** 201508050000 360   0 *** 722 CLR * * *  0.6 ** ** ** ** ** ** ** ** *   72   62 1012.2 *****  971.9 *** *** ***** ***** ***** ***** **
833580 ***** 201508051200 360   0 *** 722 CLR * * * 12.5 04 ** ** ** ** ** ** ** 4   65   58 1013.9 *****  973.6 ***  53 ***** ***** ***** ***** **
833580 ***** 201508051800 360   7 *** 722 CLR * * * 12.5 ** ** ** ** ** ** ** ** *   94   57 1010.4 *****  970.5 *** *** ***** ***** ***** ***** **
833580 ***** 201508060000 360   0 *** 722 CLR * * *  0.6 ** ** ** ** ** ** ** ** *   71   63 1010.4 *****  970.3 *** *** ***** ***** ***** ***** **
833580 ***** 201508061200 360   0 *** 722 CLR * * * 12.5 04 ** ** ** ** ** ** ** 4   62   56 1013.1 *****  972.8 ***  53 ***** ***** ***** ***** **
833580 ***** 201508061800 360   9 *** 722 CLR * * * 12.5 ** ** ** ** ** ** ** ** *   96   61 1007.4 *****  967.7 *** *** ***** ***** ***** ***** **
833580 ***** 201508071200 360   0 *** 722 CLR * * * 12.5 04 ** ** ** ** ** ** ** 4   69   60 1011.5 *****  971.5 ***  57 ***** ***** ***** ***** **
833580 ***** 201508071800 320   7 *** *** SCT * * * 12.5 ** ** ** ** ** ** ** ** *   98   60 1007.6 *****  967.9 *** *** ***** ***** ***** ***** **
833580 ***** 201508080000 360   0 *** 722 CLR * * *  0.6 ** ** ** ** ** ** ** ** *   75   67 1010.6 *****  970.3 *** *** ***** ***** ***** ***** **
833580 ***** 201508081200 360   0 *** 722 CLR * * * 12.5 04 ** ** ** ** ** ** ** 4   66   59 1012.8 *****  972.6 ***  56 ***** ***** ***** ***** **
833580 ***** 201508090000 360   0 *** 722 CLR * * * 12.5 ** ** ** ** ** ** ** ** *   75   60 1010.0 *****  970.0 *** *** ***** ***** ***** ***** **
833580 ***** 201508091200 360   0 *** 722 CLR * * * 12.5 04 ** ** ** ** ** ** ** 4   66   56 1013.0 *****  972.8 ***  54 ***** ***** ***** ***** **
833580 ***** 201508091800 320   9 *** 722 CLR * * * 12.5 04 ** ** ** ** ** ** ** 4   95   53 1008.8 *****  969.0 *** *** ***** ***** ***** ***** **
833580 ***** 201508100000 360   0 *** 722 CLR * * *  0.6 04 ** ** ** ** ** ** ** 4   75   60 1010.6 *****  970.5 *** *** ***** ***** ***** ***** **
833580 ***** 201508101200 360   0 *** 722 CLR * * * 12.5 04 ** ** ** ** ** ** ** 4   64   57 1014.0 *****  973.7 ***  57 ***** ***** ***** ***** **
833580 ***** 201508101800 360   7 *** *** SCT * * * 12.5 04 ** ** ** ** ** ** ** 4   95   55 1011.0 *****  971.2 *** *** ***** ***** ***** ***** **
833580 ***** 201508110000 360   0 *** 722 CLR * * *  0.6 04 ** ** ** ** ** ** ** 4   76   60 1012.4 *****  972.2 *** *** ***** ***** ***** ***** **
833580 ***** 201508111200 360   0 *** *** SCT * * * 12.5 04 ** ** ** ** ** ** ** 4   63   56 1014.9 *****  974.6 ***  55 ***** ***** ***** ***** **
833580 ***** 201508111800 050   7 *** *** SCT * * * 12.5 04 ** ** ** ** ** ** ** 4   94   54 1010.8 *****  970.9 *** *** ***** ***** ***** ***** **
833580 ***** 201508120000 360   0 *** 722 CLR * * *  0.6 04 ** ** ** ** ** ** ** 4   73   62 1012.8 *****  972.6 *** *** ***** ***** ***** ***** **
833580 ***** 201508121200 360   0 *** 722 CLR * * * 12.5 04 ** ** ** ** ** ** ** 4   62   57 1014.9 *****  974.5 ***  54 ***** ***** ***** ***** **
833580 ***** 201508121800 050   7 *** 722 CLR * * * 12.5 ** ** ** ** ** ** ** ** *   92   54 1010.8 *****  970.8 *** *** ***** ***** ***** ***** **
833580 ***** 201508130000 360   0 *** 722 CLR * * *  0.6 04 ** ** ** ** ** ** ** 4   73   58 1013.8 *****  973.5 *** *** ***** ***** ***** ***** **
833580 ***** 201508131200 360   0 *** *** SCT * * * 12.5 04 ** ** ** ** ** ** ** 4   63   55 1015.8 *****  985.4 ***  51 ***** ***** ***** ***** **
833580 ***** 201508131800 050   6 *** 722 CLR * * * 12.5 ** ** ** ** ** ** ** ** *   92   50 1011.9 *****  971.8 *** *** ***** ***** ***** ***** **
833580 ***** 201508141200 360   0 *** 722 CLR * * * 12.5 ** ** ** ** ** ** ** ** *   64   54 1015.5 *****  975.2 ***  51 ***** ***** ***** ***** **
833580 ***** 201508141800 050   9 *** 722 CLR * * * 12.5 ** ** ** ** ** ** ** ** *   91   51 1010.8 *****  970.8 *** *** ***** ***** ***** ***** **
833580 ***** 201508150000 360   0 *** 722 CLR * * *  0.6 04 ** ** ** ** ** ** ** 4   73   57 1013.2 *****  972.9 *** *** ***** ***** ***** ***** **
833580 ***** 201508151200 360   0 *** 722 CLR * * * 12.5 04 ** ** ** ** ** ** ** 4   65   55 1015.6 *****  975.3 ***  53 ***** ***** ***** ***** **
833580 ***** 201508151800 270   7 *** 722 CLR * * * 12.5 04 ** ** ** ** ** ** ** 4   91   51 1014.0 *****  973.8 *** *** ***** ***** ***** ***** **
833580 ***** 201508161200 360   0 *** 722 CLR * * * 12.5 04 ** ** ** ** ** ** ** 4   63   56 1014.3 *****  974.0 ***  51 ***** ***** ***** ***** **
833580 ***** 201508161800 320   7 *** 722 CLR * * * 12.5 04 ** ** ** ** ** ** ** 4   95   52 1012.9 *****  972.9 *** *** ***** ***** ***** ***** **
833580 ***** 201508170000 360   0 *** 722 CLR * * *  0.6 04 ** ** ** ** ** ** ** 4   77   61 1011.1 *****  970.9 *** *** ***** ***** ***** ***** **
833580 ***** 201508171200 360   0 *** *** SCT * * * 12.5 04 ** ** ** ** ** ** ** 4   64   57 1013.8 *****  973.5 ***  56 ***** ***** ***** ***** **
833580 ***** 201508171800 360   5 *** *** SCT * * * 12.5 04 ** ** ** ** ** ** ** 4   96   55 1009.6 *****  969.8 *** *** ***** ***** ***** ***** **
833580 ***** 201508180000 360   0 *** 722 CLR * * *  0.6 04 ** ** ** ** ** ** ** 4   77   64 1010.2 *****  970.2 *** *** ***** ***** ***** ***** **
833580 ***** 201508181200 360   0 *** *** SCT * * * 12.5 04 ** ** ** ** ** ** ** 4   67   61 1013.8 *****  973.6 ***  61 ***** ***** ***** ***** **
833580 ***** 201508181800 360   7 *** *** SCT * * * 12.5 04 ** ** ** ** ** ** ** 4   96   59 1010.0 *****  970.4 *** *** ***** ***** ***** ***** **
833580 ***** 201508190000 360   0 *** 722 CLR * * *  0.6 04 ** ** ** ** ** ** ** 4   78   64 1012.3 *****  972.3 *** *** ***** ***** ***** ***** **
833580 ***** 201508191200 360   0 *** 722 CLR * * * 12.5 04 ** ** ** ** ** ** ** 4   68   61 1012.7 *****  972.7 ***  59 ***** ***** ***** ***** **
833580 ***** 201508191800 230   7 *** *** SCT * * * 12.5 04 ** ** ** ** ** ** ** 4   95   61 1010.0 *****  970.3 *** *** ***** ***** ***** ***** **
833580 ***** 201508200000 360   0 *** 722 CLR * * *  0.6 04 ** ** ** ** ** ** ** 4   83   65 1010.4 *****  971.2 *** *** ***** ***** ***** ***** **
833580 ***** 201508201200 360   0 *** *** BKN * * * 12.5 04 ** ** ** ** ** ** ** 4   70   65 1013.1 *****  973.2 ***  64 ***** ***** ***** ***** **
833580 ***** 201508201800 230   7 *** *** BKN * * * 12.5 04 ** ** ** ** ** ** ** 4   94   64 1009.5 *****  966.9 *** *** ***** ***** ***** ***** **
833580 ***** 201508210000 360   0 *** 722 CLR * * *  0.6 04 ** ** ** ** ** ** ** 4   74   64 1009.5 *****  969.8 *** *** ***** ***** ***** ***** **
833580 ***** 201508211200 360   0 *** 722 CLR * * * 12.5 04 ** ** ** ** ** ** ** 4   69   61 1012.5 *****  972.6 ***  59 ***** ***** ***** ***** **
833580 ***** 201508211800 230   7 *** *** SCT * * * 12.5 04 ** ** ** ** ** ** ** 4   95   57 1009.0 *****  969.3 *** *** ***** ***** ***** ***** **
833580 ***** 201508220000 360   0 *** 722 CLR * * *  0.6 04 ** ** ** ** ** ** ** 4   85   61 1008.4 *****  968.7 *** *** ***** ***** ***** ***** **
833580 ***** 201508221200 360   0 *** *** SCT * * * 12.5 04 ** ** ** ** ** ** ** 4   66   58 1011.3 *****  971.4 ***  59 ***** ***** ***** ***** **
833580 ***** 201508221800 360   7 ***  41 BKN * * * 12.5 04 ** ** ** ** ** ** ** 4   98   57 1006.6 *****  967.1 *** *** ***** ***** ***** ***** **
833580 ***** 201508230000 360   0 *** 722 CLR * * *  0.6 04 ** ** ** ** ** ** ** 4   84   65 1006.4 *****  966.7 *** *** ***** ***** ***** ***** **
833580 ***** 201508231200 360   0 *** *** BKN * * * 12.5 04 ** ** ** ** ** ** ** 4   69   60 1011.2 *****  971.4 ***  61 ***** ***** ***** ***** **
833580 ***** 201508231800 230   7 *** *** BKN * * * 12.5 04 ** ** ** ** ** ** ** 4   97   56 1006.7 *****  967.2 *** *** ***** ***** ***** ***** **
833580 ***** 201508240000 360   0 *** 722 CLR * * *  0.6 04 ** ** ** ** ** ** ** 4   80   62 1009.1 *****  969.3 *** *** ***** ***** ***** ***** **
833580 ***** 201508241200 360   0 *** *** BKN * * * 12.5 04 ** ** ** ** ** ** ** 4   71   64 1010.4 *****  970.5 ***  66 ***** ***** ***** ***** **
833580 ***** 201508241800 280   7 *** *** BKN * * * 12.5 04 ** ** ** ** ** ** ** 4   98   57 1006.9 *****  967.5 *** *** ***** ***** ***** ***** **
833580 ***** 201508250000 360   0 *** 722 CLR * * *  0.6 04 ** ** ** ** ** ** ** 4   83   65 1007.6 *****  967.9 *** *** ***** ***** ***** ***** **
833580 ***** 201508251200 360   0 *** 722 CLR * * * 12.5 04 ** ** ** ** ** ** ** 4   71   65 1010.9 *****  971.1 ***  64 ***** ***** ***** ***** **
833580 ***** 201508251800 270   7 *** *** SCT * * * 12.5 04 ** ** ** ** ** ** ** 4   98   59 1006.1 *****  966.7 *** *** ***** ***** ***** ***** **
833580 ***** 201508260000 360   0 *** 722 CLR * * *  0.6 04 ** ** ** ** ** ** ** 4   84   64 1006.5 *****  966.8 *** *** ***** ***** ***** ***** **
833580 ***** 201508261200 360   0 *** *** SCT * * * 12.5 04 ** ** ** ** ** ** ** 4   74   65 1009.6 *****  970.0 ***  67 ***** ***** ***** ***** **
833580 ***** 201508261800 360   9 *** *** BKN * * * 12.5 04 ** ** ** ** ** ** ** 4  100   62 1005.3 *****  966.0 *** *** ***** ***** ***** ***** **
833580 ***** 201508270000 050   7 *** *** OVC * * *  0.3 03 ** ** ** ** ** ** ** 6   76   69 1008.7 *****  969.0 *** *** *****  0.12 ***** ***** **
833580 ***** 201508271200 360   0 *** *** BKN * * * 12.5 ** ** ** ** ** ** ** ** *   74   66 1011.7 *****  971.8 ***  68 ***** *****  0.12 ***** **
833580 ***** 201508271800 360   0 ***  57 BKN * * * 12.5 01 ** ** ** ** ** ** ** 6   76   70 1012.0 *****  971.9 *** *** *****  0.08 ***** ***** **
833580 ***** 201508280000 360   0 *** *** OVC * * *  6.2 ** ** ** ** ** ** ** ** *   76   69 1012.6 *****  972.7 *** *** ***** ***** ***** ***** **
833580 ***** 201508281200 360   0 *** *** BKN * * * 12.5 ** ** ** ** ** ** ** ** *   71   69 1013.6 *****  973.5 ***  69 ***** *****  0.08 ***** **
833580 ***** 201508281800 360   0 *** *** BKN * * * 12.5 04 ** ** ** ** ** ** ** 4   80   67 1012.0 *****  972.1 *** *** ***** ***** ***** ***** **
833580 ***** 201508290000 360   0 *** *** OVC * * *  0.3 ** ** ** ** ** ** ** ** *   79   55 1012.6 *****  972.6 *** *** ***** ***** ***** ***** **
833580 ***** 201508291200 360   0 *** *** SCT * * * 12.5 04 ** ** ** ** ** ** ** 4   74   68 1012.8 *****  972.8 ***  66 ***** ***** ***** ***** **
833580 ***** 201508291800 230   7 *** *** SCT * * * 12.5 04 ** ** ** ** ** ** ** 4   97   63 1010.7 *****  971.1 *** *** ***** ***** ***** ***** **
833580 ***** 201508300000 360   0 *** 722 CLR * * *  0.6 04 ** ** ** ** ** ** ** 4   81   67 1010.8 *****  971.0 *** *** ***** ***** ***** ***** **
833580 ***** 201508301200 360   0 *** 722 CLR * * * 12.5 04 ** ** ** ** ** ** ** 4   73   65 1012.7 *****  972.8 ***  64 ***** ***** ***** ***** **
833580 ***** 201508301800 360   5 *** *** SCT * * * 12.5 04 ** ** ** ** ** ** ** 4   99   78 1011.1 *****  971.5 *** *** ***** ***** ***** ***** **
833580 ***** 201508310000 360   0 *** 722 CLR * * *  0.6 04 ** ** ** ** ** ** ** 4   83   62 1010.2 *****  970.6 *** *** ***** ***** ***** ***** **
833580 ***** 201508311200 360   0 *** *** SCT * * * 12.5 04 ** ** ** ** ** ** ** 4   67   62 1013.3 *****  973.4 ***  62 ***** ***** ***** ***** **
833580 ***** 201508311800 230   7 *** *** SCT * * * 12.5 04 ** ** ** ** ** ** ** 4   99   57 1009.9 *****  970.3 *** *** ***** ***** ***** ***** **
833580 ***** 201509010000 360   0 *** 722 CLR * * *  0.6 04 ** ** ** ** ** ** ** 4   82   64 1010.9 *****  971.0 *** *** ***** ***** ***** ***** **
833580 ***** 201509011200 360   0 *** *** SCT * * * 12.5 14 ** ** ** ** ** ** ** 4   76   64 1014.1 *****  974.3 ***  63 ***** ***** ***** ***** **
833580 ***** 201509011800 230   7 *** 722 CLR * * * 12.5 04 ** ** ** ** ** ** ** 4  100   56 1009.6 *****  970.0 *** *** ***** ***** ***** ***** **
833580 ***** 201509020000 360   0 *** 722 CLR * * *  0.6 04 ** ** ** ** ** ** ** 4   86   61 1009.6 *****  970.1 *** *** ***** ***** ***** ***** **
833580 ***** 201509021200 360   0 *** 722 CLR * * * 12.5 04 ** ** ** ** ** ** ** 4   69   59 1012.9 *****  973.0 ***  59 ***** ***** ***** ***** **
833580 ***** 201509021800 360   7 *** 722 CLR * * * 12.5 04 ** ** ** ** ** ** ** 4  100   51 1007.9 *****  968.3 *** *** ***** ***** ***** ***** **
833580 ***** 201509030000 360   0 *** 722 CLR * * *  0.6 04 ** ** ** ** ** ** ** 4   79   59 1008.8 *****  968.9 *** *** ***** ***** ***** ***** **
833580 ***** 201509031200 360   0 *** 722 CLR * * * 12.5 04 ** ** ** ** ** ** ** 4   65   58 1011.4 *****  971.4 ***  57 ***** ***** ***** ***** **
833580 ***** 201509031800 360   7 *** 722 CLR * * * 12.5 04 ** ** ** ** ** ** ** 4  101   51 1006.9 *****  967.4 *** *** ***** ***** ***** ***** **
833580 ***** 201509041200 360   0 *** *** SCT * * * 12.5 04 ** ** ** ** ** ** ** 4   73   61 1011.6 *****  971.8 ***  60 ***** ***** ***** ***** **
833580 ***** 201509041800 270   7 *** *** BKN * * * 12.5 04 ** ** ** ** ** ** ** 4  100   52 1007.6 *****  968.1 *** *** ***** ***** ***** ***** **
833580 ***** 201509050000 360   0 *** 722 CLR * * *  0.6 04 ** ** ** ** ** ** ** 4   80   60 1009.9 *****  970.2 *** *** ***** ***** ***** ***** **
833580 ***** 201509051200 360   0 *** *** BKN * * * 12.5 04 ** ** ** ** ** ** ** 4   74   69 1012.0 *****  972.2 ***  64 ***** ***** ***** ***** **
833580 ***** 201509051800 320   7 *** *** SCT * * * 12.5 04 ** ** ** ** ** ** ** 4  100   63 1008.8 *****  969.4 *** *** ***** ***** ***** ***** **
833580 ***** 201509061200 360   0 *** *** SCT * * * 12.5 04 ** ** ** ** ** ** ** 4   70   65 1010.8 *****  970.9 ***  66 ***** ***** ***** ***** **
833580 ***** 201509061800 270   7 *** *** BKN * * * 12.5 04 ** ** ** ** ** ** ** 4  100   62 1005.9 *****  966.6 *** *** ***** ***** ***** ***** **
833580 ***** 201509070000 360   0 *** 722 CLR * * *  0.6 04 ** ** ** ** ** ** ** 4   83   66 1007.8 *****  968.1 *** *** ***** ***** ***** ***** **
833580 ***** 201509071200 360   0 *** 722 CLR * * * 12.5 04 ** ** ** ** ** ** ** 4   74   67 1008.4 *****  968.8 ***  69 ***** ***** ***** ***** **
833580 ***** 201509071800 320   9 ***  41 BKN * * * 12.5 04 ** ** ** ** ** ** ** 4   98   67 1003.4 *****  964.3 *** *** ***** ***** ***** ***** **
833580 ***** 201509080000 030   7 *** *** OVC * * *  0.3 04 ** ** ** ** ** ** ** 4   82   69 1005.3 *****  965.8 *** *** ***** ***** ***** ***** **
833580 ***** 201509081200 320   5 *** *** SCT * * * 12.5 04 ** ** ** ** ** ** ** 4   80   70 1008.9 *****  969.4 ***  73 ***** ***** ***** ***** **
833580 ***** 201509081800 360   9 *** *** BKN * * * 12.5 04 ** ** ** ** ** ** ** 4   96   64 1004.7 *****  965.5 *** *** ***** ***** ***** ***** **
833580 ***** 201509090000 360   0 *** *** OVC * * *  0.3 04 ** ** ** ** ** ** ** 4   87   68 1005.1 *****  965.9 *** *** ***** ***** ***** ***** **
833580 ***** 201509091200 360   0 ***  20 OVC * * * 12.5 09 ** ** ** ** ** ** ** 4   71   69 1011.6 *****  971.9 ***  69 ***** ***** ***** ***** **
833580 ***** 201509091800 180   9 ***  20 OVC * * * 12.5 01 ** ** ** ** ** ** ** 6   76   69 1008.7 *****  968.8 *** *** *****  0.59 ***** ***** **
833580 ***** 201509100000 360   0 *** *** OVC * * *  0.3 03 ** ** ** ** ** ** ** 6   71   70 1008.6 *****  968.6 *** *** *****  0.16 ***** ***** **
833580 ***** 201509101200 360   0 *** *** BKN * * * 12.5 ** ** ** ** ** ** ** ** *   73   71 1010.0 *****  970.0 ***  70 ***** *****  0.75 ***** **
833580 ***** 201509101800 320   7 *** *** BKN * * * 12.5 04 ** ** ** ** ** ** ** 4   96   67 1004.9 *****  965.6 *** *** ***** ***** ***** ***** **
833580 ***** 201509111200 360   0 *** *** BKN * * * 12.5 04 ** ** ** ** ** ** ** 4   80   72 1009.5 *****  970.0 ***  72 ***** ***** ***** ***** **
833580 ***** 201509111800 270   7 ***  57 BKN * * * 12.5 04 ** ** ** ** ** ** ** 4   95   64 1006.2 *****  966.9 *** *** ***** ***** ***** ***** **
833580 ***** 201509120000 230   7 *** *** OVC * * *  0.3 04 ** ** ** ** ** ** ** 4   83   71 1009.1 *****  969.6 *** *** ***** ***** ***** ***** **
833580 ***** 201509121200 270   5 ***  20 OVC * * * 12.5 04 ** ** ** ** ** ** ** 4   71   67 1013.7 *****  973.8 ***  68 ***** ***** ***** ***** **
833580 ***** 201509121800 320   7 *** *** SCT * * * 12.5 04 ** ** ** ** ** ** ** 4   85   70 1011.2 *****  971.4 *** *** ***** ***** ***** ***** **
833580 ***** 201509130000 230   5 *** *** OVC * * *  0.3 04 ** ** ** ** ** ** ** 4   72   65 1013.7 *****  973.6 *** *** ***** ***** ***** ***** **
833580 ***** 201509131200 360   0 ***  20 OVC * * * 12.5 04 ** ** ** ** ** ** ** 4   67   64 1015.4 *****  975.1 ***  64 ***** ***** ***** ***** **
833580 ***** 201509131800 230   7 ***  41 BKN * * * 12.5 04 ** ** ** ** ** ** ** 4   83   69 1013.3 *****  973.3 *** *** ***** ***** ***** ***** **
833580 ***** 201509140000 230   5 *** *** OVC * * *  0.3 04 ** ** ** ** ** ** ** 4   79   68 1006.0 *****  966.1 *** *** ***** ***** ***** ***** **
833580 ***** 201509141200 360   0 *** 722 CLR * * * 12.5 04 ** ** ** ** ** ** ** 4   71   66 1013.7 *****  973.7 ***  64 ***** ***** ***** ***** **
833580 ***** 201509141800 270   7 *** *** SCT * * * 12.5 04 ** ** ** ** ** ** ** 4   94   64 1009.3 *****  969.7 *** *** ***** ***** ***** ***** **
833580 ***** 201509150000 360   0 *** *** OVC * * *  0.3 ** ** ** ** ** ** ** ** *   86   67 1009.4 *****  969.8 *** *** ***** ***** ***** ***** **
833580 ***** 201509151200 360   0 *** 722 CLR * * * 12.5 04 ** ** ** ** ** ** ** 4   76   68 1012.5 *****  972.8 ***  67 ***** ***** ***** ***** **
833580 ***** 201509151800 360   9 *** *** BKN * * * 12.5 04 ** ** ** ** ** ** ** 4   98   65 1007.5 *****  968.1 *** *** ***** ***** ***** ***** **
833580 ***** 201509160000 360   0 *** *** OVC * * *  0.3 04 ** ** ** ** ** ** ** 4   85   68 1008.8 *****  969.3 *** *** ***** ***** ***** ***** **
833580 ***** 201509161800 320   9 *** *** BKN * * * 12.5 04 ** ** ** ** ** ** ** 4  102   62 1005.5 *****  966.4 *** *** ***** ***** ***** ***** **
833580 ***** 201509171200 360   0 *** *** SCT * * * 12.5 04 ** ** ** ** ** ** ** 4   77   73 1010.9 *****  971.2 ***  71 ***** ***** ***** ***** **
833580 ***** 201509171800 360   7 *** *** BKN * * * 12.5 04 ** ** ** ** ** ** ** 4  100   61 1006.0 *****  966.8 *** *** ***** ***** ***** ***** **
833580 ***** 201509180000 *** *** *** *** OVC * * *  0.3 04 ** ** ** ** ** ** ** 4   89   66 1006.4 *****  967.1 *** *** ***** ***** ***** ***** **
833580 ***** 201509181200 360   0 *** 722 CLR * * * 12.5 04 ** ** ** ** ** ** ** 4   74   64 1010.4 *****  970.9 ***  62 ***** ***** ***** ***** **
