  USAF  WBAN YR--MODAHRMN DIR SPD GUS CLG SKC L M H  VSB MW MW MW MW AW AW AW AW W TEMP DEWP    SLP   ALT    STP MAX MIN PCP01 PCP06 PCP24 PCPXX SD
834830 ***** 201501010000 230   1 *** *** OVC * * *  2.5 ** ** ** ** ** ** ** ** *   83   79 1010.4 *****  955.1  93  46 ***** ***** ***** ***** **
834830 ***** 201501021200 090   3 *** *** BKN * * * 12.5 ** ** ** ** ** ** ** ** *   76   70 1014.2 *****  957.7 ***  69 ***** *****  0.16 ***** **
834830 ***** 201502021200 140   1 *** *** OVC * * * 12.5 ** ** ** ** ** ** ** ** *   83   82 ****** *****  957.1 *** *** ***** ***** ***** ***** **
834830 ***** 201502021800 140   2 *** *** BKN * * * 12.5 ** ** ** ** ** ** ** ** *   90   64 ****** *****  953.9 *** *** ***** ***** ***** ***** **
834830 ***** 201502030000 050   1 *** *** *** * * *  2.5 ** ** ** ** ** ** ** ** *   83   66 1009.9 *****  954.6  96  41 ***** ***** ***** ***** **
834830 ***** 201502031200 050   2 *** *** BKN * * *  6.2 ** ** ** ** ** ** ** ** *   84   63 1011.7 *****  956.6 ***  70 ***** ***** ***** ***** **
834830 ***** 201502031800 360   2 *** *** SCT * * * 12.5 ** ** ** ** ** ** ** ** *   95   64 1006.9 *****  952.0 *** *** ***** ***** ***** ***** **
834830 ***** 201502040000 270   2 *** *** BKN * * *  2.5 13 ** ** ** ** ** ** ** 2   85   69 1007.3 *****  952.6  96  41 ***** ***** ***** ***** **
834830 ***** 201502041200 050   7 *** *** SCT * * *  6.2 ** ** ** ** ** ** ** ** *   81   68 1009.9 *****  954.8 ***  74 ***** ***** ***** ***** **
834830 ***** 201502041800 270  11 *** *** BKN * * * 12.5 ** ** ** ** ** ** ** ** *   93   66 1004.6 *****  950.2 *** *** ***** ***** ***** ***** **
834830 ***** 201502050000 050   2 *** *** OVC * * *  2.5 ** ** ** ** ** ** ** ** *   80   68 1008.6 *****  953.4  94  43 ***** ***** ***** ***** **
834830 ***** 201502051200 ***   0 *** *** OVC * * *  6.2 03 ** ** ** ** ** ** ** 2   76   69 1010.5 *****  954.8 ***  72 ***** ***** ***** ***** **
834830 ***** 201502051800 050   2 *** *** OVC * * *  1.2 21 ** ** ** ** ** ** ** 6   73   72 1008.5 *****  952.3 *** *** *****  1.10 ***** ***** **
834830 ***** 201502060000 ***   0 *** *** OVC * * *  2.5 03 ** ** ** ** ** ** ** 6   73   72 1009.3 *****  953.2  81  49 *****  0.12 ***** ***** **
834830 ***** 201502061200 050   6 *** *** OVC * * *  1.2 20 ** ** ** ** ** ** ** 6   73   72 1009.5 *****  953.4 ***  71 ***** *****  1.42 ***** **
834830 ***** 201502070000 050   5 *** *** OVC * * *  2.5 20 ** ** ** ** ** ** ** 6   68   67 1010.2 *****  953.6  79  49 *****  0.35 ***** ***** **
834830 ***** 201502071200 360   6 *** *** OVC * * *  6.2 20 ** ** ** ** ** ** ** 6   72   71 1011.4 *****  954.6 ***  68 ***** *****  0.71 ***** **
834830 ***** 201502071800 360   7 *** *** OVC * * * 12.5 03 ** ** ** ** ** ** ** 6   76   69 1008.7 *****  952.5 *** *** *****  0.08 ***** ***** **
834830 ***** 201502080000 050   2 *** *** OVC * * *  2.5 ** ** ** ** ** ** ** ** *   73   72 1010.7 *****  954.3  77  49 ***** ***** ***** ***** **
834830 ***** 201502091200 090   2 *** *** OVC * * *  6.2 03 ** ** ** ** ** ** ** 6   74   71 1015.5 *****  959.1 ***  70 ***** *****  0.94 ***** **
834830 ***** 201502091800 230   1 *** *** OVC * * * 12.5 17 ** ** ** ** ** ** ** 6   75   71 1012.2 *****  955.7 *** *** *****  0.04 ***** ***** **
834830 ***** 201502100000 050   1 *** *** OVC * * *  2.5 ** ** ** ** ** ** ** ** *   75   74 1013.1 *****  956.8  80  49 ***** ***** ***** ***** **
834830 ***** 201502101200 050   3 *** *** OVC * * * 12.5 02 ** ** ** ** ** ** ** 6   79   71 1014.4 *****  958.4 ***  73 ***** *****  0.04 ***** **
834830 ***** 201502101800 230   6 *** *** OVC * * *  1.2 20 ** ** ** ** ** ** ** 6   71   69 1008.4 *****  951.9 *** *** *****  0.16 ***** ***** **
834830 ***** 201502111200 050   3 *** *** OVC * * * 12.5 02 ** ** ** ** ** ** ** 6   81   72 1015.9 *****  960.0 ***  72 ***** *****  0.20 ***** **
834830 ***** 201502111800 050   3 *** *** BKN * * * 12.5 ** ** ** ** ** ** ** ** *   89   74 1011.2 *****  955.8 *** *** ***** ***** ***** ***** **
834830 ***** 201502120000 050   1 *** *** OVC * * *  2.5 ** ** ** ** ** ** ** ** *   81   75 1011.7 *****  956.5  90  45 ***** ***** ***** ***** **
834830 ***** 201502121200 050   6 *** *** *** * * * 12.5 ** ** ** ** ** ** ** ** *   80   67 1015.8 *****  960.2 ***  69 ***** ***** ***** ***** **
834830 ***** 201502121800 180   3 *** *** SCT * * * 12.5 ** ** ** ** ** ** ** ** *   91   65 1011.8 *****  956.6 *** *** ***** ***** ***** ***** **
834830 ***** 201502130000 230   2 *** *** *** * * *  2.5 ** ** ** ** ** ** ** ** *   78   69 1013.1 *****  957.4  93  43 ***** ***** ***** ***** **
834830 ***** 201502131200 140   2 *** *** *** * * * 12.5 ** ** ** ** ** ** ** ** *   78   67 1016.0 *****  960.0 ***  67 ***** ***** ***** ***** **
834830 ***** 201502131800 050   3 *** *** SCT * * * 12.5 ** ** ** ** ** ** ** ** *   92   65 1010.7 *****  955.4 *** *** ***** ***** ***** ***** **
834830 ***** 201502140000 ***   0 *** *** *** * * *  2.5 ** ** ** ** ** ** ** ** *   81   73 1011.5 *****  956.0  94  44 ***** ***** ***** ***** **
834830 ***** 201502161200 360   3 *** *** SCT * * * 12.5 ** ** ** ** ** ** ** ** *   80   67 1013.1 *****  957.6 ***  70 ***** ***** ***** ***** **
834830 ***** 201502161800 360   5 *** *** BKN * * * 12.5 ** ** ** ** ** ** ** ** *   92   70 1007.0 *****  952.3 *** *** ***** ***** ***** ***** **
834830 ***** 201502170000 050   1 *** *** *** * * *  2.5 ** ** ** ** ** ** ** ** *   81   73 1010.1 *****  954.7  94  44 ***** ***** ***** ***** **
834830 ***** 201502181200 360   3 *** *** OVC * * * 12.5 ** ** ** ** ** ** ** ** *   77   71 1012.6 *****  956.9 ***  74 ***** ***** ***** ***** **
834830 ***** 201502181800 050   2 *** *** OVC * * * 12.5 03 ** ** ** ** ** ** ** 6   74   68 1011.5 *****  955.3 *** *** *****  0.16 ***** ***** **
834830 ***** 201502190000 050   1 *** *** OVC * * *  2.5 ** ** ** ** ** ** ** ** *   73   71 1011.7 *****  955.6  81  48 ***** ***** ***** ***** **
834830 ***** 201502191200 230   2 *** *** OVC * * * 12.5 03 ** ** ** ** ** ** ** 6   75   71 1013.0 *****  956.7 ***  71 ***** *****  0.16 ***** **
834830 ***** 201502191800 270   3 *** *** OVC * * * 12.5 20 ** ** ** ** ** ** ** 6   74   69 1010.3 *****  953.9 *** *** *****  0.24 ***** ***** **
834830 ***** 201502200000 230   1 *** *** SCT * * *  2.5 02 ** ** ** ** ** ** ** 6   73   71 1011.7 *****  955.5  87  48 *****  0.04 ***** ***** **
834830 ***** 201502201200 180   2 *** *** OVC * * * 12.5 02 ** ** ** ** ** ** ** 6   75   70 1014.5 *****  958.1 ***  71 ***** *****  0.31 ***** **
834830 ***** 201502201800 050   2 *** *** OVC * * * 12.5 ** ** ** ** ** ** ** ** *   84   69 1011.0 *****  955.3 *** *** ***** ***** ***** ***** **
834830 ***** 201502210000 180   1 *** *** *** * * *  2.5 ** ** ** ** ** ** ** ** *   75   72 1012.0 *****  955.9  86  47 ***** ***** ***** ***** **
834830 ***** 201502211200 050   5 *** *** SCT * * * 12.5 ** ** ** ** ** ** ** ** *   79   68 1010.4 *****  954.6 ***  68 ***** ***** ***** ***** **
834830 ***** 201502211800 090   7 *** *** BKN * * * 12.5 ** ** ** ** ** ** ** ** *   89   65 1011.9 *****  956.3 *** *** ***** ***** ***** ***** **
834830 ***** 201502220000 140   6 *** *** *** * * *  2.5 ** ** ** ** ** ** ** ** *   80   67 1012.2 *****  956.6  91  43 ***** ***** ***** ***** **
834830 ***** 201502231200 140   7 *** *** SCT * * * 12.5 ** ** ** ** ** ** ** ** *   81   67 1015.0 *****  959.5 ***  68 ***** ***** ***** ***** **
834830 ***** 201502231800 140   3 *** *** BKN * * * 12.5 03 ** ** ** ** ** ** ** 2   87   69 1011.2 *****  955.7 *** *** ***** ***** ***** ***** **
834830 ***** 201502241200 090   6 *** *** SCT * * * 12.5 ** ** ** ** ** ** ** ** *   79   68 1015.4 *****  959.5 ***  71 ***** ***** ***** ***** **
834830 ***** 201502241800 140   1 *** *** OVC * * * 12.5 15 ** ** ** ** ** ** ** 2   82   70 1012.7 *****  956.9 *** *** ***** ***** ***** ***** **
834830 ***** 201502250000 140   3 *** *** BKN * * *  2.5 ** ** ** ** ** ** ** ** *   76   71 1014.8 *****  958.8  88  46 ***** ***** ***** ***** **
834830 ***** 201502251200 050   5 *** *** OVC * * * 12.5 02 ** ** ** ** ** ** ** 5   78   70 1016.1 *****  960.0 ***  73 ***** *****  0.01 ***** **
834830 ***** 201502251800 050   5 *** *** OVC * * * 12.5 ** ** ** ** ** ** ** ** *   89   72 1012.0 *****  956.6 *** *** ***** ***** ***** ***** **
834830 ***** 201502260000 230   2 *** *** SCT * * *  2.5 ** ** ** ** ** ** ** ** *   80   71 1012.7 *****  957.0  91  45 ***** ***** ***** ***** **
834830 ***** 201502261200 230   2 *** *** BKN * * * 12.5 ** ** ** ** ** ** ** ** *   78   70 1013.4 *****  957.7 ***  70 ***** ***** ***** ***** **
834830 ***** 201502261800 ***   0 *** *** SCT * * * 12.5 ** ** ** ** ** ** ** ** *   92   68 1006.9 *****  951.9 *** *** ***** ***** ***** ***** **
834830 ***** 201502271200 050   3 *** *** OVC * * *  6.2 20 ** ** ** ** ** ** ** 6   73   72 1012.6 *****  956.8 ***  71 ***** *****  0.51 ***** **
834830 ***** 201502271800 140   3 *** *** OVC * * * 12.5 17 ** ** ** ** ** ** ** 2   79   74 1008.3 *****  953.3 *** *** ***** ***** ***** ***** **
834830 ***** 201502280000 230   1 *** *** OVC * * *  2.5 ** ** ** ** ** ** ** ** *   74   72 1011.5 *****  955.2  83  48 ***** ***** ***** ***** **
834830 ***** 201502281200 230   2 *** *** SCT * * * 12.5 ** ** ** ** ** ** ** ** *   76   70 1011.7 *****  955.5 ***  69 ***** ***** ***** ***** **
834830 ***** 201502281800 ***   0 *** *** BKN * * * 12.5 ** ** ** ** ** ** ** ** *   87   71 1006.7 *****  951.4 *** *** ***** ***** ***** ***** **
834830 ***** 201503010000 270   1 *** *** OVC * * *  2.5 ** ** ** ** ** ** ** ** *   80   73 1010.4 *****  954.7  90  46 ***** ***** ***** ***** **
834830 ***** 201503021200 050   6 *** *** OVC * * * 12.5 03 ** ** ** ** ** ** ** 6   77   68 1015.1 *****  959.1 ***  71 ***** *****  0.12 ***** **
834830 ***** 201503030000 230   2 *** *** OVC * * *  2.5 03 ** ** ** ** ** ** ** 6   76   70 1012.2 *****  956.2  85  46 *****  0.01 ***** ***** **
834830 ***** 201503040000 230   2 *** *** OVC * * *  2.5 ** ** ** ** ** ** ** ** *   79   72 1011.1 *****  955.7  90  44 ***** ***** ***** ***** **
834830 ***** 201503041200 050   5 *** *** BKN * * * 12.5 ** ** ** ** ** ** ** ** *   81   69 1013.6 *****  958.0 ***  74 ***** ***** ***** ***** **
834830 ***** 201503041800 050   3 *** *** BKN * * * 12.5 ** ** ** ** ** ** ** ** *   90   67 1008.4 *****  953.4 *** *** ***** ***** ***** ***** **
834830 ***** 201503050000 ***   0 *** *** OVC * * *  2.5 ** ** ** ** ** ** ** ** *   81   72 1010.6 *****  955.3  92  44 ***** ***** ***** ***** **
834830 ***** 201503051200 050   2 *** *** OVC * * * 12.5 ** ** ** ** ** ** ** ** *   76   69 1014.4 *****  958.6 ***  73 ***** ***** ***** ***** **
834830 ***** 201503051800 050   2 *** *** OVC * * *  1.2 21 ** ** ** ** ** ** ** 6   73   72 1008.5 *****  952.3 *** *** *****  1.10 ***** ***** **
834830 ***** 201503060000 230   1 *** *** SCT * * *  2.5 ** ** ** ** ** ** ** ** *   77   70 1011.3 *****  955.4  88  38 ***** ***** ***** ***** **
834830 ***** 201503061200 050   3 *** *** BKN * * * 12.5 ** ** ** ** ** ** ** ** *   77   70 1013.1 *****  957.2 ***  69 ***** ***** ***** ***** **
834830 ***** 201503061800 230   3 *** *** BKN * * * 12.5 ** ** ** ** ** ** ** ** *   91   67 1007.8 *****  952.6 *** *** ***** ***** ***** ***** **
834830 ***** 201503070000 140   1 *** *** SCT * * *  2.5 02 ** ** ** ** ** ** ** 6   74   73 1010.3 *****  954.3  92  46 *****  0.12 ***** ***** **
834830 ***** 201503071200 360   3 *** *** SCT * * * 12.5 01 ** ** ** ** ** ** ** 6   79   70 1012.7 *****  956.8 ***  69 ***** *****  0.12 ***** **
834830 ***** 201503071800 050   5 *** *** BKN * * * 12.5 ** ** ** ** ** ** ** ** *   92   71 1007.4 *****  952.2 *** *** ***** ***** ***** ***** **
834830 ***** 201503080000 050   1 *** *** BKN * * *  2.5 ** ** ** ** ** ** ** ** *   81   73 1009.6 *****  954.2  93  45 ***** ***** ***** ***** **
834830 ***** 201503091200 050   3 *** *** OVC * * * 12.5 02 ** ** ** ** ** ** ** 6   80   74 1012.4 *****  956.7 ***  73 ***** *****  0.04 ***** **
834830 ***** 201503091800 ***   0 *** *** BKN * * * 12.5 ** ** ** ** ** ** ** ** *   90   74 1006.9 *****  951.9 *** *** ***** ***** ***** ***** **
834830 ***** 201503100000 230   2 *** *** *** * * *  2.5 ** ** ** ** ** ** ** ** *   82   73 1007.9 *****  952.7  92  45 ***** ***** ***** ***** **
834830 ***** 201503101200 140   3 *** *** OVC * * * 12.5 03 ** ** ** ** ** ** ** 6   73   69 ****** *****  957.3 ***  72 ***** *****  0.02 ***** **
834830 ***** 201503101800 360   3 *** *** BKN * * * 12.5 ** ** ** ** ** ** ** ** *   87   71 1007.7 *****  952.6 *** *** ***** ***** ***** ***** **
834830 ***** 201503110000 230   3 *** *** OVC * * *  2.5 ** ** ** ** ** ** ** ** *   80   72 1010.1 *****  954.2  89  46 ***** ***** ***** ***** **
834830 ***** 201503111200 140   2 *** *** OVC * * * 12.5 ** ** ** ** ** ** ** ** *   80   72 1011.2 *****  955.7 ***  72 ***** ***** ***** ***** **
834830 ***** 201503111800 320   3 *** *** BKN * * * 12.5 ** ** ** ** ** ** ** ** *   93   71 1005.5 *****  950.9 *** *** ***** ***** ***** ***** **
834830 ***** 201503120000 230   3 *** *** OVC * * *  2.5 13 ** ** ** ** ** ** ** 2   81   71 1008.0 *****  952.8  95  44 ***** ***** ***** ***** **
834830 ***** 201503121200 230   5 *** *** OVC * * * 12.5 03 ** ** ** ** ** ** ** 6   74   71 1013.2 *****  957.4 ***  70 ***** *****  0.47 ***** **
834830 ***** 201503130000 230   2 *** *** BKN * * *  2.5 ** ** ** ** ** ** ** ** *   74   70 1011.6 *****  955.4  85  47 ***** ***** ***** ***** **
834830 ***** 201503131200 230   5 *** *** BKN * * * 12.5 02 ** ** ** ** ** ** ** 6   77   71 1012.8 *****  956.6 ***  71 ***** *****  0.08 ***** **
834830 ***** 201503131800 230   5 *** *** BKN * * * 12.5 ** ** ** ** ** ** ** ** *   90   72 1007.4 *****  952.2 *** *** ***** ***** ***** ***** **
834830 ***** 201503140000 180   2 *** *** *** * * *  2.5 ** ** ** ** ** ** ** ** *   80   72 ****** ***** ****** *** *** ***** ***** ***** ***** **
834830 ***** 201503141200 230   2 *** *** OVC * * * 12.5 ** ** ** ** ** ** ** ** *   78   72 1011.6 *****  956.0 ***  72 ***** ***** ***** ***** **
834830 ***** 201503150000 230   1 *** *** OVC * * *  2.5 ** ** ** ** ** ** ** ** *   79   69 1009.4 *****  953.8  93  45 ***** ***** ***** ***** **
834830 ***** 201503161200 230   2 *** *** OVC * * * 12.5 02 ** ** ** ** ** ** ** 6   78   70 1011.9 *****  956.4 ***  71 ***** *****  0.02 ***** **
834830 ***** 201503161800 360   3 *** *** OVC * * * 12.5 ** ** ** ** ** ** ** ** *   88   70 1007.6 *****  952.4 *** *** ***** ***** ***** ***** **
834830 ***** 201503170000 230   1 *** *** SCT * * *  2.5 ** ** ** ** ** ** ** ** *   79   72 1009.8 *****  954.2  91  45 ***** ***** ***** ***** **
834830 ***** 201503171200 230   3 *** *** OVC * * * 12.5 ** ** ** ** ** ** ** ** *   76   70 1012.1 *****  956.2 ***  72 ***** ***** ***** ***** **
834830 ***** 201503171800 050   5 *** *** BKN * * * 12.5 ** ** ** ** ** ** ** ** *   92   63 1006.6 *****  951.7 *** *** ***** ***** ***** ***** **
834830 ***** 201503180000 230   3 *** *** OVC * * *  2.5 21 ** ** ** ** ** ** ** 6   69   67 1015.2 *****  958.5  94  46 *****  0.16 ***** ***** **
834830 ***** 201503181200 230   3 *** *** OVC * * * 12.5 02 ** ** ** ** ** ** ** 6   73   70 1014.9 *****  958.1 ***  67 ***** *****  0.39 ***** **
834830 ***** 201503181800 230   3 *** *** OVC * * * 12.5 ** ** ** ** ** ** ** ** *   85   69 1009.5 *****  953.9 *** *** ***** ***** ***** ***** **
834830 ***** 201503190000 230   1 *** *** OVC * * *  2.5 13 ** ** ** ** ** ** ** 2   76   72 1012.2 *****  956.1  88  46 ***** ***** ***** ***** **
834830 ***** 201503191200 230   1 *** *** OVC * * * 12.5 03 ** ** ** ** ** ** ** 5   73   70 1014.2 *****  958.0 ***  70 ***** *****  0.01 ***** **
834830 ***** 201503191800 230   2 *** *** OVC * * * 12.5 15 ** ** ** ** ** ** ** 2   81   73 1010.4 *****  954.5 *** *** ***** ***** ***** ***** **
834830 ***** 201503200000 230   1 *** *** OVC * * *  2.5 02 ** ** ** ** ** ** ** 6   73   71 1012.4 *****  956.0  84  48 *****  0.04 ***** ***** **
834830 ***** 201503201200 230   3 *** *** OVC * * * 12.5 02 ** ** ** ** ** ** ** 6   73   70 1012.7 *****  956.3 ***  70 ***** *****  0.08 ***** **
834830 ***** 201503201800 230   3 *** *** OVC * * * 12.5 20 ** ** ** ** ** ** ** 6   78   68 1008.7 *****  952.6 *** *** *****  0.02 ***** ***** **
834830 ***** 201503210000 050   2 *** *** OVC * * *  2.5 21 ** ** ** ** ** ** ** 6   70   69 1012.4 *****  955.8  83  48 *****  1.97 ***** ***** **
834830 ***** 201503211200 140   1 *** *** OVC * * * 12.5 02 ** ** ** ** ** ** ** 6   71   68 1013.6 *****  956.8 ***  67 ***** *****  2.17 ***** **
834830 ***** 201503211800 360   3 *** *** OVC * * * 12.5 02 ** ** ** ** ** ** ** 6   74   70 1009.7 *****  953.3 *** *** *****  0.67 ***** ***** **
834830 ***** 201503220000 050   2 *** *** OVC * * *  2.5 ** ** ** ** ** ** ** ** *   72   70 1011.5 *****  955.0  81  49 ***** ***** ***** ***** **
834830 ***** 201503231200 360   3 *** *** BKN * * * 12.5 02 ** ** ** ** ** ** ** 6   77   72 1014.6 *****  958.6 ***  71 ***** *****  0.02 ***** **
834830 ***** 201503231800 360   7 *** *** BKN * * * 12.5 15 ** ** ** ** ** ** ** 5   86   71 1010.3 *****  954.7 *** *** *****  0.01 ***** ***** **
834830 ***** 201503240000 230   1 *** *** BKN * * *  2.5 ** ** ** ** ** ** ** ** *   77   73 1013.5 *****  957.5  90  47 ***** ***** ***** ***** **
834830 ***** 201503241200 050   3 *** *** OVC * * * 12.5 03 ** ** ** ** ** ** ** 5   76   72 1017.0 *****  960.7 ***  71 ***** *****  0.01 ***** **
834830 ***** 201503241800 360   7 *** *** OVC * * * 12.5 ** ** ** ** ** ** ** ** *   80   73 1013.5 *****  957.4 *** *** ***** ***** ***** ***** **
834830 ***** 201503250000 050   1 *** *** BKN * * *  2.5 ** ** ** ** ** ** ** ** *   77   74 1014.3 *****  958.3  88  47 ***** ***** ***** ***** **
834830 ***** 201503251200 230   2 *** *** OVC * * * 12.5 02 ** ** ** ** ** ** ** 5   74   72 1016.2 *****  959.9 ***  70 ***** *****  0.01 ***** **
834830 ***** 201503251800 050   3 *** *** BKN * * * 12.5 ** ** ** ** ** ** ** ** *   90   73 1010.6 *****  955.3 *** *** ***** ***** ***** ***** **
834830 ***** 201503260000 230   3 *** *** SCT * * *  2.5 02 ** ** ** ** ** ** ** 5   75   72 1013.9 *****  957.5  91  47 *****  0.02 ***** ***** **
834830 ***** 201503261200 ***   0 *** *** OVC * * * 12.5 02 ** ** ** ** ** ** ** 5   75   71 1014.9 *****  958.5 ***  68 ***** *****  0.02 ***** **
834830 ***** 201503261800 230   3 *** *** BKN * * * 12.5 ** ** ** ** ** ** ** ** *   89   67 1008.9 *****  953.5 *** *** ***** ***** ***** ***** **
834830 ***** 201503270000 140   1 *** *** *** * * *  2.5 ** ** ** ** ** ** ** ** *   80   72 1011.5 *****  955.6  91  45 ***** ***** ***** ***** **
834830 ***** 201503271200 230   1 *** *** SCT * * * 12.5 ** ** ** ** ** ** ** ** *   77   71 1015.2 *****  959.4 ***  70 ***** ***** ***** ***** **
834830 ***** 201503271800 140   3 *** *** OVC * * * 12.5 ** ** ** ** ** ** ** ** *   90   71 1010.8 *****  953.5 *** *** ***** ***** ***** ***** **
834830 ***** 201503280000 230   2 *** *** BKN * * *  2.5 ** ** ** ** ** ** ** ** *   79   74 1014.0 *****  958.1  92  46 ***** ***** ***** ***** **
834830 ***** 201503301200 230   1 *** *** BKN * * * 12.5 ** ** ** ** ** ** ** ** *   78   72 1012.8 *****  957.1 ***  70 ***** ***** ***** ***** **
834830 ***** 201503301800 320   3 *** *** SCT * * * 12.5 ** ** ** ** ** ** ** ** *   94   67 1007.4 *****  952.6 *** *** ***** ***** ***** ***** **
834830 ***** 201503310000 ***   0 *** *** *** * * *  2.5 ** ** ** ** ** ** ** ** *   82   75 1010.4 *****  955.2  95  45 ***** ***** ***** ***** **
834830 ***** 201503311200 230   3 *** *** OVC * * * 12.5 ** ** ** ** ** ** ** ** *   78   72 1013.6 *****  958.0 ***  72 ***** ***** ***** ***** **
834830 ***** 201503311800 230   3 *** *** OVC * * * 12.5 ** ** ** ** ** ** ** ** *   89   73 1008.6 *****  953.5 *** *** ***** ***** ***** ***** **
834830 ***** 201504010000 230   1 *** *** SCT * * *  2.5 ** ** ** ** ** ** ** ** *   80   74 1010.8 *****  955.2  91  46 ***** ***** ***** ***** **
834830 ***** 201504011200 230   3 *** *** BKN * * * 12.5 ** ** ** ** ** ** ** ** *   79   72 1013.3 *****  957.6 ***  70 ***** ***** ***** ***** **
834830 ***** 201504011800 230   3 *** *** BKN * * * 12.5 ** ** ** ** ** ** ** ** *   95   68 1007.4 *****  952.7 *** *** ***** ***** ***** ***** **
834830 ***** 201504020000 230   2 *** *** *** * * *  2.5 ** ** ** ** ** ** ** ** *   83   73 1010.4 *****  955.1  96  44 ***** ***** ***** ***** **
834830 ***** 201504021200 140   1 *** *** OVC * * * 12.5 ** ** ** ** ** ** ** ** *   77   72 1012.9 *****  957.3 ***  72 ***** ***** ***** ***** **
834830 ***** 201504021800 230   3 *** *** BKN * * * 12.5 03 ** ** ** ** ** ** ** 2   91   71 1007.0 *****  952.2 *** *** ***** ***** ***** ***** **
834830 ***** 201504061200 320   1 *** *** SCT * * * 12.5 ** ** ** ** ** ** ** ** *   76   70 1010.4 *****  954.6 ***  71 ***** ***** ***** ***** **
834830 ***** 201504061800 320   6 *** *** BKN * * * 12.5 ** ** ** ** ** ** ** ** *   91   73 1005.5 *****  950.6 *** *** ***** ***** ***** ***** **
834830 ***** 201504070000 230   1 *** *** *** * * *  2.5 ** ** ** ** ** ** ** ** *   80   74 1007.3 *****  952.4  93  45 ***** ***** ***** ***** **
834830 ***** 201504071200 230   3 *** *** BKN * * * 12.5 ** ** ** ** ** ** ** ** *   78   72 1009.5 *****  954.0 ***  71 ***** ***** ***** ***** **
834830 ***** 201504071800 180   5 *** *** BKN * * * 12.5 03 ** ** ** ** ** ** ** 2   88   71 1005.8 *****  950.7 *** *** ***** ***** ***** ***** **
834830 ***** 201504080000 140   3 *** *** OVC * * *  2.5 02 ** ** ** ** ** ** ** 6   73   70 1011.5 *****  955.4  90  46 *****  0.08 ***** ***** **
834830 ***** 201504081200 090   6 *** *** OVC * * * 12.5 03 ** ** ** ** ** ** ** 6   75   69 1014.6 *****  958.1 ***  71 ***** *****  0.08 ***** **
834830 ***** 201504081800 140   5 *** *** OVC * * * 12.5 ** ** ** ** ** ** ** ** *   81   70 1010.9 *****  955.0 *** *** ***** ***** ***** ***** **
834830 ***** 201504090000 230   1 *** *** OVC * * *  2.5 ** ** ** ** ** ** ** ** *   73   71 1014.5 *****  958.1  82  45 ***** ***** ***** ***** **
834830 ***** 201504091200 090   3 *** *** BKN * * * 12.5 ** ** ** ** ** ** ** ** *   77   66 1015.8 *****  959.5 ***  70 ***** ***** ***** ***** **
834830 ***** 201504091800 050   5 *** *** BKN * * * 12.5 ** ** ** ** ** ** ** ** *   83   70 1013.0 *****  957.1 *** *** ***** ***** ***** ***** **
834830 ***** 201504101200 ***   0 *** *** SCT * * * 12.5 ** ** ** ** ** ** ** ** *   79   68 1016.0 *****  960.3 ***  60 ***** ***** ***** ***** **
834830 ***** 201504101800 140   2 *** *** OVC * * * 12.5 03 ** ** ** ** ** ** ** 2   84   66 1013.1 *****  957.3 *** *** ***** ***** ***** ***** **
834830 ***** 201504110000 090   3 *** *** SCT * * *  2.5 02 ** ** ** ** ** ** ** 2   77   69 1014.3 *****  958.2  87  45 *****  0.01 ***** ***** **
834830 ***** 201504111200 050   7 *** *** BKN * * * 12.5 02 ** ** ** ** ** ** ** 5   77   66 1016.3 *****  960.2 ***  67 ***** *****  0.01 ***** **
834830 ***** 201504111800 230   2 *** *** BKN * * * 12.5 ** ** ** ** ** ** ** ** *   85   82 1012.1 *****  956.4 *** *** ***** ***** ***** ***** **
834830 ***** 201504120000 140   3 *** *** BKN * * *  2.5 ** ** ** ** ** ** ** ** *   78   70 1013.7 *****  957.8  89  44 ***** ***** ***** ***** **
834830 ***** 201504131200 230   3 *** *** OVC * * * 12.5 ** ** ** ** ** ** ** ** *   72   66 1016.4 *****  959.9 ***  65 ***** ***** ***** ***** **
834830 ***** 201504131800 230   6 *** *** OVC * * * 12.5 ** ** ** ** ** ** ** ** *   89   62 1011.4 *****  955.8 *** *** ***** ***** ***** ***** **
834830 ***** 201504140000 140   3 *** *** *** * * *  2.5 ** ** ** ** ** ** ** ** *   78   69 1013.8 *****  957.6  92  44 ***** ***** ***** ***** **
834830 ***** 201504141200 140   2 *** *** OVC * * * 12.5 ** ** ** ** ** ** ** ** *   73   64 1015.9 *****  959.7 ***  65 ***** ***** ***** ***** **
834830 ***** 201504141800 230   1 *** *** OVC * * * 12.5 ** ** ** ** ** ** ** ** *   88   73 1011.2 *****  955.5 *** *** ***** ***** ***** ***** **
834830 ***** 201504150000 090   2 *** *** OVC * * *  2.5 ** ** ** ** ** ** ** ** *   79   66 1013.9 *****  957.8  90  44 ***** ***** ***** ***** **
834830 ***** 201504151200 050   3 *** *** OVC * * * 12.5 ** ** ** ** ** ** ** ** *   75   64 1015.7 *****  959.6 ***  73 ***** ***** ***** ***** **
834830 ***** 201504151800 320   1 *** *** BKN * * * 12.5 ** ** ** ** ** ** ** ** *   88   64 1009.5 *****  954.2 *** *** ***** ***** ***** ***** **
834830 ***** 201504160000 230   1 *** *** OVC * * *  2.5 ** ** ** ** ** ** ** ** *   78   69 1012.4 *****  956.4  90  44 ***** ***** ***** ***** **
834830 ***** 201504161200 050   1 *** *** OVC * * *  6.2 ** ** ** ** ** ** ** ** *   78   68 1013.2 *****  957.4 ***  72 ***** ***** ***** ***** **
834830 ***** 201504161800 140   3 ***  26 OVC * * * 12.5 ** ** ** ** ** ** ** ** *   88   69 1009.2 *****  953.9 *** *** ***** ***** ***** ***** **
834830 ***** 201504170000 230   2 *** *** OVC * * *  2.5 ** ** ** ** ** ** ** ** *   80   72 1011.0 *****  955.4  91  45 ***** ***** ***** ***** **
834830 ***** 201504171200 270   2 *** *** SCT * * * 12.5 ** ** ** ** ** ** ** ** *   78   70 1014.3 *****  958.5 ***  70 ***** ***** ***** ***** **
834830 ***** 201504171800 140   2 *** *** BKN * * * 12.5 ** ** ** ** ** ** ** ** *   94   70 1008.4 *****  953.5 *** *** ***** ***** ***** ***** **
834830 ***** 201504180000 270   7 *** *** OVC * * *  2.5 21 ** ** ** ** ** ** ** 6   74   71 1012.7 *****  956.6  94  46 *****  0.63 ***** ***** **
834830 ***** 201504181200 050   3 *** *** BKN * * * 12.5 01 ** ** ** ** ** ** ** 6   77   70 1015.4 *****  959.1 ***  72 ***** *****  0.87 ***** **
834830 ***** 201504181800 050   2 *** *** SCT * * * 12.5 ** ** ** ** ** ** ** ** *   90   74 1008.5 *****  953.8 *** *** ***** ***** ***** ***** **
834830 ***** 201504201200 230   2 *** *** BKN * * * 12.5 ** ** ** ** ** ** ** ** *   76   71 1012.6 *****  956.8 ***  71 ***** ***** ***** ***** **
834830 ***** 201504201800 050   3 *** *** BKN * * * 12.5 ** ** ** ** ** ** ** ** *   92   75 1006.4 *****  951.5 *** *** ***** ***** ***** ***** **
834830 ***** 201504210000 230   1 *** *** *** * * *  2.5 ** ** ** ** ** ** ** ** *   79   71 1010.5 *****  954.7  94  48 ***** ***** ***** ***** **
834830 ***** 201504221200 180   2 *** *** OVC * * * 12.5 ** ** ** ** ** ** ** ** *   77   71 1011.7 *****  956.2 ***  72 ***** ***** ***** ***** **
834830 ***** 201504221800 140   8 *** *** OVC * * * 12.5 ** ** ** ** ** ** ** ** *   88   71 1008.0 *****  952.9 *** *** ***** ***** ***** ***** **
834830 ***** 201504230000 230   1 *** *** OVC * * *  2.5 ** ** ** ** ** ** ** ** *   80   74 1011.4 *****  955.8  92  46 ***** ***** ***** ***** **
834830 ***** 201504231200 090   7 *** *** OVC * * * 12.5 ** ** ** ** ** ** ** ** *   81   71 1014.4 *****  958.6 ***  74 ***** ***** ***** ***** **
834830 ***** 201504231800 050   5 *** *** OVC * * * 12.5 ** ** ** ** ** ** ** ** *   89   74 1009.2 *****  954.2 *** *** ***** ***** ***** ***** **
834830 ***** 201504240000 230   2 *** *** OVC * * *  2.5 02 ** ** ** ** ** ** ** 6   74   72 1013.6 *****  957.7  91  46 *****  0.51 ***** ***** **
834830 ***** 201504241200 090   3 *** *** BKN * * * 12.5 02 ** ** ** ** ** ** ** 6   79   71 1015.9 *****  959.7 ***  71 ***** *****  0.55 ***** **
834830 ***** 201504241800 090   3 *** *** BKN * * * 12.5 ** ** ** ** ** ** ** ** *   89   73 1010.5 *****  955.2 *** *** ***** ***** ***** ***** **
834830 ***** 201504250000 050   1 *** *** OVC * * *  2.5 02 ** ** ** ** ** ** ** 6   76   74 1013.7 *****  957.7  91  47 *****  0.04 ***** ***** **
834830 ***** 201504251200 230   2 *** *** OVC * * * 12.5 02 ** ** ** ** ** ** ** 6   76   73 1015.1 *****  958.9 ***  72 ***** *****  0.04 ***** **
834830 ***** 201504271200 050   5 *** *** BKN * * * 12.5 02 ** ** ** ** ** ** ** 6   77   66 1014.9 *****  958.9 ***  70 ***** *****  0.20 ***** **
834830 ***** 201504271800 230   3 *** *** SCT * * * 12.5 ** ** ** ** ** ** ** ** *   85   69 1010.9 *****  955.2 *** *** ***** ***** ***** ***** **
834830 ***** 201504280000 230   2 *** *** SCT * * *  2.5 ** ** ** ** ** ** ** ** *   74   70 1013.0 *****  956.8  88  46 ***** ***** ***** ***** **
834830 ***** 201504281200 230   1 *** *** BKN * * * 12.5 ** ** ** ** ** ** ** ** *   72   65 1015.1 *****  958.6 ***  65 ***** ***** ***** ***** **
834830 ***** 201504281800 180   2 *** *** BKN * * * 12.5 ** ** ** ** ** ** ** ** *   85   65 1010.3 *****  954.4 *** *** ***** ***** ***** ***** **
834830 ***** 201504290000 230   2 *** *** BKN * * *  2.5 ** ** ** ** ** ** ** ** *   74   68 1012.0 *****  955.6  88  45 ***** ***** ***** ***** **
834830 ***** 201504291200 320   1 *** *** OVC * * * 12.5 ** ** ** ** ** ** ** ** *   73   67 1014.1 *****  957.6 ***  65 ***** ***** ***** ***** **
834830 ***** 201504291800 180   2 *** *** OVC * * * 12.5 ** ** ** ** ** ** ** ** *   86   63 1009.8 *****  954.0 *** *** ***** ***** ***** ***** **
834830 ***** 201504300000 230   3 *** *** OVC * * *  2.5 ** ** ** ** ** ** ** ** *   74   67 1012.6 *****  956.2  87  45 ***** ***** ***** ***** **
834830 ***** 201504301200 140   2 *** *** BKN * * * 12.5 ** ** ** ** ** ** ** ** *   74   67 1014.6 *****  958.2 ***  69 ***** ***** ***** ***** **
834830 ***** 201504301800 320   3 *** *** BKN * * * 12.5 ** ** ** ** ** ** ** ** *   87   65 1008.4 *****  953.2 *** *** ***** ***** ***** ***** **
834830 ***** 201505010000 050   2 *** *** OVC * * *  2.5 ** ** ** ** ** ** ** ** *   71   70 1013.6 *****  957.1  88  46 ***** ***** ***** ***** **
834830 ***** 201505021200 050   3 *** *** BKN * * * 12.5 ** ** ** ** ** ** ** ** *   75   65 1015.9 *****  959.4 ***  65 ***** ***** ***** ***** **
834830 ***** 201505041200 050   7 *** *** SCT * * * 12.5 ** ** ** ** ** ** ** ** *   76   68 1015.0 *****  959.0 ***  67 ***** ***** ***** ***** **
834830 ***** 201505041800 320   3 *** *** OVC * * * 12.5 ** ** ** ** ** ** ** ** *   90   69 1009.7 *****  954.3 *** *** ***** ***** ***** ***** **
834830 ***** 201505051200 230   1 *** *** OVC * * * 12.5 ** ** ** ** ** ** ** ** *   74   71 1015.1 *****  958.9 ***  72 ***** ***** ***** ***** **
834830 ***** 201505051800 180   2 *** *** OVC * * * 12.5 ** ** ** ** ** ** ** ** *   81   72 1010.7 *****  955.0 *** *** ***** ***** ***** ***** **
834830 ***** 201505060000 230   3 *** *** OVC * * *  2.5 ** ** ** ** ** ** ** ** *   77   71 1013.6 *****  957.3  84  47 ***** ***** ***** ***** **
834830 ***** 201505061200 230   2 *** *** OVC * * * 12.5 ** ** ** ** ** ** ** ** *   75   70 1015.2 *****  959.0 ***  73 ***** ***** ***** ***** **
834830 ***** 201505070000 140   2 *** *** OVC * * *  2.5 ** ** ** ** ** ** ** ** *   76   70 1013.2 *****  957.0  87  46 ***** ***** ***** ***** **
834830 ***** 201505071200 230   2 *** *** BKN * * * 12.5 ** ** ** ** ** ** ** ** *   74   70 1013.7 *****  957.4 ***  70 ***** ***** ***** ***** **
834830 ***** 201505080000 230   1 *** *** *** * * *  2.5 ** ** ** ** ** ** ** ** *   77   70 1012.4 *****  956.3  88  46 ***** ***** ***** ***** **
834830 ***** 201505091200 230   5 *** *** OVC * * * 12.5 ** ** ** ** ** ** ** ** *   70   63 1019.0 *****  962.2 ***  64 ***** ***** ***** ***** **
834830 ***** 201505091800 050   3 *** *** SCT * * * 12.5 ** ** ** ** ** ** ** ** *   86   67 1014.1 *****  958.0 *** *** ***** ***** ***** ***** **
834830 ***** 201505100000 050   3 *** *** SCT * * *  2.5 ** ** ** ** ** ** ** ** *   75   67 1016.3 *****  959.6  88  45 ***** ***** ***** ***** **
834830 ***** 201505111200 230   6 *** *** OVC * * * 12.5 16 ** ** ** ** ** ** ** 2   69   65 1016.3 *****  959.5 ***  65 ***** ***** ***** ***** **
834830 ***** 201505111800 050   6 *** *** OVC * * * 12.5 03 ** ** ** ** ** ** ** 5   75   65 1011.0 *****  954.5 *** *** *****  0.00 ***** ***** **
834830 ***** 201505120000 140   1 *** *** OVC * * *  2.5 ** ** ** ** ** ** ** ** *   70   65 1013.4 *****  956.5  76  47 ***** ***** ***** ***** **
834830 ***** 201505121200 230   2 *** *** BKN * * * 12.5 02 ** ** ** ** ** ** ** 5   70   64 1015.6 *****  958.6 ***  65 ***** *****  0.00 ***** **
834830 ***** 201505131200 230   3 *** *** OVC * * * 12.5 ** ** ** ** ** ** ** ** *   68   62 1016.9 *****  959.8 ***  63 ***** ***** ***** ***** **
834830 ***** 201505131800 230   3 *** *** OVC * * * 12.5 ** ** ** ** ** ** ** ** *   85   66 1017.4 *****  961.0 *** *** ***** ***** ***** ***** **
834830 ***** 201505140000 180   2 *** *** OVC * * *  2.5 ** ** ** ** ** ** ** ** *   73   64 1016.0 *****  959.1  87  44 ***** ***** ***** ***** **
834830 ***** 201505141200 050   8 *** *** OVC * * * 12.5 ** ** ** ** ** ** ** ** *   74   64 1017.7 *****  961.0 ***  68 ***** ***** ***** ***** **
834830 ***** 201505141800 140   5 *** *** OVC * * * 12.5 ** ** ** ** ** ** ** ** *   79   67 1009.4 *****  953.3 *** *** ***** ***** ***** ***** **
834830 ***** 201505150000 050   6 *** *** OVC * * *  2.5 ** ** ** ** ** ** ** ** *   73   64 1017.3 *****  960.6  80  45 ***** ***** ***** ***** **
834830 ***** 201505151200 140   1 *** *** OVC * * * 12.5 ** ** ** ** ** ** ** ** *   70   63 1019.7 *****  962.7 ***  65 ***** ***** ***** ***** **
834830 ***** 201505151800 050   3 *** *** OVC * * * 12.5 ** ** ** ** ** ** ** ** *   81   63 1015.1 *****  958.8 *** *** ***** ***** ***** ***** **
834830 ***** 201505160000 050   5 *** *** OVC * * *  2.5 ** ** ** ** ** ** ** ** *   74   61 1017.9 *****  961.9  84  44 ***** ***** ***** ***** **
834830 ***** 201505161200 050   6 *** *** OVC * * * 12.5 ** ** ** ** ** ** ** ** *   73   60 1020.2 *****  963.4 ***  64 ***** ***** ***** ***** **
834830 ***** 201505161800 140   6 *** *** OVC * * * 12.5 ** ** ** ** ** ** ** ** *   82   61 1016.5 *****  960.0 *** *** ***** ***** ***** ***** **
834830 ***** 201505170000 230   2 *** *** *** * * *  2.5 ** ** ** ** ** ** ** ** *   70   63 1018.1 *****  961.4  84  44 ***** ***** ***** ***** **
834830 ***** 201505181200 230   2 *** *** OVC * * * 12.5 ** ** ** ** ** ** ** ** *   70   63 ****** *****  963.2 ***  63 ***** ***** ***** ***** **
834830 ***** 201505181800 050   7 *** *** BKN * * * 12.5 ** ** ** ** ** ** ** ** *   83   66 1015.2 *****  958.8 *** *** ***** ***** ***** ***** **
834830 ***** 201505190000 230   2 *** *** OVC * * *  2.5 ** ** ** ** ** ** ** ** *   74   66 1018.5 *****  961.5  85  45 ***** ***** ***** ***** **
834830 ***** 201505191200 230   1 *** *** OVC * * * 12.5 ** ** ** ** ** ** ** ** *   71   65 1019.1 *****  962.3 ***  67 ***** ***** ***** ***** **
834830 ***** 201505191800 140   3 *** *** OVC * * * 12.5 ** ** ** ** ** ** ** ** *   84   65 1014.2 *****  958.0 *** *** ***** ***** ***** ***** **
834830 ***** 201505200000 090   2 *** *** *** * * *  2.5 ** ** ** ** ** ** ** ** *   73   63 1016.2 *****  959.4  88  45 ***** ***** ***** ***** **
834830 ***** 201505201200 230   3 *** *** BKN * * * 12.5 ** ** ** ** ** ** ** ** *   68   62 1018.9 *****  961.7 *** *** ***** ***** ***** ***** **
834830 ***** 201505211200 050   5 *** *** SCT * * * 12.5 ** ** ** ** ** ** ** ** *   72   63 1020.1 *****  963.3 ***  62 ***** ***** ***** ***** **
834830 ***** 201505231200 230   2 *** *** BKN * * * 12.5 ** ** ** ** ** ** ** ** *   67   59 1020.8 *****  963.4 ***  59 ***** ***** ***** ***** **
834830 ***** 201505231800 050   3 *** *** OVC * * * 12.5 ** ** ** ** ** ** ** ** *   82   66 1015.4 *****  958.7 *** *** ***** ***** ***** ***** **
834830 ***** 201505240000 230   1 *** *** *** * * *  2.5 ** ** ** ** ** ** ** ** *   72   62 1017.2 *****  960.0  86  45 ***** ***** ***** ***** **
834830 ***** 201505251200 230   1 *** *** SCT * * * 12.5 ** ** ** ** ** ** ** ** *   69   62 1017.9 *****  960.5 ***  59 ***** ***** ***** ***** **
834830 ***** 201505251800 140   6 *** *** SCT * * * 12.5 ** ** ** ** ** ** ** ** *   86   62 1012.0 *****  955.9 *** *** ***** ***** ***** ***** **
834830 ***** 201505260000 230   1 *** *** *** * * *  2.5 ** ** ** ** ** ** ** ** *   73   64 1014.4 *****  957.6  89  44 ***** ***** ***** ***** **
834830 ***** 201505261200 230   2 *** *** *** * * * 12.5 ** ** ** ** ** ** ** ** *   68   63 1017.4 *****  960.4 ***  61 ***** ***** ***** ***** **
834830 ***** 201505270000 230   1 *** *** *** * * *  2.5 ** ** ** ** ** ** ** ** *   73   61 1013.9 *****  957.1  91  44 ***** ***** ***** ***** **
834830 ***** 201505271200 230   1 *** *** *** * * * 12.5 ** ** ** ** ** ** ** ** *   69   62 1016.5 *****  959.5 ***  60 ***** ***** ***** ***** **
834830 ***** 201505271800 320   2 *** *** SCT * * * 12.5 ** ** ** ** ** ** ** ** *   89   68 1011.5 *****  955.5 *** *** ***** ***** ***** ***** **
834830 ***** 201505280000 230   2 *** *** *** * * *  2.5 ** ** ** ** ** ** ** ** *   74   65 1014.4 *****  957.7  91  44 ***** ***** ***** ***** **
834830 ***** 201505281200 140   1 *** *** *** * * * 12.5 ** ** ** ** ** ** ** ** *   71   63 1015.8 *****  959.1 ***  63 ***** ***** ***** ***** **
834830 ***** 201505281800 320   2 *** *** BKN * * * 12.5 ** ** ** ** ** ** ** ** *   90   67 1009.6 *****  954.0 *** *** ***** ***** ***** ***** **
834830 ***** 201505291200 180   6 *** *** OVC * * * 12.5 03 ** ** ** ** ** ** ** 5   67   60 1015.7 *****  958.8 ***  66 ***** *****  0.00 ***** **
834830 ***** 201505300000 230   2 *** *** *** * * *  2.5 ** ** ** ** ** ** ** ** *   72   64 1013.0 *****  956.0  84  45 ***** ***** ***** ***** **
834830 ***** 201505301200 230   2 *** *** OVC * * * 12.5 ** ** ** ** ** ** ** ** *   70   65 1016.1 *****  959.2 ***  65 ***** ***** ***** ***** **
834830 ***** 201505301800 230   1 *** *** SCT * * * 12.5 ** ** ** ** ** ** ** ** *   89   67 1010.8 *****  955.0 *** *** ***** ***** ***** ***** **
834830 ***** 201505310000 230   1 *** *** *** * * *  2.5 ** ** ** ** ** ** ** ** *   75   68 1013.8 *****  957.4  91  45 ***** ***** ***** ***** **
834830 ***** 201506011200 230   3 *** *** SCT * * * 12.5 ** ** ** ** ** ** ** ** *   73   64 1018.1 *****  961.2 ***  64 ***** ***** ***** ***** **
834830 ***** 201506011800 230   2 *** *** BKN * * * 12.5 ** ** ** ** ** ** ** ** *   87   64 1012.0 *****  956.3 *** *** ***** ***** ***** ***** **
834830 ***** 201506020000 230   2 *** *** SCT * * *  2.5 ** ** ** ** ** ** ** ** *   76   65 1014.8 *****  958.4  91  44 ***** ***** ***** ***** **
834830 ***** 201506021200 230   3 *** *** SCT * * * 12.5 ** ** ** ** ** ** ** ** *   74   66 1017.1 *****  960.7 ***  67 ***** ***** ***** ***** **
834830 ***** 201506021800 050   5 *** *** BKN * * * 12.5 ** ** ** ** ** ** ** ** *   87   65 1011.9 *****  956.4 *** *** ***** ***** ***** ***** **
834830 ***** 201506031200 230   1 *** *** OVC * * *  6.2 ** ** ** ** ** ** ** ** *   72   65 1018.9 *****  962.3 ***  68 ***** ***** ***** ***** **
834830 ***** 201506031800 090   5 *** *** OVC * * * 12.5 ** ** ** ** ** ** ** ** *   81   62 1015.5 *****  959.1 *** *** ***** ***** ***** ***** **
834830 ***** 201506051200 230   2 *** *** SCT * * * 12.5 ** ** ** ** ** ** ** ** *   69   62 1020.1 *****  963.0 ***  64 ***** ***** ***** ***** **
834830 ***** 201506051800 050   9 *** *** BKN * * * 12.5 ** ** ** ** ** ** ** ** *   85   63 1014.9 *****  958.6 *** *** ***** ***** ***** ***** **
834830 ***** 201506060000 050   1 *** *** *** * * *  2.5 ** ** ** ** ** ** ** ** *   74   63 1017.2 *****  960.4  87  44 ***** ***** ***** ***** **
834830 ***** 201506061200 090   7 *** *** SCT * * * 12.5 ** ** ** ** ** ** ** ** *   69   61 1018.7 *****  961.6 ***  61 ***** ***** ***** ***** **
834830 ***** 201506070000 230   1 *** *** BKN * * *  2.5 ** ** ** ** ** ** ** ** *   75   64 1016.3 *****  959.5  87  44 ***** ***** ***** ***** **
834830 ***** 201506081200 230   1 *** *** *** * * * 12.5 ** ** ** ** ** ** ** ** *   69   61 1019.4 *****  962.3 ***  60 ***** ***** ***** ***** **
834830 ***** 201506081800 050   3 *** *** SCT * * * 12.5 ** ** ** ** ** ** ** ** *   86   62 1014.0 *****  957.8 *** *** ***** ***** ***** ***** **
834830 ***** 201506090000 230   1 *** *** *** * * *  2.5 ** ** ** ** ** ** ** ** *   70   59 1016.7 *****  959.6  87  44 ***** ***** ***** ***** **
834830 ***** 201506091200 230   2 *** *** *** * * * 12.5 ** ** ** ** ** ** ** ** *   65   58 1018.6 *****  961.2 ***  58 ***** ***** ***** ***** **
834830 ***** 201506091800 230   5 *** *** SCT * * * 12.5 ** ** ** ** ** ** ** ** *   85   55 1013.2 *****  956.8 *** *** ***** ***** ***** ***** **
834830 ***** 201506100000 230   1 *** *** *** * * *  2.5 ** ** ** ** ** ** ** ** *   71   59 1016.3 *****  959.0  88  43 ***** ***** ***** ***** **
834830 ***** 201506101200 230   3 *** *** SCT * * * 12.5 ** ** ** ** ** ** ** ** *   68   59 1018.6 *****  961.3 ***  59 ***** ***** ***** ***** **
834830 ***** 201506101800 230   6 *** *** SCT * * * 12.5 ** ** ** ** ** ** ** ** *   87   63 1013.6 *****  957.4 *** *** ***** ***** ***** ***** **
834830 ***** 201506110000 230   1 *** *** BKN * * *  2.5 ** ** ** ** ** ** ** ** *   73   64 1015.6 *****  958.7  89  44 ***** ***** ***** ***** **
834830 ***** 201506111200 230   3 *** *** OVC * * * 12.5 ** ** ** ** ** ** ** ** *   70   63 1017.9 *****  961.0 ***  66 ***** ***** ***** ***** **
834830 ***** 201506111800 320   3 *** *** BKN * * * 12.5 ** ** ** ** ** ** ** ** *   88   69 1012.2 *****  956.6 *** *** ***** ***** ***** ***** **
834830 ***** 201506120000 140   2 *** *** BKN * * *  2.5 ** ** ** ** ** ** ** ** *   75   63 1015.3 *****  958.6  88  44 ***** ***** ***** ***** **
834830 ***** 201506121800 230   6 *** *** SCT * * * 12.5 ** ** ** ** ** ** ** ** *   88   59 1011.5 *****  916.1 *** *** ***** ***** ***** ***** **
834830 ***** 201506130000 230   2 *** *** *** * * *  2.5 ** ** ** ** ** ** ** ** *   74   63 1014.6 *****  957.9  90  43 ***** ***** ***** ***** **
834830 ***** 201506131200 230   2 *** *** BKN * * * 12.5 ** ** ** ** ** ** ** ** *   70   62 1017.5 *****  960.6 ***  62 ***** ***** ***** ***** **
834830 ***** 201506131800 320   2 *** *** SCT * * * 12.5 ** ** ** ** ** ** ** ** *   86   58 1011.4 *****  955.3 *** *** ***** ***** ***** ***** **
834830 ***** 201506140000 320   2 *** *** *** * * *  2.5 ** ** ** ** ** ** ** ** *   74   61 1014.3 *****  957.6  89  43 ***** ***** ***** ***** **
834830 ***** 201506151200 230   2 *** *** *** * * * 12.5 ** ** ** ** ** ** ** ** *   69   60 1016.1 *****  959.4 ***  59 ***** ***** ***** ***** **
834830 ***** 201506151800 230   5 *** *** SCT * * * 12.5 ** ** ** ** ** ** ** ** *   91   61 1011.4 *****  955.7 *** *** ***** ***** ***** ***** **
834830 ***** 201506160000 140   2 *** *** *** * * *  2.5 ** ** ** ** ** ** ** ** *   75   64 1014.6 *****  957.9  93  43 ***** ***** ***** ***** **
834830 ***** 201506161200 230   3 *** *** *** * * * 12.5 ** ** ** ** ** ** ** ** *   71   64 1016.5 *****  959.8 ***  62 ***** ***** ***** ***** **
834830 ***** 201506161800 230   5 *** *** BKN * * * 12.5 ** ** ** ** ** ** ** ** *   90   60 1011.6 *****  955.7 *** *** ***** ***** ***** ***** **
834830 ***** 201506170000 230   1 *** *** *** * * *  2.5 ** ** ** ** ** ** ** ** *   75   65 1014.6 *****  958.1  92  44 ***** ***** ***** ***** **
834830 ***** 201506171200 140   5 *** *** BKN * * * 12.5 ** ** ** ** ** ** ** ** *   77   66 1017.6 *****  961.3 ***  71 ***** ***** ***** ***** **
834830 ***** 201506171800 050   3 *** *** BKN * * * 12.5 ** ** ** ** ** ** ** ** *   85   67 1013.6 *****  957.7 *** *** ***** ***** ***** ***** **
834830 ***** 201506180000 140   1 *** *** BKN * * *  2.5 ** ** ** ** ** ** ** ** *   77   67 1015.4 *****  959.4  87  44 ***** ***** ***** ***** **
834830 ***** 201506181200 230   1 *** *** OVC * * * 12.5 ** ** ** ** ** ** ** ** *   72   65 1017.8 *****  961.3 ***  65 ***** ***** ***** ***** **
834830 ***** 201506181800 230   2 *** *** BKN * * * 12.5 ** ** ** ** ** ** ** ** *   83   63 1013.7 *****  957.7 *** *** ***** ***** ***** ***** **
834830 ***** 201506190000 230   2 *** *** *** * * *  2.5 ** ** ** ** ** ** ** ** *   73   65 1016.6 *****  959.9  87  45 ***** ***** ***** ***** **
834830 ***** 201506191200 230   1 *** *** *** * * * 12.5 ** ** ** ** ** ** ** ** *   67   61 1019.3 *****  962.1 ***  60 ***** ***** ***** ***** **
834830 ***** 201506191800 140   3 *** *** BKN * * * 12.5 ** ** ** ** ** ** ** ** *   87   60 1013.7 *****  957.5 *** *** ***** ***** ***** ***** **
834830 ***** 201506200000 140   1 *** *** *** * * *  2.5 ** ** ** ** ** ** ** ** *   74   67 1017.1 *****  960.1  90  45 ***** ***** ***** ***** **
834830 ***** 201506201200 140   2 *** *** OVC * * * 12.5 ** ** ** ** ** ** ** ** *   69   62 1021.6 *****  964.5 ***  62 ***** ***** ***** ***** **
834830 ***** 201506201800 090   8 *** *** BKN * * * 12.5 ** ** ** ** ** ** ** ** *   84 **** 1017.8 *****  961.4 *** *** ***** ***** ***** ***** **
834830 ***** 201506210000 140   7 *** *** BKN * * *  2.5 ** ** ** ** ** ** ** ** *   73   60 1021.1 *****  963.9  86  43 ***** ***** ***** ***** **
834830 ***** 201506221200 230   3 *** *** OVC * * * 12.5 ** ** ** ** ** ** ** ** *   65   59 1022.5 *****  965.7 ***  58 ***** ***** ***** ***** **
834830 ***** 201506221800 050   7 *** *** OVC * * * 12.5 ** ** ** ** ** ** ** ** *   82   64 1018.7 *****  961.7 *** *** ***** ***** ***** ***** **
834830 ***** 201506230000 230   1 *** *** SCT * * *  2.5 ** ** ** ** ** ** ** ** *   69   60 1020.2 *****  962.6  83  45 ***** ***** ***** ***** **
834830 ***** 201506231200 230   3 *** *** *** * * * 12.5 ** ** ** ** ** ** ** ** *   65   58 1023.3 *****  965.5 ***  56 ***** ***** ***** ***** **
834830 ***** 201506231800 230   1 *** *** SCT * * * 12.5 ** ** ** ** ** ** ** ** *   84   62 1018.0 *****  961.2 *** *** ***** ***** ***** ***** **
834830 ***** 201506240000 230   1 *** *** BKN * * *  2.5 ** ** ** ** ** ** ** ** *   70   60 1020.7 *****  963.1  86  44 ***** ***** ***** ***** **
834830 ***** 201506241200 230   2 *** *** SCT * * * 12.5 ** ** ** ** ** ** ** ** *   67   58 1022.7 *****  965.1 ***  58 ***** ***** ***** ***** **
834830 ***** 201506241800 140   6 *** *** OVC * * * 12.5 ** ** ** ** ** ** ** ** *   85   63 1017.6 *****  960.9 *** *** ***** ***** ***** ***** **
834830 ***** 201506250000 140   2 *** *** OVC * * *  2.5 ** ** ** ** ** ** ** ** *   77   64 1020.8 *****  963.7  87  44 ***** ***** ***** ***** **
834830 ***** 201506251200 090   6 *** *** BKN * * * 12.5 ** ** ** ** ** ** ** ** *   70   62 1023.5 *****  966.5 ***  63 ***** ***** ***** ***** **
834830 ***** 201506251800 050   9 *** *** OVC * * * 12.5 ** ** ** ** ** ** ** ** *   80   61 1020.6 *****  963.8 *** *** ***** ***** ***** ***** **
834830 ***** 201506261200 140   5 *** *** SCT * * * 12.5 ** ** ** ** ** ** ** ** *   68   56 ****** *****  968.6 ***  60 ***** ***** ***** ***** **
834830 ***** 201506261800 140   5 *** *** BKN * * * 12.5 ** ** ** ** ** ** ** ** *   81   58 1021.7 *****  964.8 *** *** ***** ***** ***** ***** **
834830 ***** 201506270000 140   2 *** *** *** * * *  2.5 ** ** ** ** ** ** ** ** *   68   54 1014.3 *****  967.2  83  42 ***** ***** ***** ***** **
834830 ***** 201506271200 ***   0 *** *** *** * * * 12.5 ** ** ** ** ** ** ** ** *   61   54 1026.4 *****  968.1 ***  53 ***** ***** ***** ***** **
834830 ***** 201506291200 230   1 *** *** BKN * * * 12.5 ** ** ** ** ** ** ** ** *   84   57 1021.4 *****  963.8 ***  58 ***** ***** ***** ***** **
834830 ***** 201506291800 050   7 *** *** BKN * * * 12.5 ** ** ** ** ** ** ** ** *   80   60 1016.8 *****  959.8 *** *** ***** ***** ***** ***** **
834830 ***** 201506300000 050   5 *** *** *** * * *  2.5 ** ** ** ** ** ** ** ** *   71   60 1018.9 *****  961.5  82  44 ***** ***** ***** ***** **
834830 ***** 201506301200 230   1 *** *** SCT * * * 12.5 ** ** ** ** ** ** ** ** *   65   59 1021.7 *****  964.1 ***  58 ***** ***** ***** ***** **
834830 ***** 201506301800 360   3 *** *** OVC * * * 12.5 ** ** ** ** ** ** ** ** *   85   62 1015.8 *****  959.0 *** *** ***** ***** ***** ***** **
834830 ***** 201507010000 230   1 *** *** OVC * * *  2.5 ** ** ** ** ** ** ** ** *   73   64 1017.9 *****  960.6  87  44 ***** ***** ***** ***** **
834830 ***** 201507011200 320   2 *** *** BKN * * * 12.5 ** ** ** ** ** ** ** ** *   70   61 1019.8 *****  962.8 ***  60 ***** ***** ***** ***** **
834830 ***** 201507011800 320   2 *** *** BKN * * * 12.5 ** ** ** ** ** ** ** ** *   87   62 1014.8 *****  958.5 *** *** ***** ***** ***** ***** **
834830 ***** 201507020000 230   1 *** *** OVC * * *  2.5 ** ** ** ** ** ** ** ** *   72   59 1016.8 *****  959.8  89  43 ***** ***** ***** ***** **
834830 ***** 201507021200 230   2 *** *** OVC * * * 12.5 ** ** ** ** ** ** ** ** *   68   60 1018.7 *****  961.5 ***  60 ***** ***** ***** ***** **
834830 ***** 201507021800 230   3 *** *** OVC * * * 12.5 ** ** ** ** ** ** ** ** *   87   64 1012.8 *****  956.5 *** *** ***** ***** ***** ***** **
834830 ***** 201507030000 320   1 *** *** OVC * * *  2.5 ** ** ** ** ** ** ** ** *   75   61 1014.5 *****  957.8  89  44 ***** ***** ***** ***** **
834830 ***** 201507031200 050   7 *** *** OVC * * * 12.5 ** ** ** ** ** ** ** ** *   72   60 1017.3 *****  960.6 ***  63 ***** ***** ***** ***** **
834830 ***** 201507031800 050   2 *** *** OVC * * * 12.5 ** ** ** ** ** ** ** ** *   86   56 1011.8 *****  955.7 *** *** ***** ***** ***** ***** **
834830 ***** 201507040000 230   1 *** *** *** * * *  2.5 ** ** ** ** ** ** ** ** *   73   62 1014.5 *****  957.9  88  43 ***** ***** ***** ***** **
834830 ***** 201507041200 230   1 *** *** BKN * * * 12.5 ** ** ** ** ** ** ** ** *   67   59 1016.4 *****  959.4 ***  59 ***** ***** ***** ***** **
834830 ***** 201507041800 320   5 *** *** OVC * * * 12.5 ** ** ** ** ** ** ** ** *   89   61 1011.3 *****  955.4 *** *** ***** ***** ***** ***** **
834830 ***** 201507050000 180   2 *** *** SCT * * *  2.5 ** ** ** ** ** ** ** ** *   75   65 1013.9 *****  957.1  91  44 ***** ***** ***** ***** **
834830 ***** 201507061200 140   6 *** *** OVC * * * 12.5 ** ** ** ** ** ** ** ** *   74   62 1017.7 *****  960.7 ***  67 ***** ***** ***** ***** **
834830 ***** 201507071200 230   1 *** *** OVC * * * 12.5 ** ** ** ** ** ** ** ** *   65   60 1018.3 *****  961.0 ***  62 ***** ***** ***** ***** **
834830 ***** 201507071800 050   7 *** *** OVC * * * 12.5 ** ** ** ** ** ** ** ** *   76   60 1015.5 *****  958.7 *** *** ***** ***** ***** ***** **
834830 ***** 201507081200 050   6 *** *** BKN * * * 12.5 ** ** ** ** ** ** ** ** *   68   60 1017.5 *****  960.4 ***  63 ***** ***** ***** ***** **
834830 ***** 201507081800 270   5 *** *** OVC * * * 12.5 ** ** ** ** ** ** ** ** *   82   64 1014.0 *****  957.5 *** *** ***** ***** ***** ***** **
834830 ***** 201507090000 230   2 *** *** OVC * * *  2.5 ** ** ** ** ** ** ** ** *   73   61 1017.1 *****  960.1  84  44 ***** ***** ***** ***** **
834830 ***** 201507091200 230   2 *** *** OVC * * * 12.5 ** ** ** ** ** ** ** ** *   68   60 1018.0 *****  961.0 ***  63 ***** ***** ***** ***** **
834830 ***** 201507091800 230   2 *** *** OVC * * * 12.5 ** ** ** ** ** ** ** ** *   82   61 1017.0 *****  960.5 *** *** ***** ***** ***** ***** **
834830 ***** 201507100000 230   2 *** *** BKN * * *  2.5 ** ** ** ** ** ** ** ** *   71   62 1017.6 *****  960.4  84  44 ***** ***** ***** ***** **
834830 ***** 201507101200 230   5 *** *** OVC * * * 12.5 ** ** ** ** ** ** ** ** *   67   60 1020.2 *****  962.8 ***  61 ***** ***** ***** ***** **
834830 ***** 201507101800 050   7 *** *** BKN * * * 12.5 ** ** ** ** ** ** ** ** *   89   62 1015.3 *****  959.1 *** *** ***** ***** ***** ***** **
834830 ***** 201507110000 050   1 *** *** *** * * *  2.5 ** ** ** ** ** ** ** ** *   78   64 1014.2 *****  960.5  90  43 ***** ***** ***** ***** **
834830 ***** 201507111200 230   2 *** *** *** * * * 12.5 ** ** ** ** ** ** ** ** *   68   60 1019.2 *****  962.4 ***  60 ***** ***** ***** ***** **
834830 ***** 201507111800 050   3 *** *** SCT * * * 12.5 ** ** ** ** ** ** ** ** *   88   64 1015.0 *****  958.8 *** *** ***** ***** ***** ***** **
834830 ***** 201507120000 050   6 *** *** *** * * *  2.5 ** ** ** ** ** ** ** ** *   78   60 1018.0 *****  961.2  90  42 ***** ***** ***** ***** **
834830 ***** 201507131200 230   2 *** *** *** * * * 12.5 ** ** ** ** ** ** ** ** *   68   59 1018.9 *****  962.2 ***  60 ***** ***** ***** ***** **
834830 ***** 201507141200 320   2 *** *** OVC * * * 12.5 ** ** ** ** ** ** ** ** *   70   63 1018.8 *****  962.1 ***  62 ***** ***** ***** ***** **
834830 ***** 201507141800 140   6 *** *** OVC * * * 12.5 ** ** ** ** ** ** ** ** *   87   66 1013.8 *****  957.8 *** *** ***** ***** ***** ***** **
834830 ***** 201507150000 050   3 *** *** *** * * *  2.5 ** ** ** ** ** ** ** ** *   76   66 1018.1 *****  961.3  89  44 ***** ***** ***** ***** **
834830 ***** 201507151200 230   2 *** *** OVC * * * 12.5 ** ** ** ** ** ** ** ** *   67   61 1020.9 *****  963.8 ***  60 ***** ***** ***** ***** **
834830 ***** 201507151800 050   7 *** *** SCT * * * 12.5 ** ** ** ** ** ** ** ** *   86   55 1016.1 *****  959.8 *** *** ***** ***** ***** ***** **
834830 ***** 201507160000 090   5 *** *** *** * * *  2.5 ** ** ** ** ** ** ** ** *   77   61 1018.7 *****  961.7  89  42 ***** ***** ***** ***** **
834830 ***** 201507161200 090   6 *** *** SCT * * * 12.5 ** ** ** ** ** ** ** ** *   73   58 1021.9 *****  965.1 ***  62 ***** ***** ***** ***** **
834830 ***** 201507161800 050   8 *** *** BKN * * * 12.5 ** ** ** ** ** ** ** ** *   83   59 1017.4 *****  961.1 *** *** ***** ***** ***** ***** **
834830 ***** 201507171200 140   6 *** *** OVC * * * 12.5 ** ** ** ** ** ** ** ** *   71   59 1021.9 *****  964.8 ***  63 ***** ***** ***** ***** **
834830 ***** 201507171800 050   7 *** *** OVC * * * 12.5 ** ** ** ** ** ** ** ** *   79   58 1018.8 *****  962.1 *** *** ***** ***** ***** ***** **
834830 ***** 201507180000 230   2 *** *** OVC * * *  2.5 ** ** ** ** ** ** ** ** *   71   54 1019.9 *****  962.8  82  42 ***** ***** ***** ***** **
834830 ***** 201507181200 050  10 *** *** SCT * * * 12.5 ** ** ** ** ** ** ** ** *   72   59 1021.1 *****  964.0 ***  60 ***** ***** ***** ***** **
834830 ***** 201507181800 050   6 *** *** BKN * * * 12.5 ** ** ** ** ** ** ** ** *   81   53 1017.6 *****  960.8 *** *** ***** ***** ***** ***** **
834830 ***** 201507190000 140   3 *** *** SCT * * *  2.5 ** ** ** ** ** ** ** ** *   73   63 1019.1 *****  962.1  85  43 ***** ***** ***** ***** **
834830 ***** 201507201200 140   7 *** *** BKN * * * 12.5 ** ** ** ** ** ** ** ** *   70   56 1021.0 *****  964.0 ***  64 ***** ***** ***** ***** **
834830 ***** 201507201800 140   2 *** *** SCT * * * 12.5 ** ** ** ** ** ** ** ** *   82   60 1015.2 *****  958.9 *** *** ***** ***** ***** ***** **
834830 ***** 201507210000 230   2 *** *** *** * * *  2.5 ** ** ** ** ** ** ** ** *   71   59 1017.4 *****  960.4  85  43 ***** ***** ***** ***** **
834830 ***** 201507211200 *** *** *** *** SCT * * * 12.5 ** ** ** ** ** ** ** ** *   71   59 1019.4 *****  962.3 ***  56 ***** ***** ***** ***** **
834830 ***** 201507211800 360   5 *** *** SCT * * * 12.5 ** ** ** ** ** ** ** ** *   85   60 1014.3 *****  957.7 *** *** ***** ***** ***** ***** **
834830 ***** 201507220000 230   1 *** *** *** * * *  2.5 ** ** ** ** ** ** ** ** *   72   60 1015.7 *****  958.8  87  43 ***** ***** ***** ***** **
834830 ***** 201507221200 230   3 *** *** SCT * * * 12.5 ** ** ** ** ** ** ** ** *   66   55 1018.8 *****  961.5 ***  56 ***** ***** ***** ***** **
834830 ***** 201507221800 140   6 *** *** BKN * * * 12.5 ** ** ** ** ** ** ** ** *   86   58 1014.3 *****  957.8 *** *** ***** ***** ***** ***** **
834830 ***** 201507230000 050   3 *** *** BKN * * *  2.5 ** ** ** ** ** ** ** ** *   77   60 1017.5 *****  960.6  89  42 ***** ***** ***** ***** **
834830 ***** 201507231200 050   7 *** *** SCT * * * 12.5 ** ** ** ** ** ** ** ** *   73   60 1020.8 *****  964.2 ***  65 ***** ***** ***** ***** **
834830 ***** 201507231800 050   5 *** *** BKN * * * 12.5 ** ** ** ** ** ** ** ** *   83   55 1016.1 *****  959.9 *** *** ***** ***** ***** ***** **
834830 ***** 201507240000 140   6 *** *** *** * * *  2.5 ** ** ** ** ** ** ** ** *   75   60 1018.5 *****  961.9  85  42 ***** ***** ***** ***** **
834830 ***** 201507241200 230   2 *** *** *** * * * 12.5 ** ** ** ** ** ** ** ** *   68   58 1021.3 *****  964.2 ***  59 ***** ***** ***** ***** **
834830 ***** 201507241800 140   3 *** *** BKN * * * 12.5 ** ** ** ** ** ** ** ** *   85   58 1014.9 *****  958.9 *** *** ***** ***** ***** ***** **
834830 ***** 201507251200 050   1 *** *** BKN * * * 12.5 ** ** ** ** ** ** ** ** *   69   59 1018.3 *****  961.4 ***  61 ***** ***** ***** ***** **
834830 ***** 201507251800 230   3 *** *** SCT * * * 12.5 ** ** ** ** ** ** ** ** *   87   63 1012.8 *****  956.9 *** *** ***** ***** ***** ***** **
834830 ***** 201507260000 230   1 *** *** SCT * * *  2.5 ** ** ** ** ** ** ** ** *   75   61 1015.7 *****  958.9  89  43 ***** ***** ***** ***** **
834830 ***** 201507271200 230   3 *** *** SCT * * * 12.5 ** ** ** ** ** ** ** ** *   72   61 1016.6 *****  960.1 ***  62 ***** ***** ***** ***** **
834830 ***** 201507271800 090   9 *** *** BKN * * * 12.5 ** ** ** ** ** ** ** ** *   87   64 1012.0 *****  956.1 *** *** ***** ***** ***** ***** **
834830 ***** 201507280000 050   2 *** *** BKN * * *  2.5 ** ** ** ** ** ** ** ** *   76   61 1015.4 *****  959.0  91  43 ***** ***** ***** ***** **
834830 ***** 201507281200 320   1 *** *** SCT * * * 12.5 ** ** ** ** ** ** ** ** *   71   61 1018.0 *****  961.3 ***  61 ***** ***** ***** ***** **
834830 ***** 201507281800 320   2 *** *** BKN * * * 12.5 ** ** ** ** ** ** ** ** *   70   63 1013.6 *****  957.6 *** *** ***** ***** ***** ***** **
834830 ***** 201507290000 230   1 *** *** SCT * * *  2.5 ** ** ** ** ** ** ** ** *   80   61 1016.0 *****  959.7  90  42 ***** ***** ***** ***** **
834830 ***** 201507291200 320   3 *** *** *** * * * 12.5 ** ** ** ** ** ** ** ** *   70   60 1019.1 *****  962.5 ***  62 ***** ***** ***** ***** **
834830 ***** 201507291800 140   7 *** *** BKN * * * 12.5 ** ** ** ** ** ** ** ** *   87   59 1015.5 *****  959.3 *** *** ***** ***** ***** ***** **
834830 ***** 201507300000 090   8 *** *** *** * * *  2.5 ** ** ** ** ** ** ** ** *   77   53 1018.2 *****  961.5  90  41 ***** ***** ***** ***** **
834830 ***** 201507301200 140   3 *** 722 CLR * * * 12.5 ** ** ** ** ** ** ** ** *   68   58 1020.5 *****  963.5 ***  58 ***** ***** ***** ***** **
834830 ***** 201507301800 090   7 *** 722 CLR * * * 12.5 ** ** ** ** ** ** ** ** *   85   58 1016.1 *****  959.5 *** *** ***** ***** ***** ***** **
834830 ***** 201507310000 050   3 *** 722 CLR * * *  2.5 ** ** ** ** ** ** ** ** *   75   56 1017.8 *****  960.9 *** *** ***** ***** ***** ***** **
834830 ***** 201507311200 230   2 *** 722 CLR * * * 12.5 ** ** ** ** ** ** ** ** *   68   58 1020.0 *****  963.0 ***  58 ***** ***** ***** ***** **
834830 ***** 201507311800 050   5 *** *** SCT * * * 12.5 ** ** ** ** ** ** ** ** *   85   62 1015.6 *****  959.1 *** *** ***** ***** ***** ***** **
834830 ***** 201508011200 090   7 *** 722 CLR * * * 12.5 ** ** ** ** ** ** ** ** *   73   60 1019.1 *****  962.6 ***  60 ***** ***** ***** ***** **
834830 ***** 201508011800 050   3 *** *** SCT * * * 12.5 ** ** ** ** ** ** ** ** *   86   57 1014.7 *****  958.5 *** *** ***** ***** ***** ***** **
834830 ***** 201508020000 090   3 *** 722 CLR * * *  2.5 ** ** ** ** ** ** ** ** *   76   55 1016.1 *****  959.6 *** *** ***** ***** ***** ***** **
834830 ***** 201508031200 320   2 *** 722 CLR * * * 12.5 ** ** ** ** ** ** ** ** *   63   53 1020.4 *****  962.8 ***  55 ***** ***** ***** ***** **
834830 ***** 201508031800 140   1 *** 722 CLR * * * 12.5 ** ** ** ** ** ** ** ** *   85   56 1015.5 *****  958.7 *** *** ***** ***** ***** ***** **
834830 ***** 201508040000 050   3 *** 722 CLR * * *  2.5 ** ** ** ** ** ** ** ** *   72   60 1017.3 *****  960.0 *** *** ***** ***** ***** ***** **
834830 ***** 201508041200 230   2 *** 722 CLR * * * 12.5 ** ** ** ** ** ** ** ** *   64   53 1020.2 *****  962.7 ***  56 ***** ***** ***** ***** **
834830 ***** 201508051200 230   1 *** 722 CLR * * * 12.5 ** ** ** ** ** ** ** ** *   66   55 1019.3 *****  962.1 ***  56 ***** ***** ***** ***** **
834830 ***** 201508060000 230   1 *** 722 CLR * * *  2.5 ** ** ** ** ** ** ** ** *   72   60 1018.9 *****  959.7 *** *** ***** ***** ***** ***** **
834830 ***** 201508061200 230   2 *** 722 CLR * * * 12.5 ** ** ** ** ** ** ** ** *   66   55 1018.9 *****  961.6 ***  55 ***** ***** ***** ***** **
834830 ***** 201508061800 050   6 *** 722 CLR * * *  6.2 ** ** ** ** ** ** ** ** *   86   53 1013.2 *****  956.8 *** *** ***** ***** ***** ***** **
834830 ***** 201508071200 230   1 *** 722 CLR * * * 12.5 ** ** ** ** ** ** ** ** *   68   56 1018.0 *****  960.7 ***  57 ***** ***** ***** ***** **
834830 ***** 201508071800 140   2 *** *** SCT * * * 12.5 ** ** ** ** ** ** ** ** *   87   56 1013.1 *****  956.8 *** *** ***** ***** ***** ***** **
834830 ***** 201508080000 050   5 *** 722 CLR * * *  2.5 ** ** ** ** ** ** ** ** *   76   60 1015.7 *****  958.9 *** *** ***** ***** ***** ***** **
834830 ***** 201508081200 230   3 *** 722 CLR * * * 12.5 ** ** ** ** ** ** ** ** *   68   56 1018.1 *****  961.3 ***  58 ***** ***** ***** ***** **
834830 ***** 201508081800 050   7 *** *** SCT * * * 12.5 ** ** ** ** ** ** ** ** *   86   56 1013.1 *****  956.8 *** *** ***** ***** ***** ***** **
834830 ***** 201508090000 050   5 *** 722 CLR * * *  2.5 ** ** ** ** ** ** ** ** *   74   59 1016.2 *****  959.3 *** *** ***** ***** ***** ***** **
834830 ***** 201508101200 050   8 *** *** BKN * * * 12.5 ** ** ** ** ** ** ** ** *   74   60 1021.4 *****  964.4 ***  64 ***** ***** ***** ***** **
834830 ***** 201508101800 050  11 *** *** BKN * * * 12.5 ** ** ** ** ** ** ** ** *   86   58 1017.0 *****  960.6 *** *** ***** ***** ***** ***** **
834830 ***** 201508110000 050   8 *** 722 CLR * * *  2.5 ** ** ** ** ** ** ** ** *   74   57 1019.5 *****  962.7 *** *** ***** ***** ***** ***** **
834830 ***** 201508111200 050   8 *** *** SCT * * * 12.5 ** ** ** ** ** ** ** ** *   71   54 1022.6 *****  965.5 ***  59 ***** ***** ***** ***** **
834830 ***** 201508111800 050   7 *** 722 CLR * * * 12.5 ** ** ** ** ** ** ** ** *   82   53 1017.3 *****  960.8 *** *** ***** ***** ***** ***** **
834830 ***** 201508120000 090   6 *** 722 CLR * * *  2.5 ** ** ** ** ** ** ** ** *   73   57 1020.2 *****  963.2 *** *** ***** ***** ***** ***** **
834830 ***** 201508121200 050   8 ***  20 OVC * * * 12.5 ** ** ** ** ** ** ** ** *   67   55 1023.4 *****  966.0 ***  64 ***** ***** ***** ***** **
834830 ***** 201508121800 050   5 *** 722 CLR * * * 12.5 ** ** ** ** ** ** ** ** *   80   53 1016.9 *****  960.2 *** *** ***** ***** ***** ***** **
834830 ***** 201508130000 090   7 *** 722 CLR * * *  2.5 ** ** ** ** ** ** ** ** *   71   52 1020.4 *****  963.0 *** *** ***** ***** ***** ***** **
834830 ***** 201508131200 050   7 ***  20 OVC * * * 12.5 ** ** ** ** ** ** ** ** *   70   55 1022.7 *****  965.4 ***  63 ***** ***** ***** ***** **
834830 ***** 201508131800 090   3 *** 722 CLR * * * 12.5 ** ** ** ** ** ** ** ** *   82   59 1016.7 *****  960.1 *** *** ***** ***** ***** ***** **
834830 ***** 201508140000 090   8 *** 722 CLR * * *  2.5 ** ** ** ** ** ** ** ** *   74   54 1019.1 *****  962.1 *** *** ***** ***** ***** ***** **
834830 ***** 201508141200 320   1 *** *** BKN * * * 12.5 ** ** ** ** ** ** ** ** *   68   58 1022.0 *****  964.7 ***  56 ***** ***** ***** ***** **
834830 ***** 201508141800 050   3 ***  20 OVC * * * 12.5 ** ** ** ** ** ** ** ** *   80   61 1017.3 *****  960.6 *** *** ***** ***** ***** ***** **
834830 ***** 201508150000 230   2 *** 722 CLR * * *  2.5 ** ** ** ** ** ** ** ** *   69   56 1019.2 *****  961.9 *** *** ***** ***** ***** ***** **
834830 ***** 201508151200 230   1 *** 722 CLR * * * 12.5 ** ** ** ** ** ** ** ** *   67   57 1021.1 *****  963.5 ***  56 ***** ***** ***** ***** **
834830 ***** 201508151800 140   2 *** *** BKN * * * 12.5 ** ** ** ** ** ** ** ** *   86   64 1015.6 *****  959.1 *** *** ***** ***** ***** ***** **
834830 ***** 201508171200 050   6 *** *** SCT * * * 12.5 ** ** ** ** ** ** ** ** *   75   57 1020.3 *****  963.8 ***  65 ***** ***** ***** ***** **
834830 ***** 201508171800 050   9 *** *** BKN * * * 12.5 ** ** ** ** ** ** ** ** *   84   58 1015.3 *****  959.0 *** *** ***** ***** ***** ***** **
834830 ***** 201508180000 050   1 *** *** BKN * * *  2.5 ** ** ** ** ** ** ** ** *   74   63 1017.0 *****  960.5 *** *** ***** ***** ***** ***** **
834830 ***** 201508181200 050   8 *** *** BKN * * * 12.5 ** ** ** ** ** ** ** ** *   76   58 1020.2 *****  963.6 ***  52 ***** ***** ***** ***** **
834830 ***** 201508181800 320   2 *** *** SCT * * * 12.5 ** ** ** ** ** ** ** ** *   89   60 1013.0 *****  957.4 *** *** ***** ***** ***** ***** **
834830 ***** 201508190000 050   2 *** 722 CLR * * *  2.5 ** ** ** ** ** ** ** ** *   76   64 1015.8 *****  959.6 *** *** ***** ***** ***** ***** **
834830 ***** 201508191200 050   6 *** 722 CLR * * * 12.5 ** ** ** ** ** ** ** ** *   75   64 1016.8 *****  960.5 ***  66 ***** ***** ***** ***** **
834830 ***** 201508191800 230   2 *** *** SCT * * * 12.5 ** ** ** ** ** ** ** ** *   89   62 1010.9 *****  955.2 *** *** ***** ***** ***** ***** **
834830 ***** 201508200000 230   1 *** *** BKN * * *  2.5 ** ** ** ** ** ** ** ** *   77   59 1012.8 *****  956.7 *** *** ***** ***** ***** ***** **
834830 ***** 201508201200 140   2 *** *** SCT * * * 12.5 ** ** ** ** ** ** ** ** *   76   59 1014.0 *****  958.0 ***  63 ***** ***** ***** ***** **
834830 ***** 201508201800 230   3 *** *** BKN * * * 12.5 ** ** ** ** ** ** ** ** *   91   60 1009.6 *****  954.0 *** *** ***** ***** ***** ***** **
834830 ***** 201508210000 180   2 *** *** BKN * * *  2.5 ** ** ** ** ** ** ** ** *   79   66 1011.9 *****  956.2 *** *** ***** ***** ***** ***** **
834830 ***** 201508211200 230   2 *** 722 CLR * * *  6.2 ** ** ** ** ** ** ** ** *   75   61 1015.3 *****  959.3 ***  65 ***** ***** ***** ***** **
834830 ***** 201508211800 230   5 *** *** SCT * * * 12.5 ** ** ** ** ** ** ** ** *   91   62 1009.6 *****  954.1 *** *** ***** ***** ***** ***** **
834830 ***** 201508220000 050   1 *** *** SCT * * *  2.5 ** ** ** ** ** ** ** ** *   80   61 1011.6 *****  955.7 *** *** ***** ***** ***** ***** **
834830 ***** 201508221200 140   2 *** *** BKN * * * 12.5 ** ** ** ** ** ** ** ** *   75   62 1014.4 *****  958.4 ***  69 ***** ***** ***** ***** **
834830 ***** 201508221800 050   5 *** *** SCT * * * 12.5 ** ** ** ** ** ** ** ** *   91   60 1008.3 *****  953.3 *** *** ***** ***** ***** ***** **
834830 ***** 201508230000 050   2 *** *** BKN * * *  2.5 ** ** ** ** ** ** ** ** *   81   65 1011.3 *****  955.6 *** *** ***** ***** ***** ***** **
834830 ***** 201508241200 230   1 *** *** BKN * * * 12.5 ** ** ** ** ** ** ** ** *   72   59 1013.9 *****  957.8 ***  64 ***** ***** ***** ***** **
834830 ***** 201508241800 320   2 *** *** OVC * * * 12.5 ** ** ** ** ** ** ** ** *   93   63 1007.6 *****  952.3 *** *** ***** ***** ***** ***** **
834830 ***** 201508250000 230   3 *** *** BKN * * *  2.5 ** ** ** ** ** ** ** ** *   78   58 1011.8 *****  955.7 *** *** ***** ***** ***** ***** **
834830 ***** 201508251200 050   9 *** 722 CLR * * * 12.5 ** ** ** ** ** ** ** ** *   76   55 1015.2 *****  959.2 ***  65 ***** ***** ***** ***** **
834830 ***** 201508251800 050   6 *** 722 CLR * * * 12.5 ** ** ** ** ** ** ** ** *   90   57 1010.2 *****  954.4 *** *** ***** ***** ***** ***** **
834830 ***** 201508260000 050   6 *** 722 CLR * * *  2.5 ** ** ** ** ** ** ** ** *   80   54 1012.4 *****  956.6 *** *** ***** ***** ***** ***** **
834830 ***** 201508261200 230   3 *** 722 CLR * * * 12.5 ** ** ** ** ** ** ** ** *   72   55 1016.2 *****  960.0 ***  60 ***** ***** ***** ***** **
834830 ***** 201508261800 050   3 *** 722 CLR * * * 12.5 ** ** ** ** ** ** ** ** *   92   55 1009.9 *****  954.7 *** *** ***** ***** ***** ***** **
834830 ***** 201508270000 230   1 *** *** SCT * * *  2.5 ** ** ** ** ** ** ** ** *   80   65 1012.9 *****  956.8 *** *** ***** ***** ***** ***** **
834830 ***** 201508271200 320   1 *** 722 CLR * * * 12.5 ** ** ** ** ** ** ** ** *   73   61 1014.5 *****  958.4 ***  63 ***** ***** ***** ***** **
834830 ***** 201508271800 180   1 *** *** BKN * * * 12.5 ** ** ** ** ** ** ** ** *   94   57 ****** *****  954.1 *** *** ***** ***** ***** ***** **
834830 ***** 201508280000 230   2 ***  20 OVC * * *  2.5 ** ** ** ** ** ** ** ** *   81   60 1012.6 *****  956.7 *** *** ***** ***** ***** ***** **
834830 ***** 201508281200 050   5 *** 722 CLR * * * 12.5 ** ** ** ** ** ** ** ** *   76   65 1015.8 *****  959.9 ***  69 ***** ***** ***** ***** **
834830 ***** 201508281800 *** *** ***  20 OVC * * * 12.5 ** ** ** ** ** ** ** ** *   94   61 1010.0 *****  955.2 *** *** ***** ***** ***** ***** **
834830 ***** 201508290000 180   3 ***  20 OVC * * *  2.5 ** ** ** ** ** ** ** ** *   80   64 1015.7 *****  959.7 *** *** ***** ***** ***** ***** **
834830 ***** 201508291200 050   6 ***  20 OVC * * * 12.5 ** ** ** ** ** ** ** ** *   78   67 1018.3 *****  962.3 ***  74 ***** ***** ***** ***** **
834830 ***** 201508291800 050   7 ***  20 OVC * * * 12.5 ** ** ** ** ** ** ** ** *   89   64 1010.4 *****  955.4 *** *** ***** ***** ***** ***** **
834830 ***** 201508300000 050   7 *** 722 CLR * * *  2.5 ** ** ** ** ** ** ** ** *   80   64 1016.3 *****  960.4 *** *** ***** ***** ***** ***** **
834830 ***** 201508311200 050   6 *** 722 CLR * * * 12.5 ** ** ** ** ** ** ** ** *   78   58 ****** *****  962.1 ***  66 ***** ***** ***** ***** **
834830 ***** 201508311800 050   3 *** 722 CLR * * * 12.5 ** ** ** ** ** ** ** ** *   92   59 1012.3 *****  957.2 *** *** ***** ***** ***** ***** **
834830 ***** 201509010000 050   6 *** 722 CLR * * *  2.5 ** ** ** ** ** ** ** ** *   81   60 1014.8 *****  959.1 *** *** ***** ***** ***** ***** **
834830 ***** 201509011200 230   1 *** 722 CLR * * * 12.5 ** ** ** ** ** ** ** ** *   74   55 ****** *****  960.7 ***  62 ***** ***** ***** ***** **
834830 ***** 201509020000 *** *** *** 722 CLR * * *  2.5 ** ** ** ** ** ** ** ** *   79   58 1012.5 *****  956.6 *** *** ***** ***** ***** ***** **
834830 ***** 201509021200 230   3 *** 722 CLR * * * 12.5 ** ** ** ** ** ** ** ** *   74   55 1015.8 *****  959.6 ***  62 ***** ***** ***** ***** **
834830 ***** 201509021800 050   5 *** 722 CLR * * * 12.5 ** ** ** ** ** ** ** ** *   93   56 1010.4 *****  955.1 *** *** ***** ***** ***** ***** **
834830 ***** 201509030000 050   5 *** 722 CLR * * *  2.5 ** ** ** ** ** ** ** ** *   82   60 1012.6 *****  956.8 *** *** ***** ***** ***** ***** **
834830 ***** 201509031200 050   7 *** 722 CLR * * * 12.5 ** ** ** ** ** ** ** ** *   76   60 1016.0 *****  960.1 ***  69 ***** ***** ***** ***** **
834830 ***** 201509031800 270   5 *** *** SCT * * * 12.5 ** ** ** ** ** ** ** ** *   93   59 1009.2 *****  954.3 *** *** ***** ***** ***** ***** **
834830 ***** 201509040000 230   1 *** 722 CLR * * *  2.5 ** ** ** ** ** ** ** ** *   80   64 1012.6 *****  956.8 *** *** ***** ***** ***** ***** **
834830 ***** 201509041200 230   3 *** 722 CLR * * * 12.5 ** ** ** ** ** ** ** ** *   80   58 1013.1 *****  957.5 ***  65 ***** ***** ***** ***** **
834830 ***** 201509041800 230   3 *** *** SCT * * * 12.5 ** ** ** ** ** ** ** ** *   98   57 1007.8 *****  953.0 *** *** ***** ***** ***** ***** **
834830 ***** 201509050000 050   1 *** 722 CLR * * *  2.5 ** ** ** ** ** ** ** ** *   83   60 1010.3 *****  955.1 *** *** ***** ***** ***** ***** **
834830 ***** 201509051200 180   1 *** *** BKN * * * 12.5 ** ** ** ** ** ** ** ** *   79   55 1012.6 *****  957.2 ***  68 ***** ***** ***** ***** **
834830 ***** 201509051800 180   3 *** *** BKN * * *  6.2 ** ** ** ** ** ** ** ** *   98   59 1006.7 *****  951.9 *** *** ***** ***** ***** ***** **
834830 ***** 201509060000 320   1 *** 722 CLR * * *  2.5 ** ** ** ** ** ** ** ** *   83   55 1009.5 *****  954.2 *** *** ***** ***** ***** ***** **
834830 ***** 201509081200 180   6 ***  20 OVC * * *  6.2 ** ** ** ** ** ** ** ** *   76   67 1012.7 *****  957.3 ***  70 ***** ***** ***** ***** **
834830 ***** 201509081800 230   3 ***  20 OVC * * *  6.2 ** ** ** ** ** ** ** ** *   90   64 ****** *****  951.7 *** *** ***** ***** ***** ***** **
834830 ***** 201509090000 230   1 *** 722 CLR * * *  2.5 ** ** ** ** ** ** ** ** *   85   67 1007.2 *****  952.0 *** *** ***** ***** ***** ***** **
834830 ***** 201509091200 180   8 ***  20 OVC * * * 12.5 03 ** ** ** ** ** ** ** 5   73   67 1014.7 *****  958.9 ***  70 ***** ***** ***** ***** **
834830 ***** 201509091800 230   3 ***  20 OVC * * * 12.5 ** ** ** ** ** ** ** ** *   76   64 1012.8 *****  956.6 *** *** ***** ***** ***** ***** **
834830 ***** 201509100000 180   3 ***  20 OVC * * *  2.5 ** ** ** ** ** ** ** ** *   72   65 1014.5 *****  957.9 *** *** ***** ***** ***** ***** **
834830 ***** 201509101200 230   6 *** *** BKN * * * 12.5 ** ** ** ** ** ** ** ** *   75   65 1015.3 *****  958.8 ***  66 ***** ***** ***** ***** **
834830 ***** 201509101800 360   7 *** *** BKN * * * 12.5 ** ** ** ** ** ** ** ** *   95   63 1006.6 *****  951.6 *** *** ***** ***** ***** ***** **
834830 ***** 201509110000 180   3 *** 722 CLR * * *  2.5 ** ** ** ** ** ** ** ** *   80   73 1009.4 *****  953.6 *** *** ***** ***** ***** ***** **
834830 ***** 201509111200 050   7 ***  20 OVC * * * 12.5 ** ** ** ** ** ** ** ** *   80   62 1012.4 *****  956.8 ***  69 ***** ***** ***** ***** **
834830 ***** 201509111800 230   6 *** *** BKN * * *  6.2 ** ** ** ** ** ** ** ** *   98   60 1005.9 *****  951.3 *** *** ***** ***** ***** ***** **
834830 ***** 201509121200 230   3 *** *** BKN * * * 12.5 ** ** ** ** ** ** ** ** *   77   64 1014.5 *****  958.6 ***  70 ***** ***** ***** ***** **
834830 ***** 201509121800 320   2 *** *** BKN * * * 12.5 ** ** ** ** ** ** ** ** *   96   67 1007.2 *****  952.7 *** *** ***** ***** ***** ***** **
834830 ***** 201509130000 180   3 *** 722 CLR * * *  2.5 ** ** ** ** ** ** ** ** *   82   66 1011.9 *****  956.4 *** *** ***** ***** ***** ***** **
834830 ***** 201509141200 050   6 *** *** BKN * * * 12.5 03 ** ** ** ** ** ** ** 5   78   65 1016.1 *****  960.2 ***  70 ***** *****  0.01 ***** **
834830 ***** 201509141800 050   3 *** *** OVC * * *  6.2 ** ** ** ** ** ** ** ** *   91   69 1011.7 *****  956.4 *** *** ***** ***** ***** ***** **
834830 ***** 201509150000 050   7 ***  20 OVC * * *  2.5 ** ** ** ** ** ** ** ** *   81   67 1015.6 *****  959.9 *** *** ***** ***** ***** ***** **
834830 ***** 201509151200 050   9 *** *** BKN * * * 12.5 ** ** ** ** ** ** ** ** *   82   66 1017.4 *****  961.8 ***  73 ***** ***** ***** ***** **
834830 ***** 201509151800 050   7 *** *** BKN * * * 12.5 ** ** ** ** ** ** ** ** *   94   69 1011.8 *****  956.8 *** *** ***** ***** ***** ***** **
834830 ***** 201509160000 090  14 ***  20 OVC * * *  2.5 ** ** ** ** ** ** ** ** *   83   64 1014.3 *****  959.0 *** *** ***** ***** ***** ***** **
834830 ***** 201509161200 050   8 *** *** *** * * * 12.5 ** ** ** ** ** ** ** ** *   80   64 1016.9 *****  961.3 ***  73 ***** ***** ***** ***** **
834830 ***** 201509161800 050   3 *** *** SCT * * * 12.5 ** ** ** ** ** ** ** ** *   93   60 1010.4 *****  955.4 *** *** ***** ***** ***** ***** **
834830 ***** 201509170000 050   6 *** 722 CLR * * *  2.5 ** ** ** ** ** ** ** ** *   85   58 1012.6 *****  957.4 *** *** ***** ***** ***** ***** **
834830 ***** 201509171200 050   6 *** 722 CLR * * * 12.5 ** ** ** ** ** ** ** ** *   80   62 1015.4 *****  960.0 ***  71 ***** ***** ***** ***** **
834830 ***** 201509171800 090   6 *** *** SCT * * * 12.5 ** ** ** ** ** ** ** ** *   94   57 1009.2 *****  954.3 *** *** ***** ***** ***** ***** **
834830 ***** 201509180000 230   3 *** 722 CLR * * *  2.5 ** ** ** ** ** ** ** ** *   82   60 1012.1 *****  956.7 *** *** ***** ***** ***** ***** **
834830 ***** 201509181200 050   5 *** 722 CLR * * * 12.5 ** ** ** ** ** ** ** ** *   82   62 1014.7 *****  959.4 ***  65 ***** ***** ***** ***** **
834830 ***** 201509181800 050   3 *** *** SCT * * * 12.5 ** ** ** ** ** ** ** ** *   96   53 1009.1 *****  954.3 *** *** ***** ***** ***** ***** **
834830 ***** 201509190000 230   2 *** 722 CLR * * *  2.5 ** ** ** ** ** ** ** ** *   83   55 1011.4 *****  956.4 *** *** ***** ***** ***** ***** **
834830 ***** 201509191200 050   6 *** 722 CLR * * * 12.5 ** ** ** ** ** ** ** ** *   82   60 1015.3 *****  959.9 ***  65 ***** ***** ***** ***** **
834830 ***** 201509191800 050   9 *** 722 CLR * * * 12.5 ** ** ** ** ** ** ** ** *   94   53 1009.9 *****  954.7 *** *** ***** ***** ***** ***** **
