  USAF  WBAN YR--MODAHRMN DIR SPD GUS CLG SKC L M H  VSB MW MW MW MW AW AW AW AW W TEMP DEWP    SLP   ALT    STP MAX MIN PCP01 PCP06 PCP24 PCPXX SD
835500 ***** 201507301200 *** *** *** *** OVC * * *  2.5 61 ** ** ** ** ** ** ** 6   71   69 1021.2 ***** 1018.2 ***  65 ***** *****  0.08 ***** **
835500 ***** 201507301800 *** *** ***  10 OVC * * *  6.2 02 ** ** ** ** ** ** ** 6   78   69 1019.2 ***** 1016.2 *** *** *****  0.04 ***** ***** **
835500 ***** 201507310000 *** *** *** *** BKN * * * **** 02 ** ** ** ** ** ** ** 1   71   69 1020.4 ***** 1017.4 *** *** ***** ***** ***** ***** **
835500 ***** 201507311200 *** *** *** *** SCT * * *  6.2 03 ** ** ** ** ** ** ** 0   74   69 1020.9 ***** 1017.9 ***  65 ***** *****  0.04 ***** **
835500 ***** 201507311800 *** *** *** *** SCT * * *  6.2 01 ** ** ** ** ** ** ** 0   80   68 1018.7 ***** 1015.8 *** *** ***** ***** ***** ***** **
835500 ***** 201508010000 *** *** *** *** SCT * * * **** 02 ** ** ** ** ** ** ** 0   70   68 1020.2 ***** 1017.2 *** *** ***** ***** ***** ***** **
835500 ***** 201508011200 *** *** *** *** SCT * * *  6.2 03 ** ** ** ** ** ** ** 0   73   69 1020.5 ***** 1017.5 ***  64 ***** ***** ***** ***** **
835500 ***** 201508011800 *** *** ***  41 BKN * * *  6.2 02 ** ** ** ** ** ** ** 1   80   67 1018.5 ***** 1015.6 *** *** ***** ***** ***** ***** **
835500 ***** 201508020000 *** *** ***  74 BKN * * * **** 03 ** ** ** ** ** ** ** 1   71   67 1019.5 ***** 1016.5 *** *** ***** ***** ***** ***** **
835500 ***** 201508021200 *** *** *** *** SCT * * *  6.2 03 ** ** ** ** ** ** ** 0   70   67 1020.1 ***** 1017.1 ***  62 ***** ***** ***** ***** **
835500 ***** 201508021800 *** *** *** *** SCT * * *  6.2 03 ** ** ** ** ** ** ** 0   82   60 1017.7 ***** 1014.8 *** *** ***** ***** ***** ***** **
835500 ***** 201508030000 *** *** *** 722 CLR * * * **** ** ** ** ** ** ** ** ** *   69   63 1018.9 ***** 1015.9 *** *** ***** ***** ***** ***** **
835500 ***** 201508031200 *** *** *** *** SCT * * *  6.2 03 ** ** ** ** ** ** ** 0   72   67 1020.2 ***** 1017.2 ***  62 ***** ***** ***** ***** **
835500 ***** 201508031800 *** *** *** *** SCT * * *  6.2 02 ** ** ** ** ** ** ** 0   80   64 1017.3 ***** 1014.4 *** *** ***** ***** ***** ***** **
835500 ***** 201508040000 *** *** *** *** SCT * * * **** 02 ** ** ** ** ** ** ** 0   69   64 1018.3 ***** 1015.3 *** *** ***** ***** ***** ***** **
835500 ***** 201508041200 *** *** *** 722 CLR * * *  6.2 ** ** ** ** ** ** ** ** *   74   66 1020.3 ***** 1017.3 ***  63 ***** ***** ***** ***** **
835500 ***** 201508041800 *** *** *** *** SCT * * *  6.2 02 ** ** ** ** ** ** ** 0   84   60 1017.6 ***** 1014.7 *** *** ***** ***** ***** ***** **
835500 ***** 201508050000 *** *** *** 722 CLR * * * **** ** ** ** ** ** ** ** ** *   69   64 1018.5 ***** 1015.5 *** *** ***** ***** ***** ***** **
835500 ***** 201508051200 *** *** *** 722 CLR * * *  6.2 ** ** ** ** ** ** ** ** *   73   67 1019.9 ***** 1016.9 ***  62 ***** ***** ***** ***** **
835500 ***** 201508051800 *** *** *** 722 CLR * * *  6.2 ** ** ** ** ** ** ** ** *   82   65 1017.1 ***** 1014.2 *** *** ***** ***** ***** ***** **
835500 ***** 201508060000 *** *** *** 722 CLR * * * **** ** ** ** ** ** ** ** ** *   71   65 1018.3 ***** 1015.3 *** *** ***** ***** ***** ***** **
835500 ***** 201508061200 *** *** *** *** BKN * * *  6.2 02 ** ** ** ** ** ** ** 1   70   66 1020.0 ***** 1017.0 ***  62 ***** ***** ***** ***** **
835500 ***** 201508061800 *** *** *** *** SCT * * *  6.2 02 ** ** ** ** ** ** ** 6   81   66 1016.5 ***** 1013.6 *** *** *****  0.04 ***** ***** **
835500 ***** 201508071200 *** *** ***  10 BKN * * *  6.2 02 ** ** ** ** ** ** ** 1   73   67 1019.2 ***** 1016.2 ***  67 ***** *****  0.04 ***** **
835500 ***** 201508071800 *** *** *** *** BKN * * *  6.2 02 ** ** ** ** ** ** ** 1   76   66 1017.4 ***** 1014.4 *** *** ***** ***** ***** ***** **
835500 ***** 201508080000 *** *** *** *** BKN * * * **** 02 ** ** ** ** ** ** ** 1   71   67 1018.3 ***** 1015.3 *** *** ***** ***** ***** ***** **
835500 ***** 201508081200 *** *** *** *** BKN * * *  6.2 02 ** ** ** ** ** ** ** 1   74   66 1019.2 ***** 1016.2 ***  67 ***** ***** ***** ***** **
835500 ***** 201508081800 *** *** *** *** BKN * * *  6.2 02 ** ** ** ** ** ** ** 6   78   66 1018.0 ***** 1015.0 *** *** *****  0.08 ***** ***** **
835500 ***** 201508090000 *** *** *** *** SCT * * * **** 02 ** ** ** ** ** ** ** 1   71   69 1019.3 ***** 1016.3 *** *** ***** ***** ***** ***** **
835500 ***** 201508091200 *** *** *** *** BKN * * *  6.2 02 ** ** ** ** ** ** ** 1   71   69 1020.5 ***** 1017.5 ***  67 ***** *****  0.31 ***** **
835500 ***** 201508091800 *** *** *** *** BKN * * *  6.2 02 ** ** ** ** ** ** ** 1   78   64 1019.0 ***** 1016.0 *** *** ***** ***** ***** ***** **
835500 ***** 201508100000 *** *** *** *** BKN * * * **** 02 ** ** ** ** ** ** ** 6   69   67 1021.0 ***** 1018.0 *** *** *****  0.08 ***** ***** **
835500 ***** 201508101200 *** *** ***  10 BKN * * *  6.2 02 ** ** ** ** ** ** ** 5   69   66 1022.8 ***** 1019.8 ***  66 ***** *****  0.20 ***** **
835500 ***** 201508101800 *** *** ***  10 BKN * * *  6.2 02 ** ** ** ** ** ** ** 5   76   61 1021.4 ***** 1018.4 *** *** *****  0.00 ***** ***** **
835500 ***** 201508110000 *** *** ***  20 BKN * * * **** 02 ** ** ** ** ** ** ** 1   68   63 1022.6 ***** 1019.6 *** *** ***** ***** ***** ***** **
835500 ***** 201508111200 *** *** ***  10 BKN * * *  6.2 02 ** ** ** ** ** ** ** 6   73   62 1024.1 ***** 1021.1 ***  65 ***** *****  0.31 ***** **
835500 ***** 201508111800 *** *** ***  10 BKN * * *  6.2 02 ** ** ** ** ** ** ** 5   76   63 1021.1 ***** 1018.1 *** *** *****  0.02 ***** ***** **
835500 ***** 201508120000 *** *** *** *** BKN * * * **** 02 ** ** ** ** ** ** ** 1   69   62 1023.0 ***** 1020.0 *** *** ***** ***** ***** ***** **
835500 ***** 201508121200 *** *** *** *** SCT * * *  6.2 03 ** ** ** ** ** ** ** 6   70   65 1022.6 ***** 1019.6 ***  64 ***** *****  0.08 ***** **
835500 ***** 201508121800 *** *** ***  10 BKN * * *  6.2 02 ** ** ** ** ** ** ** 6   75   64 1020.2 ***** 1017.2 *** *** *****  0.24 ***** ***** **
835500 ***** 201508130000 *** *** *** *** BKN * * * **** 02 ** ** ** ** ** ** ** 5   67   65 1021.6 ***** 1018.6 *** *** *****  0.08 ***** ***** **
835500 ***** 201508131200 *** *** *** *** SCT * * *  6.2 03 ** ** ** ** ** ** ** 6   71   65 1022.8 ***** 1019.8 ***  64 ***** *****  0.35 ***** **
835500 ***** 201508131800 *** *** ***  10 BKN * * *  6.2 02 ** ** ** ** ** ** ** 1   77   65 1020.5 ***** 1017.5 *** *** ***** ***** ***** ***** **
835500 ***** 201508140000 *** *** ***  20 BKN * * * **** 02 ** ** ** ** ** ** ** 1   70   65 1022.0 ***** 1019.0 *** *** ***** ***** ***** ***** **
835500 ***** 201508141200 *** *** ***  10 BKN * * *  6.2 02 ** ** ** ** ** ** ** 6   75   63 1012.2 ***** 1019.2 ***  66 ***** *****  0.24 ***** **
835500 ***** 201508141800 *** *** *** *** BKN * * *  6.2 02 ** ** ** ** ** ** ** 1   77   66 1010.3 ***** 1017.3 *** *** ***** ***** ***** ***** **
835500 ***** 201508151200 *** *** *** *** SCT * * *  6.2 02 ** ** ** ** ** ** ** 0   73   66 1022.2 ***** 1019.2 ***  64 ***** ***** ***** ***** **
835500 ***** 201508151800 *** *** *** *** BKN * * *  6.2 02 ** ** ** ** ** ** ** 2   78   65 1020.4 ***** 1017.4 *** *** ***** ***** ***** ***** **
835500 ***** 201508161200 *** *** *** *** BKN * * *  6.2 16 ** ** ** ** ** ** ** 1   74   68 1022.5 ***** 1019.4 ***  67 ***** *****  0.01 ***** **
835500 ***** 201508161800 *** *** ***  20 OVC * * *  6.2 02 ** ** ** ** ** ** ** 1   74   68 1021.3 ***** 1018.3 *** *** *****  0.01 ***** ***** **
835500 ***** 201508170000 *** *** ***  20 BKN * * * **** 02 ** ** ** ** ** ** ** 1   71   68 1022.0 ***** 1019.0 *** *** ***** ***** ***** ***** **
835500 ***** 201508171200 *** *** ***  20 BKN * * *  6.2 02 ** ** ** ** ** ** ** 5   76   66 1022.4 ***** 1019.4 ***  67 ***** *****  0.02 ***** **
835500 ***** 201508171800 *** *** *** *** SCT * * *  6.2 02 ** ** ** ** ** ** ** 1   80   65 1019.9 ***** 1016.9 *** *** ***** ***** ***** ***** **
835500 ***** 201508180000 *** *** ***  20 BKN * * * **** 02 ** ** ** ** ** ** ** 1   71   68 1020.5 ***** 1017.5 *** *** *****  0.04 ***** ***** **
835500 ***** 201508181200 *** *** ***  10 OVC * * *  6.2 02 ** ** ** ** ** ** ** 6   74   66 1021.4 ***** 1018.4 ***  69 ***** *****  0.16 ***** **
835500 ***** 201508181800 *** *** *** *** SCT * * *  6.2 02 ** ** ** ** ** ** ** 0   80   62 1018.8 ***** 1015.8 *** *** ***** ***** ***** ***** **
835500 ***** 201508190000 *** *** *** *** SCT * * * **** 02 ** ** ** ** ** ** ** 0   70   65 1019.5 ***** 1016.5 *** *** ***** ***** ***** ***** **
835500 ***** 201508191200 *** *** ***  10 BKN * * *  6.2 02 ** ** ** ** ** ** ** 5   73   68 1018.3 ***** 1015.3 ***  64 ***** *****  0.02 ***** **
835500 ***** 201508191800 *** *** *** *** SCT * * *  6.2 02 ** ** ** ** ** ** ** 0   79   66 1015.0 ***** 1012.0 *** *** ***** ***** ***** ***** **
835500 ***** 201508200000 *** *** *** *** SCT * * * **** 02 ** ** ** ** ** ** ** 0   70   65 1015.9 ***** 1012.9 *** *** ***** ***** ***** ***** **
835500 ***** 201508201200 *** *** *** 722 CLR * * *  6.2 ** ** ** ** ** ** ** ** *   76   67 1015.4 ***** 1012.4 ***  64 ***** ***** ***** ***** **
835500 ***** 201508201800 *** *** ***  20 OVC * * *  6.2 02 ** ** ** ** ** ** ** 2   78   67 1013.9 ***** 1010.9 *** *** ***** ***** ***** ***** **
835500 ***** 201508210000 *** *** ***  20 BKN * * * **** 02 ** ** ** ** ** ** ** 1   71   67 1016.3 ***** 1013.3 *** *** ***** ***** ***** ***** **
835500 ***** 201508211200 *** *** *** *** BKN * * *  6.2 02 ** ** ** ** ** ** ** 1   74   64 1018.7 ***** 1015.7 ***  67 ***** ***** ***** ***** **
835500 ***** 201508211800 *** *** *** *** SCT * * *  6.2 03 ** ** ** ** ** ** ** 0   80   63 1015.4 ***** 1012.5 *** *** ***** ***** ***** ***** **
835500 ***** 201508220000 *** *** *** *** SCT * * * **** 02 ** ** ** ** ** ** ** 0   69   66 1017.0 ***** 1014.0 *** *** ***** ***** ***** ***** **
835500 ***** 201508221200 *** *** *** *** BKN * * *  6.2 02 ** ** ** ** ** ** ** 1   72   67 1017.4 ***** 1014.4 ***  63 ***** ***** ***** ***** **
835500 ***** 201508221800 *** *** ***  10 OVC * * *  6.2 02 ** ** ** ** ** ** ** 2   75   66 1015.2 ***** 1012.2 *** *** ***** ***** ***** ***** **
835500 ***** 201508230000 *** *** *** *** SCT * * * **** 02 ** ** ** ** ** ** ** 0   71   67 1016.4 ***** 1013.4 *** *** ***** ***** ***** ***** **
835500 ***** 201508231200 *** *** *** *** SCT * * *  6.2 02 ** ** ** ** ** ** ** 0   71   67 1017.0 ***** 1014.0 ***  62 ***** ***** ***** ***** **
835500 ***** 201508231800 *** *** *** *** SCT * * *  6.2 02 ** ** ** ** ** ** ** 0   80   65 1013.9 ***** 1011.0 *** *** ***** ***** ***** ***** **
835500 ***** 201508240000 *** *** *** *** SCT * * * **** 02 ** ** ** ** ** ** ** 0   69   65 1015.1 ***** 1012.1 *** *** ***** ***** ***** ***** **
835500 ***** 201508241200 *** *** *** *** SCT * * *  6.2 02 ** ** ** ** ** ** ** 0   76   67 1016.4 ***** 1013.4 ***  64 ***** ***** ***** ***** **
835500 ***** 201508241800 *** *** *** *** BKN * * *  6.2 02 ** ** ** ** ** ** ** 0   83   60 1012.8 ***** 1009.9 *** *** ***** ***** ***** ***** **
835500 ***** 201508250000 *** *** *** *** BKN * * * **** 02 ** ** ** ** ** ** ** 0   71   68 1016.9 ***** 1013.9 *** *** ***** ***** ***** ***** **
835500 ***** 201508251200 *** *** *** *** BKN * * *  6.2 03 ** ** ** ** ** ** ** 0   76   69 1019.1 ***** 1016.1 ***  64 ***** ***** ***** ***** **
835500 ***** 201508251800 *** *** *** 722 CLR * * *  6.2 ** ** ** ** ** ** ** ** *   81   66 1015.1 ***** 1012.2 *** *** ***** ***** ***** ***** **
835500 ***** 201508260000 *** *** *** 722 CLR * * * **** ** ** ** ** ** ** ** ** *   74   69 1017.1 ***** 1014.1 *** *** ***** ***** ***** ***** **
835500 ***** 201508261200 *** *** *** *** SCT * * *  6.2 03 ** ** ** ** ** ** ** 0   78   70 1017.5 ***** 1014.5 ***  68 ***** ***** ***** ***** **
835500 ***** 201508261800 *** *** *** *** SCT * * *  6.2 02 ** ** ** ** ** ** ** 0   83   69 1014.2 ***** 1011.3 *** *** ***** ***** ***** ***** **
835500 ***** 201508270000 *** *** *** *** SCT * * * **** 02 ** ** ** ** ** ** ** 0   74   71 1016.4 ***** 1013.4 *** *** ***** ***** ***** ***** **
835500 ***** 201508271200 *** *** *** *** SCT * * *  6.2 10 ** ** ** ** ** ** ** 0   75   70 1017.2 ***** 1014.2 ***  69 ***** ***** ***** ***** **
835500 ***** 201508311800 *** *** *** 722 CLR * * *  6.2 ** ** ** ** ** ** ** ** *   82   69 1016.9 ***** 1014.0 *** *** ***** ***** ***** ***** **
835500 ***** 201509010000 *** *** *** 722 CLR * * * **** ** ** ** ** ** ** ** ** *   71   69 1018.1 ***** 1015.1 *** *** ***** ***** ***** ***** **
835500 ***** 201509011200 *** *** *** *** SCT * * *  6.2 03 ** ** ** ** ** ** ** 0   76   68 1017.8 ***** 1014.8 ***  63 ***** ***** ***** ***** **
835500 ***** 201509011800 *** *** *** 722 CLR * * *  6.2 ** ** ** ** ** ** ** ** *   82   69 1013.4 ***** 1010.5 *** *** ***** ***** ***** ***** **
835500 ***** 201509020000 *** *** *** 722 CLR * * * **** ** ** ** ** ** ** ** ** *   73   69 1014.5 ***** 1015.1 *** *** ***** ***** ***** ***** **
835500 ***** 201509021200 *** *** *** *** SCT * * *  6.2 05 ** ** ** ** ** ** ** 4   78   69 1018.2 ***** 1015.2 ***  68 ***** ***** ***** ***** **
835500 ***** 201509021800 *** *** *** *** SCT * * *  6.2 05 ** ** ** ** ** ** ** 4   79   68 1016.7 ***** 1013.7 *** *** ***** ***** ***** ***** **
835500 ***** 201509031200 *** *** *** *** SCT * * *  6.2 03 ** ** ** ** ** ** ** 0   75   66 1018.5 ***** 1015.5 ***  66 ***** ***** ***** ***** **
835500 ***** 201509031800 *** *** *** *** SCT * * *  6.2 01 ** ** ** ** ** ** ** 0   80   66 1014.2 ***** 1011.3 *** *** ***** ***** ***** ***** **
835500 ***** 201509040000 *** *** *** 722 CLR * * * **** ** ** ** ** ** ** ** ** *   71   67 1015.7 ***** 1012.7 *** *** ***** ***** ***** ***** **
835500 ***** 201509041200 *** *** *** *** SCT * * *  6.2 03 ** ** ** ** ** ** ** 0   77   71 1015.4 ***** 1012.4 ***  69 ***** *****  0.02 ***** **
835500 ***** 201509041800 *** *** *** 722 CLR * * *  6.2 ** ** ** ** ** ** ** ** *   84   71 1010.9 ***** 1008.0 *** *** ***** ***** ***** ***** **
835500 ***** 201509050000 *** *** *** 722 CLR * * * **** ** ** ** ** ** ** ** ** *   74   71 1012.4 ***** 1009.4 *** *** ***** ***** ***** ***** **
835500 ***** 201509051200 *** *** *** *** BKN * * *  6.2 02 ** ** ** ** ** ** ** 1   77   69 1016.3 ***** 1013.3 ***  71 ***** ***** ***** ***** **
835500 ***** 201509051800 *** *** *** *** SCT * * *  6.2 02 ** ** ** ** ** ** ** 0   82   68 1014.2 ***** 1011.3 *** *** ***** ***** ***** ***** **
835500 ***** 201509060000 *** *** *** *** BKN * * * **** 02 ** ** ** ** ** ** ** 1   73   70 1016.5 ***** 1013.5 *** *** ***** ***** ***** ***** **
835500 ***** 201509061200 *** *** *** *** SCT * * * **** 03 ** ** ** ** ** ** ** 0   77   71 1017.1 ***** 1014.1 ***  69 ***** ***** ***** ***** **
835500 ***** 201509061800 *** *** *** *** SCT * * *  6.2 02 ** ** ** ** ** ** ** 6   81   66 1016.5 ***** 1013.6 *** *** *****  0.04 ***** ***** **
835500 ***** 201509070000 *** *** ***  20 BKN * * * **** 03 ** ** ** ** ** ** ** 1   76   73 1015.4 ***** 1012.4 *** *** ***** ***** ***** ***** **
835500 ***** 201509071200 *** *** ***  20 BKN * * *  6.2 02 ** ** ** ** ** ** ** 1   77   70 1016.7 ***** 1013.7 ***  71 ***** ***** ***** ***** **
835500 ***** 201509071800 *** *** *** *** SCT * * *  6.2 02 ** ** ** ** ** ** ** 0   82   71 1011.2 ***** 1008.3 *** *** ***** ***** ***** ***** **
835500 ***** 201509080000 *** *** *** *** SCT * * * **** 02 ** ** ** ** ** ** ** 0   76   70 1014.5 ***** 1011.5 *** *** ***** ***** ***** ***** **
835500 ***** 201509081200 *** *** *** *** SCT * * *  6.2 01 ** ** ** ** ** ** ** 0   80   69 1015.0 ***** 1012.0 ***  70 ***** ***** ***** ***** **
835500 ***** 201509081800 *** *** *** 722 CLR * * *  6.2 ** ** ** ** ** ** ** ** *   83   71 1011.1 ***** 1008.2 *** *** ***** ***** ***** ***** **
835500 ***** 201509090000 *** *** *** *** SCT * * * **** 03 ** ** ** ** ** ** ** 0   76   71 1012.0 ***** 1009.0 *** *** ***** ***** ***** ***** **
835500 ***** 201509091200 *** *** *** *** BKN * * *  6.2 02 ** ** ** ** ** ** ** 1   81   70 1014.9 ***** 1011.9 ***  71 ***** ***** ***** ***** **
835500 ***** 201509091800 *** *** *** *** BKN * * *  6.2 02 ** ** ** ** ** ** ** 0   83   71 1012.5 ***** 1009.6 *** *** ***** ***** ***** ***** **
835500 ***** 201509100000 *** *** *** *** SCT * * * **** 02 ** ** ** ** ** ** ** 0   76   71 1014.5 ***** 1011.5 *** *** ***** ***** ***** ***** **
835500 ***** 201509101800 *** *** *** *** SCT * * *  6.2 03 ** ** ** ** ** ** ** 0   82   71 1013.5 ***** 1010.6 *** *** ***** ***** ***** ***** **
835500 ***** 201509110000 *** *** *** *** SCT * * * **** 02 ** ** ** ** ** ** ** 0   76   71 1014.9 ***** 1011.9 *** *** ***** ***** ***** ***** **
835500 ***** 201509111200 *** *** *** *** SCT * * *  6.2 03 ** ** ** ** ** ** ** 0   80   69 1015.1 ***** 1012.2 ***  70 ***** ***** ***** ***** **
835500 ***** 201509111800 *** *** *** 722 CLR * * *  6.2 ** ** ** ** ** ** ** ** *   83   72 1009.8 ***** 1006.9 *** *** ***** ***** ***** ***** **
835500 ***** 201509120000 *** *** *** *** BKN * * * **** 02 ** ** ** ** ** ** ** 1   76   71 1013.5 ***** 1010.5 *** *** ***** ***** ***** ***** **
835500 ***** 201509121200 *** *** ***  20 BKN * * *  6.2 03 ** ** ** ** ** ** ** 1   81   71 1015.9 ***** 1013.0 ***  72 ***** ***** ***** ***** **
835500 ***** 201509121800 *** *** *** 722 CLR * * *  6.2 ** ** ** ** ** ** ** ** *   83   73 1012.7 ***** 1009.8 *** *** ***** ***** ***** ***** **
835500 ***** 201509131200 *** *** *** *** OVC * * *  6.2 61 ** ** ** ** ** ** ** 6   74   71 1017.7 ***** 1014.7 ***  69 ***** *****  0.16 ***** **
835500 ***** 201509131800 *** *** *** *** BKN * * *  6.2 02 ** ** ** ** ** ** ** 1   81   71 1016.1 ***** 1013.2 *** *** *****  0.02 ***** ***** **
835500 ***** 201509140000 *** *** ***  20 OVC * * * **** 02 ** ** ** ** ** ** ** 2   72   67 1018.2 ***** 1015.2 *** *** ***** ***** ***** ***** **
835500 ***** 201509141200 *** *** ***  10 OVC * * *  6.2 02 ** ** ** ** ** ** ** 5   74   69 1019.6 ***** 1016.6 ***  69 ***** *****  0.02 ***** **
835500 ***** 201509141800 *** *** ***  10 OVC * * *  6.2 02 ** ** ** ** ** ** ** 2   79   71 1017.2 ***** 1014.2 *** *** ***** ***** ***** ***** **
835500 ***** 201509150000 *** *** ***  20 BKN * * * **** 02 ** ** ** ** ** ** ** 1   76   72 1019.4 ***** 1016.4 *** *** ***** ***** ***** ***** **
835500 ***** 201509151200 *** *** ***  10 OVC * * *  6.2 02 ** ** ** ** ** ** ** 5   76   73 1020.6 ***** 1017.6 ***  71 ***** *****  0.02 ***** **
835500 ***** 201509151800 *** *** *** *** BKN * * *  6.2 02 ** ** ** ** ** ** ** 1   81   68 1018.4 ***** 1015.5 *** *** ***** ***** ***** ***** **
835500 ***** 201509160000 *** *** *** 722 CLR * * * **** 00 ** ** ** ** ** ** ** 0   73   69 1019.5 ***** 1016.5 *** *** ***** ***** ***** ***** **
835500 ***** 201509161800 *** *** *** *** SCT * * *  6.2 01 ** ** ** ** ** ** ** 0   82   67 1016.7 ***** 1013.8 *** *** ***** ***** ***** ***** **
835500 ***** 201509170000 *** *** *** *** SCT * * * **** 02 ** ** ** ** ** ** ** 0   73   67 1017.8 ***** 1014.8 *** *** ***** ***** ***** ***** **
835500 ***** 201509171200 *** *** *** *** SCT * * *  6.2 03 ** ** ** ** ** ** ** 0   78   69 1018.5 ***** 1015.5 ***  65 ***** ***** ***** ***** **
835500 ***** 201509171800 *** *** *** 722 CLR * * *  6.2 ** ** ** ** ** ** ** ** *   82   68 1015.1 ***** 1012.2 *** *** ***** ***** ***** ***** **
835500 ***** 201509180000 *** *** *** 722 CLR * * * **** ** ** ** ** ** ** ** ** *   74   67 1016.9 ***** 1013.9 *** *** ***** ***** ***** ***** **
835500 ***** 201509181200 *** *** *** *** SCT * * *  6.2 03 ** ** ** ** ** ** ** 0   80   67 1018.3 ***** 1015.4 ***  66 ***** ***** ***** ***** **
835500 ***** 201509181800 *** *** *** 722 CLR * * *  6.2 ** ** ** ** ** ** ** ** *   83   68 1015.2 ***** 1012.3 *** *** ***** ***** ***** ***** **
835500 ***** 201509190000 *** *** *** *** SCT * * * **** 02 ** ** ** ** ** ** ** 0   74   69 1016.7 ***** 1013.7 *** *** ***** ***** ***** ***** **
835500 ***** 201509191200 *** *** ***  20 BKN * * *  6.2 03 ** ** ** ** ** ** ** 1   78   68 1019.0 ***** 1016.0 ***  67 ***** ***** ***** ***** **
835500 ***** 201509191800 *** *** *** 722 CLR * * *  6.2 ** ** ** ** ** ** ** ** *   82   68 1015.4 ***** 1012.5 *** *** ***** ***** ***** ***** **
835500 ***** 201509200000 *** *** *** *** SCT * * * **** 02 ** ** ** ** ** ** ** 0   74   69 1016.5 ***** 1013.5 *** *** ***** ***** ***** ***** **
