  USAF  WBAN YR--MODAHRMN DIR SPD GUS CLG SKC L M H  VSB MW MW MW MW AW AW AW AW W TEMP DEWP    SLP   ALT    STP MAX MIN PCP01 PCP06 PCP24 PCPXX SD
835790 ***** 201507301200 270   6 *** *** SCT * * * 31.2 ** ** ** ** ** ** ** ** *   68   53 1019.9 *****  907.9 ***  62 ***** ***** ***** ***** **
835790 ***** 201507301800 320   3 *** *** SCT * * * 31.2 ** ** ** ** ** ** ** ** *   78   48 1016.7 *****  906.0 *** *** ***** ***** ***** ***** **
835790 ***** 201507310000 320   7 *** 722 CLR * * *  2.5 ** ** ** ** ** ** ** ** *   66   52 1018.8 *****  906.4 *** *** ***** ***** ***** ***** **
835790 ***** 201507311200 270   3 *** 722 CLR * * * 31.2 ** ** ** ** ** ** ** ** *   66   51 1020.8 *****  908.0 ***  58 ***** ***** ***** ***** **
835790 ***** 201507311800 320   2 *** 722 CLR * * * 31.2 ** ** ** ** ** ** ** ** *   78   51 1017.0 *****  905.5 *** *** ***** ***** ***** ***** **
835790 ***** 201508010000 320   6 *** 722 CLR * * *  2.5 ** ** ** ** ** ** ** ** *   67   52 1020.0 *****  907.5 *** *** ***** ***** ***** ***** **
835790 ***** 201508011200 270   3 *** 722 CLR * * * 31.2 ** ** ** ** ** ** ** ** *   67   52 1020.8 *****  908.3 ***  57 ***** ***** ***** ***** **
835790 ***** 201508011800 320   3 *** *** SCT * * * 31.2 ** ** ** ** ** ** ** ** *   78   50 1016.5 *****  905.1 *** *** ***** ***** ***** ***** **
835790 ***** 201508020000 320   6 *** 722 CLR * * *  2.5 ** ** ** ** ** ** ** ** *   65   51 1018.8 *****  906.2 *** *** ***** ***** ***** ***** **
835790 ***** 201508021200 270   7 *** 722 CLR * * * 31.2 ** ** ** ** ** ** ** ** *   65   52 1019.0 *****  906.2 ***  58 ***** ***** ***** ***** **
835790 ***** 201508021800 320   6 *** 722 CLR * * * 31.2 ** ** ** ** ** ** ** ** *   78   51 1014.3 *****  903.2 *** *** ***** ***** ***** ***** **
835790 ***** 201508030000 320   7 *** 722 CLR * * *  2.5 ** ** ** ** ** ** ** ** *   67   50 1018.4 *****  905.6 *** *** ***** ***** ***** ***** **
835790 ***** 201508031200 270   6 *** 722 CLR * * * 31.2 ** ** ** ** ** ** ** ** *   68   50 1018.3 *****  906.0 ***  58 ***** ***** ***** ***** **
835790 ***** 201508031800 320   3 *** 722 CLR * * * 31.2 ** ** ** ** ** ** ** ** *   80   50 1014.1 *****  903.5 *** *** ***** ***** ***** ***** **
835790 ***** 201508040000 320   3 *** 722 CLR * * *  2.5 ** ** ** ** ** ** ** ** *   69   51 1017.0 *****  905.1 *** *** ***** ***** ***** ***** **
835790 ***** 201508041200 270   3 *** 722 CLR * * * 31.2 ** ** ** ** ** ** ** ** *   71   49 1018.2 *****  906.6 ***  61 ***** ***** ***** ***** **
835790 ***** 201508041800 320   6 *** 722 CLR * * * 31.2 ** ** ** ** ** ** ** ** *   80   48 1015.4 *****  904.8 *** *** ***** ***** ***** ***** **
835790 ***** 201508050000 320   7 *** 722 CLR * * *  2.5 ** ** ** ** ** ** ** ** *   67   48 1016.4 *****  904.8 *** *** ***** ***** ***** ***** **
835790 ***** 201508051200 270   6 *** 722 CLR * * * 31.2 ** ** ** ** ** ** ** ** *   66   52 1019.7 *****  907.0 ***  60 ***** ***** ***** ***** **
835790 ***** 201508051800 320   3 *** *** SCT * * * 31.2 ** ** ** ** ** ** ** ** *   80   46 1015.5 *****  904.6 *** *** ***** ***** ***** ***** **
835790 ***** 201508060000 320   6 *** *** SCT * * *  2.5 ** ** ** ** ** ** ** ** *   67   48 1017.6 *****  905.4 *** *** ***** ***** ***** ***** **
835790 ***** 201508061200 270   3 *** 722 CLR * * * 31.2 ** ** ** ** ** ** ** ** *   69   49 1018.4 *****  906.4 ***  59 ***** ***** ***** ***** **
835790 ***** 201508061800 320   7 *** *** SCT * * * 31.2 ** ** ** ** ** ** ** ** *   80   48 1013.7 *****  903.1 *** *** ***** ***** ***** ***** **
835790 ***** 201508070000 320   2 *** 722 CLR * * *  2.5 ** ** ** ** ** ** ** ** *   68   50 1015.8 *****  904.3 *** *** ***** ***** ***** ***** **
835790 ***** 201508071200 270   6 *** 722 CLR * * * 31.2 ** ** ** ** ** ** ** ** *   69   48 1018.0 *****  906.2 ***  59 ***** ***** ***** ***** **
835790 ***** 201508071800 270   1 *** 722 CLR * * * 31.2 ** ** ** ** ** ** ** ** *   80   45 1012.6 *****  902.8 *** *** ***** ***** ***** ***** **
835790 ***** 201508080000 270  11 *** 722 CLR * * *  2.5 ** ** ** ** ** ** ** ** *   69   48 1016.2 *****  904.6 *** *** ***** ***** ***** ***** **
835790 ***** 201508081200 270   6 *** 722 CLR * * * 31.2 ** ** ** ** ** ** ** ** *   68   50 1018.5 *****  906.6 ***  61 ***** ***** ***** ***** **
835790 ***** 201508081800 270   3 *** *** SCT * * * 31.2 ** ** ** ** ** ** ** ** *   80   51 1012.5 *****  902.3 *** *** ***** ***** ***** ***** **
835790 ***** 201508090000 270   6 *** 722 CLR * * *  2.5 ** ** ** ** ** ** ** ** *   66   51 1016.9 *****  904.7 *** *** ***** ***** ***** ***** **
835790 ***** 201508091200 270   7 *** 722 CLR * * * 31.2 ** ** ** ** ** ** ** ** *   64   53 1018.8 *****  906.0 ***  59 ***** ***** ***** ***** **
835790 ***** 201508091800 320   9 ***  20 BKN * * * 31.2 ** ** ** ** ** ** ** ** *   78   52 1014.6 *****  903.5 *** *** ***** ***** ***** ***** **
835790 ***** 201508100000 320   3 *** 722 CLR * * *  2.5 ** ** ** ** ** ** ** ** *   65   52 1020.0 *****  907.1 *** *** ***** ***** ***** ***** **
835790 ***** 201508101200 270   7 *** *** SCT * * * 31.2 ** ** ** ** ** ** ** ** *   64   58 1020.6 *****  907.5 ***  58 ***** ***** ***** ***** **
835790 ***** 201508101800 270   3 ***  20 BKN * * * 31.2 ** ** ** ** ** ** ** ** *   78   53 1016.2 *****  904.8 *** *** ***** ***** ***** ***** **
835790 ***** 201508110000 320   6 *** *** SCT * * *  2.5 ** ** ** ** ** ** ** ** *   67   53 1021.1 *****  908.0 *** *** ***** ***** ***** ***** **
835790 ***** 201508111200 270   7 *** *** SCT * * * 31.2 ** ** ** ** ** ** ** ** *   62   51 1021.5 *****  908.2 ***  58 ***** ***** ***** ***** **
835790 ***** 201508111800 320   9 *** 722 CLR * * * 31.2 ** ** ** ** ** ** ** ** *   74   46 1018.3 *****  906.3 *** *** ***** ***** ***** ***** **
835790 ***** 201508120000 320   6 *** 722 CLR * * *  2.5 ** ** ** ** ** ** ** ** *   63   47 1021.0 *****  907.4 *** *** ***** ***** ***** ***** **
835790 ***** 201508121200 270   9 *** 722 CLR * * * 31.2 ** ** ** ** ** ** ** ** *   62   48 1023.7 *****  909.6 ***  54 ***** ***** ***** ***** **
835790 ***** 201508121800 320   3 *** 722 CLR * * * 31.2 ** ** ** ** ** ** ** ** *   75   50 1019.0 *****  906.6 *** *** ***** ***** ***** ***** **
835790 ***** 201508130000 320   7 *** 722 CLR * * *  2.5 ** ** ** ** ** ** ** ** *   63   47 1021.8 *****  908.0 *** *** ***** ***** ***** ***** **
835790 ***** 201508131200 270   9 *** 722 CLR * * * 31.2 ** ** ** ** ** ** ** ** *   62   47 1023.9 *****  909.8 ***  55 ***** ***** ***** ***** **
835790 ***** 201508131800 320   3 *** 722 CLR * * * 31.2 ** ** ** ** ** ** ** ** *   76   46 1018.2 *****  906.2 *** *** ***** ***** ***** ***** **
835790 ***** 201508140000 320   6 *** 722 CLR * * *  2.5 ** ** ** ** ** ** ** ** *   63   50 1022.0 *****  908.2 *** *** ***** ***** ***** ***** **
835790 ***** 201508141200 270   7 *** 722 CLR * * * 31.2 ** ** ** ** ** ** ** ** *   63   51 1022.8 *****  909.1 ***  55 ***** ***** ***** ***** **
835790 ***** 201508141800 320   9 *** *** SCT * * * 31.2 ** ** ** ** ** ** ** ** *   76   48 1018.0 *****  906.0 *** *** ***** ***** ***** ***** **
835790 ***** 201508150000 320   7 *** 722 CLR * * *  2.5 ** ** ** ** ** ** ** ** *   65   49 1020.4 *****  907.2 *** *** ***** ***** ***** ***** **
835790 ***** 201508151200 270   6 *** 722 CLR * * * 31.2 ** ** ** ** ** ** ** ** *   64   54 1020.8 *****  907.5 ***  58 ***** ***** ***** ***** **
835790 ***** 201508151800 320   3 ***  20 BKN * * * 31.2 ** ** ** ** ** ** ** ** *   78   47 1016.2 *****  904.8 *** *** ***** ***** ***** ***** **
835790 ***** 201508160000 320   9 *** *** SCT * * *  2.5 ** ** ** ** ** ** ** ** *   69   52 1018.7 *****  906.4 *** *** ***** ***** ***** ***** **
835790 ***** 201508161200 270   6 *** 722 CLR * * * 31.2 ** ** ** ** ** ** ** ** *   67   54 1019.0 *****  906.7 ***  60 ***** ***** ***** ***** **
835790 ***** 201508161800 320   3 ***  20 BKN * * * 31.2 ** ** ** ** ** ** ** ** *   80   49 1015.7 *****  905.1 *** *** ***** ***** ***** ***** **
835790 ***** 201508170000 320   3 *** *** SCT * * *  2.5 ** ** ** ** ** ** ** ** *   67   49 1019.5 *****  907.1 *** *** ***** ***** ***** ***** **
835790 ***** 201508171200 270   9 *** 722 CLR * * * 31.2 ** ** ** ** ** ** ** ** *   66   53 1021.5 *****  908.8 ***  61 ***** ***** ***** ***** **
835790 ***** 201508171800 320   9 ***  20 BKN * * * 31.2 ** ** ** ** ** ** ** ** *   79   47 1016.0 *****  905.1 *** *** ***** ***** ***** ***** **
835790 ***** 201508180000 320   6 ***  20 BKN * * *  2.5 ** ** ** ** ** ** ** ** *   67   48 1019.0 *****  906.4 *** *** ***** ***** ***** ***** **
835790 ***** 201508181200 270   6 *** *** SCT * * * 31.2 ** ** ** ** ** ** ** ** *   67   52 1020.1 *****  907.6 ***  63 ***** ***** ***** ***** **
835790 ***** 201508181800 320   3 ***  20 BKN * * * 31.2 ** ** ** ** ** ** ** ** *   80   49 1015.6 *****  905.0 *** *** ***** ***** ***** ***** **
835790 ***** 201508190000 320   2 ***  20 BKN * * *  2.5 ** ** ** ** ** ** ** ** *   70   54 1017.6 *****  905.8 *** *** ***** ***** ***** ***** **
835790 ***** 201508191200 270   7 *** *** SCT * * * 31.2 ** ** ** ** ** ** ** ** *   69   52 1016.6 *****  905.0 ***  60 ***** ***** ***** ***** **
835790 ***** 201508191800 320   6 ***  20 BKN * * * 31.2 ** ** ** ** ** ** ** ** *   82   52 1011.9 *****  901.9 *** *** ***** ***** ***** ***** **
835790 ***** 201508200000 320   2 *** 722 CLR * * *  2.5 ** ** ** ** ** ** ** ** *   72   57 1013.9 *****  903.0 *** *** ***** ***** ***** ***** **
835790 ***** 201508201200 270   3 *** 722 CLR * * * 31.2 ** ** ** ** ** ** ** ** *   66   54 1014.0 *****  902.7 ***  59 ***** ***** ***** ***** **
835790 ***** 201508201800 320   7 *** *** SCT * * * 31.2 ** ** ** ** ** ** ** ** *   83   45 1009.9 *****  900.4 *** *** ***** ***** ***** ***** **
835790 ***** 201508210000 320   3 *** 722 CLR * * *  2.5 ** ** ** ** ** ** ** ** *   67   40 1016.2 *****  903.9 *** *** ***** ***** ***** ***** **
835790 ***** 201508211200 270   3 *** 722 CLR * * * 31.2 ** ** ** ** ** ** ** ** *   66   52 1016.3 *****  904.0 ***  59 ***** ***** ***** ***** **
835790 ***** 201508211800 320   3 *** *** SCT * * * 31.2 ** ** ** ** ** ** ** ** *   84   39 1010.4 *****  900.7 *** *** ***** ***** ***** ***** **
835790 ***** 201508220000 320   6 *** 722 CLR * * *  2.5 ** ** ** ** ** ** ** ** *   69   45 1013.3 *****  901.6 *** *** ***** ***** ***** ***** **
835790 ***** 201508221200 270   3 *** 722 CLR * * * 31.2 ** ** ** ** ** ** ** ** *   69   49 1013.9 *****  902.6 ***  56 ***** ***** ***** ***** **
835790 ***** 201508221800 320   9 *** 722 CLR * * * 31.2 ** ** ** ** ** ** ** ** *   85   38 1009.2 *****  899.6 *** *** ***** ***** ***** ***** **
835790 ***** 201508230000 320   6 *** 722 CLR * * *  2.5 ** ** ** ** ** ** ** ** *   70   45 1013.2 *****  902.2 *** *** ***** ***** ***** ***** **
835790 ***** 201508231200 270   7 *** 722 CLR * * * 31.2 ** ** ** ** ** ** ** ** *   69   57 1014.2 *****  903.1 ***  62 ***** ***** ***** ***** **
835790 ***** 201508231800 320   6 *** *** SCT * * * 31.2 ** ** ** ** ** ** ** ** *   87   40 1009.3 *****  900.3 *** *** ***** ***** ***** ***** **
835790 ***** 201508240000 320   3 *** 722 CLR * * *  2.5 ** ** ** ** ** ** ** ** *   71   38 1014.0 *****  903.1 *** *** ***** ***** ***** ***** **
835790 ***** 201508241200 270   3 *** *** SCT * * * 31.2 ** ** ** ** ** ** ** ** *   74   51 1013.7 *****  903.5 ***  61 ***** ***** ***** ***** **
835790 ***** 201508241800 270   2 *** *** SCT * * * 31.2 ** ** ** ** ** ** ** ** *   87   49 1009.0 *****  900.0 *** *** ***** ***** ***** ***** **
835790 ***** 201508250000 270   3 *** *** SCT * * *  2.5 ** ** ** ** ** ** ** ** *   74   49 1012.1 *****  902.4 *** *** ***** ***** ***** ***** **
835790 ***** 201508251200 270  15 *** 722 CLR * * * 31.2 ** ** ** ** ** ** ** ** *   67   56 1015.0 *****  904.0 ***  62 ***** ***** ***** ***** **
835790 ***** 201508251800 270   6 ***  20 BKN * * * 31.2 ** ** ** ** ** ** ** ** *   84   53 1009.9 *****  900.8 *** *** ***** ***** ***** ***** **
835790 ***** 201508260000 270   7 *** 722 CLR * * *  2.5 ** ** ** ** ** ** ** ** *   71   56 1014.5 *****  903.1 *** *** ***** ***** ***** ***** **
835790 ***** 201508261200 270   9 *** 722 CLR * * * 31.2 ** ** ** ** ** ** ** ** *   67   56 1016.8 *****  905.2 ***  62 ***** ***** ***** ***** **
835790 ***** 201508261800 270   3 *** *** SCT * * * 31.2 ** ** ** ** ** ** ** ** *   85   51 1013.3 *****  901.8 *** *** ***** ***** ***** ***** **
835790 ***** 201508270000 270   7 *** *** SCT * * *  2.5 ** ** ** ** ** ** ** ** *   74   54 1014.3 *****  903.4 *** *** ***** ***** ***** ***** **
835790 ***** 201508271200 270   3 ***  20 BKN * * * 31.2 ** ** ** ** ** ** ** ** *   72   54 1012.3 *****  902.3 ***  67 ***** ***** ***** ***** **
835790 ***** 201508271800 270   9 ***  20 BKN * * * 31.2 ** ** ** ** ** ** ** ** *   78   53 1011.9 *****  902.2 *** *** ***** ***** ***** ***** **
835790 ***** 201508280000 270  11 ***  20 BKN * * *  2.5 ** ** ** ** ** ** ** ** *   63   53 1017.0 *****  905.1 *** *** ***** ***** ***** ***** **
835790 ***** 201508281200 270   3 ***  20 BKN * * * 31.2 ** ** ** ** ** ** ** ** *   64   50 1018.6 *****  905.4 ***  60 ***** ***** ***** ***** **
835790 ***** 201508281800 270   3 ***  20 BKN * * * 31.2 ** ** ** ** ** ** ** ** *   76   49 1015.0 *****  903.6 *** *** ***** ***** ***** ***** **
835790 ***** 201508290000 270   6 ***  20 BKN * * *  2.5 ** ** ** ** ** ** ** ** *   70   52 1015.5 *****  903.6 *** *** ***** ***** ***** ***** **
835790 ***** 201508291200 270   7 *** 722 CLR * * * 31.2 ** ** ** ** ** ** ** ** *   67   55 1018.6 *****  906.7 ***  61 ***** ***** ***** ***** **
835790 ***** 201508291800 270   6 ***  20 BKN * * * 31.2 ** ** ** ** ** ** ** ** *   85   55 1012.9 *****  903.1 *** *** ***** ***** ***** ***** **
835790 ***** 201508300000 270   6 *** 722 CLR * * *  2.5 ** ** ** ** ** ** ** ** *   73   55 1015.9 *****  904.8 *** *** ***** ***** ***** ***** **
835790 ***** 201508301200 270   6 *** 722 CLR * * * 31.2 ** ** ** ** ** ** ** ** *   71   58 1018.1 *****  907.0 ***  63 ***** ***** ***** ***** **
835790 ***** 201508301800 270   2 ***  20 BKN * * * 31.2 ** ** ** ** ** ** ** ** *   83   55 1014.1 *****  904.4 *** *** ***** ***** ***** ***** **
835790 ***** 201508310000 270   7 *** 722 CLR * * *  2.5 ** ** ** ** ** ** ** ** *   73   53 1018.1 *****  907.0 *** *** ***** ***** ***** ***** **
835790 ***** 201508311200 270   3 *** 722 CLR * * * 31.2 ** ** ** ** ** ** ** ** *   73   53 1018.5 *****  907.8 ***  63 ***** ***** ***** ***** **
835790 ***** 201508311800 270   3 *** 722 CLR * * * 31.2 ** ** ** ** ** ** ** ** *   86   49 1013.5 *****  904.3 *** *** ***** ***** ***** ***** **
835790 ***** 201509010000 270   6 *** 722 CLR * * * 31.2 ** ** ** ** ** ** ** ** *   74   51 1016.1 *****  905.9 *** *** ***** ***** ***** ***** **
835790 ***** 201509011200 270   2 *** 722 CLR * * * 31.2 ** ** ** ** ** ** ** ** *   76   51 1016.2 *****  906.2 ***  66 ***** ***** ***** ***** **
835790 ***** 201509011800 270   6 *** 722 CLR * * * 31.2 ** ** ** ** ** ** ** ** *   89   49 1011.1 *****  902.8 *** *** ***** ***** ***** ***** **
835790 ***** 201509020000 270   3 *** 722 CLR * * *  2.5 ** ** ** ** ** ** ** ** *   76   51 1013.3 *****  903.8 *** *** ***** ***** ***** ***** **
835790 ***** 201509021200 270  11 *** 722 CLR * * * 31.2 ** ** ** ** ** ** ** ** *   72   48 1014.9 *****  904.8 ***  66 ***** ***** ***** ***** **
835790 ***** 201509021800 270   3 *** 722 CLR * * * 31.2 ** ** ** ** ** ** ** ** *   88   50 1010.4 *****  902.2 *** *** ***** ***** ***** ***** **
835790 ***** 201509030000 270   7 *** *** SCT * * *  2.5 ** ** ** ** ** ** ** ** *   76   49 1012.9 *****  903.1 *** *** ***** ***** ***** ***** **
835790 ***** 201509031200 270   7 *** 722 CLR * * * 31.2 ** ** ** ** ** ** ** ** *   75   50 1013.7 *****  904.2 ***  66 ***** ***** ***** ***** **
835790 ***** 201509031800 270   6 ***  20 BKN * * * 31.2 ** ** ** ** ** ** ** ** *   89   46 1008.5 *****  900.8 *** *** ***** ***** ***** ***** **
835790 ***** 201509040000 270   2 *** *** SCT * * *  2.5 ** ** ** ** ** ** ** ** *   77   52 1010.9 *****  901.8 *** *** ***** ***** ***** ***** **
835790 ***** 201509041200 270   3 *** 722 CLR * * * 31.2 ** ** ** ** ** ** ** ** *   76   53 1012.5 *****  903.4 ***  63 ***** ***** ***** ***** **
835790 ***** 201509041800 270   9 ***  20 BKN * * * 31.2 ** ** ** ** ** ** ** ** *   90   38 1008.2 *****  900.3 *** *** ***** ***** ***** ***** **
835790 ***** 201509050000 270   3 *** 722 CLR * * *  2.5 ** ** ** ** ** ** ** ** *   76   46 1011.6 *****  902.4 *** *** ***** ***** ***** ***** **
835790 ***** 201509051200 270   3 *** *** SCT * * * 31.2 ** ** ** ** ** ** ** ** *   75   57 1013.4 *****  903.9 ***  65 ***** ***** ***** ***** **
835790 ***** 201509051800 270   2 ***  20 BKN * * * 31.2 ** ** ** ** ** ** ** ** *   85   52 1008.8 *****  900.3 *** *** ***** ***** ***** ***** **
835790 ***** 201509060000 270   2 ***  20 BKN * * *  2.5 ** ** ** ** ** ** ** ** *   75   57 1012.2 *****  902.6 *** *** ***** ***** ***** ***** **
835790 ***** 201509061200 270   6 ***  20 BKN * * * 31.2 ** ** ** ** ** ** ** ** *   71   60 1013.6 *****  903.5 ***  66 ***** ***** ***** ***** **
835790 ***** 201509061800 270   7 ***  20 BKN * * * 31.2 ** ** ** ** ** ** ** ** *   86   56 1007.1 *****  899.0 *** *** ***** ***** ***** ***** **
835790 ***** 201509070000 270   2 ***  20 BKN * * *  2.5 ** ** ** ** ** ** ** ** *   78   53 1010.4 *****  900.8 *** *** ***** ***** ***** ***** **
835790 ***** 201509071200 270   6 *** *** SCT * * * 31.2 ** ** ** ** ** ** ** ** *   74   60 1009.7 *****  900.7 ***  69 ***** ***** ***** ***** **
835790 ***** 201509071800 270   3 ***  20 BKN * * * 31.2 ** ** ** ** ** ** ** ** *   89   54 1004.7 *****  897.4 *** *** ***** ***** ***** ***** **
835790 ***** 201509080000 270  11 *** *** SCT * * *  2.5 ** ** ** ** ** ** ** ** *   72   61 1008.8 *****  899.2 *** *** ***** ***** ***** ***** **
835790 ***** 201509081200 270   9 ***  20 BKN * * * 31.2 03 ** ** ** ** ** ** ** 6   66   62 1011.4 *****  900.4 ***  64 ***** *****  0.35 ***** **
835790 ***** 201509081800 270   7 ***  20 BKN * * * 31.2 ** ** ** ** ** ** ** ** *   77   65 1006.3 *****  896.7 *** *** ***** ***** ***** ***** **
835790 ***** 201509090000 270   6 ***  20 BKN * * *  2.5 ** ** ** ** ** ** ** ** *   72   65 1009.0 *****  898.2 *** *** ***** ***** ***** ***** **
835790 ***** 201509091800 270   6 ***  20 BKN * * * 31.2 ** ** ** ** ** ** ** ** *   67   61 1011.5 *****  900.0 *** *** ***** ***** ***** ***** **
835790 ***** 201509100000 270   3 ***  20 BKN * * *  2.5 ** ** ** ** ** ** ** ** *   64   63 1014.4 *****  901.4 *** *** ***** ***** ***** ***** **
835790 ***** 201509101200 270   6 ***  20 OVC * * * 31.2 03 ** ** ** ** ** ** ** 6   64   61 1017.2 *****  904.4 ***  60 ***** *****  0.02 ***** **
835790 ***** 201509101800 270   6 ***  20 OVC * * * 31.2 03 ** ** ** ** ** ** ** 6   65   62 1013.9 *****  901.2 *** *** *****  0.04 ***** ***** **
835790 ***** 201509110000 270   3 ***  20 OVC * * *  2.5 ** ** ** ** ** ** ** ** *   65   59 1013.1 *****  900.7 *** *** ***** ***** ***** ***** **
835790 ***** 201509111200 270   3 ***  20 OVC * * * 31.2 03 ** ** ** ** ** ** ** 6   66   63 1015.2 *****  902.8 ***  63 ***** *****  0.08 ***** **
835790 ***** 201509111800 270   7 ***  20 OVC * * * 31.2 03 ** ** ** ** ** ** ** 6   65   59 1014.1 *****  901.5 *** *** *****  0.08 ***** ***** **
835790 ***** 201509120000 270   6 ***  20 OVC * * *  2.5 ** ** ** ** ** ** ** ** *   64   60 1016.2 *****  903.6 *** *** ***** ***** ***** ***** **
835790 ***** 201509121200 270   2 ***  20 BKN * * * 31.2 ** ** ** ** ** ** ** ** *   65   63 1017.2 *****  904.4 ***  62 ***** *****  0.08 ***** **
835790 ***** 201509121800 270   2 ***  20 BKN * * * 31.2 ** ** ** ** ** ** ** ** *   77   63 1012.1 *****  901.2 *** *** ***** ***** ***** ***** **
835790 ***** 201509130000 270   7 ***  20 BKN * * *  2.5 ** ** ** ** ** ** ** ** *   71   61 1015.1 *****  903.4 *** *** ***** ***** ***** ***** **
835790 ***** 201509131200 270   6 ***  20 BKN * * * 31.2 ** ** ** ** ** ** ** ** *   66   63 1015.7 *****  903.9 ***  65 ***** ***** ***** ***** **
835790 ***** 201509131800 270   7 ***  20 BKN * * * 31.2 ** ** ** ** ** ** ** ** *   80   62 1011.1 *****  901.5 *** *** ***** ***** ***** ***** **
835790 ***** 201509140000 270   2 *** *** SCT * * *  2.5 ** ** ** ** ** ** ** ** *   68   62 1017.3 *****  905.1 *** *** ***** ***** ***** ***** **
835790 ***** 201509141200 270   9 ***  20 OVC * * * 31.2 ** ** ** ** ** ** ** ** *   63   61 1017.9 *****  905.5 ***  61 ***** ***** ***** ***** **
835790 ***** 201509141800 270   3 ***  20 BKN * * * 31.2 ** ** ** ** ** ** ** ** *   82   60 1012.7 *****  902.7 *** *** ***** ***** ***** ***** **
835790 ***** 201509150000 270   7 *** *** SCT * * *  2.5 ** ** ** ** ** ** ** ** *   71   64 1017.0 *****  904.8 *** *** ***** ***** ***** ***** **
835790 ***** 201509151200 270   7 *** *** SCT * * * 31.2 ** ** ** ** ** ** ** ** *   71   63 1017.1 *****  905.8 ***  64 ***** ***** ***** ***** **
835790 ***** 201509151800 270   3 ***  20 BKN * * * 31.2 ** ** ** ** ** ** ** ** *   87   58 1011.0 *****  902.0 *** *** ***** ***** ***** ***** **
835790 ***** 201509160000 270   7 *** 722 CLR * * *  2.5 ** ** ** ** ** ** ** ** *   72   52 1014.7 *****  904.0 *** *** ***** ***** ***** ***** **
835790 ***** 201509161200 270   7 *** 722 CLR * * * 31.2 ** ** ** ** ** ** ** ** *   73   61 1017.0 *****  906.3 ***  65 ***** ***** ***** ***** **
835790 ***** 201509161800 270   6 ***  20 BKN * * * 31.2 ** ** ** ** ** ** ** ** *   86   56 1010.1 *****  901.5 *** *** ***** ***** ***** ***** **
835790 ***** 201509170000 270   6 *** 722 CLR * * *  2.5 ** ** ** ** ** ** ** ** *   74   54 1013.3 *****  903.2 *** *** ***** ***** ***** ***** **
835790 ***** 201509171200 270   3 *** 722 CLR * * * 31.2 ** ** ** ** ** ** ** ** *   76   56 1015.5 *****  905.5 ***  67 ***** ***** ***** ***** **
835790 ***** 201509171800 270   3 *** 722 CLR * * * 31.2 ** ** ** ** ** ** ** ** *   86   54 1008.1 *****  899.6 *** *** ***** ***** ***** ***** **
835790 ***** 201509180000 270   7 *** *** SCT * * *  2.5 ** ** ** ** ** ** ** ** *   76   54 1013.3 *****  903.6 *** *** ***** ***** ***** ***** **
835790 ***** 201509181200 270   3 *** 722 CLR * * * 31.2 ** ** ** ** ** ** ** ** *   76   54 1015.0 *****  905.4 ***  68 ***** ***** ***** ***** **
835790 ***** 201509181800 270   3 *** 722 CLR * * * 31.2 ** ** ** ** ** ** ** ** *   90   45 1008.0 *****  900.2 *** *** ***** ***** ***** ***** **
835790 ***** 201509190000 270   7 *** 722 CLR * * *  2.5 ** ** ** ** ** ** ** ** *   77   49 1013.3 *****  903.8 *** *** ***** ***** ***** ***** **
835790 ***** 201509191200 270   6 *** 722 CLR * * * 31.2 ** ** ** ** ** ** ** ** *   78   51 1015.5 *****  906.3 ***  68 ***** ***** ***** ***** **
835790 ***** 201509191800 270   7 *** 722 CLR * * * 31.2 ** ** ** ** ** ** ** ** *   89   39 1008.5 *****  900.7 *** *** ***** ***** ***** ***** **
