  USAF  WBAN YR--MODAHRMN DIR SPD GUS CLG SKC L M H  VSB MW MW MW MW AW AW AW AW W TEMP DEWP    SLP   ALT    STP MAX MIN PCP01 PCP06 PCP24 PCPXX SD
851950 ***** 201501011500 360  17 *** *** SCT * * * 18.8 ** ** ** ** ** ** ** ** *   83   72 1009.7 *****  950.2 *** *** ***** ***** ***** ***** **
851950 ***** 201501012100 360  14 *** *** SCT * * * 18.8 ** ** ** ** ** ** ** ** *   85   73 1004.9 *****  945.5  88 *** ***** ***** ***** ***** **
851950 ***** 201501021500 340   9 ***  13 OVC * * * 18.8 ** ** ** ** ** ** ** ** *   79   73 1012.5 *****  952.5 *** *** ***** ***** ***** ***** **
851950 ***** 201501022100 180   7 ***  10 OVC * * *  3.1 60 ** ** ** ** ** ** ** 9   64   63 1011.5 *****  950.5  81 *** ***** ***** ***** ***** **
851950 ***** 201501031200 ***   0 ***   1 OBS * * *  0.1 45 ** ** ** ** ** ** ** 4   64   64 1016.3 *****  955.3 ***  61 ***** *****  1.70 ***** **
851950 ***** 201501031500 180   7 ***  10 OVC * * * 12.5 ** ** ** ** ** ** ** ** *   68   68 1017.0 *****  956.0 *** *** ***** ***** ***** ***** **
851950 ***** 201501032100 ***   0 *** 197 OVC * * * 18.8 ** ** ** ** ** ** ** ** *   75   70 1012.1 *****  951.3  77 *** ***** ***** ***** ***** **
851950 ***** 201501041500 ***   0 ***  69 BKN * * * 18.8 ** ** ** ** ** ** ** ** *   77   72 1016.3 *****  955.5 *** *** ***** ***** ***** ***** **
851950 ***** 201501042100 ***   0 *** 197 BKN * * * 18.8 ** ** ** ** ** ** ** ** *   85   74 1009.7 *****  950.0  86 *** ***** ***** ***** ***** **
851950 ***** 201501051500 ***   0 *** 197 BKN * * * 12.5 ** ** ** ** ** ** ** ** *   84   73 1014.0 *****  954.0 *** *** ***** ***** ***** ***** **
851950 ***** 201501052100 ***   0 *** *** SCT * * * 18.8 ** ** ** ** ** ** ** ** *   90   75 1007.6 *****  948.8  91 *** ***** ***** ***** ***** **
851950 ***** 201501061500 360   9 *** *** SCT * * * 18.8 ** ** ** ** ** ** ** ** *   82   76 1013.7 *****  953.2 *** *** ***** ***** ***** ***** **
851950 ***** 201501062100 340  11 *** *** SCT * * * 12.5 ** ** ** ** ** ** ** ** *   79   72 1009.1 *****  949.2  87 *** ***** ***** ***** ***** **
851950 ***** 201501071500 360  11 *** *** SCT * * * 12.5 ** ** ** ** ** ** ** ** *   82   73 1011.7 *****  951.5 *** *** ***** ***** ***** ***** **
851950 ***** 201501072100 360  11 *** *** SCT * * * 18.8 ** ** ** ** ** ** ** ** *   82   74 1007.5 *****  947.8  88 *** ***** ***** ***** ***** **
851950 ***** 201501081500 360   5 ***  69 BKN * * * 18.8 ** ** ** ** ** ** ** ** *   81   72 1013.5 *****  954.0 *** *** ***** ***** ***** ***** **
851950 ***** 201501082100 360   9 *** *** SCT * * * 18.8 ** ** ** ** ** ** ** ** *   88   73 1008.6 *****  949.0  88 *** ***** ***** ***** ***** **
851950 ***** 201501091500 340  11 *** *** SCT * * * 18.8 ** ** ** ** ** ** ** ** *   86   76 1013.2 *****  953.5 *** *** ***** ***** ***** ***** **
851950 ***** 201501092100 340   7 *** *** SCT * * * 18.8 25 ** ** ** ** ** ** ** 8   82   74 1009.0 *****  949.0  90 *** ***** ***** ***** ***** **
851950 ***** 201501101500 350   5 *** 197 BKN * * * 18.8 ** ** ** ** ** ** ** ** *   84   76 1014.4 *****  954.2 *** *** ***** ***** ***** ***** **
851950 ***** 201501102100 340   6 *** 197 BKN * * * 18.8 ** ** ** ** ** ** ** ** *   77   69 1010.1 *****  950.0  88 *** ***** ***** ***** ***** **
851950 ***** 201501111500 360   6 ***  69 BKN * * * 18.8 ** ** ** ** ** ** ** ** *   85   72 1014.0 *****  953.5 *** *** ***** ***** ***** ***** **
851950 ***** 201501112100 360   7 ***  69 BKN * * * 18.8 ** ** ** ** ** ** ** ** *   83   72 1008.9 *****  948.5  88 *** ***** ***** ***** ***** **
851950 ***** 201501121500 ***   0 ***  69 OVC * * * 18.8 ** ** ** ** ** ** ** ** *   75   73 1014.9 *****  954.5 *** *** ***** ***** ***** ***** **
851950 ***** 201501122100 ***   0 *** 197 BKN * * * 12.5 ** ** ** ** ** ** ** ** *   82   73 1009.5 *****  949.5  88 *** ***** ***** ***** ***** **
851950 ***** 201501131500 360  11 ***  69 BKN * * * 12.5 ** ** ** ** ** ** ** ** *   80   72 1013.3 *****  953.2 *** *** ***** ***** ***** ***** **
851950 ***** 201501132100 340  11 *** *** SCT * * * 18.8 ** ** ** ** ** ** ** ** *   84   69 1007.8 *****  948.0  87 *** ***** ***** ***** ***** **
851950 ***** 201501141500 360  11 ***  17 BKN * * * 18.8 ** ** ** ** ** ** ** ** *   82   70 1012.9 *****  953.0 *** *** ***** ***** ***** ***** **
851950 ***** 201501142100 360  11 *** *** SCT * * * 12.5 ** ** ** ** ** ** ** ** *   81   73 1009.0 *****  949.0  87 *** ***** ***** ***** ***** **
851950 ***** 201501151500 ***   0 ***  27 OVC * * *  3.1 60 ** ** ** ** ** ** ** 2   77   72 1014.9 *****  954.5 *** *** ***** ***** ***** ***** **
851950 ***** 201501152100 ***   0 ***  23 OVC * * *  3.1 15 ** ** ** ** ** ** ** 2   75   73 1011.7 *****  951.3  80 *** ***** ***** ***** ***** **
851950 ***** 201501161500 ***   0 *** *** SCT * * * 12.5 ** ** ** ** ** ** ** ** *   82   73 1013.4 *****  953.5 *** *** ***** ***** ***** ***** **
851950 ***** 201501162100 340   5 ***  20 BKN * * * 12.5 ** ** ** ** ** ** ** ** *   86   71 1008.9 *****  949.3  88 *** ***** ***** ***** ***** **
851950 ***** 201501171500 360   9 *** *** SCT * * * 12.5 ** ** ** ** ** ** ** ** *   84   72 1013.7 *****  953.8 *** *** ***** ***** ***** ***** **
851950 ***** 201501172100 ***   0 *** 197 BKN * * * 12.5 ** ** ** ** ** ** ** ** *   74   72 1009.8 *****  949.5  88 *** ***** ***** ***** ***** **
851950 ***** 201501181500 360  11 *** *** SCT * * * 12.5 ** ** ** ** ** ** ** ** *   82   73 1014.0 *****  954.0 *** *** ***** ***** ***** ***** **
851950 ***** 201501182100 340   9 *** *** SCT * * * 12.5 ** ** ** ** ** ** ** ** *   84   73 1008.0 *****  948.0  87 *** ***** ***** ***** ***** **
851950 ***** 201501191500 360   7 ***  15 BKN * * * 12.5 ** ** ** ** ** ** ** ** *   78   74 1013.6 *****  953.5 *** *** ***** ***** ***** ***** **
851950 ***** 201501192100 350   5 ***  30 BKN * * * 18.8 ** ** ** ** ** ** ** ** *   76   71 1008.7 *****  948.5  86 *** ***** ***** ***** ***** **
851950 ***** 201501201500 340   5 *** *** SCT * * * 18.8 ** ** ** ** ** ** ** ** *   82   75 1013.6 *****  953.7 *** *** ***** ***** ***** ***** **
851950 ***** 201501202100 360   7 *** *** SCT * * * 12.5 ** ** ** ** ** ** ** ** *   89   73 1007.4 *****  948.0  90 *** ***** ***** ***** ***** **
851950 ***** 201501211500 180  14 ***  10 OVC * * * 12.5 20 ** ** ** ** ** ** ** 8   72   70 1015.0 *****  955.0 *** *** ***** ***** ***** ***** **
851950 ***** 201501212100 170   9 *** *** SCT * * * 18.8 ** ** ** ** ** ** ** ** *   78   70 1011.4 *****  951.0  80 *** ***** ***** ***** ***** **
851950 ***** 201501221500 170   3 *** 197 BKN * * * 18.8 ** ** ** ** ** ** ** ** *   82   73 1014.2 *****  954.0 *** *** ***** ***** ***** ***** **
851950 ***** 201501232100 ***   0 ***  23 BKN * * * 12.5 25 ** ** ** ** ** ** ** 8   76   74 1009.0 *****  949.0  89 *** ***** ***** ***** ***** **
851950 ***** 201501241500 *** *** *** *** *** * * * **** ** ** ** ** ** ** ** ** * **** **** ****** ***** ****** *** *** ***** ***** ***** ***** **
851950 ***** 201501242100 ***   0 *** *** SCT * * * 12.5 ** ** ** ** ** ** ** ** *   86   74 1005.9 *****  946.5  90 *** ***** ***** ***** ***** **
851950 ***** 201501252100 ***   0 ***  23 OVC * * * 12.5 29 ** ** ** ** ** ** ** 9   73   71 1007.1 *****  947.8  82 *** ***** ***** ***** ***** **
851950 ***** 201501261500 ***   0 ***   8 OVC * * *  0.6 65 ** ** ** ** ** ** ** 6   71   71 1012.7 *****  952.0 *** *** ***** ***** ***** ***** **
851950 ***** 201501262100 350   7 ***  69 OVC * * * 12.5 ** ** ** ** ** ** ** ** *   73   72 1008.4 *****  948.0  74 *** ***** ***** ***** ***** **
851950 ***** 201501272100 350  14 *** *** SCT * * * 12.5 ** ** ** ** ** ** ** ** *   80   74 1006.6 *****  946.5  81 *** ***** ***** ***** ***** **
851950 ***** 201501281500 340  17 ***  15 BKN * * * 18.8 ** ** ** ** ** ** ** ** *   78   72 1011.9 *****  951.7 *** *** ***** ***** ***** ***** **
851950 ***** 201501282100 350  14 *** *** SCT * * * 18.8 ** ** ** ** ** ** ** ** *   83   72 1006.9 *****  947.2  85 *** ***** ***** ***** ***** **
851950 ***** 201501291500 350  11 ***  15 BKN * * * 12.5 ** ** ** ** ** ** ** ** *   80   74 1013.6 *****  953.5 *** *** ***** ***** ***** ***** **
851950 ***** 201501301500 180   3 ***  69 BKN * * * 18.8 ** ** ** ** ** ** ** ** *   76   74 1013.5 *****  953.2 *** *** ***** ***** ***** ***** **
851950 ***** 201501302100 ***   0 *** *** SCT * * * 18.8 ** ** ** ** ** ** ** ** *   86   73 1008.6 *****  949.0  88 *** ***** ***** ***** ***** **
851950 ***** 201501311500 ***   0 *** 197 BKN * * * 18.8 ** ** ** ** ** ** ** ** *   82   76 1015.0 *****  955.0 *** *** ***** ***** ***** ***** **
851950 ***** 201501312100 ***   0 *** *** SCT * * * 18.8 17 ** ** ** ** ** ** ** 9   80   71 1009.5 *****  949.5  91 *** ***** ***** ***** ***** **
851950 ***** 201502011500 360   9 *** *** SCT * * * 18.8 ** ** ** ** ** ** ** ** *   87   75 1013.7 *****  954.0 *** *** ***** ***** ***** ***** **
851950 ***** 201502012100 350  11 *** 197 BKN * * * 18.8 ** ** ** ** ** ** ** ** *   76   69 1012.4 *****  952.0  90 *** ***** ***** ***** ***** **
851950 ***** 201502021500 360   7 *** 197 BKN * * * 12.5 ** ** ** ** ** ** ** ** *   83   72 1014.2 *****  954.0 *** *** ***** ***** ***** ***** **
851950 ***** 201502031300 340   5 *** 722 CLR * * *  6.2 ** ** ** ** ** ** ** ** *   79   75 ****** 29.91 ****** *** *** ***** ***** ***** ***** **
851950 ***** 201502031500 350  14 *** 197 BKN * * * 18.8 ** ** ** ** ** ** ** ** *   84   74 1012.3 *****  952.7 *** *** ***** ***** ***** ***** **
851950 ***** 201502032100 340   9 *** *** SCT * * * 12.5 ** ** ** ** ** ** ** ** *   88   73 1006.8 *****  947.3  91 *** ***** ***** ***** ***** **
851950 ***** 201502041500 340   7 ***  15 OVC * * *  3.1 ** ** ** ** ** ** ** ** *   74   73 1011.0 *****  951.0 *** *** ***** ***** ***** ***** **
851950 ***** 201502042100 340  11 *** *** SCT * * * 18.8 ** ** ** ** ** ** ** ** *   86   75 1004.9 *****  945.5  88 *** ***** ***** ***** ***** **
851950 ***** 201502051500 340   9 ***  17 BKN * * * 18.8 ** ** ** ** ** ** ** ** *   84   74 1009.5 *****  950.0 *** *** ***** ***** ***** ***** **
851950 ***** 201502052100 ***   0 *** 197 BKN * * * 12.5 ** ** ** ** ** ** ** ** *   86   75 1004.9 *****  944.5  88 *** ***** ***** ***** ***** **
851950 ***** 201502061500 340   5 ***  13 BKN * * * 12.5 ** ** ** ** ** ** ** ** *   80   75 1008.8 *****  949.2 *** *** ***** ***** ***** ***** **
851950 ***** 201502062100 ***   0 ***  69 OVC * * * 12.5 ** ** ** ** ** ** ** ** *   77   74 1005.3 *****  945.5  81 *** ***** ***** ***** ***** **
851950 ***** 201502071500 340   7 ***  30 BKN * * * 18.8 ** ** ** ** ** ** ** ** *   82   75 1010.0 *****  950.1 *** *** ***** ***** ***** ***** **
851950 ***** 201502072100 ***   0 *** 197 BKN * * * 18.8 ** ** ** ** ** ** ** ** *   71   69 1007.1 *****  946.8  83 *** ***** ***** ***** ***** **
851950 ***** 201502081500 360   7 *** *** SCT * * * 12.5 ** ** ** ** ** ** ** ** *   81   74 1010.0 *****  950.0 *** *** ***** ***** ***** ***** **
851950 ***** 201502082100 340   7 *** 197 BKN * * * 12.5 ** ** ** ** ** ** ** ** *   86   75 1005.7 *****  946.0  88 *** ***** ***** ***** ***** **
851950 ***** 201502091500 360  11 *** 197 BKN * * * 18.8 ** ** ** ** ** ** ** ** *   82   73 1010.2 *****  950.5 *** *** ***** ***** ***** ***** **
851950 ***** 201502092100 360   7 *** 197 BKN * * * 12.5 ** ** ** ** ** ** ** ** *   85   73 1005.8 *****  945.8  88 *** ***** ***** ***** ***** **
851950 ***** 201502101500 340  14 *** 197 BKN * * * 12.5 ** ** ** ** ** ** ** ** *   80   72 1011.1 *****  951.2 *** *** ***** ***** ***** ***** **
851950 ***** 201502102100 360  14 *** 197 BKN * * * 12.5 ** ** ** ** ** ** ** ** *   79   71 1008.0 *****  948.0  84 *** ***** ***** ***** ***** **
851950 ***** 201502111500 180   9 ***  10 OVC * * * 12.5 ** ** ** ** ** ** ** ** *   68   67 1016.8 *****  956.0 *** *** ***** ***** ***** ***** **
851950 ***** 201502112100 ***   0 *** 197 BKN * * * 12.5 ** ** ** ** ** ** ** ** *   78   72 1011.4 *****  951.0  80 *** ***** ***** ***** ***** **
851950 ***** 201502121500 360   5 ***  69 BKN * * * 12.5 ** ** ** ** ** ** ** ** *   79   74 1014.4 *****  954.0 *** *** ***** ***** ***** ***** **
851950 ***** 201502122100 ***   0 *** *** SCT * * * 18.8 ** ** ** ** ** ** ** ** *   87   75 1009.1 *****  949.5  90 *** ***** ***** ***** ***** **
851950 ***** 201502131500 360   5 ***  30 BKN * * * 18.8 ** ** ** ** ** ** ** ** *   82   75 1015.0 *****  955.0 *** *** ***** ***** ***** ***** **
851950 ***** 201502141500 360   7 ***  69 BKN * * * 18.8 ** ** ** ** ** ** ** ** *   80   72 1014.2 *****  954.0 *** *** ***** ***** ***** ***** **
851950 ***** 201502152100 360  11 *** *** SCT * * * 18.8 ** ** ** ** ** ** ** ** *   85   73 1007.8 *****  948.0  87 *** ***** ***** ***** ***** **
851950 ***** 201502161500 360   9 ***  17 BKN * * * 18.8 ** ** ** ** ** ** ** ** *   82   74 1011.3 *****  951.5 *** *** ***** ***** ***** ***** **
851950 ***** 201502162100 320   9 ***  30 BKN * * *  1.9 95 ** ** ** ** ** ** ** 9   77   74 1007.4 *****  947.5  88 *** ***** ***** ***** ***** **
851950 ***** 201502171500 360   6 ***   8 OVC * * *  3.8 50 ** ** ** ** ** ** ** 5   73   72 1012.7 *****  952.0 *** *** ***** ***** ***** ***** **
851950 ***** 201502172100 ***   0 ***  12 OVC * * * 12.5 ** ** ** ** ** ** ** ** *   74   72 1007.3 *****  947.2  76 *** ***** ***** ***** ***** **
851950 ***** 201502181500 350   7 ***  12 OVC * * * 12.5 ** ** ** ** ** ** ** ** *   74   72 1009.3 *****  949.0 *** *** ***** ***** ***** ***** **
851950 ***** 201502182100 340  14 ***  17 BKN * * * 12.5 ** ** ** ** ** ** ** ** *   79   74 1005.3 *****  944.5  82 *** ***** ***** ***** ***** **
851950 ***** 201502191500 340   5 ***  13 BKN * * *  4.4 15 ** ** ** ** ** ** ** 8   77   72 1009.3 *****  949.5 *** *** ***** ***** ***** ***** **
851950 ***** 201502191800 340   9 ***  15 BKN * * * 18.8 ** ** ** ** ** ** ** ** *   81   73 1006.9 *****  947.2 *** *** ***** ***** ***** ***** **
851950 ***** 201502201500 180   5 ***  10 OVC * * *  3.1 60 ** ** ** ** ** ** ** 6   67   67 1012.0 *****  952.0 *** *** ***** ***** ***** ***** **
851950 ***** 201502211500 180  11 ***  12 OVC * * * 12.5 ** ** ** ** ** ** ** ** *   69   68 1014.0 *****  953.0 *** *** ***** ***** ***** ***** **
851950 ***** 201502212100 180   7 ***  13 OVC * * * 12.5 ** ** ** ** ** ** ** ** *   73   70 1010.0 *****  949.0  74 *** ***** ***** ***** ***** **
851950 ***** 201502221500 ***   0 ***  10 OVC * * *  3.1 61 ** ** ** ** ** ** ** 6   73   73 1013.0 *****  952.5 *** *** ***** ***** ***** ***** **
851950 ***** 201502231500 ***   0 ***  13 BKN * * * 18.8 ** ** ** ** ** ** ** ** *   79   73 1015.4 *****  955.0 *** *** ***** ***** ***** ***** **
851950 ***** 201502232100 ***   0 ***  23 BKN * * * 12.5 ** ** ** ** ** ** ** ** *   86   72 1010.0 *****  950.0  89 *** ***** ***** ***** ***** **
851950 ***** 201502241500 ***   0 *** *** SCT * * * 12.5 ** ** ** ** ** ** ** ** *   83   75 1013.2 *****  953.5 *** *** ***** ***** ***** ***** **
851950 ***** 201502252100 340   9 *** *** SCT * * * 12.5 ** ** ** ** ** ** ** ** *   86   73 1008.7 *****  948.8  90 *** ***** ***** ***** ***** **
851950 ***** 201502262100 ***   0 ***  30 BKN * * * 12.5 17 ** ** ** ** ** ** ** 9   82   73 1006.7 *****  947.0  90 *** ***** ***** ***** ***** **
851950 ***** 201502272100 340   9 *** 197 BKN * * * 12.5 ** ** ** ** ** ** ** ** *   85   73 1007.8 *****  947.8  89 *** ***** ***** ***** ***** **
851950 ***** 201502281500 360  14 ***  23 BKN * * * 12.5 ** ** ** ** ** ** ** ** *   80   74 1013.8 *****  953.8 *** *** ***** ***** ***** ***** **
851950 ***** 201502282100 ***   0 ***  30 BKN * * *  4.4 17 ** ** ** ** ** ** ** 9   75   71 1009.0 *****  949.0  86 *** ***** ***** ***** ***** **
851950 ***** 201503011500 360   9 *** *** SCT * * * 18.8 ** ** ** ** ** ** ** ** *   82   72 1013.8 *****  953.5 *** *** ***** ***** ***** ***** **
851950 ***** 201503012100 ***   0 ***  30 BKN * * * 18.8 ** ** ** ** ** ** ** ** *   84   74 1007.5 *****  947.8  87 *** ***** ***** ***** ***** **
851950 ***** 201503021500 360   7 ***  20 BKN * * * 12.5 ** ** ** ** ** ** ** ** *   82   73 1012.1 *****  952.2 *** *** ***** ***** ***** ***** **
851950 ***** 201503031500 340  14 *** *** SCT * * * 18.8 ** ** ** ** ** ** ** ** *   84   74 1009.5 *****  950.0 *** *** ***** ***** ***** ***** **
851950 ***** 201503032100 350  14 ***  23 BKN * * * 12.5 ** ** ** ** ** ** ** ** *   84   72 1004.6 *****  945.0  89 *** ***** ***** ***** ***** **
851950 ***** 201503041500 360   5 ***  10 OVC * * *  5.0 61 ** ** ** ** ** ** ** 6   72   72 1012.4 *****  952.0 *** *** ***** ***** ***** ***** **
851950 ***** 201503042100 360   5 ***  69 BKN * * * 12.5 ** ** ** ** ** ** ** ** *   72   69 1008.3 *****  947.7  75 *** ***** ***** ***** ***** **
851950 ***** 201503052100 340  11 ***  27 OVC * * *  1.2 62 ** ** ** ** ** ** ** 2   74   73 1009.7 *****  949.2  82 *** ***** ***** ***** ***** **
851950 ***** 201503061500 360   5 ***  13 BKN * * * 12.5 ** ** ** ** ** ** ** ** *   80   74 1013.8 *****  953.5 *** *** ***** ***** ***** ***** **
851950 ***** 201503062100 ***   0 ***  20 BKN * * * 12.5 ** ** ** ** ** ** ** ** *   82   76 1009.0 *****  949.0  87 *** ***** ***** ***** ***** **
851950 ***** 201503071500 ***   0 ***  15 BKN * * * 12.5 ** ** ** ** ** ** ** ** *   82   75 1013.4 *****  953.5 *** *** ***** ***** ***** ***** **
851950 ***** 201503081500 340   9 *** 197 BKN * * * 12.5 ** ** ** ** ** ** ** ** *   82   74 1012.0 *****  952.2 *** *** ***** ***** ***** ***** **
851950 ***** 201503091500 ***   0 *** 197 BKN * * * 12.5 ** ** ** ** ** ** ** ** *   81   73 1012.0 *****  952.0 *** *** ***** ***** ***** ***** **
851950 ***** 201503092100 340   5 ***  23 BKN * * * 12.5 ** ** ** ** ** ** ** ** *   84   77 1007.2 *****  947.5  86 *** ***** ***** ***** ***** **
851950 ***** 201503101500 ***   0 ***  23 BKN * * * 12.5 ** ** ** ** ** ** ** ** *   83   77 1011.6 *****  952.0 *** *** ***** ***** ***** ***** **
851950 ***** 201503102100 ***   0 *** 197 BKN * * * 12.5 ** ** ** ** ** ** ** ** *   84   75 1006.2 *****  946.5  88 *** ***** ***** ***** ***** **
851950 ***** 201503111500 ***   0 *** 197 BKN * * * 12.5 ** ** ** ** ** ** ** ** *   84   77 1011.6 *****  952.0 *** *** ***** ***** ***** ***** **
851950 ***** 201503112100 ***   0 *** *** SCT * * * 12.5 ** ** ** ** ** ** ** ** *   86   74 1006.5 *****  946.6  89 *** ***** ***** ***** ***** **
851950 ***** 201503121500 ***   0 ***  23 OVC * * *  5.0 95 ** ** ** ** ** ** ** 9   75   74 1009.8 *****  949.8 *** *** ***** ***** ***** ***** **
851950 ***** 201503122100 ***   0 *** *** SCT * * * 12.5 ** ** ** ** ** ** ** ** *   85   74 1005.0 *****  946.0  89 *** ***** ***** ***** ***** **
851950 ***** 201503131500 340   7 *** *** SCT * * * 18.8 ** ** ** ** ** ** ** ** *   82   76 1008.9 *****  949.3 *** *** ***** ***** ***** ***** **
851950 ***** 201503132100 360   9 *** *** SCT * * * 12.5 ** ** ** ** ** ** ** ** *   84   73 1005.6 *****  945.7  89 *** ***** ***** ***** ***** **
851950 ***** 201503141500 360  11 ***  15 BKN * * * 12.5 ** ** ** ** ** ** ** ** *   79   74 1010.0 *****  950.0 *** *** ***** ***** ***** ***** **
851950 ***** 201503142100 ***   0 ***  30 BKN * * * 18.8 ** ** ** ** ** ** ** ** *   80   75 1005.3 *****  945.5  89 *** ***** ***** ***** ***** **
851950 ***** 201503151500 360   7 ***  30 BKN * * * 18.8 ** ** ** ** ** ** ** ** *   84   76 1011.3 *****  951.6 *** *** ***** ***** ***** ***** **
851950 ***** 201503152100 ***   0 *** *** SCT * * * 18.8 ** ** ** ** ** ** ** ** *   88   76 1006.5 *****  947.0  90 *** ***** ***** ***** ***** **
851950 ***** 201503161500 ***   0 ***  12 OVC * * * 18.8 ** ** ** ** ** ** ** ** *   76   73 1013.2 *****  953.2 *** *** ***** ***** ***** ***** **
851950 ***** 201503162100 ***   0 *** 197 BKN * * * 18.8 ** ** ** ** ** ** ** ** *   82   74 1007.7 *****  947.8  82 *** ***** ***** ***** ***** **
851950 ***** 201503171500 ***   0 *** *** SCT * * * 18.8 ** ** ** ** ** ** ** ** *   83   76 1011.3 *****  951.5 *** *** ***** ***** ***** ***** **
851950 ***** 201503172100 ***   0 *** 197 BKN * * * 12.5 ** ** ** ** ** ** ** ** *   82   73 1007.8 *****  947.8  89 *** ***** ***** ***** ***** **
851950 ***** 201503181500 ***   0 *** 197 BKN * * * 12.5 ** ** ** ** ** ** ** ** *   83   76 1011.8 *****  952.2 *** *** ***** ***** ***** ***** **
851950 ***** 201503182100 ***   0 ***  30 OVC * * * 18.8 29 ** ** ** ** ** ** ** 9   73   71 1007.4 *****  947.5  84 *** ***** ***** ***** ***** **
851950 ***** 201503191500 ***   0 ***  15 BKN * * * 18.8 ** ** ** ** ** ** ** ** *   82   76 1013.1 *****  953.0 *** *** ***** ***** ***** ***** **
851950 ***** 201503192100 ***   0 *** 197 BKN * * * 18.8 ** ** ** ** ** ** ** ** *   86   74 1007.6 *****  948.0  88 *** ***** ***** ***** ***** **
851950 ***** 201503201500 ***   0 *** *** SCT * * * 12.5 ** ** ** ** ** ** ** ** *   84   74 1011.7 *****  951.7 *** *** ***** ***** ***** ***** **
851950 ***** 201503202100 360   5 *** 197 BKN * * * 18.8 ** ** ** ** ** ** ** ** *   77   73 1007.6 *****  947.5  88 *** ***** ***** ***** ***** **
851950 ***** 201503212100 ***   0 *** 197 BKN * * * 12.5 17 ** ** ** ** ** ** ** 9   73   69 1010.0 *****  950.0  86 *** ***** ***** ***** ***** **
851950 ***** 201503221500 180  11 *** 197 BKN * * * 12.5 ** ** ** ** ** ** ** ** *   82   69 1013.5 *****  953.5 *** *** ***** ***** ***** ***** **
851950 ***** 201503222100 ***   0 *** *** SCT * * * 12.5 ** ** ** ** ** ** ** ** *   86   74 1009.2 *****  949.4  89 *** ***** ***** ***** ***** **
851950 ***** 201503231500 180   7 *** 197 BKN * * * 12.5 ** ** ** ** ** ** ** ** *   79   74 1015.7 *****  955.5 *** *** ***** ***** ***** ***** **
851950 ***** 201503232100 ***   0 *** *** SCT * * * 12.5 ** ** ** ** ** ** ** ** *   85   73 1011.0 *****  951.0  87 *** ***** ***** ***** ***** **
851950 ***** 201503241500 180  11 *** *** BKN * * * 18.8 ** ** ** ** ** ** ** ** *   82   73 1015.5 *****  955.5 *** *** ***** ***** ***** ***** **
851950 ***** 201503242100 ***   0 *** 197 BKN * * * 18.8 29 ** ** ** ** ** ** ** 9   77   71 1010.6 *****  950.5  88 *** ***** ***** ***** ***** **
851950 ***** 201503252100 ***   0 *** 197 BKN * * * 18.8 ** ** ** ** ** ** ** ** *   80   72 1010.3 *****  950.3  86 *** ***** ***** ***** ***** **
851950 ***** 201503261500 360   7 ***  69 BKN * * * 12.5 ** ** ** ** ** ** ** ** *   77   74 1013.0 *****  953.0 *** *** ***** ***** ***** ***** **
851950 ***** 201503262100 ***   0 ***  23 OVC * * *  3.1 15 ** ** ** ** ** ** ** 2   82   73 1007.8 *****  947.8  89 *** ***** ***** ***** ***** **
851950 ***** 201503271500 180  11 ***   8 OVC * * *  4.4 61 ** ** ** ** ** ** ** 6   64   63 1016.2 *****  956.2 *** *** ***** ***** ***** ***** **
851950 ***** 201503272100 180   9 ***   8 OVC * * *  3.1 61 ** ** ** ** ** ** ** 6   64   64 1014.3 *****  953.5  65 *** ***** ***** ***** ***** **
851950 ***** 201503281500 180  11 ***  10 OVC * * * 12.5 ** ** ** ** ** ** ** ** *   64   62 1018.0 *****  958.0 *** *** ***** ***** ***** ***** **
851950 ***** 201503282100 ***   0 ***  13 OVC * * * 12.5 ** ** ** ** ** ** ** ** *   70   67 1014.5 *****  953.5  72 *** ***** ***** ***** ***** **
851950 ***** 201503301500 360   7 ***  69 BKN * * * 18.8 25 ** ** ** ** ** ** ** 8   79   74 1013.8 *****  953.0 *** *** ***** ***** ***** ***** **
851950 ***** 201503302100 360   7 *** 197 BKN * * * 18.8 ** ** ** ** ** ** ** ** *   84   73 1007.8 *****  948.5  86 *** ***** ***** ***** ***** **
851950 ***** 201503311500 ***   0 ***  69 BKN * * * 18.8 ** ** ** ** ** ** ** ** *   76   74 1014.3 *****  954.0 *** *** ***** ***** ***** ***** **
851950 ***** 201503312100 340   7 *** *** SCT * * * 18.8 ** ** ** ** ** ** ** ** *   85   76 1008.5 *****  948.0  88 *** ***** ***** ***** ***** **
851950 ***** 201504012100 180   5 ***  69 BKN * * * 18.8 ** ** ** ** ** ** ** ** *   73   70 1012.3 *****  951.5  75 *** ***** ***** ***** ***** **
851950 ***** 201504022100 ***   0 *** *** SCT * * * 18.8 ** ** ** ** ** ** ** ** *   83   75 1009.5 *****  949.2  88 *** ***** ***** ***** ***** **
851950 ***** 201504031500 360   9 ***  17 BKN * * * 18.8 ** ** ** ** ** ** ** ** *   82   75 1011.6 *****  951.8 *** *** ***** ***** ***** ***** **
851950 ***** 201504031800 360  11 ***  30 BKN * * *  4.4 15 ** ** ** ** ** ** ** 2   82   74 1009.0 *****  949.2 *** *** ***** ***** ***** ***** **
851950 ***** 201504032100 360   9 *** *** SCT * * * 18.8 ** ** ** ** ** ** ** ** *   85   74 1005.1 *****  945.5  88 *** ***** ***** ***** ***** **
851950 ***** 201504041200 350   7 *** 197 BKN * * * 18.8 ** ** ** ** ** ** ** ** *   73   73 1008.3 *****  948.3 ***  70 ***** ***** ***** ***** **
851950 ***** 201504041500 340  15 ***  17 BKN * * * 18.8 ** ** ** ** ** ** ** ** *   85   77 1007.9 *****  948.5 *** *** ***** ***** ***** ***** **
851950 ***** 201504042100 360   7 ***  30 BKN * * * 18.8 25 ** ** ** ** ** ** ** 8   79   75 1003.7 *****  944.0  89 *** ***** ***** ***** ***** **
851950 ***** 201504051500 340   9 ***  13 OVC * * * 18.8 ** ** ** ** ** ** ** ** *   79   74 1011.3 *****  951.1 *** *** ***** ***** ***** ***** **
851950 ***** 201504052100 190  11 ***  27 OVC * * *  3.1 95 ** ** ** ** ** ** ** 9   70   69 1010.0 *****  949.5  86 *** ***** ***** ***** ***** **
851950 ***** 201504061500 180  17 *** 197 OVC * * * 18.8 ** ** ** ** ** ** ** ** *   75   65 1016.3 *****  955.5 *** *** ***** ***** ***** ***** **
851950 ***** 201504062100 180  11 *** 197 OVC * * * 18.8 ** ** ** ** ** ** ** ** *   76   64 1012.1 *****  951.5  78 *** ***** ***** ***** ***** **
851950 ***** 201504071500 ***   0 *** *** *** * * * 18.8 ** ** ** ** ** ** ** ** *   78   65 1014.0 *****  953.5 *** *** ***** ***** ***** ***** **
851950 ***** 201504072100 ***   0 *** *** *** * * * 18.8 ** ** ** ** ** ** ** ** *   81   68 1008.7 *****  948.5  84 *** ***** ***** ***** ***** **
851950 ***** 201504081500 ***   0 *** *** SCT * * * 18.8 ** ** ** ** ** ** ** ** *   82   70 1012.8 *****  952.8 *** *** ***** ***** ***** ***** **
851950 ***** 201504082100 ***   0 *** *** SCT * * * 12.5 ** ** ** ** ** ** ** ** *   83   70 1009.0 *****  949.0  87 *** ***** ***** ***** ***** **
851950 ***** 201504091500 ***   0 ***  30 BKN * * * 12.5 ** ** ** ** ** ** ** ** *   83   75 1013.4 *****  953.5 *** *** ***** ***** ***** ***** **
851950 ***** 201504092100 ***   0 ***  23 BKN * * *  4.4 95 ** ** ** ** ** ** ** 9   75   73 1010.7 *****  950.8  85 *** ***** ***** ***** ***** **
851950 ***** 201504101500 ***   0 *** *** BKN * * * 12.5 ** ** ** ** ** ** ** ** *   75   71 1016.5 *****  956.5 *** *** ***** ***** ***** ***** **
851950 ***** 201504102100 ***   0 *** *** SCT * * * 12.5 ** ** ** ** ** ** ** ** *   82   71 1012.0 *****  952.0  85 *** ***** ***** ***** ***** **
851950 ***** 201504111500 ***   0 *** *** SCT * * * 12.5 ** ** ** ** ** ** ** ** *   81   73 1015.9 *****  955.9 *** *** ***** ***** ***** ***** **
851950 ***** 201504112100 ***   0 *** 197 OVC * * * 12.5 17 ** ** ** ** ** ** ** 9   74   73 1010.5 *****  950.5  88 *** ***** ***** ***** ***** **
851950 ***** 201504121500 ***   0 *** 197 BKN * * * 18.8 ** ** ** ** ** ** ** ** *   84   76 1013.9 *****  954.0 *** *** ***** ***** ***** ***** **
851950 ***** 201504122100 ***   0 ***  30 BKN * * *  3.8 17 ** ** ** ** ** ** ** 9   76   72 1010.1 *****  950.0  88 *** ***** ***** ***** ***** **
851950 ***** 201504131500 ***   0 ***  23 BKN * * * 12.5 ** ** ** ** ** ** ** ** *   76   74 1015.3 *****  955.3 *** *** ***** ***** ***** ***** **
851950 ***** 201504132100 360   7 *** 197 BKN * * * 18.8 ** ** ** ** ** ** ** ** *   82   73 1008.8 *****  949.0  87 *** ***** ***** ***** ***** **
851950 ***** 201504141500 340   7 *** 197 BKN * * * 12.5 ** ** ** ** ** ** ** ** *   82   73 1012.9 *****  953.0 *** *** ***** ***** ***** ***** **
851950 ***** 201504142100 360   7 *** *** SCT * * * 18.8 ** ** ** ** ** ** ** ** *   82   74 1008.8 *****  948.8  88 *** ***** ***** ***** ***** **
851950 ***** 201504151500 360  14 *** *** SCT * * * 18.8 ** ** ** ** ** ** ** ** *   84   75 1012.7 *****  953.0 *** *** ***** ***** ***** ***** **
851950 ***** 201504152100 340   5 *** *** SCT * * * 18.8 ** ** ** ** ** ** ** ** *   84   74 1007.8 *****  948.0  89 *** ***** ***** ***** ***** **
851950 ***** 201504161500 360   7 *** 197 BKN * * * 18.8 ** ** ** ** ** ** ** ** *   83   76 1012.9 *****  953.3 *** *** ***** ***** ***** ***** **
851950 ***** 201504162100 340   9 *** 197 BKN * * * 12.5 ** ** ** ** ** ** ** ** *   84   73 1008.0 *****  948.0  89 *** ***** ***** ***** ***** **
851950 ***** 201504171500 340   7 ***  17 BKN * * * 12.5 ** ** ** ** ** ** ** ** *   82   74 1012.7 *****  953.5 *** *** ***** ***** ***** ***** **
851950 ***** 201504172100 ***   0 *** 197 BKN * * * 12.5 ** ** ** ** ** ** ** ** *   73   71 1009.6 *****  949.7  85 *** ***** ***** ***** ***** **
851950 ***** 201504181500 360   5 ***  23 BKN * * * 18.8 ** ** ** ** ** ** ** ** *   80   74 1014.9 *****  954.5 *** *** ***** ***** ***** ***** **
851950 ***** 201504191500 360  14 *** *** SCT * * * 12.5 ** ** ** ** ** ** ** ** *   80   72 1010.4 *****  950.5 *** *** ***** ***** ***** ***** **
851950 ***** 201504192100 360  11 *** *** SCT * * * 12.5 ** ** ** ** ** ** ** ** *   82   71 1007.0 *****  947.1  86 *** ***** ***** ***** ***** **
851950 ***** 201504201500 340  11 ***  17 BKN * * * 18.8 ** ** ** ** ** ** ** ** *   82   75 1011.8 *****  952.0 *** *** ***** ***** ***** ***** **
851950 ***** 201504201800 360  11 *** *** SCT * * * 18.8 ** ** ** ** ** ** ** ** *   85   74 1009.7 *****  950.0 *** *** ***** ***** ***** ***** **
851950 ***** 201504202100 360   7 *** *** SCT * * * 18.8 ** ** ** ** ** ** ** ** *   84   74 1007.8 *****  948.0  87 *** ***** ***** ***** ***** **
851950 ***** 201504211500 170  11 ***   4 OVC * * *  0.1 44 ** ** ** ** ** ** ** 6   70   70 1015.5 *****  955.5 *** *** ***** ***** ***** ***** **
851950 ***** 201504212100 ***   0 *** 197 BKN * * * 18.8 ** ** ** ** ** ** ** ** *   75   71 1009.8 *****  949.5  82 *** ***** ***** ***** ***** **
851950 ***** 201504221200 ***   0 ***   8 BKN * * * 12.5 ** ** ** ** ** ** ** ** *   69   68 1016.0 *****  955.0 ***  67 ***** ***** ***** ***** **
851950 ***** 201504222100 180  11 ***  17 BKN * * * 18.8 ** ** ** ** ** ** ** ** *   76   72 1011.4 *****  951.4  81 *** ***** ***** ***** ***** **
851950 ***** 201504232100 180   5 *** *** SCT * * * 12.5 ** ** ** ** ** ** ** ** *   74   71 1012.3 *****  951.5  79 *** ***** ***** ***** ***** **
851950 ***** 201504241500 170   5 *** 197 BKN * * * 18.8 ** ** ** ** ** ** ** ** *   78   73 1015.6 *****  955.5 *** *** ***** ***** ***** ***** **
851950 ***** 201504242100 ***   0 ***  23 BKN * * * 12.5 ** ** ** ** ** ** ** ** *   79   72 1012.0 *****  952.0  87 *** ***** ***** ***** ***** **
851950 ***** 201504251500 ***   0 ***  15 BKN * * * 12.5 ** ** ** ** ** ** ** ** *   74   72 1017.4 *****  957.4 *** *** ***** ***** ***** ***** **
851950 ***** 201504252100 160   6 *** *** SCT * * * 18.8 ** ** ** ** ** ** ** ** *   78   72 1012.8 *****  952.0  80 *** ***** ***** ***** ***** **
851950 ***** 201504262100 360   5 *** *** SCT * * * 18.8 ** ** ** ** ** ** ** ** *   84   76 1009.3 *****  949.5  88 *** ***** ***** ***** ***** **
851950 ***** 201504271500 360   5 *** *** SCT * * * 12.5 ** ** ** ** ** ** ** ** *   85   74 1013.0 *****  953.3 *** *** ***** ***** ***** ***** **
851950 ***** 201504271800 360   7 ***  30 BKN * * * 18.8 ** ** ** ** ** ** ** ** *   87   75 1009.7 *****  950.0 *** *** ***** ***** ***** ***** **
851950 ***** 201504281500 ***   0 ***  30 OVC * * *  4.4 95 ** ** ** ** ** ** ** 2   73   72 1014.4 *****  954.0 *** *** ***** ***** ***** ***** **
851950 ***** 201504282100 180   5 ***  10 OVC * * *  1.2 61 ** ** ** ** ** ** ** 6   70   70 1010.7 *****  950.0  80 *** ***** ***** ***** ***** **
851950 ***** 201504291500 180   5 *** *** SCT * * * 12.5 ** ** ** ** ** ** ** ** *   75   71 1014.8 *****  954.0 *** *** ***** ***** ***** ***** **
851950 ***** 201504292100 ***   0 ***  30 BKN * * * 12.5 ** ** ** ** ** ** ** ** *   77   73 1010.0 *****  949.5  82 *** ***** ***** ***** ***** **
851950 ***** 201504301500 ***   0 *** 197 BKN * * * 18.8 ** ** ** ** ** ** ** ** *   80   74 1013.8 *****  953.5 *** *** ***** ***** ***** ***** **
851950 ***** 201505011500 360   7 *** *** SCT * * * 12.5 ** ** ** ** ** ** ** ** *   83   75 1012.3 *****  952.5 *** *** ***** ***** ***** ***** **
851950 ***** 201505021500 360  16 ***  15 BKN * * * 12.5 ** ** ** ** ** ** ** ** *   80   74 1009.9 *****  950.0 *** *** ***** ***** ***** ***** **
851950 ***** 201505022100 360   9 ***  30 BKN * * * 12.5 29 ** ** ** ** ** ** ** 9   76   74 1005.5 *****  945.5  83 *** ***** ***** ***** ***** **
851950 ***** 201505031500 360  16 *** *** SCT * * * 12.5 ** ** ** ** ** ** ** ** *   78   73 1009.5 *****  949.5 *** *** ***** ***** ***** ***** **
851950 ***** 201505032100 340  11 *** 197 BKN * * * 12.5 ** ** ** ** ** ** ** ** *   81   73 1006.6 *****  946.7  84 *** ***** ***** ***** ***** **
851950 ***** 201505041500 180  14 ***   8 OVC * * *  1.2 61 ** ** ** ** ** ** ** 9   55   55 1016.0 *****  955.5 *** *** ***** ***** ***** ***** **
851950 ***** 201505042100 180  11 ***   8 OVC * * *  1.2 63 ** ** ** ** ** ** ** 6   55   55 1012.6 *****  952.0  63 *** ***** ***** ***** ***** **
851950 ***** 201505051500 ***   0 ***   6 OVC * * *  3.1 50 ** ** ** ** ** ** ** 5   64   64 1016.3 *****  955.5 *** *** ***** ***** ***** ***** **
851950 ***** 201505052100 ***   0 ***   8 OVC * * *  3.8 20 ** ** ** ** ** ** ** 5   69   69 1011.9 *****  951.0  73 *** ***** ***** ***** ***** **
851950 ***** 201505061500 ***   0 ***  15 BKN * * * 18.8 ** ** ** ** ** ** ** ** *   73   67 1018.2 *****  957.5 *** *** ***** ***** ***** ***** **
851950 ***** 201505062100 ***   0 ***  20 BKN * * * 12.5 ** ** ** ** ** ** ** ** *   73   68 1013.1 *****  953.2  77 *** ***** ***** ***** ***** **
851950 ***** 201505071500 180  16 ***  10 OVC * * * 12.5 ** ** ** ** ** ** ** ** *   63   61 1017.0 *****  957.0 *** *** ***** ***** ***** ***** **
851950 ***** 201505072100 ***   0 ***  12 OVC * * * 12.5 ** ** ** ** ** ** ** ** *   66   64 1014.0 *****  953.1  67 *** ***** ***** ***** ***** **
851950 ***** 201505081500 ***   0 ***  69 OVC * * * 18.8 ** ** ** ** ** ** ** ** *   68   65 1015.5 *****  856.0 *** *** ***** ***** ***** ***** **
851950 ***** 201505082100 360   5 *** *** SCT * * * 12.5 ** ** ** ** ** ** ** ** *   80   71 1012.1 *****  951.5  82 *** ***** ***** ***** ***** **
851950 ***** 201505091500 360  14 *** *** SCT * * * 12.5 ** ** ** ** ** ** ** ** *   78   72 1014.4 *****  954.0 *** *** ***** ***** ***** ***** **
851950 ***** 201505092100 340  16 *** *** SCT * * * 12.5 ** ** ** ** ** ** ** ** *   80   72 1009.5 *****  949.5  83 *** ***** ***** ***** ***** **
851950 ***** 201505101500 360   5 ***  30 BKN * * * 12.5 ** ** ** ** ** ** ** ** *   82   74 1014.4 *****  954.2 *** *** ***** ***** ***** ***** **
851950 ***** 201505102100 180   9 ***   8 OVC * * *  3.8 50 ** ** ** ** ** ** ** 9   69   67 1012.0 *****  951.5  82 *** ***** ***** ***** ***** **
851950 ***** 201505111500 180  16 ***  13 OVC * * * 18.8 ** ** ** ** ** ** ** ** *   69   65 1017.5 *****  957.0 *** *** ***** ***** ***** ***** **
851950 ***** 201505112000 180  14 *** 200 *** * * *  6.2 ** ** ** ** ** ** ** ** *   70   64 ****** 29.94 ****** *** *** ***** ***** ***** ***** **
851950 ***** 201505112100 180   9 *** 197 OVC * * * 18.8 ** ** ** ** ** ** ** ** *   69   64 1014.0 *****  953.5  73 *** ***** ***** ***** ***** **
851950 ***** 201505121500 180   6 *** 197 BKN * * * 18.8 ** ** ** ** ** ** ** ** *   72   65 1016.5 *****  955.8 *** *** ***** ***** ***** ***** **
851950 ***** 201505122100 ***   0 *** 197 BKN * * * 18.8 ** ** ** ** ** ** ** ** *   76   67 1012.5 *****  951.5  78 *** ***** ***** ***** ***** **
851950 ***** 201505131500 360  11 ***  17 BKN * * * 12.5 ** ** ** ** ** ** ** ** *   76   68 1015.0 *****  955.0 *** *** ***** ***** ***** ***** **
851950 ***** 201505132100 360   6 ***  69 BKN * * * 18.8 ** ** ** ** ** ** ** ** *   77   69 1012.1 *****  951.5  79 *** ***** ***** ***** ***** **
851950 ***** 201505141500 ***   0 ***  17 OVC * * *  1.9 61 ** ** ** ** ** ** ** 9   69   69 1015.0 *****  954.5 *** *** ***** ***** ***** ***** **
851950 ***** 201505142100 ***   0 ***  20 BKN * * *  3.1 15 ** ** ** ** ** ** ** 9   75   71 1011.0 *****  951.1  78 *** ***** ***** ***** ***** **
851950 ***** 201505151500 ***   0 *** 197 OVC * * * 12.5 ** ** ** ** ** ** ** ** *   74   72 1014.2 *****  953.5 *** *** ***** ***** ***** ***** **
851950 ***** 201505152100 360   5 *** 197 OVC * * * 12.5 ** ** ** ** ** ** ** ** *   77   72 1011.0 *****  950.5  80 *** ***** ***** ***** ***** **
851950 ***** 201505161500 360   7 ***  27 OVC * * *  3.8 61 ** ** ** ** ** ** ** 9   70   70 1017.6 *****  957.0 *** *** ***** ***** ***** ***** **
851950 ***** 201505162100 ***   0 *** 197 BKN * * * 12.5 ** ** ** ** ** ** ** ** *   73   70 1014.8 *****  954.8  76 *** ***** ***** ***** ***** **
851950 ***** 201505172100 ***   0 *** *** SCT * * * 12.5 ** ** ** ** ** ** ** ** *   81   73 1013.5 *****  953.0  83 *** ***** ***** ***** ***** **
851950 ***** 201505181500 360   5 ***  17 BKN * * * 18.8 ** ** ** ** ** ** ** ** *   79   74 1016.3 *****  956.0 *** *** ***** ***** ***** ***** **
851950 ***** 201505182100 ***   0 ***  30 BKN * * * 12.5 ** ** ** ** ** ** ** ** *   77   71 1013.5 *****  953.0  88 *** ***** ***** ***** ***** **
851950 ***** 201505191500 ***   0 *** *** SCT * * * 12.5 ** ** ** ** ** ** ** ** *   78   73 1017.2 *****  957.0 *** *** ***** ***** ***** ***** **
851950 ***** 201505192100 ***   0 ***  30 BKN * * * 12.5 02 ** ** ** ** ** ** ** 8   75   73 1014.0 *****  953.5  81 *** ***** ***** ***** ***** **
851950 ***** 201505201500 ***   0 ***  12 BKN * * * 18.8 ** ** ** ** ** ** ** ** *   72   69 1016.5 *****  955.7 *** *** ***** ***** ***** ***** **
851950 ***** 201505202100 ***   0 *** *** SCT * * * 12.5 ** ** ** ** ** ** ** ** *   75   70 1012.0 *****  952.0  81 *** ***** ***** ***** ***** **
851950 ***** 201505211500 360   6 *** *** SCT * * * 12.5 ** ** ** ** ** ** ** ** *   80   72 1014.4 *****  954.0 *** *** ***** ***** ***** ***** **
851950 ***** 201505212100 360   6 *** *** SCT * * * 12.5 ** ** ** ** ** ** ** ** *   77   72 1010.5 *****  950.0  85 *** ***** ***** ***** ***** **
851950 ***** 201505221500 360   9 ***  69 BKN * * * 12.5 ** ** ** ** ** ** ** ** *   78   73 1014.4 *****  954.0 *** *** ***** ***** ***** ***** **
851950 ***** 201505222100 340  11 *** *** SCT * * * 12.5 ** ** ** ** ** ** ** ** *   81   72 1010.6 *****  950.6  84 *** ***** ***** ***** ***** **
851950 ***** 201505231500 360  11 *** *** SCT * * * 12.5 ** ** ** ** ** ** ** ** *   81   73 1014.0 *****  954.0 *** *** ***** ***** ***** ***** **
851950 ***** 201505231800 360  16 *** *** SCT * * * 18.8 ** ** ** ** ** ** ** ** *   84   72 1010.8 *****  951.0 *** *** ***** ***** ***** ***** **
851950 ***** 201505232100 340  14 *** *** SCT * * * 18.8 ** ** ** ** ** ** ** ** *   82   73 1009.0 *****  949.0  86 *** ***** ***** ***** ***** **
851950 ***** 201505241500 340  17 *** *** SCT * * * 18.8 ** ** ** ** ** ** ** ** *   81   73 1013.1 *****  953.0 *** *** ***** ***** ***** ***** **
851950 ***** 201505242100 360   9 *** *** SCT * * * 18.8 ** ** ** ** ** ** ** ** *   82   74 1008.8 *****  949.0  85 *** ***** ***** ***** ***** **
851950 ***** 201505251500 360   7 *** 197 BKN * * * 12.5 ** ** ** ** ** ** ** ** *   81   73 1015.0 *****  955.0 *** *** ***** ***** ***** ***** **
851950 ***** 201505252100 ***   0 ***  30 OVC * * * 18.8 17 ** ** ** ** ** ** ** 2   77   72 1011.4 *****  951.0  88 *** ***** ***** ***** ***** **
851950 ***** 201505261500 360   9 *** *** SCT * * * 18.8 ** ** ** ** ** ** ** ** *   82   75 1014.2 *****  954.0 *** *** ***** ***** ***** ***** **
851950 ***** 201505262100 340  11 *** *** SCT * * * 12.5 ** ** ** ** ** ** ** ** *   82   73 1010.0 *****  950.0  87 *** ***** ***** ***** ***** **
851950 ***** 201505271500 180  11 ***   0 OBS * * *  0.0 47 ** ** ** ** ** ** ** 4   68   68 1015.7 *****  955.7 *** *** ***** ***** ***** ***** **
851950 ***** 201505272100 180  11 ***   8 OVC * * * 12.5 ** ** ** ** ** ** ** ** *   66   65 1013.5 *****  952.5  70 *** ***** ***** ***** ***** **
851950 ***** 201505282100 180  11 ***  13 OVC * * * 12.5 ** ** ** ** ** ** ** ** *   62   59 1014.0 *****  954.0  67 *** ***** ***** ***** ***** **
851950 ***** 201505291500 360   7 ***  15 OVC * * * 12.5 ** ** ** ** ** ** ** ** *   68   65 1013.1 *****  953.1 *** *** ***** ***** ***** ***** **
851950 ***** 201505292100 ***   0 ***  15 OVC * * * 12.5 ** ** ** ** ** ** ** ** *   71   67 1009.0 *****  948.0  73 *** ***** ***** ***** ***** **
851950 ***** 201505301500 ***   0 ***  15 BKN * * * 18.8 ** ** ** ** ** ** ** ** *   73   70 1013.9 *****  953.2 *** *** ***** ***** ***** ***** **
851950 ***** 201505302100 ***   0 ***  17 OVC * * * 12.5 ** ** ** ** ** ** ** ** *   73   70 1009.5 *****  959.0  79 *** ***** ***** ***** ***** **
851950 ***** 201505311500 ***   0 ***  13 BKN * * * 12.5 ** ** ** ** ** ** ** ** *   73   70 1015.0 *****  955.0 *** *** ***** ***** ***** ***** **
851950 ***** 201505312100 ***   0 ***  17 OVC * * * 12.5 ** ** ** ** ** ** ** ** *   73   69 1012.2 *****  952.3  76 *** ***** ***** ***** ***** **
851950 ***** 201506011500 180   5 ***   8 OVC * * * 12.5 ** ** ** ** ** ** ** ** *   64   62 1017.4 *****  956.7 *** *** ***** ***** ***** ***** **
851950 ***** 201506012100 ***   0 ***   1 OBS * * *  0.1 47 ** ** ** ** ** ** ** 4   61   61 1014.1 *****  954.2  64 *** ***** ***** ***** ***** **
851950 ***** 201506021500 ***   0 *** 197 BKN * * * 12.5 ** ** ** ** ** ** ** ** *   74   71 1015.8 *****  955.0 *** *** ***** ***** ***** ***** **
851950 ***** 201506022100 ***   0 *** 197 BKN * * * 12.5 ** ** ** ** ** ** ** ** *   76   72 1012.5 *****  952.0  78 *** ***** ***** ***** ***** **
851950 ***** 201506031500 360   9 ***  13 BKN * * * 18.8 ** ** ** ** ** ** ** ** *   74   73 1015.0 *****  954.2 *** *** ***** ***** ***** ***** **
851950 ***** 201506032100 360  11 *** *** SCT * * * 12.5 ** ** ** ** ** ** ** ** *   82   74 1011.0 *****  951.0  86 *** ***** ***** ***** ***** **
851950 ***** 201506041500 ***   0 *** *** SCT * * * 12.5 ** ** ** ** ** ** ** ** *   81   73 1016.4 *****  956.4 *** *** ***** ***** ***** ***** **
851950 ***** 201506042100 ***   0 *** *** SCT * * * 18.8 ** ** ** ** ** ** ** ** *   84   73 1013.3 *****  953.0  89 *** ***** ***** ***** ***** **
851950 ***** 201506051500 360   6 *** *** *** * * * 18.8 ** ** ** ** ** ** ** ** *   83   72 1016.2 *****  956.0 *** *** ***** ***** ***** ***** **
851950 ***** 201506052100 360   7 *** *** *** * * * 12.5 ** ** ** ** ** ** ** ** *   84   72 1012.0 *****  952.0  89 *** ***** ***** ***** ***** **
851950 ***** 201506061500 360  11 *** *** *** * * * 12.5 ** ** ** ** ** ** ** ** *   82   73 1013.0 *****  953.1 *** *** ***** ***** ***** ***** **
851950 ***** 201506062100 360  11 *** *** SCT * * * 18.8 ** ** ** ** ** ** ** ** *   82   73 1009.6 *****  949.8  86 *** ***** ***** ***** ***** **
851950 ***** 201506071500 360  15 *** *** SCT * * * 18.8 ** ** ** ** ** ** ** ** *   81   72 1013.6 *****  953.5 *** *** ***** ***** ***** ***** **
851950 ***** 201506072100 360   7 *** *** SCT * * * 18.8 ** ** ** ** ** ** ** ** *   81   73 1011.2 *****  951.0  86 *** ***** ***** ***** ***** **
851950 ***** 201506081300 ***   0 *** 722 CLR * * *  6.2 ** ** ** ** ** ** ** ** *   77   70 ****** 29.97 ****** *** *** ***** ***** ***** ***** **
851950 ***** 201506081500 360  14 *** *** SCT * * * 12.5 ** ** ** ** ** ** ** ** *   82   73 1014.0 *****  954.0 *** *** ***** ***** ***** ***** **
851950 ***** 201506082100 360   7 *** *** SCT * * * 18.8 ** ** ** ** ** ** ** ** *   82   73 1010.4 *****  950.5  86 *** ***** ***** ***** ***** **
851950 ***** 201506091200 360  14 *** *** *** * * * 12.5 ** ** ** ** ** ** ** ** *   78   72 1009.0 *****  959.0  81 *** ***** ***** ***** ***** **
851950 ***** 201506091500 360  11 *** *** SCT * * * 18.8 ** ** ** ** ** ** ** ** *   79   73 1012.7 *****  952.5 *** *** ***** ***** ***** ***** **
851950 ***** 201506101500 360   9 *** *** SCT * * * 12.5 ** ** ** ** ** ** ** ** *   82   72 1013.5 *****  953.6 *** *** ***** ***** ***** ***** **
851950 ***** 201506102100 360   6 ***  30 BKN * * * 18.8 ** ** ** ** ** ** ** ** *   81   73 1010.1 *****  950.0  86 *** ***** ***** ***** ***** **
851950 ***** 201506111500 340   8 ***  69 BKN * * * 18.8 ** ** ** ** ** ** ** ** *   75   73 1015.1 *****  954.5 *** *** ***** ***** ***** ***** **
851950 ***** 201506112100 360  11 *** *** SCT * * * 12.5 ** ** ** ** ** ** ** ** *   81   71 1012.0 *****  952.0  86 *** ***** ***** ***** ***** **
851950 ***** 201506121500 180   8 ***   3 OVC * * * 12.5 ** ** ** ** ** ** ** ** *   64   64 1017.0 *****  956.5 *** *** ***** ***** ***** ***** **
851950 ***** 201506122100 ***   0 *** *** SCT * * * 18.8 ** ** ** ** ** ** ** ** *   75   70 1011.5 *****  950.8  76 *** ***** ***** ***** ***** **
851950 ***** 201506131500 360  17 *** *** SCT * * * 18.8 ** ** ** ** ** ** ** ** *   80   72 1012.4 *****  952.0 *** *** ***** ***** ***** ***** **
851950 ***** 201506132100 360  14 *** *** SCT * * * 12.5 ** ** ** ** ** ** ** ** *   81   71 1007.7 *****  947.8  86 *** ***** ***** ***** ***** **
851950 ***** 201506141500 *** *** *** *** *** * * * **** ** ** ** ** ** ** ** ** * **** **** ****** ***** ****** *** *** ***** ***** ***** ***** **
851950 ***** 201506142100 360  11 ***  69 BKN * * * 12.5 ** ** ** ** ** ** ** ** *   79   71 1008.2 *****  948.0  84 *** ***** ***** ***** ***** **
851950 ***** 201506151500 170  17 ***  15 OVC * * * 18.8 ** ** ** ** ** ** ** ** *   57   53 1020.6 *****  960.0 *** *** ***** ***** ***** ***** **
851950 ***** 201506152100 180  18 ***  69 OVC * * * 12.5 ** ** ** ** ** ** ** ** *   58   51 1015.4 *****  955.4  61 *** ***** ***** ***** ***** **
851950 ***** 201506161500 350   6 ***  17 OVC * * * 12.5 ** ** ** ** ** ** ** ** *   64   61 1015.8 *****  955.0 *** *** ***** ***** ***** ***** **
851950 ***** 201506162100 340   9 ***  17 BKN * * * 18.8 ** ** ** ** ** ** ** ** *   73   67 1011.0 *****  950.5  79 *** ***** ***** ***** ***** **
851950 ***** 201506171500 360  14 *** *** *** * * * 18.8 ** ** ** ** ** ** ** ** *   76   70 1014.8 *****  954.0 *** *** ***** ***** ***** ***** **
851950 ***** 201506172100 340  11 *** *** SCT * * * 12.5 ** ** ** ** ** ** ** ** *   78   70 1011.2 *****  950.5  82 *** ***** ***** ***** ***** **
851950 ***** 201506181500 170  34 *** *** SCT * * * 12.5 ** ** ** ** ** ** ** ** *   64   51 1022.0 *****  962.0 *** *** ***** ***** ***** ***** **
851950 ***** 201506181500 170  34  46 *** *** * * *  6.2 ** ** ** ** ** ** ** ** *   64   52 ****** 30.21 ****** *** *** ***** ***** ***** ***** **
851950 ***** 201506182100 180  23 ***  69 BKN * * * 18.8 ** ** ** ** ** ** ** ** *   63   47 1019.0 *****  959.0  67 *** ***** ***** ***** ***** **
851950 ***** 201506191200 180  17 ***  69 BKN * * * 18.8 ** ** ** ** ** ** ** ** *   55   46 1020.0 *****  962.0 ***  52 ***** ***** ***** ***** **
851950 ***** 201506191500 180  17 ***  69 BKN * * * 18.8 ** ** ** ** ** ** ** ** *   59   46 1023.0 *****  963.0 *** *** ***** ***** ***** ***** **
851950 ***** 201506192100 180  11 *** *** *** * * * 12.5 ** ** ** ** ** ** ** ** *   64   45 1017.7 *****  957.8  67 *** ***** ***** ***** ***** **
851950 ***** 201506201500 ***   0 *** *** *** * * * 12.5 ** ** ** ** ** ** ** ** *   67   59 1018.0 *****  958.0 *** *** ***** ***** ***** ***** **
851950 ***** 201506202100 360   5 *** *** *** * * * 18.8 ** ** ** ** ** ** ** ** *   78   66 1014.8 *****  953.8  81 *** ***** ***** ***** ***** **
851950 ***** 201506211500 ***   0 *** *** *** * * * 18.8 ** ** ** ** ** ** ** ** *   75   69 1019.5 *****  959.5 *** *** ***** ***** ***** ***** **
851950 ***** 201506212100 ***   0 *** *** *** * * * 18.8 ** ** ** ** ** ** ** ** *   79   69 1016.0 *****  955.5  82 *** ***** ***** ***** ***** **
851950 ***** 201506221500 360   5 *** *** *** * * * 12.5 ** ** ** ** ** ** ** ** *   77   69 1018.0 *****  957.5 *** *** ***** ***** ***** ***** **
851950 ***** 201506222100 350   7 *** *** SCT * * * 18.8 ** ** ** ** ** ** ** ** *   80   67 1015.0 *****  954.2  84 *** ***** ***** ***** ***** **
851950 ***** 201506231500 ***   0 *** *** *** * * * 18.8 ** ** ** ** ** ** ** ** *   79   69 1020.5 *****  960.0 *** *** ***** ***** ***** ***** **
851950 ***** 201506232100 ***   0 *** *** SCT * * * 12.5 ** ** ** ** ** ** ** ** *   79   64 1016.0 *****  956.0  85 *** ***** ***** ***** ***** **
851950 ***** 201506241500 180   6 ***   8 OVC * * * 12.5 28 ** ** ** ** ** ** ** 4   61   59 1021.0 *****  960.5 *** *** ***** ***** ***** ***** **
851950 ***** 201506242100 180   6 *** *** SCT * * * 18.8 ** ** ** ** ** ** ** ** *   65   61 1017.5 *****  957.0  69 *** ***** ***** ***** ***** **
851950 ***** 201506251500 360  11 *** *** SCT * * * 18.8 ** ** ** ** ** ** ** ** *   75   65 1018.5 *****  958.5 *** *** ***** ***** ***** ***** **
851950 ***** 201506252100 340   9 *** *** SCT * * * 12.5 ** ** ** ** ** ** ** ** *   79   66 1015.0 *****  955.0  85 *** ***** ***** ***** ***** **
851950 ***** 201506261500 360   7 *** *** *** * * * 12.5 ** ** ** ** ** ** ** ** *   79   71 1020.0 *****  960.0 *** *** ***** ***** ***** ***** **
851950 ***** 201506262100 360   9 *** *** *** * * * 18.8 ** ** ** ** ** ** ** ** *   81   65 1016.5 *****  956.0  84 *** ***** ***** ***** ***** **
851950 ***** 201506271500 360   6 *** *** *** * * * 18.8 ** ** ** ** ** ** ** ** *   78   65 1019.0 *****  958.5 *** *** ***** ***** ***** ***** **
851950 ***** 201506272200 340  11 *** *** *** * * * 12.5 ** ** ** ** ** ** ** ** *   81   66 1014.7 *****  954.8  86 *** ***** ***** ***** ***** **
851950 ***** 201506281500 360  14 *** *** SCT * * * 18.8 ** ** ** ** ** ** ** ** *   81   69 1016.1 *****  955.7 *** *** ***** ***** ***** ***** **
851950 ***** 201506282100 340  11 *** *** SCT * * * 18.8 ** ** ** ** ** ** ** ** *   81   69 1011.4 *****  951.0  86 *** ***** ***** ***** ***** **
851950 ***** 201506291500 350  17 *** *** SCT * * * 18.8 ** ** ** ** ** ** ** ** *   79   69 1013.3 *****  953.0 *** *** ***** ***** ***** ***** **
851950 ***** 201506292100 360  11 *** 197 BKN * * * 12.5 ** ** ** ** ** ** ** ** *   79   69 1008.9 *****  958.5  85 *** ***** ***** ***** ***** **
851950 ***** 201506302100 340   6 ***  69 BKN * * * 18.8 ** ** ** ** ** ** ** ** *   79   70 1012.0 *****  951.5  81 *** ***** ***** ***** ***** **
851950 ***** 201507011500 ***   0 ***   6 OVC * * *  9.4 21 ** ** ** ** ** ** ** 6   69   68 1016.5 *****  956.0 *** *** ***** ***** ***** ***** **
851950 ***** 201507012100 ***   0 *** 197 BKN * * * 12.5 ** ** ** ** ** ** ** ** *   74   71 1012.9 *****  952.0  76 *** ***** ***** ***** ***** **
851950 ***** 201507021500 360   9 ***  13 BKN * * * 12.5 ** ** ** ** ** ** ** ** *   78   73 1013.7 *****  953.2 *** *** ***** ***** ***** ***** **
851950 ***** 201507022100 360   7 *** 197 BKN * * * 18.8 ** ** ** ** ** ** ** ** *   77   72 1008.9 *****  948.5  82 *** ***** ***** ***** ***** **
851950 ***** 201507031500 360   6 ***  69 BKN * * * 12.5 ** ** ** ** ** ** ** ** *   76   74 1013.7 *****  953.2 *** *** ***** ***** ***** ***** **
851950 ***** 201507032100 180  11 ***  12 OVC * * *  3.1 61 ** ** ** ** ** ** ** 6   64   64 1011.3 *****  951.3  80 *** ***** ***** ***** ***** **
851950 ***** 201507041500 180  18 ***  13 OVC * * * 12.5 ** ** ** ** ** ** ** ** *   56   54 1021.0 *****  961.0 *** *** ***** ***** ***** ***** **
851950 ***** 201507042100 180  16 ***   6 OVC * * *  3.1 61 ** ** ** ** ** ** ** 6   53   53 1018.0 *****  958.0  56 *** ***** ***** ***** ***** **
851950 ***** 201507051500 ***   0 ***  69 OVC * * * 18.8 ** ** ** ** ** ** ** ** *   57   54 1016.0 *****  956.0 *** *** ***** ***** ***** ***** **
851950 ***** 201507052100 ***   0 ***  69 OVC * * * 18.8 ** ** ** ** ** ** ** ** *   64   59 1012.0 *****  951.2  68 *** ***** ***** ***** ***** **
851950 ***** 201507061500 360  11 ***  18 OVC * * * 12.5 ** ** ** ** ** ** ** ** *   64   61 1014.0 *****  953.5 *** *** ***** ***** ***** ***** **
851950 ***** 201507062100 360  11 ***  69 OVC * * * 18.8 ** ** ** ** ** ** ** ** *   68   64 1011.3 *****  950.5  71 *** ***** ***** ***** ***** **
851950 ***** 201507071500 180   6 ***   3 OVC * * *  0.6 10 ** ** ** ** ** ** ** 6   58   58 1015.6 *****  955.0 *** *** ***** ***** ***** ***** **
851950 ***** 201507072100 180   7 ***   3 OVC * * * 12.5 ** ** ** ** ** ** ** ** *   58   56 1013.3 *****  953.3  62 *** ***** ***** ***** ***** **
851950 ***** 201507081500 ***   0 ***  69 OVC * * * 12.5 ** ** ** ** ** ** ** ** *   63   54 1017.0 *****  957.0 *** *** ***** ***** ***** ***** **
851950 ***** 201507082100 ***   0 ***  69 BKN * * * 12.5 ** ** ** ** ** ** ** ** *   70   62 1013.0 *****  952.5  73 *** ***** ***** ***** ***** **
851950 ***** 201507091500 360   9 ***  18 BKN * * * 18.8 ** ** ** ** ** ** ** ** *   72   66 1015.0 *****  954.8 *** *** ***** ***** ***** ***** **
851950 ***** 201507092100 360  11 *** *** SCT * * * 12.5 ** ** ** ** ** ** ** ** *   74   69 1011.8 *****  951.0  79 *** ***** ***** ***** ***** **
851950 ***** 201507101500 360  14 *** *** SCT * * * 12.5 ** ** ** ** ** ** ** ** *   76   69 1014.8 *****  954.0 *** *** ***** ***** ***** ***** **
851950 ***** 201507102100 360   9 *** *** SCT * * * 12.5 ** ** ** ** ** ** ** ** *   79   70 1011.5 *****  951.1 *** *** ***** ***** ***** ***** **
851950 ***** 201507111500 340  11 *** *** SCT * * * 18.8 ** ** ** ** ** ** ** ** *   81   72 1014.9 *****  954.5 *** *** ***** ***** ***** ***** **
851950 ***** 201507112100 340  16 *** *** SCT * * * 12.5 ** ** ** ** ** ** ** ** *   81   69 1011.0 *****  951.0  86 *** ***** ***** ***** ***** **
851950 ***** 201507121500 340  20 *** *** SCT * * * 18.8 ** ** ** ** ** ** ** ** *   79   71 1013.5 *****  952.7 *** *** ***** ***** ***** ***** **
851950 ***** 201507122100 360  17 *** 197 BKN * * * 12.5 ** ** ** ** ** ** ** ** *   81   71 1008.0 *****  958.0  86 *** ***** ***** ***** ***** **
851950 ***** 201507131500 360  18 ***  15 BKN * * * 18.8 ** ** ** ** ** ** ** ** *   78   69 1011.8 *****  951.0 *** *** ***** ***** ***** ***** **
851950 ***** 201507132100 360  18 *** 197 BKN * * * 12.5 ** ** ** ** ** ** ** ** *   77   68 1007.0 *****  947.0  85 *** ***** ***** ***** ***** **
851950 ***** 201507141500 360   9 *** 197 OVC * * * 18.8 ** ** ** ** ** ** ** ** *   78   72 1013.8 *****  953.0 *** *** ***** ***** ***** ***** **
851950 ***** 201507142100 360  11 *** 197 BKN * * * 12.5 ** ** ** ** ** ** ** ** *   80   70 1011.0 *****  950.5  84 *** ***** ***** ***** ***** **
851950 ***** 201507151500 180  16 ***  10 OVC * * * 12.5 ** ** ** ** ** ** ** ** *   52   51 1019.7 *****  959.7 *** *** ***** ***** ***** ***** **
851950 ***** 201507152100 180   9 ***  10 OVC * * * 12.5 ** ** ** ** ** ** ** ** *   52   51 1016.0 *****  956.0  54 *** ***** ***** ***** ***** **
851950 ***** 201507161500 ***   0 ***   1 OBS * * *  0.1 45 ** ** ** ** ** ** ** 4   55   55 1019.0 *****  958.8 *** *** ***** ***** ***** ***** **
851950 ***** 201507162100 ***   0 *** *** SCT * * * 18.8 ** ** ** ** ** ** ** ** *   64   62 1014.0 *****  954.0  65 *** ***** ***** ***** ***** **
851950 ***** 201507171500 180   7 ***   8 OVC * * *  5.0 10 ** ** ** ** ** ** ** 4   61   59 1021.0 *****  961.0 *** *** ***** ***** ***** ***** **
851950 ***** 201507172100 ***   0 ***  17 OVC * * * 12.5 ** ** ** ** ** ** ** ** *   64   61 1016.9 *****  956.9  68 *** ***** ***** ***** ***** **
851950 ***** 201507181500 360   6 *** 197 BKN * * * 12.5 ** ** ** ** ** ** ** ** *   74   68 1017.0 *****  956.5 *** *** ***** ***** ***** ***** **
851950 ***** 201507182100 360  11 *** *** SCT * * * 12.5 ** ** ** ** ** ** ** ** *   79   67 1012.8 *****  952.3  84 *** ***** ***** ***** ***** **
851950 ***** 201507191500 360  11 *** *** SCT * * * 18.8 ** ** ** ** ** ** ** ** *   78   69 1015.0 *****  954.5 *** *** ***** ***** ***** ***** **
851950 ***** 201507192100 360  11 *** *** SCT * * * 18.8 ** ** ** ** ** ** ** ** *   80   68 1011.1 *****  950.8  83 *** ***** ***** ***** ***** **
851950 ***** 201507201500 360   5 *** *** SCT * * * 12.5 ** ** ** ** ** ** ** ** *   81   69 1015.8 *****  955.0 *** *** ***** ***** ***** ***** **
851950 ***** 201507202100 190  11 *** *** SCT * * * 18.8 ** ** ** ** ** ** ** ** *   77   69 1014.3 *****  953.6  83 *** ***** ***** ***** ***** **
851950 ***** 201507211500 170  21 ***  69 BKN * * * 18.8 ** ** ** ** ** ** ** ** *   61   41 1021.6 *****  961.0 *** *** ***** ***** ***** ***** **
851950 ***** 201507212100 180  14 ***  69 BKN * * * 12.5 ** ** ** ** ** ** ** ** *   64   50 1016.6 *****  956.6  67 *** ***** ***** ***** ***** **
851950 ***** 201507221500 ***   0 *** *** *** * * * 18.8 ** ** ** ** ** ** ** ** *   67   59 1018.0 *****  957.5 *** *** ***** ***** ***** ***** **
851950 ***** 201507231500 ***   0 *** *** SCT * * * 18.8 ** ** ** ** ** ** ** ** *   70   63 1018.5 *****  958.0 *** *** ***** ***** ***** ***** **
851950 ***** 201507232100 ***   0 ***  30 BKN * * * 12.5 ** ** ** ** ** ** ** ** *   73   69 1015.0 *****  954.5  81 *** ***** ***** ***** ***** **
851950 ***** 201507241500 180  14 ***  69 BKN * * * 12.5 ** ** ** ** ** ** ** ** *   66   58 1021.0 *****  960.5 *** *** ***** ***** ***** ***** **
851950 ***** 201507242100 180   7 *** *** SCT * * * 12.5 ** ** ** ** ** ** ** ** *   70   59 1016.0 *****  956.0  72 *** ***** ***** ***** ***** **
851950 ***** 201507251500 180   6 *** *** *** * * * 18.8 ** ** ** ** ** ** ** ** *   71   55 1019.0 *****  958.5 *** *** ***** ***** ***** ***** **
851950 ***** 201507252100 ***   0 *** *** *** * * * 12.5 ** ** ** ** ** ** ** ** *   77   64 1014.0 *****  953.5  79 *** ***** ***** ***** ***** **
851950 ***** 201507261500 360   7 *** *** SCT * * * 12.5 ** ** ** ** ** ** ** ** *   74   67 1015.8 *****  955.8 *** *** ***** ***** ***** ***** **
851950 ***** 201507262100 360   5 *** *** *** * * * 12.5 ** ** ** ** ** ** ** ** *   80   67 1012.0 *****  952.0  86 *** ***** ***** ***** ***** **
851950 ***** 201507271500 360   7 *** *** *** * * * 18.8 ** ** ** ** ** ** ** ** *   80   71 1014.0 *****  953.2 *** *** ***** ***** ***** ***** **
851950 ***** 201507272100 360   7 *** *** SCT * * * 12.5 ** ** ** ** ** ** ** ** *   81   68 1011.0 *****  950.0  85 *** ***** ***** ***** ***** **
851950 ***** 201507281500 360   6 *** 197 BKN * * * 12.5 ** ** ** ** ** ** ** ** *   81   69 1013.8 *****  953.5 *** *** ***** ***** ***** ***** **
851950 ***** 201507282100 340  11 *** *** SCT * * * 18.8 ** ** ** ** ** ** ** ** *   82   69 1011.4 *****  951.0  86 *** ***** ***** ***** ***** **
851950 ***** 201507291500 340   8 *** *** *** * * * 18.8 ** ** ** ** ** ** ** ** *   83   70 1016.0 *****  956.0 *** *** ***** ***** ***** ***** **
851950 ***** 201507292100 360   5 *** *** *** * * * 12.5 ** ** ** ** ** ** ** ** *   86   70 1013.8 *****  953.0  89 *** ***** ***** ***** ***** **
851950 ***** 201507301500 360   5 *** *** *** * * * 12.5 ** ** ** ** ** ** ** ** *   82   69 1016.8 *****  956.0 *** *** ***** ***** ***** ***** **
851950 ***** 201507302100 360   7 *** *** *** * * * 18.8 ** ** ** ** ** ** ** ** *   86   62 1012.0 *****  952.0  92 *** ***** ***** ***** ***** **
851950 ***** 201507311500 360   7 *** *** *** * * * 12.5 ** ** ** ** ** ** ** ** *   83   65 1014.8 *****  954.0 *** *** ***** ***** ***** ***** **
851950 ***** 201507312100 360  14 *** *** *** * * * 12.5 ** ** ** ** ** ** ** ** *   84   65 1010.5 *****  950.0  88 *** ***** ***** ***** ***** **
851950 ***** 201508011500 360   5 *** *** *** * * * 12.5 ** ** ** ** ** ** ** ** *   84   68 1015.8 *****  955.0 *** *** ***** ***** ***** ***** **
851950 ***** 201508012100 360   9 *** *** *** * * * 18.8 ** ** ** ** ** ** ** ** *   84   65 1011.2 *****  951.0  89 *** ***** ***** ***** ***** **
851950 ***** 201508021500 340  11 *** *** *** * * * 18.8 ** ** ** ** ** ** ** ** *   84   68 1012.8 *****  952.0 *** *** ***** ***** ***** ***** **
851950 ***** 201508022100 360  11 *** *** *** * * * 18.8 ** ** ** ** ** ** ** ** *   83   67 1008.0 *****  948.0  88 *** ***** ***** ***** ***** **
851950 ***** 201508031500 360  11 *** *** *** * * * 12.5 ** ** ** ** ** ** ** ** *   83   68 1013.8 *****  953.5 *** *** ***** ***** ***** ***** **
851950 ***** 201508032100 350  11 *** *** *** * * * 12.5 ** ** ** ** ** ** ** ** *   83   68 1011.0 *****  950.3  89 *** ***** ***** ***** ***** **
851950 ***** 201508041500 350  11 *** *** SCT * * * 18.8 ** ** ** ** ** ** ** ** *   82   66 1015.8 *****  955.0 *** *** ***** ***** ***** ***** **
851950 ***** 201508042100 360  11 *** *** *** * * * 18.8 ** ** ** ** ** ** ** ** *   84   66 1011.8 *****  951.0  88 *** ***** ***** ***** ***** **
851950 ***** 201508051500 360  11 *** *** SCT * * * 12.5 ** ** ** ** ** ** ** ** *   83   67 1013.8 *****  953.0 *** *** ***** ***** ***** ***** **
851950 ***** 201508052100 360  17 *** *** *** * * * 18.8 ** ** ** ** ** ** ** ** *   84   68 1009.0 *****  949.0  87 *** ***** ***** ***** ***** **
851950 ***** 201508061500 340  21 *** *** SCT * * *  9.4 04 ** ** ** ** ** ** ** 1   84   71 1009.7 *****  950.2 *** *** ***** ***** ***** ***** **
851950 ***** 201508062100 340  16 *** *** SCT * * * 12.5 04 ** ** ** ** ** ** ** 0   82   70 1006.4 *****  946.4  90 *** ***** ***** ***** ***** **
851950 ***** 201508071500 360  21 *** *** SCT * * * 12.5 04 ** ** ** ** ** ** ** 0   84   72 1009.8 *****  959.8 *** *** ***** ***** ***** ***** **
851950 ***** 201508072100 360  17 *** *** SCT * * * 12.5 ** ** ** ** ** ** ** ** *   84   71 1006.2 *****  946.8  88 *** ***** ***** ***** ***** **
851950 ***** 201508081500 360  17 *** *** SCT * * * 12.5 ** ** ** ** ** ** ** ** *   84   72 1010.6 *****  951.0 *** *** ***** ***** ***** ***** **
851950 ***** 201508082100 360  15 *** *** SCT * * * 12.5 ** ** ** ** ** ** ** ** *   85   72 1007.0 *****  947.5  89 *** ***** ***** ***** ***** **
851950 ***** 201508091500 360  20 *** *** *** * * * 12.5 04 ** ** ** ** ** ** ** 0   83   71 1011.8 *****  951.2 *** *** ***** ***** ***** ***** **
851950 ***** 201508092100 360  11 *** 197 BKN * * * 12.5 04 ** ** ** ** ** ** ** 2   83   69 1007.3 *****  947.3  90 *** ***** ***** ***** ***** **
851950 ***** 201508101500 360  11 *** *** SCT * * * 12.5 ** ** ** ** ** ** ** ** *   83   71 1014.2 *****  954.0 *** *** ***** ***** ***** ***** **
851950 ***** 201508101900 360  18 *** 200 *** * * *  6.2 17 ** ** ** ** ** ** ** *   82   70 ****** 29.88 ****** *** *** ***** ***** ***** ***** **
851950 ***** 201508102100 360  16 *** 197 BKN * * * 12.5 29 ** ** ** ** ** ** ** 9   82   70 1010.8 *****  950.8  90 *** ***** ***** ***** ***** **
851950 ***** 201508111500 ***   0 *** *** *** * * * 12.5 04 ** ** ** ** ** ** ** 0   81   72 1015.0 *****  955.1 *** *** ***** ***** ***** ***** **
851950 ***** 201508112100 360   8 *** *** SCT * * * 12.5 04 ** ** ** ** ** ** ** 1   85   70 1010.2 *****  950.5  89 *** ***** ***** ***** ***** **
851950 ***** 201508121500 360   6 *** *** SCT * * * 12.5 04 ** ** ** ** ** ** ** 1   84   71 1015.2 *****  955.2 *** *** ***** ***** ***** ***** **
851950 ***** 201508122100 360  11 *** 197 BKN * * * 12.5 04 ** ** ** ** ** ** ** 2   82   70 1011.9 *****  951.9  90 *** ***** ***** ***** ***** **
851950 ***** 201508131500 ***   0 *** *** SCT * * * 12.5 04 ** ** ** ** ** ** ** 1   83   67 1015.6 *****  955.6 *** *** ***** ***** ***** ***** **
851950 ***** 201508132100 ***   0 *** *** SCT * * * 12.5 04 ** ** ** ** ** ** ** 1   85   67 1012.0 *****  952.0  90 *** ***** ***** ***** ***** **
851950 ***** 201508141500 ***   0 *** 197 BKN * * * 12.5 04 ** ** ** ** ** ** ** 1   74   65 1016.0 *****  956.0 *** *** ***** ***** ***** ***** **
851950 ***** 201508142100 ***   0 *** 197 BKN * * * 18.8 60 ** ** ** ** ** ** ** 1   80   71 1011.8 *****  951.0  82 *** ***** ***** ***** ***** **
851950 ***** 201508151500 ***   0 ***   8 OVC * * * 12.5 04 ** ** ** ** ** ** ** 2   66   65 1016.5 *****  956.5 *** *** ***** ***** ***** ***** **
851950 ***** 201508152100 ***   0 *** *** SCT * * * 12.5 04 ** ** ** ** ** ** ** 0   76   71 1012.3 *****  952.3  82 *** ***** ***** ***** ***** **
851950 ***** 201508161500 360   9 *** 197 BKN * * * 12.5 04 ** ** ** ** ** ** ** 2   82   67 1014.5 *****  954.0 *** *** ***** ***** ***** ***** **
851950 ***** 201508172100 340   9 *** 197 BKN * * *  5.0 04 ** ** ** ** ** ** ** 2   82   67 1010.1 *****  950.0  86 *** ***** ***** ***** ***** **
851950 ***** 201508181500 170  11 ***  69 BKN * * *  4.4 04 ** ** ** ** ** ** ** 4   64   62 1017.3 *****  956.5 *** *** ***** ***** ***** ***** **
851950 ***** 201508182100 180   6 *** *** *** * * *  5.0 04 ** ** ** ** ** ** ** 0   78   66 1013.0 *****  952.3  80 *** ***** ***** ***** ***** **
851950 ***** 201508191500 170  17 *** 197 BKN * * * 18.8 ** ** ** ** ** ** ** ** *   74   54 1018.2 *****  957.5 *** *** ***** ***** ***** ***** **
851950 ***** 201508192100 180  13 *** *** *** * * * 18.8 ** ** ** ** ** ** ** ** *   77   61 1013.7 *****  953.0  80 *** ***** ***** ***** ***** **
851950 ***** 201508201500 ***   0 *** *** SCT * * * 18.8 ** ** ** ** ** ** ** ** *   77   62 1016.0 *****  955.5 *** *** ***** ***** ***** ***** **
851950 ***** 201508202100 ***   0 *** *** *** * * * 18.8 ** ** ** ** ** ** ** ** *   84   66 1011.6 *****  951.2  87 *** ***** ***** ***** ***** **
851950 ***** 201508211500 ***   0 *** *** *** * * * 12.5 04 ** ** ** ** ** ** ** 0   85   67 1014.5 *****  954.5 *** *** ***** ***** ***** ***** **
851950 ***** 201508212100 340   9 *** *** SCT * * * 12.5 04 ** ** ** ** ** ** ** 1   88   65 1009.3 *****  949.5  93 *** ***** ***** ***** ***** **
851950 ***** 201508221500 360  11 *** *** *** * * *  5.0 04 ** ** ** ** ** ** ** 0   86   69 1011.8 *****  952.0 *** *** ***** ***** ***** ***** **
851950 ***** 201508222100 360  14 *** *** *** * * *  9.4 04 ** ** ** ** ** ** ** 0   88   65 1007.2 *****  947.2  92 *** ***** ***** ***** ***** **
851950 ***** 201508232100 ***   0 *** *** SCT * * *  3.1 04 ** ** ** ** ** ** ** 1   88   70 1009.7 *****  950.0  92 *** ***** ***** ***** ***** **
851950 ***** 201508241500 180  17 ***  69 OVC * * * 18.8 ** ** ** ** ** ** ** ** *   65   52 1015.6 *****  955.0 *** *** ***** ***** ***** ***** **
851950 ***** 201508242100 180   7 *** *** *** * * * 12.5 04 ** ** ** ** ** ** ** 0   73   60 1010.1 *****  950.2  77 *** ***** ***** ***** ***** **
851950 ***** 201508251500 ***   0 *** *** *** * * * 12.5 04 ** ** ** ** ** ** ** 0   80   64 1012.5 *****  952.5 *** *** ***** ***** ***** ***** **
851950 ***** 201508252100 340   6 *** *** *** * * *  5.0 04 ** ** ** ** ** ** ** 0   86   67 1008.2 *****  948.0  90 *** ***** ***** ***** ***** **
851950 ***** 201508261500 360  14 *** *** *** * * *  3.1 04 ** ** ** ** ** ** ** 0   86   68 1011.0 *****  951.2 *** *** ***** ***** ***** ***** **
851950 ***** 201508262100 310  16 *** *** *** * * *  3.1 04 ** ** ** ** ** ** ** 0   88   68 1008.0 *****  948.0  92 *** ***** ***** ***** ***** **
851950 ***** 201508271500 180  16 *** 197 BKN * * *  9.4 04 ** ** ** ** ** ** ** 2   76   65 1016.0 *****  956.0 *** *** ***** ***** ***** ***** **
851950 ***** 201508272100 ***   0 *** 197 OVC * * *  9.4 04 ** ** ** ** ** ** ** 2   80   65 1014.0 *****  953.5  82 *** ***** ***** ***** ***** **
851950 ***** 201508281500 180   7 *** *** *** * * *  9.4 04 ** ** ** ** ** ** ** 0   77   69 1018.1 *****  957.5 *** *** ***** ***** ***** ***** **
851950 ***** 201508282100 ***   0 *** *** *** * * *  9.4 04 ** ** ** ** ** ** ** 0   85   63 1012.6 *****  952.6  90 *** ***** ***** ***** ***** **
851950 ***** 201508291500 ***   0 *** *** *** * * *  9.4 04 ** ** ** ** ** ** ** 0   82   69 1015.1 *****  955.2 *** *** ***** ***** ***** ***** **
851950 ***** 201508292100 ***   0 *** *** *** * * *  9.4 04 ** ** ** ** ** ** ** 0   90   68 1011.3 *****  951.5  93 *** ***** ***** ***** ***** **
851950 ***** 201508301500 360   6 *** *** *** * * *  9.4 04 ** ** ** ** ** ** ** 0   88   68 1015.3 *****  955.5 *** *** ***** ***** ***** ***** **
851950 ***** 201508302100 340   6 *** *** *** * * * 12.5 04 ** ** ** ** ** ** ** 0   91   69 1011.1 *****  951.5  94 *** ***** ***** ***** ***** **
851950 ***** 201508311500 ***   0 *** *** *** * * *  9.4 04 ** ** ** ** ** ** ** 0   89   70 1014.0 *****  955.0 *** *** ***** ***** ***** ***** **
851950 ***** 201508312100 350   6 *** *** *** * * *  9.4 04 ** ** ** ** ** ** ** 0   92   69 1009.8 *****  950.5  96 *** ***** ***** ***** ***** **
851950 ***** 201509011500 ***   0 *** *** *** * * *  9.4 04 ** ** ** ** ** ** ** 0   88   73 1016.6 *****  957.0 *** *** ***** ***** ***** ***** **
851950 ***** 201509012100 ***   0 *** 197 BKN * * * 12.5 17 ** ** ** ** ** ** ** 9   73   69 1013.7 *****  953.7  93 *** ***** ***** ***** ***** **
851950 ***** 201509021500 180  11 *** *** *** * * * 12.5 04 ** ** ** ** ** ** ** 2   82   74 1015.0 *****  955.0 *** *** ***** ***** ***** ***** **
851950 ***** 201509022100 030   6 ***  30 BKN * * * 12.5 04 ** ** ** ** ** ** ** 2   88   66 1010.6 *****  951.0  92 *** ***** ***** ***** ***** **
851950 ***** 201509031500 180  16 *** *** *** * * *  3.1 04 ** ** ** ** ** ** ** 0   81   68 1015.0 *****  955.0 *** *** ***** ***** ***** ***** **
851950 ***** 201509032100 180  11 *** *** *** * * *  9.4 04 ** ** ** ** ** ** ** 0   87   71 1010.0 *****  950.0  90 *** ***** ***** ***** ***** **
851950 ***** 201509041500 180  16 *** *** *** * * *  9.4 04 ** ** ** ** ** ** ** 0   74   54 1016.3 *****  956.3 *** *** ***** ***** ***** ***** **
851950 ***** 201509042100 180  11 *** *** *** * * * 12.5 04 ** ** ** ** ** ** ** 0   82   61 1011.8 *****  951.8  86 *** ***** ***** ***** ***** **
851950 ***** 201509051500 180  16 *** *** *** * * * 12.5 04 ** ** ** ** ** ** ** 0   78   57 1016.8 *****  956.8 *** *** ***** ***** ***** ***** **
851950 ***** 201509052100 ***   0 *** *** SCT * * * 12.5 04 ** ** ** ** ** ** ** 1   82   66 1011.7 *****  951.5  86 *** ***** ***** ***** ***** **
851950 ***** 201509061500 180  11 *** *** *** * * * 12.5 04 ** ** ** ** ** ** ** 0   77   55 1013.8 *****  953.8 *** *** ***** ***** ***** ***** **
851950 ***** 201509062100 ***   0 *** *** *** * * * 12.5 04 ** ** ** ** ** ** ** 0   88   65 1008.0 *****  948.0  92 *** ***** ***** ***** ***** **
851950 ***** 201509071500 350  17 *** *** *** * * *  9.4 04 ** ** ** ** ** ** ** 0   86   68 1009.7 *****  950.2 *** *** ***** ***** ***** ***** **
851950 ***** 201509072100 360  21 *** *** *** * * *  9.4 04 ** ** ** ** ** ** ** 0   89   67 1004.7 *****  944.0  92 *** ***** ***** ***** ***** **
851950 ***** 201509081500 360  17 *** 197 BKN * * *  5.0 04 ** ** ** ** ** ** ** 2   86   70 1009.3 *****  950.0 *** *** ***** ***** ***** ***** **
851950 ***** 201509091500 360  15 ***  30 BKN * * *  9.4 17 ** ** ** ** ** ** ** 9   80   71 1009.0 *****  949.2 *** *** ***** ***** ***** ***** **
851950 ***** 201509092100 360  11 *** *** SCT * * *  9.4 04 ** ** ** ** ** ** ** 9   84   75 1003.3 *****  944.0  90 *** ***** ***** ***** ***** **
851950 ***** 201509101500 360  21 *** *** *** * * *  9.4 04 ** ** ** ** ** ** ** 0   88   71 1009.0 *****  949.0 *** *** ***** ***** ***** ***** **
851950 ***** 201509102100 360  18 *** *** SCT * * * 12.5 04 ** ** ** ** ** ** ** 0   86   71 1005.7 *****  945.7  92 *** ***** ***** ***** ***** **
851950 ***** 201509111500 180  20 ***  18 BKN * * * 12.5 04 ** ** ** ** ** ** ** 2   67   57 1017.0 *****  956.2 *** *** ***** ***** ***** ***** **
851950 ***** 201509112100 180  17 ***  15 OVC * * * 18.8 ** ** ** ** ** ** ** ** *   55   52 1015.0 *****  954.0  70 *** ***** ***** ***** ***** **
851950 ***** 201509121500 180  18 ***  69 OVC * * * 12.5 ** ** ** ** ** ** ** ** *   61   45 1019.0 *****  959.1 *** *** ***** ***** ***** ***** **
851950 ***** 201509122100 180   7 *** *** SCT * * * 18.8 ** ** ** ** ** ** ** ** *   66   51 1014.7 *****  954.0  69 *** ***** ***** ***** ***** **
851950 ***** 201509131500 170  11 *** *** *** * * * 18.8 ** ** ** ** ** ** ** ** *   70   52 1017.6 *****  957.8 *** *** ***** ***** ***** ***** **
851950 ***** 201509132100 ***   0 *** *** *** * * * 18.8 ** ** ** ** ** ** ** ** *   79   61 1013.4 *****  952.5  81 *** ***** ***** ***** ***** **
851950 ***** 201509141500 ***   0 *** *** *** * * * 12.5 ** ** ** ** ** ** ** ** *   81   65 1015.6 *****  955.6 *** *** ***** ***** ***** ***** **
851950 ***** 201509142100 360  11 *** *** *** * * * 12.5 04 ** ** ** ** ** ** ** 0   87   65 1010.1 *****  950.0  90 *** ***** ***** ***** ***** **
851950 ***** 201509151500 360  14 *** *** *** * * *  5.0 04 ** ** ** ** ** ** ** 0   86   67 1013.7 *****  954.0 *** *** ***** ***** ***** ***** **
851950 ***** 201509151800 360  16 *** *** *** * * *  9.4 04 ** ** ** ** ** ** ** 0   91   63 1012.0 *****  951.0 *** *** ***** ***** ***** ***** **
851950 ***** 201509152100 360  11 *** *** *** * * *  9.4 04 ** ** ** ** ** ** ** 0   87   65 1009.0 *****  949.0  93 *** ***** ***** ***** ***** **
851950 ***** 201509161500 360  16 *** *** *** * * *  3.1 04 ** ** ** ** ** ** ** 0   88   69 1011.7 *****  951.8 *** *** ***** ***** ***** ***** **
851950 ***** 201509162100 360  14 *** *** *** * * *  2.5 04 ** ** ** ** ** ** ** 0   91   67 1006.8 *****  947.5  95 *** ***** ***** ***** ***** **
851950 ***** 201509171500 360  15 *** *** SCT * * *  3.1 04 ** ** ** ** ** ** ** 1   90   73 1011.1 *****  951.5 *** *** ***** ***** ***** ***** **
851950 ***** 201509172100 360  14 *** *** *** * * *  3.1 04 ** ** ** ** ** ** ** 0   89   73 1007.2 *****  947.2  94 *** ***** ***** ***** ***** **
851950 ***** 201509181500 ***   0 *** *** *** * * *  2.5 04 ** ** ** ** ** ** ** 0   88   73 1012.3 *****  952.4 *** *** ***** ***** ***** ***** **
851950 ***** 201509182100 340  14 *** *** *** * * *  3.1 04 ** ** ** ** ** ** ** 0   91   72 1008.0 *****  948.0  97 *** ***** ***** ***** ***** **
851950 ***** 201509191500 360   6 *** *** *** * * *  3.1 04 ** ** ** ** ** ** ** 0   91   72 1011.4 *****  952.2 *** *** ***** ***** ***** ***** **
851950 ***** 201509192100 360   6 *** *** *** * * *  5.0 04 ** ** ** ** ** ** ** 0   93   68 1006.6 *****  947.5  97 *** ***** ***** ***** ***** **
