  USAF  WBAN YR--MODAHRMN DIR SPD GUS CLG SKC L M H  VSB MW MW MW MW AW AW AW AW W TEMP DEWP    SLP   ALT    STP MAX MIN PCP01 PCP06 PCP24 PCPXX SD
852100 ***** 201501011500 360  14 *** *** *** * * * 18.8 ** ** ** ** ** ** ** ** *   91   73 1016.8 *****  996.2 *** *** ***** ***** ***** ***** **
852100 ***** 201501012100 360  14 ***  27 BKN * * * 18.8 ** ** ** ** ** ** ** ** *   90   75 1013.0 *****  992.4  99 *** ***** ***** ***** ***** **
852100 ***** 201501021500 360   7 *** *** SCT * * * 18.8 ** ** ** ** ** ** ** ** *   91   73 1018.5 *****  998.2 *** *** ***** ***** ***** ***** **
852100 ***** 201501022100 ***   0 ***  27 BKN * * * 18.8 ** ** ** ** ** ** ** ** *   86   76 1013.6 *****  993.4  97 *** ***** ***** ***** ***** **
852100 ***** 201501031200 ***   0 *** 197 BKN * * * 18.8 ** ** ** ** ** ** ** ** *   78   75 1019.4 *****  999.0 ***  72 ***** ***** ***** ***** **
852100 ***** 201501031500 ***   0 *** 197 BKN * * * 18.8 ** ** ** ** ** ** ** ** *   84   74 1019.8 *****  999.6 *** *** ***** ***** ***** ***** **
852100 ***** 201501032100 ***   0 ***  30 BKN * * * 18.8 ** ** ** ** ** ** ** ** *   88   77 1015.4 *****  995.0  90 *** ***** ***** ***** ***** **
852100 ***** 201501041500 ***   0 *** 197 BKN * * * 18.8 ** ** ** ** ** ** ** ** *   85   77 1019.4 *****  998.8 *** *** ***** ***** ***** ***** **
852100 ***** 201501042100 ***   0 *** *** SCT * * * 18.8 ** ** ** ** ** ** ** ** *   91   75 1013.4 *****  993.6  95 *** ***** ***** ***** ***** **
852100 ***** 201501051500 ***   0 ***  12 OVC * * * 18.8 21 ** ** ** ** ** ** ** 6   77   74 1019.4 *****  999.5 *** *** ***** ***** ***** ***** **
852100 ***** 201501052100 ***   0 *** *** SCT * * * 18.8 ** ** ** ** ** ** ** ** *   86   74 1014.2 *****  994.0  88 *** ***** ***** ***** ***** **
852100 ***** 201501061500 ***   0 *** *** SCT * * * 18.8 ** ** ** ** ** ** ** ** *   89   75 1018.8 *****  998.6 *** *** ***** ***** ***** ***** **
852100 ***** 201501062100 ***   0 *** 197 BKN * * * 18.8 ** ** ** ** ** ** ** ** *   86   76 1015.3 *****  994.8  95 *** ***** ***** ***** ***** **
852100 ***** 201501071500 360   9 *** *** SCT * * * 18.8 ** ** ** ** ** ** ** ** *   87   75 1018.8 *****  998.5 *** *** ***** ***** ***** ***** **
852100 ***** 201501072100 ***   0 *** 197 BKN * * * 18.8 ** ** ** ** ** ** ** ** *   88   76 1013.2 *****  993.0  93 *** ***** ***** ***** ***** **
852100 ***** 201501081500 ***   0 *** *** *** * * * 18.8 ** ** ** ** ** ** ** ** *   91   75 1018.0 *****  998.0 *** *** ***** ***** ***** ***** **
852100 ***** 201501082100 ***   0 *** 197 BKN * * * 18.8 ** ** ** ** ** ** ** ** *   95   73 1012.5 *****  992.2  99 *** ***** ***** ***** ***** **
852100 ***** 201501091500 ***   0 *** *** *** * * * 18.8 ** ** ** ** ** ** ** ** *   93   74 1017.5 *****  998.0 *** *** ***** ***** ***** ***** **
852100 ***** 201501092100 ***   0 ***  30 BKN * * * 18.8 ** ** ** ** ** ** ** ** *   87   74 1013.6 *****  993.7 100 *** ***** ***** ***** ***** **
852100 ***** 201501101500 360   7 *** *** *** * * * 18.8 ** ** ** ** ** ** ** ** *   91   72 1019.5 *****  999.5 *** *** ***** ***** ***** ***** **
852100 ***** 201501102100 ***   0 *** *** SCT * * * 18.8 ** ** ** ** ** ** ** ** *   96   72 1013.5 *****  993.7  99 *** ***** ***** ***** ***** **
852100 ***** 201501111500 ***   0 *** *** *** * * * 18.8 ** ** ** ** ** ** ** ** *   89   75 1018.9 *****  999.3 *** *** ***** ***** ***** ***** **
852100 ***** 201501112100 360   7 ***  27 BKN * * * 18.8 ** ** ** ** ** ** ** ** *   91   72 1014.0 *****  994.3 100 *** ***** ***** ***** ***** **
852100 ***** 201501121500 ***   0 ***  69 BKN * * * 18.8 ** ** ** ** ** ** ** ** *   84   72 1020.0 ***** 1000.2 *** *** ***** ***** ***** ***** **
852100 ***** 201501122000 360   7 *** *** *** * * *  6.2 ** ** ** ** ** ** ** ** *   91   72 ****** 29.97 ****** *** *** ***** ***** ***** ***** **
852100 ***** 201501122100 ***   0 *** *** SCT * * * 18.8 ** ** ** ** ** ** ** ** *   89   74 1013.5 *****  994.2  95 *** ***** ***** ***** ***** **
852100 ***** 201501131500 360   7 *** *** SCT * * * 18.8 ** ** ** ** ** ** ** ** *   92   75 1017.7 *****  998.2 *** *** ***** ***** ***** ***** **
852100 ***** 201501132100 ***   0 ***  30 BKN * * * 18.8 ** ** ** ** ** ** ** ** *   80   71 1013.0 *****  993.5  97 *** ***** ***** ***** ***** **
852100 ***** 201501141500 ***   0 *** *** SCT * * * 18.8 ** ** ** ** ** ** ** ** *   88   72 1018.5 *****  999.0 *** *** ***** ***** ***** ***** **
852100 ***** 201501142100 ***   0 *** *** SCT * * * 18.8 ** ** ** ** ** ** ** ** *   94   72 1012.8 *****  993.5  99 *** ***** ***** ***** ***** **
852100 ***** 201501151500 360   7 *** *** SCT * * * 18.8 ** ** ** ** ** ** ** ** *   88   74 1019.0 *****  999.5 *** *** ***** ***** ***** ***** **
852100 ***** 201501152100 ***   0 *** 197 OVC * * * 18.8 ** ** ** ** ** ** ** ** *   82   75 1014.0 *****  995.0  99 *** ***** ***** ***** ***** **
852100 ***** 201501161500 ***   0 ***  17 BKN * * * 18.8 ** ** ** ** ** ** ** ** *   86   74 1019.5 ***** 1000.0 *** *** ***** ***** ***** ***** **
852100 ***** 201501162100 ***   0 *** *** SCT * * * 18.8 ** ** ** ** ** ** ** ** *   90   77 1013.8 *****  994.2  95 *** ***** ***** ***** ***** **
852100 ***** 201501171500 360   9 *** *** SCT * * * 18.8 ** ** ** ** ** ** ** ** *   90   72 1018.5 *****  999.6 *** *** ***** ***** ***** ***** **
852100 ***** 201501172100 360  11 ***  17 OVC * * * 18.8 ** ** ** ** ** ** ** ** *   82   73 1014.5 *****  995.0  97 *** ***** ***** ***** ***** **
852100 ***** 201501181500 ***   0 ***  69 BKN * * * 18.8 ** ** ** ** ** ** ** ** *   86   73 1019.5 *****  900.4 *** *** ***** ***** ***** ***** **
852100 ***** 201501182100 ***   0 *** 197 BKN * * * 18.8 ** ** ** ** ** ** ** ** *   79   74 1014.6 *****  995.6  97 *** ***** ***** ***** ***** **
852100 ***** 201501191500 360   7 *** *** SCT * * * 18.8 ** ** ** ** ** ** ** ** *   90   73 1019.0 *****  999.8 *** *** ***** ***** ***** ***** **
852100 ***** 201501192100 360   7 *** *** SCT * * * 18.8 ** ** ** ** ** ** ** ** *   92   74 1012.5 *****  993.0  99 *** ***** ***** ***** ***** **
852100 ***** 201501201500 ***   0 *** *** *** * * * 18.8 ** ** ** ** ** ** ** ** *   90   75 1017.5 *****  998.4 *** *** ***** ***** ***** ***** **
852100 ***** 201501202100 ***   0 ***  17 BKN * * * 18.8 ** ** ** ** ** ** ** ** *   86   76 1013.5 *****  994.2  97 *** ***** ***** ***** ***** **
852100 ***** 201501211500 180   7 *** 197 BKN * * * 18.8 ** ** ** ** ** ** ** ** *   87   74 1019.5 ***** 1000.3 *** *** ***** ***** ***** ***** **
852100 ***** 201501212100 180   7 *** *** SCT * * * 18.8 ** ** ** ** ** ** ** ** *   90   73 1014.6 *****  995.3  98 *** ***** ***** ***** ***** **
852100 ***** 201501221500 ***   0 ***  69 OVC * * * 18.8 29 ** ** ** ** ** ** ** 9   73   72 1018.5 *****  999.6 *** *** ***** ***** ***** ***** **
852100 ***** 201501232100 ***   0 *** *** SCT * * * 18.8 ** ** ** ** ** ** ** ** *   95   72 1011.5 *****  993.0  97 *** ***** ***** ***** ***** **
852100 ***** 201501241500 ***   0 *** *** *** * * * 18.8 ** ** ** ** ** ** ** ** *   90   76 1016.7 *****  997.6 *** *** ***** ***** ***** ***** **
852100 ***** 201501242100 ***   0 *** *** SCT * * * 18.8 ** ** ** ** ** ** ** ** *   94   75 1010.5 *****  991.0  99 *** ***** ***** ***** ***** **
852100 ***** 201501252100 360   7 *** *** SCT * * * 18.8 ** ** ** ** ** ** ** ** *   93   73 1010.8 *****  992.0  95 *** ***** ***** ***** ***** **
852100 ***** 201501261500 ***   0 ***  15 OVC * * * 18.8 ** ** ** ** ** ** ** ** *   82   75 1017.0 *****  998.4 *** *** ***** ***** ***** ***** **
852100 ***** 201501262100 ***   0 ***  13 OVC * * *  5.0 61 ** ** ** ** ** ** ** 6   75   75 1012.5 *****  994.6  86 *** ***** ***** ***** ***** **
852100 ***** 201501272100 360   7 ***  17 BKN * * * 18.8 ** ** ** ** ** ** ** ** *   83   75 1013.0 *****  994.0  88 *** ***** ***** ***** ***** **
852100 ***** 201501281500 360   7 *** 197 OVC * * * 18.8 ** ** ** ** ** ** ** ** *   86   75 1017.5 *****  999.0 *** *** ***** ***** ***** ***** **
852100 ***** 201501282100 ***   0 ***  27 BKN * * *  5.0 61 ** ** ** ** ** ** ** 6   75   75 1013.5 *****  995.0  90 *** ***** ***** ***** ***** **
852100 ***** 201501291500 ***   0 ***  69 BKN * * * 18.8 ** ** ** ** ** ** ** ** *   83   76 1019.6 ***** 1000.6 *** *** ***** ***** ***** ***** **
852100 ***** 201501301500 ***   0 *** *** SCT * * * 18.8 ** ** ** ** ** ** ** ** *   88   76 1018.0 *****  999.0 *** *** ***** ***** ***** ***** **
852100 ***** 201501302100 ***   0 *** *** SCT * * * 18.8 ** ** ** ** ** ** ** ** *   91   76 1012.6 *****  994.0  95 *** ***** ***** ***** ***** **
852100 ***** 201501311500 ***   0 *** *** *** * * * 18.8 ** ** ** ** ** ** ** ** *   91   77 1018.8 *****  999.7 *** *** ***** ***** ***** ***** **
852100 ***** 201501312100 ***   0 *** 197 BKN * * * 18.8 ** ** ** ** ** ** ** ** *   92   80 1012.5 *****  994.0  99 *** ***** ***** ***** ***** **
852100 ***** 201502011500 ***   0 *** *** *** * * * 18.8 ** ** ** ** ** ** ** ** *   90   73 1018.5 ***** 1000.0 *** *** ***** ***** ***** ***** **
852100 ***** 201502012100 ***   0 *** *** SCT * * * 18.8 ** ** ** ** ** ** ** ** *   95   76 1013.5 *****  995.0  99 *** ***** ***** ***** ***** **
852100 ***** 201502021500 ***   0 *** *** *** * * * 18.8 ** ** ** ** ** ** ** ** *   90   76 1018.0 *****  999.6 *** *** ***** ***** ***** ***** **
852100 ***** 201502031500 360   7 *** *** SCT * * * 18.8 ** ** ** ** ** ** ** ** *   91   79 1016.5 *****  998.0 *** *** ***** ***** ***** ***** **
852100 ***** 201502032100 330   7 *** *** SCT * * * 18.8 ** ** ** ** ** ** ** ** *   93   74 1010.5 *****  992.4  97 *** ***** ***** ***** ***** **
852100 ***** 201502041500 360  14 *** *** SCT * * * 18.8 ** ** ** ** ** ** ** ** *   90   75 1015.2 *****  996.7 *** *** ***** ***** ***** ***** **
852100 ***** 201502042100 ***   0 *** *** SCT * * * 18.8 ** ** ** ** ** ** ** ** *   95   75 1007.9 *****  990.2  97 *** ***** ***** ***** ***** **
852100 ***** 201502051500 360   7 ***  69 OVC * * * 18.8 ** ** ** ** ** ** ** ** *   88   76 1015.8 *****  997.7 *** *** ***** ***** ***** ***** **
852100 ***** 201502052100 ***   0 *** 197 BKN * * * 18.8 ** ** ** ** ** ** ** ** *   90   75 1008.0 *****  990.7  95 *** ***** ***** ***** ***** **
852100 ***** 201502061500 ***   0 ***  17 OVC * * * 18.8 ** ** ** ** ** ** ** ** *   84   78 1014.3 *****  996.5 *** *** ***** ***** ***** ***** **
852100 ***** 201502062100 360   9 ***  17 OVC * * *  3.8 60 ** ** ** ** ** ** ** 6   77   74 1011.5 *****  993.0  93 *** ***** ***** ***** ***** **
852100 ***** 201502071500 ***   0 ***  17 BKN * * * 18.8 ** ** ** ** ** ** ** ** *   84   77 1014.6 *****  996.4 *** *** ***** ***** ***** ***** **
852100 ***** 201502072100 ***   0 *** *** SCT * * * 18.8 ** ** ** ** ** ** ** ** *   88   76 1009.0 *****  991.4  93 *** ***** ***** ***** ***** **
852100 ***** 201502081500 360   7 ***  20 BKN * * * 18.8 ** ** ** ** ** ** ** ** *   86   76 1014.8 *****  996.4 *** *** ***** ***** ***** ***** **
852100 ***** 201502082100 360   7 *** *** SCT * * * 18.8 ** ** ** ** ** ** ** ** *   86   76 1010.6 *****  992.3  93 *** ***** ***** ***** ***** **
852100 ***** 201502091500 360   9 ***  17 BKN * * * 18.8 ** ** ** ** ** ** ** ** *   87   76 1016.0 *****  998.0 *** *** ***** ***** ***** ***** **
852100 ***** 201502091900 360   7 ***  17 *** * * *  6.2 ** ** ** ** ** ** ** ** *   90   77 ****** 29.91 ****** *** *** ***** ***** ***** ***** **
852100 ***** 201502092100 ***   0 ***  30 BKN * * * 18.8 21 ** ** ** ** ** ** ** 6   81   77 1010.5 *****  993.0  91 *** ***** ***** ***** ***** **
852100 ***** 201502101500 360   9 *** *** SCT * * * 18.8 ** ** ** ** ** ** ** ** *   89   75 1016.3 *****  997.8 *** *** ***** ***** ***** ***** **
852100 ***** 201502102100 360   9 *** *** SCT * * * 18.8 ** ** ** ** ** ** ** ** *   94   74 1011.5 *****  993.4  95 *** ***** ***** ***** ***** **
852100 ***** 201502111500 360   7 ***  15 OVC * * * 18.8 ** ** ** ** ** ** ** ** *   79   75 1021.5 ***** 1003.3 *** *** ***** ***** ***** ***** **
852100 ***** 201502112100 ***   0 *** *** *** * * * 18.8 ** ** ** ** ** ** ** ** *   87   74 1014.5 *****  996.5  90 *** ***** ***** ***** ***** **
852100 ***** 201502121500 ***   0 *** *** SCT * * * 18.8 ** ** ** ** ** ** ** ** *   86   74 1019.7 ***** 1001.6 *** *** ***** ***** ***** ***** **
852100 ***** 201502131500 360   7 *** *** SCT * * * 18.8 ** ** ** ** ** ** ** ** *   90   75 1020.0 ***** 1002.0 *** *** ***** ***** ***** ***** **
852100 ***** 201502141500 ***   0 *** *** SCT * * * 18.8 ** ** ** ** ** ** ** ** *   88   77 1019.5 ***** 1001.5 *** *** ***** ***** ***** ***** **
852100 ***** 201502152100 ***   0 *** *** SCT * * * 18.8 ** ** ** ** ** ** ** ** *   88   76 1012.5 *****  995.4  91 *** ***** ***** ***** ***** **
852100 ***** 201502161500 ***   0 ***  69 OVC * * * 18.8 ** ** ** ** ** ** ** ** *   86   78 1017.5 *****  999.0 *** *** ***** ***** ***** ***** **
852100 ***** 201502162100 ***   0 *** 197 OVC * * * 18.8 ** ** ** ** ** ** ** ** *   82   76 1012.5 *****  994.2  91 *** ***** ***** ***** ***** **
852100 ***** 201502171500 ***   0 ***  69 BKN * * * 18.8 ** ** ** ** ** ** ** ** *   86   77 1017.0 *****  998.5 *** *** ***** ***** ***** ***** **
852100 ***** 201502172100 ***   0 *** *** SCT * * * 18.8 ** ** ** ** ** ** ** ** *   86   79 1011.0 *****  993.4  90 *** ***** ***** ***** ***** **
852100 ***** 201502181500 360  11 ***  17 OVC * * * 18.8 ** ** ** ** ** ** ** ** *   86   75 1014.5 *****  997.0 *** *** ***** ***** ***** ***** **
852100 ***** 201502182100 ***   0 ***  30 BKN * * * 18.8 ** ** ** ** ** ** ** ** *   86   75 1008.5 *****  991.5  92 *** ***** ***** ***** ***** **
852100 ***** 201502191500 360  11 ***  69 BKN * * * 18.8 ** ** ** ** ** ** ** ** *   84   77 1015.0 *****  997.5 *** *** ***** ***** ***** ***** **
852100 ***** 201502191800 ***   0 ***  17 OVC * * * 18.8 21 ** ** ** ** ** ** ** 6   82   78 1011.5 *****  994.0 *** *** *****  0.20 ***** ***** **
852100 ***** 201502201500 ***   0 ***  12 OVC * * * 18.8 ** ** ** ** ** ** ** ** *   78   74 1017.0 *****  999.5 *** *** ***** ***** ***** ***** **
852100 ***** 201502211500 360   7 ***  10 OVC * * * 18.8 ** ** ** ** ** ** ** ** *   79   76 1017.5 *****  999.8 *** *** ***** ***** ***** ***** **
852100 ***** 201502212100 ***   0 ***  17 BKN * * * 18.8 ** ** ** ** ** ** ** ** *   82   78 1013.1 *****  996.0  88 *** ***** ***** ***** ***** **
852100 ***** 201502221500 360   7 *** 197 BKN * * * 18.8 ** ** ** ** ** ** ** ** *   85   76 1019.2 ***** 1001.7 *** *** ***** ***** ***** ***** **
852100 ***** 201502231500 360   7 ***  15 OVC * * * 18.8 ** ** ** ** ** ** ** ** *   81   72 1020.5 ***** 1003.0 *** *** ***** ***** ***** ***** **
852100 ***** 201502232100 ***   0 *** *** SCT * * * 18.8 ** ** ** ** ** ** ** ** *   84   77 1016.0 *****  998.6  91 *** ***** ***** ***** ***** **
852100 ***** 201502252100 360   9 *** *** SCT * * * 18.8 ** ** ** ** ** ** ** ** *   90   75 1013.5 *****  996.1  95 *** ***** ***** ***** ***** **
852100 ***** 201502262100 ***   0 ***  17 OVC * * * 18.8 ** ** ** ** ** ** ** ** *   77   73 1013.5 *****  996.0  93 *** ***** ***** ***** ***** **
852100 ***** 201502272100 ***   0 *** *** SCT * * * 18.8 ** ** ** ** ** ** ** ** *   90   75 1011.5 *****  995.0  93 *** ***** ***** ***** ***** **
852100 ***** 201502281500 ***   0 *** *** SCT * * * 18.8 ** ** ** ** ** ** ** ** *   88   76 1018.7 ***** 1001.5 *** *** ***** ***** ***** ***** **
852100 ***** 201502282100 ***   0 *** *** SCT * * * 18.8 ** ** ** ** ** ** ** ** *   88   76 1012.5 *****  995.6  95 *** ***** ***** ***** ***** **
852100 ***** 201503011500 ***   0 *** *** SCT * * * 18.8 ** ** ** ** ** ** ** ** *   87   75 1018.0 ***** 1001.0 *** *** ***** ***** ***** ***** **
852100 ***** 201503012100 360   7 *** 197 OVC * * * 18.8 ** ** ** ** ** ** ** ** *   81   74 1012.6 *****  995.8  93 *** ***** ***** ***** ***** **
852100 ***** 201503021500 ***   0 *** *** SCT * * * 18.8 ** ** ** ** ** ** ** ** *   87   78 1017.0 *****  999.7 *** *** ***** ***** ***** ***** **
852100 ***** 201503031500 ***   0 ***  17 BKN * * * 18.8 ** ** ** ** ** ** ** ** *   88   77 1015.5 *****  999.0 *** *** ***** ***** ***** ***** **
852100 ***** 201503032100 360   9 ***  27 BKN * * * 18.8 17 ** ** ** ** ** ** ** 2   82   78 1011.5 *****  994.8  95 *** ***** ***** ***** ***** **
852100 ***** 201503041500 360   7 ***  69 OVC * * * 18.8 ** ** ** ** ** ** ** ** *   81   74 1018.1 ***** 1000.9 *** *** ***** ***** ***** ***** **
852100 ***** 201503042100 ***   0 *** *** SCT * * * 18.8 ** ** ** ** ** ** ** ** *   86   75 1012.0 *****  995.4  90 *** ***** ***** ***** ***** **
852100 ***** 201503051200 ***   0 *** 200 *** * * *  6.2 ** ** ** ** ** ** ** ** *   79   73 ****** 30.09 ****** *** *** ***** ***** ***** ***** **
852100 ***** 201503052100 ***   0 ***  17 BKN * * * 18.8 02 ** ** ** ** ** ** ** 6   82   78 1012.5 *****  996.0  93 *** ***** ***** ***** ***** **
852100 ***** 201503061500 ***   0 *** 197 BKN * * * 18.8 ** ** ** ** ** ** ** ** *   87   76 1018.7 ***** 1001.5 *** *** ***** ***** ***** ***** **
852100 ***** 201503062100 ***   0 ***  27 BKN * * * 18.8 17 ** ** ** ** ** ** ** 2   88   77 1013.0 *****  996.0  93 *** ***** ***** ***** ***** **
852100 ***** 201503071500 ***   0 *** *** SCT * * * 18.8 ** ** ** ** ** ** ** ** *   88   76 1018.1 ***** 1000.8 *** *** ***** ***** ***** ***** **
852100 ***** 201503081500 ***   0 ***  69 BKN * * * 18.8 ** ** ** ** ** ** ** ** *   84   77 1017.8 ***** 1000.6 *** *** ***** ***** ***** ***** **
852100 ***** 201503091400 360   7 ***  70 *** * * *  6.2 ** ** ** ** ** ** ** ** *   86   77 ****** 30.06 ****** *** *** ***** ***** ***** ***** **
852100 ***** 201503091500 360   7 ***  69 BKN * * * 18.8 ** ** ** ** ** ** ** ** *   86   76 1017.1 ***** 1000.1 *** *** ***** ***** ***** ***** **
852100 ***** 201503091500 360   7 ***  70 *** * * *  6.2 ** ** ** ** ** ** ** ** *   86   77 ****** 30.06 ****** *** *** ***** ***** ***** ***** **
852100 ***** 201503092100 330   7 *** 197 BKN * * * 18.8 ** ** ** ** ** ** ** ** *   86   76 1011.5 *****  994.8  93 *** ***** ***** ***** ***** **
852100 ***** 201503101500 ***   0 *** *** SCT * * * 18.8 ** ** ** ** ** ** ** ** *   86   76 1016.5 *****  999.2 *** *** ***** ***** ***** ***** **
852100 ***** 201503102100 ***   0 *** *** SCT * * * 18.8 ** ** ** ** ** ** ** ** *   92   79 1010.0 *****  993.4  97 *** ***** ***** ***** ***** **
852100 ***** 201503111500 ***   0 *** *** SCT * * * 18.8 ** ** ** ** ** ** ** ** *   88   78 1016.3 *****  999.1 *** *** ***** ***** ***** ***** **
852100 ***** 201503111600 ***   0 *** *** *** * * *  6.2 ** ** ** ** ** ** ** ** *   91   77 ****** 30.00 ****** *** *** ***** ***** ***** ***** **
852100 ***** 201503112100 ***   0 *** *** SCT * * * 18.8 ** ** ** ** ** ** ** ** *   91   77 1010.0 *****  993.4  99 *** ***** ***** ***** ***** **
852100 ***** 201503121500 360   7 *** 197 BKN * * * 18.8 ** ** ** ** ** ** ** ** *   89   78 1015.0 *****  998.0 *** *** ***** ***** ***** ***** **
852100 ***** 201503122100 360   7 ***  27 BKN * * * 18.8 ** ** ** ** ** ** ** ** *   85   74 1010.0 *****  993.2  95 *** ***** ***** ***** ***** **
852100 ***** 201503131500 360   7 *** *** SCT * * * 18.8 ** ** ** ** ** ** ** ** *   86   76 1015.0 *****  998.2 *** *** ***** ***** ***** ***** **
852100 ***** 201503132100 ***   0 *** *** SCT * * * 18.8 ** ** ** ** ** ** ** ** *   84   76 1009.5 *****  993.2  91 *** ***** ***** ***** ***** **
852100 ***** 201503141500 360   7 *** *** SCT * * * 18.8 ** ** ** ** ** ** ** ** *   86   75 1016.6 *****  999.5 *** *** ***** ***** ***** ***** **
852100 ***** 201503142100 ***   0 *** *** SCT * * * 18.8 ** ** ** ** ** ** ** ** *   90   78 1010.2 *****  993.8  95 *** ***** ***** ***** ***** **
852100 ***** 201503151500 ***   0 *** *** SCT * * * 18.8 ** ** ** ** ** ** ** ** *   88   77 1016.7 ***** 1000.1 *** *** ***** ***** ***** ***** **
852100 ***** 201503152100 ***   0 ***  27 BKN * * * 18.8 ** ** ** ** ** ** ** ** *   84   76 1011.5 *****  995.0  95 *** ***** ***** ***** ***** **
852100 ***** 201503161500 ***   0 *** *** SCT * * * 18.8 ** ** ** ** ** ** ** ** *   88   78 1016.5 *****  999.7 *** *** ***** ***** ***** ***** **
852100 ***** 201503162100 ***   0 *** 197 BKN * * * 18.8 ** ** ** ** ** ** ** ** *   86   78 1011.6 *****  994.7  95 *** ***** ***** ***** ***** **
852100 ***** 201503171500 ***   0 ***  17 BKN * * * 18.8 ** ** ** ** ** ** ** ** *   90   79 1016.0 *****  999.0 *** *** ***** ***** ***** ***** **
852100 ***** 201503172100 ***   0 ***  17 BKN * * * 18.8 29 ** ** ** ** ** ** ** 6   82   78 1012.3 *****  995.4  95 *** ***** ***** ***** ***** **
852100 ***** 201503181500 ***   0 ***  12 BKN * * * 18.8 ** ** ** ** ** ** ** ** *   86   78 1017.2 *****  999.7 *** *** ***** ***** ***** ***** **
852100 ***** 201503182100 ***   0 *** *** SCT * * * 18.8 ** ** ** ** ** ** ** ** *   89   77 1011.3 *****  994.5  93 *** ***** ***** ***** ***** **
852100 ***** 201503182100 ***   0 *** *** *** * * *  6.2 ** ** ** ** ** ** ** ** *   90   77 ****** 29.88 ****** *** *** ***** ***** ***** ***** **
852100 ***** 201503191500 ***   0 *** *** SCT * * * 18.8 ** ** ** ** ** ** ** ** *   86   76 1017.9 ***** 1000.4 *** *** ***** ***** ***** ***** **
852100 ***** 201503192100 ***   0 *** *** SCT * * * 18.8 ** ** ** ** ** ** ** ** *   91   75 1011.0 *****  994.3  95 *** ***** ***** ***** ***** **
852100 ***** 201503201500 ***   0 *** *** SCT * * * 18.8 ** ** ** ** ** ** ** ** *   88   77 1015.9 *****  998.7 *** *** ***** ***** ***** ***** **
852100 ***** 201503202100 ***   0 *** *** SCT * * * 18.8 ** ** ** ** ** ** ** ** *   91   75 1010.6 *****  993.6  96 *** ***** ***** ***** ***** **
852100 ***** 201503212100 ***   0 *** *** SCT * * * 18.8 ** ** ** ** ** ** ** ** *   90   72 1011.3 *****  994.5  93 *** ***** ***** ***** ***** **
852100 ***** 201503221500 ***   0 *** *** *** * * * 18.8 ** ** ** ** ** ** ** ** *   88   75 1016.7 *****  999.8 *** *** ***** ***** ***** ***** **
852100 ***** 201503222100 ***   0 ***  17 BKN * * * 18.8 21 ** ** ** ** ** ** ** 6   79   76 1013.2 *****  996.4  92 *** ***** ***** ***** ***** **
852100 ***** 201503231500 180   7 *** *** *** * * * 18.8 ** ** ** ** ** ** ** ** *   89   76 1019.6 ***** 1002.4 *** *** ***** ***** ***** ***** **
852100 ***** 201503232100 ***   0 *** *** *** * * * 18.8 ** ** ** ** ** ** ** ** *   90   73 1014.6 *****  998.0  93 *** ***** ***** ***** ***** **
852100 ***** 201503241500 ***   0 *** *** SCT * * * 18.8 ** ** ** ** ** ** ** ** *   89   75 1019.7 ***** 1002.5 *** *** ***** ***** ***** ***** **
852100 ***** 201503242100 ***   0 ***  15 BKN * * * 18.8 02 ** ** ** ** ** ** ** 6   78   76 1015.7 *****  998.8  94 *** ***** ***** ***** ***** **
852100 ***** 201503252100 ***   0 *** 197 BKN * * * 18.8 ** ** ** ** ** ** ** ** *   82   76 1014.3 *****  997.4  91 *** ***** ***** ***** ***** **
852100 ***** 201503261500 360   9 *** 197 BKN * * * 18.8 ** ** ** ** ** ** ** ** *   86   76 1018.1 ***** 1001.1 *** *** ***** ***** ***** ***** **
852100 ***** 201503262100 ***   0 ***  17 BKN * * * 18.8 ** ** ** ** ** ** ** ** *   88   78 1012.2 *****  995.6  93 *** ***** ***** ***** ***** **
852100 ***** 201503271500 ***   0 ***  13 BKN * * * 18.8 ** ** ** ** ** ** ** ** *   81   75 1020.5 ***** 1003.8 *** *** ***** ***** ***** ***** **
852100 ***** 201503272100 180   7 *** 197 OVC * * * 18.8 ** ** ** ** ** ** ** ** *   80   76 1017.5 ***** 1000.5  86 *** ***** ***** ***** ***** **
852100 ***** 201503281500 180   7 ***  10 OVC * * * 18.8 ** ** ** ** ** ** ** ** *   77   73 1022.2 ***** 1005.4 *** *** ***** ***** ***** ***** **
852100 ***** 201503282100 ***   0 ***  15 OVC * * * 18.8 ** ** ** ** ** ** ** ** *   81   73 1018.5 ***** 1001.4  84 *** ***** ***** ***** ***** **
852100 ***** 201503301500 ***   0 ***  69 BKN * * * 18.8 ** ** ** ** ** ** ** ** *   83   74 1018.1 ***** 1001.7 *** *** ***** ***** ***** ***** **
852100 ***** 201503302100 ***   0 *** *** SCT * * * 18.8 ** ** ** ** ** ** ** ** *   92   74 1013.3 *****  996.5  93 *** ***** ***** ***** ***** **
852100 ***** 201503312100 ***   0 *** 197 BKN * * * 18.8 ** ** ** ** ** ** ** ** *   80   76 1014.1 *****  998.0  91 *** ***** ***** ***** ***** **
852100 ***** 201504012100 ***   0 *** *** OVC * * * 18.8 ** ** ** ** ** ** ** ** *   77   76 ****** ***** ****** *** *** ***** ***** ***** ***** **
852100 ***** 201504022100 ***   0 *** *** SCT * * * 18.8 ** ** ** ** ** ** ** ** *   89   78 1014.6 *****  998.0  95 *** ***** ***** ***** ***** **
852100 ***** 201504031500 ***   0 *** *** SCT * * * 18.8 ** ** ** ** ** ** ** ** *   90   78 1016.5 ***** 1000.0 *** *** ***** ***** ***** ***** **
852100 ***** 201504031800 ***   0 ***  17 BKN * * * 18.8 ** ** ** ** ** ** ** ** *   93   78 1012.5 *****  996.0 *** *** ***** ***** ***** ***** **
852100 ***** 201504032100 ***   0 ***  30 OVC * * * 18.8 21 ** ** ** ** ** ** ** 6   76   75 1011.6 *****  995.0  95 *** ***** ***** ***** ***** **
852100 ***** 201504041200 ***   0 ***  23 OVC * * * 18.8 01 ** ** ** ** ** ** ** 6   77   76 1014.5 *****  998.5 ***  75 ***** *****  0.22 ***** **
852100 ***** 201504041500 360   7 *** 197 OVC * * * 18.8 ** ** ** ** ** ** ** ** *   88   78 1014.5 *****  998.0 *** *** ***** ***** ***** ***** **
852100 ***** 201504042100 ***   0 ***  30 OVC * * * 18.8 ** ** ** ** ** ** ** ** *   83   77 1008.6 *****  993.0  91 *** ***** ***** ***** ***** **
852100 ***** 201504051500 360  11 *** *** SCT * * * 18.8 ** ** ** ** ** ** ** ** *   86   76 1016.5 ***** 1000.0 *** *** ***** ***** ***** ***** **
852100 ***** 201504052100 ***   0 ***  69 OVC * * * 18.8 ** ** ** ** ** ** ** ** *   81   78 1012.6 *****  996.8  91 *** ***** ***** ***** ***** **
852100 ***** 201504061500 180   9 *** *** SCT * * * 18.8 ** ** ** ** ** ** ** ** *   82   70 1018.5 ***** 1002.0 *** *** ***** ***** ***** ***** **
852100 ***** 201504062100 ***   0 ***  17 OVC * * * 18.8 ** ** ** ** ** ** ** ** *   81   72 1015.5 *****  998.8  88 *** ***** ***** ***** ***** **
852100 ***** 201504071500 180   6 *** *** SCT * * * 18.8 ** ** ** ** ** ** ** ** *   84   72 1017.6 ***** 1001.7 *** *** ***** ***** ***** ***** **
852100 ***** 201504072100 ***   0 *** *** SCT * * * 18.8 ** ** ** ** ** ** ** ** *   84   74 1013.6 *****  997.2  90 *** ***** ***** ***** ***** **
852100 ***** 201504081500 ***   0 *** *** SCT * * * 18.8 ** ** ** ** ** ** ** ** *   87   74 1018.5 ***** 1001.5 *** *** ***** ***** ***** ***** **
852100 ***** 201504082100 ***   0 *** 197 BKN * * * 18.8 ** ** ** ** ** ** ** ** *   86   75 1013.6 *****  997.2  91 *** ***** ***** ***** ***** **
852100 ***** 201504091500 ***   0 ***  69 BKN * * * 18.8 ** ** ** ** ** ** ** ** *   88   77 1019.0 ***** 1002.8 *** *** ***** ***** ***** ***** **
852100 ***** 201504092100 ***   0 ***  30 OVC * * *  1.2 95 ** ** ** ** ** ** ** 9   74   73 1015.5 *****  999.0  95 *** ***** ***** ***** ***** **
852100 ***** 201504101500 ***   0 *** 197 BKN * * * 18.8 ** ** ** ** ** ** ** ** *   88   78 1020.0 ***** 1004.8 *** *** ***** ***** ***** ***** **
852100 ***** 201504102100 190   7 ***  30 OVC * * * 18.8 ** ** ** ** ** ** ** ** *   77   74 1016.0 ***** 1000.0  93 *** ***** ***** ***** ***** **
852100 ***** 201504111500 ***   0 ***  69 BKN * * * 18.8 ** ** ** ** ** ** ** ** *   80   73 1021.5 ***** 1005.2 *** *** ***** ***** ***** ***** **
852100 ***** 201504112100 ***   0 *** 197 BKN * * * 18.8 ** ** ** ** ** ** ** ** *   82   76 1015.0 *****  999.3  86 *** ***** ***** ***** ***** **
852100 ***** 201504121500 ***   0 *** *** *** * * * 18.8 ** ** ** ** ** ** ** ** *   88   76 1019.5 ***** 1003.4 *** *** ***** ***** ***** ***** **
852100 ***** 201504122100 ***   0 ***  69 OVC * * * 18.8 ** ** ** ** ** ** ** ** *   81   78 1015.5 *****  999.0  93 *** ***** ***** ***** ***** **
852100 ***** 201504131500 ***   0 ***  69 BKN * * * 18.8 ** ** ** ** ** ** ** ** *   85   77 1020.0 ***** 1004.2 *** *** ***** ***** ***** ***** **
852100 ***** 201504132100 ***   0 *** *** SCT * * * 18.8 ** ** ** ** ** ** ** ** *   90   78 1014.0 *****  998.0  91 *** ***** ***** ***** ***** **
852100 ***** 201504141500 360   7 *** *** SCT * * * 18.8 ** ** ** ** ** ** ** ** *   88   77 1018.3 ***** 1002.5 *** *** ***** ***** ***** ***** **
852100 ***** 201504142100 ***   0 *** *** SCT * * * 18.8 ** ** ** ** ** ** ** ** *   90   78 1013.5 *****  997.5  94 *** ***** ***** ***** ***** **
852100 ***** 201504151500 360   7 *** *** *** * * * 18.8 ** ** ** ** ** ** ** ** *   88   78 1018.5 ***** 1002.4 *** *** ***** ***** ***** ***** **
852100 ***** 201504152100 ***   0 *** 197 BKN * * * 18.8 ** ** ** ** ** ** ** ** *   84   78 1012.6 *****  997.0  93 *** ***** ***** ***** ***** **
852100 ***** 201504161500 ***   0 *** *** SCT * * * 18.8 ** ** ** ** ** ** ** ** *   89   78 1018.5 ***** 1002.5 *** *** ***** ***** ***** ***** **
852100 ***** 201504162100 ***   0 *** 197 OVC * * * 18.8 ** ** ** ** ** ** ** ** *   84   80 1012.6 *****  997.0  91 *** ***** ***** ***** ***** **
852100 ***** 201504171500 ***   0 *** *** SCT * * * 18.8 ** ** ** ** ** ** ** ** *   87   76 1018.5 ***** 1003.0 *** *** ***** ***** ***** ***** **
852100 ***** 201504172100 ***   0 ***  17 BKN * * * 18.8 ** ** ** ** ** ** ** ** *   88   78 1012.6 *****  997.0  93 *** ***** ***** ***** ***** **
852100 ***** 201504181500 ***   0 *** *** SCT * * * 18.8 ** ** ** ** ** ** ** ** *   88   78 1018.5 ***** 1003.0 *** *** ***** ***** ***** ***** **
852100 ***** 201504191500 ***   0 *** *** *** * * * 18.8 ** ** ** ** ** ** ** ** *   88   77 1015.8 ***** 1000.4 *** *** ***** ***** ***** ***** **
852100 ***** 201504192100 ***   0 *** *** SCT * * * 18.8 ** ** ** ** ** ** ** ** *   87   79 1012.0 *****  996.8  94 *** ***** ***** ***** ***** **
852100 ***** 201504201500 ***   0 *** *** SCT * * * 18.8 ** ** ** ** ** ** ** ** *   89   78 1017.5 ***** 1001.5 *** *** ***** ***** ***** ***** **
852100 ***** 201504201800 ***   0 *** *** SCT * * * 18.8 ** ** ** ** ** ** ** ** *   93   78 1013.5 *****  999.0 *** *** ***** ***** ***** ***** **
852100 ***** 201504202100 ***   0 *** *** SCT * * * 18.8 ** ** ** ** ** ** ** ** *   86   76 1013.3 *****  997.6  95 *** ***** ***** ***** ***** **
852100 ***** 201504211500 ***   0 *** *** SCT * * * 18.8 ** ** ** ** ** ** ** ** *   83   77 1019.5 ***** 1004.0 *** *** ***** ***** ***** ***** **
852100 ***** 201504212100 ***   0 *** 197 OVC * * * 18.8 ** ** ** ** ** ** ** ** *   80   75 1014.6 *****  999.3  91 *** ***** ***** ***** ***** **
852100 ***** 201504221200 ***   0 ***   8 OVC * * * 18.8 ** ** ** ** ** ** ** ** *   77   75 1019.5 ***** 1003.5 ***  73 ***** ***** ***** ***** **
852100 ***** 201504222100 180   7 ***  25 BKN * * * 18.8 ** ** ** ** ** ** ** ** *   84   77 1015.0 *****  999.5  91 *** ***** ***** ***** ***** **
852100 ***** 201504232100 ***   0 *** *** *** * * * 18.8 ** ** ** ** ** ** ** ** *   85   76 1015.7 ***** 1000.0  90 *** ***** ***** ***** ***** **
852100 ***** 201504241500 ***   0 ***  17 OVC * * * 18.8 ** ** ** ** ** ** ** ** *   86   76 1021.0 ***** 1005.5 *** *** ***** ***** ***** ***** **
852100 ***** 201504242100 ***   0 ***  17 BKN * * * 18.8 ** ** ** ** ** ** ** ** *   84   78 1016.6 ***** 1001.0  90 *** ***** ***** ***** ***** **
852100 ***** 201504251500 ***   0 ***  17 BKN * * * 18.8 ** ** ** ** ** ** ** ** *   87   77 1021.1 ***** 1005.8 *** *** ***** ***** ***** ***** **
852100 ***** 201504252100 ***   0 *** 197 OVC * * * 18.8 ** ** ** ** ** ** ** ** *   84   80 1016.6 ***** 1000.4  91 *** ***** ***** ***** ***** **
852100 ***** 201504262100 ***   0 *** *** SCT * * * 18.8 ** ** ** ** ** ** ** ** *   89   78 1016.0 *****  999.0  95 *** ***** ***** ***** ***** **
852100 ***** 201504271500 ***   0 *** *** *** * * * 18.8 ** ** ** ** ** ** ** ** *   91   80 1017.7 ***** 1002.2 *** *** ***** ***** ***** ***** **
852100 ***** 201504271800 220   7 ***  17 BKN * * *  3.1 60 ** ** ** ** ** ** ** 6   82   75 1014.5 *****  999.0 *** *** *****  0.39 ***** ***** **
852100 ***** 201504281500 ***   0 *** 197 OVC * * * 18.8 ** ** ** ** ** ** ** ** *   87   77 1018.0 ***** 1002.5 *** *** ***** ***** ***** ***** **
852100 ***** 201504282100 ***   0 ***  27 OVC * * * 18.8 ** ** ** ** ** ** ** ** *   86   79 1014.7 *****  998.5  91 *** ***** ***** ***** ***** **
852100 ***** 201504291500 ***   0 ***  17 BKN * * * 18.8 ** ** ** ** ** ** ** ** *   86   76 1018.7 ***** 1003.2 *** *** ***** ***** ***** ***** **
852100 ***** 201504292100 ***   0 *** *** *** * * * 18.8 ** ** ** ** ** ** ** ** *   88   76 1014.6 *****  999.0  91 *** ***** ***** ***** ***** **
852100 ***** 201504301500 ***   0 *** *** SCT * * * 18.8 ** ** ** ** ** ** ** ** *   86   74 1018.5 ***** 1003.2 *** *** ***** ***** ***** ***** **
852100 ***** 201505011500 ***   0 *** *** SCT * * * 18.8 ** ** ** ** ** ** ** ** *   90   77 1017.5 ***** 1002.1 *** *** ***** ***** ***** ***** **
852100 ***** 201505021100 ***   0 *** 722 CLR * * *  6.2 ** ** ** ** ** ** ** ** *   72   72 ****** 29.97 ****** *** *** ***** ***** ***** ***** **
852100 ***** 201505021500 360   7 *** *** *** * * * 18.8 ** ** ** ** ** ** ** ** *   88   76 1016.0 ***** 1001.0 *** *** ***** ***** ***** ***** **
852100 ***** 201505022100 ***   0 *** *** *** * * * 18.8 ** ** ** ** ** ** ** ** *   88   77 1010.3 *****  995.7  91 *** ***** ***** ***** ***** **
852100 ***** 201505031500 ***   0 ***  20 BKN * * * 18.8 21 ** ** ** ** ** ** ** 2   78   75 1017.1 ***** 1002.2 *** *** ***** ***** ***** ***** **
852100 ***** 201505032100 ***   0 *** *** SCT * * * 18.8 ** ** ** ** ** ** ** ** *   81   74 1013.9 *****  998.4  86 *** ***** ***** ***** ***** **
852100 ***** 201505041500 180   7 ***  12 OVC * * * 18.8 ** ** ** ** ** ** ** ** *   76   74 1018.5 ***** 1003.0 *** *** ***** ***** ***** ***** **
852100 ***** 201505042100 180   5 ***  12 OVC * * * 18.8 21 ** ** ** ** ** ** ** 6   70   70 1018.5 ***** 1003.2  79 *** ***** ***** ***** ***** **
852100 ***** 201505051500 ***   0 ***  12 OVC * * * 18.8 ** ** ** ** ** ** ** ** *   73   70 1021.7 ***** 1006.7 *** *** ***** ***** ***** ***** **
852100 ***** 201505052100 ***   0 ***  15 BKN * * * 18.8 ** ** ** ** ** ** ** ** *   78   73 1017.5 ***** 1002.4  81 *** ***** ***** ***** ***** **
852100 ***** 201505061500 ***   0 ***  17 BKN * * * 18.8 ** ** ** ** ** ** ** ** *   81   74 1022.0 ***** 1007.0 *** *** ***** ***** ***** ***** **
852100 ***** 201505062100 ***   0 *** *** *** * * * 18.8 ** ** ** ** ** ** ** ** *   84   73 1017.8 ***** 1001.8  88 *** ***** ***** ***** ***** **
852100 ***** 201505071500 180   9 ***  15 BKN * * * 18.8 ** ** ** ** ** ** ** ** *   79   71 1021.3 ***** 1005.8 *** *** ***** ***** ***** ***** **
852100 ***** 201505072100 ***   0 *** *** *** * * * 18.8 ** ** ** ** ** ** ** ** *   82   74 1017.6 ***** 1001.8  86 *** ***** ***** ***** ***** **
852100 ***** 201505081500 ***   0 *** *** SCT * * * 18.8 ** ** ** ** ** ** ** ** *   84   74 1020.1 ***** 1005.0 *** *** ***** ***** ***** ***** **
852100 ***** 201505082100 ***   0 ***  20 BKN * * * 18.8 ** ** ** ** ** ** ** ** *   85   76 1016.9 ***** 1001.2  88 *** ***** ***** ***** ***** **
852100 ***** 201505091500 ***   0 *** *** SCT * * * 18.8 ** ** ** ** ** ** ** ** *   86   78 1019.2 ***** 1004.0 *** *** ***** ***** ***** ***** **
852100 ***** 201505092100 ***   0 *** 197 BKN * * * 18.8 ** ** ** ** ** ** ** ** *   86   76 1014.6 *****  999.2  93 *** ***** ***** ***** ***** **
852100 ***** 201505101500 ***   0 *** *** SCT * * * 18.8 ** ** ** ** ** ** ** ** *   86   75 1018.5 ***** 1003.8 *** *** ***** ***** ***** ***** **
852100 ***** 201505102100 ***   0 *** 197 OVC * * * 18.8 ** ** ** ** ** ** ** ** *   79   75 1015.5 ***** 1000.0  90 *** ***** ***** ***** ***** **
852100 ***** 201505111500 180   7 ***  13 OVC * * * 18.8 ** ** ** ** ** ** ** ** *   76   71 1022.1 ***** 1007.0 *** *** ***** ***** ***** ***** **
852100 ***** 201505112100 ***   0 *** 197 OVC * * * 18.8 ** ** ** ** ** ** ** ** *   75   69 1018.5 ***** 1004.0  81 *** ***** ***** ***** ***** **
852100 ***** 201505121500 ***   0 ***  69 OVC * * * 18.8 ** ** ** ** ** ** ** ** *   73   65 1022.0 ***** 1007.0 *** *** ***** ***** ***** ***** **
852100 ***** 201505122100 ***   0 ***  17 BKN * * * 18.8 ** ** ** ** ** ** ** ** *   77   69 1018.3 ***** 1003.3  81 *** ***** ***** ***** ***** **
852100 ***** 201505131500 ***   0 *** *** SCT * * * 18.8 ** ** ** ** ** ** ** ** *   83   73 1021.7 ***** 1006.9 *** *** ***** ***** ***** ***** **
852100 ***** 201505132100 ***   0 ***  69 BKN * * * 18.8 ** ** ** ** ** ** ** ** *   81   73 1018.6 ***** 1003.0  88 *** ***** ***** ***** ***** **
852100 ***** 201505141500 ***   0 *** 197 OVC * * * 18.8 ** ** ** ** ** ** ** ** *   80   74 1020.2 ***** 1005.7 *** *** ***** ***** ***** ***** **
852100 ***** 201505142100 ***   0 *** 197 BKN * * * 18.8 ** ** ** ** ** ** ** ** *   79   75 1017.7 ***** 1002.5  88 *** ***** ***** ***** ***** **
852100 ***** 201505151500 ***   0 *** 197 BKN * * * 18.8 ** ** ** ** ** ** ** ** *   80   74 1019.1 ***** 1004.7 *** *** ***** ***** ***** ***** **
852100 ***** 201505152100 ***   0 ***  69 OVC * * * 18.8 ** ** ** ** ** ** ** ** *   81   77 1017.6 ***** 1002.0  86 *** ***** ***** ***** ***** **
852100 ***** 201505161500 ***   0 *** 197 OVC * * * 18.8 ** ** ** ** ** ** ** ** *   82   75 1022.6 ***** 1007.4 *** *** ***** ***** ***** ***** **
852100 ***** 201505162100 ***   0 *** 197 OVC * * * 18.8 ** ** ** ** ** ** ** ** *   81   76 1019.8 ***** 1004.3  86 *** ***** ***** ***** ***** **
852100 ***** 201505172100 ***   0 ***  69 BKN * * * 18.8 ** ** ** ** ** ** ** ** *   82   75 1018.8 ***** 1003.4  90 *** ***** ***** ***** ***** **
852100 ***** 201505181500 ***   0 *** 197 BKN * * * 18.8 ** ** ** ** ** ** ** ** *   88   77 1021.6 ***** 1006.7 *** *** ***** ***** ***** ***** **
852100 ***** 201505182100 ***   0 *** *** SCT * * * 18.8 ** ** ** ** ** ** ** ** *   88   76 1017.9 ***** 1002.5  93 *** ***** ***** ***** ***** **
852100 ***** 201505191500 ***   0 ***  69 BKN * * * 18.8 ** ** ** ** ** ** ** ** *   76   73 1022.5 ***** 1007.4 *** *** ***** ***** ***** ***** **
852100 ***** 201505192100 ***   0 *** *** *** * * * 18.8 ** ** ** ** ** ** ** ** *   82   74 1018.9 ***** 1004.0  85 *** ***** ***** ***** ***** **
852100 ***** 201505201500 ***   0 ***  17 BKN * * * 18.8 ** ** ** ** ** ** ** ** *   82   75 1010.5 ***** 1006.0 *** *** ***** ***** ***** ***** **
852100 ***** 201505202100 ***   0 *** *** *** * * * 18.8 ** ** ** ** ** ** ** ** *   86   75 1016.9 ***** 1002.0  92 *** ***** ***** ***** ***** **
852100 ***** 201505211500 ***   0 *** *** *** * * * 18.8 ** ** ** ** ** ** ** ** *   87   75 1020.3 ***** 1005.6 *** *** ***** ***** ***** ***** **
852100 ***** 201505212100 ***   0 *** 197 BKN * * * 18.8 ** ** ** ** ** ** ** ** *   84   77 1016.5 ***** 1001.6  90 *** ***** ***** ***** ***** **
852100 ***** 201505221500 360   7 *** *** *** * * * 18.8 ** ** ** ** ** ** ** ** *   87   75 1020.0 ***** 1005.8 *** *** ***** ***** ***** ***** **
852100 ***** 201505222100 360   9 ***  27 BKN * * * 18.8 ** ** ** ** ** ** ** ** *   82   78 1017.1 ***** 1002.8  92 *** ***** ***** ***** ***** **
852100 ***** 201505231500 ***   0 *** *** *** * * * 18.8 ** ** ** ** ** ** ** ** *   86   76 1020.0 ***** 1005.3 *** *** ***** ***** ***** ***** **
852100 ***** 201505231800 360   9 *** *** SCT * * * 18.8 ** ** ** ** ** ** ** ** *   89   77 1016.7 ***** 1002.0 *** *** ***** ***** ***** ***** **
852100 ***** 201505232100 360   9 ***  17 BKN * * * 18.8 ** ** ** ** ** ** ** ** *   84   77 1016.3 ***** 1001.4  91 *** ***** ***** ***** ***** **
852100 ***** 201505241500 ***   0 *** *** *** * * * 18.8 ** ** ** ** ** ** ** ** *   85   75 1018.9 ***** 1004.3 *** *** ***** ***** ***** ***** **
852100 ***** 201505242100 360   7 ***  27 BKN * * * 18.8 ** ** ** ** ** ** ** ** *   81   76 1015.5 ***** 1001.0  91 *** ***** ***** ***** ***** **
852100 ***** 201505251500 ***   0 *** *** *** * * * 18.8 ** ** ** ** ** ** ** ** *   89   76 1019.9 ***** 1005.6 *** *** ***** ***** ***** ***** **
852100 ***** 201505252100 ***   0 *** *** *** * * * 18.8 ** ** ** ** ** ** ** ** *   88   79 ****** ***** 1000.1 *** *** ***** ***** ***** ***** **
852100 ***** 201505261500 360   7 *** *** *** * * * 18.8 ** ** ** ** ** ** ** ** *   88   77 1019.7 ***** 1005.0 *** *** ***** ***** ***** ***** **
852100 ***** 201505262100 ***   0 *** *** *** * * * 18.8 ** ** ** ** ** ** ** ** *   89   77 1015.2 ***** 1000.5  93 *** ***** ***** ***** ***** **
852100 ***** 201505271500 ***   0 ***  69 BKN * * * 18.8 ** ** ** ** ** ** ** ** *   88   78 1019.5 ***** 1005.0 *** *** ***** ***** ***** ***** **
852100 ***** 201505282100 ***   0 ***  15 OVC * * * 18.8 ** ** ** ** ** ** ** ** *   73   68 1019.3 ***** 1005.0  76 *** ***** ***** ***** ***** **
852100 ***** 201505291500 ***   0 *** *** SCT * * * 18.8 ** ** ** ** ** ** ** ** *   78   69 1019.0 ***** 1004.7 *** *** ***** ***** ***** ***** **
852100 ***** 201505292100 ***   0 *** *** *** * * * 18.8 ** ** ** ** ** ** ** ** *   82   73 1013.6 *****  999.8  86 *** ***** ***** ***** ***** **
852100 ***** 201505301500 ***   0 *** *** SCT * * * 18.8 ** ** ** ** ** ** ** ** *   80   74 1019.5 ***** 1004.0 *** *** ***** ***** ***** ***** **
852100 ***** 201505302100 ***   0 *** *** SCT * * * 18.8 ** ** ** ** ** ** ** ** *   83   77 1014.6 *****  999.6  90 *** ***** ***** ***** ***** **
852100 ***** 201505311500 ***   0 ***  17 OVC * * * 18.8 ** ** ** ** ** ** ** ** *   81   76 1020.5 ***** 1006.0 *** *** ***** ***** ***** ***** **
852100 ***** 201505312100 ***   0 ***  69 BKN * * * 18.8 ** ** ** ** ** ** ** ** *   81   76 1017.6 ***** 1002.0  86 *** ***** ***** ***** ***** **
852100 ***** 201506011200 ***   0 ***   8 *** * * *  6.2 ** ** ** ** ** ** ** ** *   72   70 ****** 30.21 ****** *** *** ***** ***** ***** ***** **
852100 ***** 201506011500 ***   0 ***  10 OVC * * * 18.8 ** ** ** ** ** ** ** ** *   75   72 1022.3 ***** 1006.2 *** *** ***** ***** ***** ***** **
852100 ***** 201506012100 ***   0 ***  15 BKN * * * 18.8 ** ** ** ** ** ** ** ** *   76   72 1019.6 ***** 1003.5  82 *** ***** ***** ***** ***** **
852100 ***** 201506021500 ***   0 ***  12 OVC * * * 18.8 ** ** ** ** ** ** ** ** *   75   73 1021.5 ***** 1006.0 *** *** ***** ***** ***** ***** **
852100 ***** 201506022100 ***   0 *** *** *** * * * 18.8 ** ** ** ** ** ** ** ** *   79   75 1017.6 ***** 1002.0  82 *** ***** ***** ***** ***** **
852100 ***** 201506031500 ***   0 *** *** SCT * * * 18.8 ** ** ** ** ** ** ** ** *   82   75 1020.5 ***** 1005.0 *** *** ***** ***** ***** ***** **
852100 ***** 201506032100 ***   0 *** *** SCT * * * 18.8 ** ** ** ** ** ** ** ** *   82   75 1016.6 ***** 1001.0  91 *** ***** ***** ***** ***** **
852100 ***** 201506041500 ***   0 *** *** *** * * * 18.8 ** ** ** ** ** ** ** ** *   90   78 1022.6 ***** 1005.6 *** *** ***** ***** ***** ***** **
852100 ***** 201506042100 ***   0 *** 197 OVC * * * 18.8 ** ** ** ** ** ** ** ** *   82   71 1018.6 ***** 1002.0  97 *** ***** ***** ***** ***** **
852100 ***** 201506051500 ***   0 *** *** *** * * * 18.8 ** ** ** ** ** ** ** ** *   88   76 1021.6 ***** 1005.0 *** *** ***** ***** ***** ***** **
852100 ***** 201506052100 ***   0 *** *** *** * * * 18.8 ** ** ** ** ** ** ** ** *   88   77 1017.6 ***** 1001.0  95 *** ***** ***** ***** ***** **
852100 ***** 201506061500 ***   0 *** *** *** * * * 18.8 ** ** ** ** ** ** ** ** *   86   73 1019.6 ***** 1002.4 *** *** ***** ***** ***** ***** **
852100 ***** 201506062100 ***   0 *** *** *** * * * 18.8 ** ** ** ** ** ** ** ** *   86   74 1015.6 *****  998.6  91 *** ***** ***** ***** ***** **
852100 ***** 201506071500 ***   0 *** *** *** * * * 18.8 ** ** ** ** ** ** ** ** *   88   71 1019.6 ***** 1003.0 *** *** ***** ***** ***** ***** **
852100 ***** 201506072100 ***   0 *** *** *** * * * 18.8 ** ** ** ** ** ** ** ** *   88   76 1017.0 ***** 1000.0  93 *** ***** ***** ***** ***** **
852100 ***** 201506081500 ***   0 *** *** *** * * * 18.8 ** ** ** ** ** ** ** ** *   87   74 1019.5 ***** 1003.0 *** *** ***** ***** ***** ***** **
852100 ***** 201506082100 ***   0 *** *** SCT * * * 18.8 ** ** ** ** ** ** ** ** *   88   76 1016.6 *****  999.0  93 *** ***** ***** ***** ***** **
852100 ***** 201506091200 ***   0 *** *** *** * * * 18.8 ** ** ** ** ** ** ** ** *   89   74 ****** ***** ****** *** *** ***** ***** ***** ***** **
852100 ***** 201506091500 ***   0 *** *** *** * * * 18.8 ** ** ** ** ** ** ** ** *   86   71 1018.6 ***** 1001.4 *** *** ***** ***** ***** ***** **
852100 ***** 201506101500 ***   0 *** *** *** * * * 18.8 ** ** ** ** ** ** ** ** *   85   73 1019.9 ***** 1003.0 *** *** ***** ***** ***** ***** **
852100 ***** 201506102100 ***   0 *** *** *** * * * 18.8 ** ** ** ** ** ** ** ** *   89   77 1016.0 *****  998.6  93 *** ***** ***** ***** ***** **
852100 ***** 201506111500 ***   0 *** *** *** * * * 18.8 ** ** ** ** ** ** ** ** *   88   73 1019.9 ***** 1003.0 *** *** ***** ***** ***** ***** **
852100 ***** 201506112100 ***   0 *** *** *** * * * 18.8 ** ** ** ** ** ** ** ** *   91   75 1017.0 *****  999.8  95 *** ***** ***** ***** ***** **
852100 ***** 201506121500 ***   0 *** *** *** * * * 18.8 ** ** ** ** ** ** ** ** *   88   73 1020.3 ***** 1003.6 *** *** ***** ***** ***** ***** **
852100 ***** 201506122100 ***   0 *** *** SCT * * * 18.8 ** ** ** ** ** ** ** ** *   86   74 1015.8 *****  999.0  91 *** ***** ***** ***** ***** **
852100 ***** 201506131500 ***   0 *** *** *** * * * 18.8 ** ** ** ** ** ** ** ** *   88   74 1018.6 ***** 1001.4 *** *** ***** ***** ***** ***** **
852100 ***** 201506132100 ***   0 *** *** *** * * * 18.8 ** ** ** ** ** ** ** ** *   88   73 1013.0 *****  996.0  93 *** ***** ***** ***** ***** **
852100 ***** 201506141500 360   9 *** *** *** * * * 18.8 ** ** ** ** ** ** ** ** *   88   73 1017.6 ***** 1000.6 *** *** ***** ***** ***** ***** **
852100 ***** 201506142100 ***   0 *** *** *** * * * 18.8 ** ** ** ** ** ** ** ** *   88   70 1013.6 *****  996.7  95 *** ***** ***** ***** ***** **
852100 ***** 201506151500 180   7 ***  15 OVC * * * 18.8 ** ** ** ** ** ** ** ** *   75   67 1023.5 ***** 1006.0 *** *** ***** ***** ***** ***** **
852100 ***** 201506152100 180   7 ***  15 OVC * * * 18.8 ** ** ** ** ** ** ** ** *   70   64 1021.5 ***** 1004.0  75 *** ***** ***** ***** ***** **
852100 ***** 201506161500 ***   0 ***  15 OVC * * * 18.8 ** ** ** ** ** ** ** ** *   70   64 1022.5 ***** 1005.0 *** *** ***** ***** ***** ***** **
852100 ***** 201506162100 ***   0 *** *** *** * * * 18.8 ** ** ** ** ** ** ** ** *   79   69 1017.5 ***** 1000.0  82 *** ***** ***** ***** ***** **
852100 ***** 201506171500 ***   0 *** *** *** * * * 18.8 ** ** ** ** ** ** ** ** *   83   72 1020.3 ***** 1002.8 *** *** ***** ***** ***** ***** **
852100 ***** 201506172100 ***   0 *** *** *** * * * 18.8 ** ** ** ** ** ** ** ** *   91   76 1015.6 *****  997.8  93 *** ***** ***** ***** ***** **
852100 ***** 201506181500 180  11 ***  12 OVC * * * 18.8 ** ** ** ** ** ** ** ** *   74   66 1024.6 ***** 1006.7 *** *** ***** ***** ***** ***** **
852100 ***** 201506182100 180   6 ***  69 BKN * * * 18.8 ** ** ** ** ** ** ** ** *   73   64 1023.5 ***** 1005.0  79 *** ***** ***** ***** ***** **
852100 ***** 201506191200 180   9 ***  12 OVC * * * 18.8 ** ** ** ** ** ** ** ** *   58   57 1028.5 ***** 1010.0 ***  57 ***** ***** ***** ***** **
852100 ***** 201506191500 180   7 ***  12 OVC * * * 18.8 ** ** ** ** ** ** ** ** *   63   57 1029.0 ***** 1011.0 *** *** ***** ***** ***** ***** **
852100 ***** 201506191800 180   6 ***  12 *** * * *  6.2 ** ** ** ** ** ** ** ** *   64   57 ****** 30.36 ****** *** *** ***** ***** ***** ***** **
852100 ***** 201506192100 180   7 ***  15 OVC * * * 18.8 ** ** ** ** ** ** ** ** *   64   57 1025.0 ***** 1006.6  66 *** ***** ***** ***** ***** **
852100 ***** 201506201500 ***   0 ***  12 OVC * * * 18.8 ** ** ** ** ** ** ** ** *   66   62 1025.5 ***** 1007.0 *** *** ***** ***** ***** ***** **
852100 ***** 201506202100 ***   0 *** *** *** * * * 18.8 ** ** ** ** ** ** ** ** *   73   65 1021.6 ***** 1003.0  75 *** ***** ***** ***** ***** **
852100 ***** 201506211500 ***   0 *** *** *** * * * 18.8 ** ** ** ** ** ** ** ** *   78   69 1025.0 ***** 1006.6 *** *** ***** ***** ***** ***** **
852100 ***** 201506212100 ***   0 *** *** *** * * * 18.8 ** ** ** ** ** ** ** ** *   86   71 1020.6 ***** 1002.0  91 *** ***** ***** ***** ***** **
852100 ***** 201506221500 ***   0 *** *** *** * * * 18.8 ** ** ** ** ** ** ** ** *   84   72 1023.5 ***** 1004.0 *** *** ***** ***** ***** ***** **
852100 ***** 201506222100 ***   0 *** *** SCT * * * 18.8 ** ** ** ** ** ** ** ** *   88   72 1020.0 ***** 1000.0  94 *** ***** ***** ***** ***** **
852100 ***** 201506231500 ***   0 *** *** *** * * * 18.8 ** ** ** ** ** ** ** ** *   86   68 1025.0 ***** 1006.0 *** *** ***** ***** ***** ***** **
852100 ***** 201506232100 ***   0 *** *** *** * * * 18.8 ** ** ** ** ** ** ** ** *   86   70 1022.0 ***** 1001.8  95 *** ***** ***** ***** ***** **
852100 ***** 201506241500 180   6 *** *** SCT * * * 18.8 ** ** ** ** ** ** ** ** *   82   70 1025.5 ***** 1006.0 *** *** ***** ***** ***** ***** **
852100 ***** 201506242100 ***   0 *** 197 BKN * * * 18.8 ** ** ** ** ** ** ** ** *   82   69 1022.0 ***** 1001.6  93 *** ***** ***** ***** ***** **
852100 ***** 201506251500 ***   0 *** *** *** * * * 18.8 ** ** ** ** ** ** ** ** *   81   68 1025.0 ***** 1005.5 *** *** ***** ***** ***** ***** **
852100 ***** 201506252100 ***   0 *** *** *** * * * 18.8 ** ** ** ** ** ** ** ** *   86   68 1020.5 ***** 1001.0  94 *** ***** ***** ***** ***** **
852100 ***** 201506252100 ***   0 *** 722 CLR * * *  6.2 ** ** ** ** ** ** ** ** *   86   68 ****** 30.18 ****** *** *** ***** ***** ***** ***** **
852100 ***** 201506261500 ***   0 *** *** *** * * * 18.8 ** ** ** ** ** ** ** ** *   83   69 1025.5 ***** 1006.2 *** *** ***** ***** ***** ***** **
852100 ***** 201506262100 ***   0 *** *** SCT * * * 18.8 ** ** ** ** ** ** ** ** *   86   74 1022.5 ***** 1002.0  93 *** ***** ***** ***** ***** **
852100 ***** 201506271500 ***   0 *** *** SCT * * * 18.8 ** ** ** ** ** ** ** ** *   86   71 1024.5 ***** 1004.5 *** *** ***** ***** ***** ***** **
852100 ***** 201506272200 ***   0 *** *** *** * * * 18.8 ** ** ** ** ** ** ** ** *   86   67 1019.6 *****  999.8  95 *** ***** ***** ***** ***** **
852100 ***** 201506281500 360   9 *** *** *** * * * 18.8 ** ** ** ** ** ** ** ** *   88   70 1021.5 ***** 1002.0 *** *** ***** ***** ***** ***** **
852100 ***** 201506282100 ***   0 *** *** *** * * * 18.8 ** ** ** ** ** ** ** ** *   88   70 1017.6 *****  997.0  93 *** ***** ***** ***** ***** **
852100 ***** 201506291500 360   9 *** *** *** * * * 18.8 ** ** ** ** ** ** ** ** *   84   65 1019.5 *****  999.4 *** *** ***** ***** ***** ***** **
852100 ***** 201506292100 ***   0 *** 197 OVC * * * 18.8 ** ** ** ** ** ** ** ** *   86   68 1015.0 *****  994.4  92 *** ***** ***** ***** ***** **
852100 ***** 201506302100 ***   0 *** *** *** * * * 18.8 ** ** ** ** ** ** ** ** *   91   69 1016.6 *****  995.5  97 *** ***** ***** ***** ***** **
852100 ***** 201507011500 ***   0 *** 197 BKN * * * 18.8 ** ** ** ** ** ** ** ** *   86   70 1021.0 ***** 1001.0 *** *** ***** ***** ***** ***** **
852100 ***** 201507012100 ***   0 ***  20 BKN * * * 18.8 ** ** ** ** ** ** ** ** *   85   73 1017.0 *****  996.2  95 *** ***** ***** ***** ***** **
852100 ***** 201507021500 ***   0 *** *** SCT * * * 18.8 ** ** ** ** ** ** ** ** *   86   74 1019.5 *****  999.0 *** *** ***** ***** ***** ***** **
852100 ***** 201507022100 ***   0 *** 197 OVC * * * 18.8 ** ** ** ** ** ** ** ** *   86   68 1013.6 *****  993.0  95 *** ***** ***** ***** ***** **
852100 ***** 201507031500 360  11 *** 197 BKN * * * 18.8 ** ** ** ** ** ** ** ** *   86   68 1018.5 *****  998.0 *** *** ***** ***** ***** ***** **
852100 ***** 201507032100 ***   0 *** 197 OVC * * * 18.8 ** ** ** ** ** ** ** ** *   86   67 1015.0 *****  994.0  97 *** ***** ***** ***** ***** **
852100 ***** 201507041500 180  14 ***  15 OVC * * * 18.8 ** ** ** ** ** ** ** ** *   68   55 1026.6 ***** 1005.5 *** *** ***** ***** ***** ***** **
852100 ***** 201507042100 180  14 *** 197 OVC * * * 18.8 ** ** ** ** ** ** ** ** *   64   56 1024.0 ***** 1002.6  72 *** ***** ***** ***** ***** **
852100 ***** 201507051500 ***   0 ***  12 OVC * * * 18.8 ** ** ** ** ** ** ** ** *   63   57 1023.0 ***** 1002.2 *** *** ***** ***** ***** ***** **
852100 ***** 201507052100 ***   0 ***  69 OVC * * * 18.8 ** ** ** ** ** ** ** ** *   68   61 1019.6 *****  998.8  72 *** ***** ***** ***** ***** **
852100 ***** 201507061500 ***   0 ***  12 OVC * * * 18.8 ** ** ** ** ** ** ** ** *   64   63 1019.5 *****  998.6 *** *** ***** ***** ***** ***** **
852100 ***** 201507062100 ***   0 ***  69 OVC * * * 18.8 ** ** ** ** ** ** ** ** *   70   67 1018.5 *****  997.0  73 *** ***** ***** ***** ***** **
852100 ***** 201507071500 ***   0 ***  69 OVC * * * 18.8 ** ** ** ** ** ** ** ** *   72   70 1020.5 *****  999.0 *** *** ***** ***** ***** ***** **
852100 ***** 201507072100 ***   0 ***  69 OVC * * * 18.8 ** ** ** ** ** ** ** ** *   75   69 1019.5 *****  998.0  79 *** ***** ***** ***** ***** **
852100 ***** 201507081500 ***   0 *** *** SCT * * * 18.8 ** ** ** ** ** ** ** ** *   72   60 1023.5 ***** 1002.0 *** *** ***** ***** ***** ***** **
852100 ***** 201507082100 ***   0 *** *** SCT * * * 18.8 ** ** ** ** ** ** ** ** *   76   64 1019.5 *****  998.0  79 *** ***** ***** ***** ***** **
852100 ***** 201507091500 360  11 *** *** *** * * * 18.8 ** ** ** ** ** ** ** ** *   80   68 1021.5 ***** 1000.0 *** *** ***** ***** ***** ***** **
852100 ***** 201507092100 ***   0 *** *** *** * * * 18.8 ** ** ** ** ** ** ** ** *   88   70 1016.6 *****  995.0  91 *** ***** ***** ***** ***** **
852100 ***** 201507101500 ***   0 *** *** *** * * * 18.8 ** ** ** ** ** ** ** ** *   88   75 1020.5 *****  998.2 *** *** ***** ***** ***** ***** **
852100 ***** 201507102100 ***   0 *** *** SCT * * * 18.8 ** ** ** ** ** ** ** ** *   88   73 1016.0 *****  993.4  93 *** ***** ***** ***** ***** **
852100 ***** 201507111500 ***   0 *** *** *** * * * 18.8 ** ** ** ** ** ** ** ** *   88   73 1020.5 *****  998.8 *** *** ***** ***** ***** ***** **
852100 ***** 201507112100 ***   0 *** *** SCT * * * 18.8 ** ** ** ** ** ** ** ** *   89   76 1015.8 *****  993.5  97 *** ***** ***** ***** ***** **
852100 ***** 201507121500 360   9 *** *** *** * * * 18.8 ** ** ** ** ** ** ** ** *   88   70 1018.7 *****  996.6 *** *** ***** ***** ***** ***** **
852100 ***** 201507122100 360   7 *** *** SCT * * * 18.8 ** ** ** ** ** ** ** ** *   91   69 1012.6 *****  991.0  97 *** ***** ***** ***** ***** **
852100 ***** 201507131500 360   9 *** 197 BKN * * * 18.8 ** ** ** ** ** ** ** ** *   90   73 1016.7 *****  995.0 *** *** ***** ***** ***** ***** **
852100 ***** 201507132100 ***   0 *** 197 OVC * * * 18.8 ** ** ** ** ** ** ** ** *   91   70 1012.5 *****  990.0  97 *** ***** ***** ***** ***** **
852100 ***** 201507141500 ***   0 *** 197 OVC * * * 18.8 ** ** ** ** ** ** ** ** *   86   73 1019.5 *****  996.5 *** *** ***** ***** ***** ***** **
852100 ***** 201507142100 ***   0 ***  20 OVC * * * 18.8 ** ** ** ** ** ** ** ** *   86   74 1015.5 *****  992.4  95 *** ***** ***** ***** ***** **
852100 ***** 201507151500 180  11 ***  15 OVC * * * 18.8 ** ** ** ** ** ** ** ** *   70   66 1024.5 ***** 1002.0 *** *** ***** ***** ***** ***** **
852100 ***** 201507152100 180   9 ***  69 OVC * * * 18.8 ** ** ** ** ** ** ** ** *   70   63 1022.5 ***** 1001.0  72 *** ***** ***** ***** ***** **
852100 ***** 201507161500 ***   0 ***  10 OVC * * * 18.8 02 ** ** ** ** ** ** ** 5   66   65 1024.5 ***** 1003.0 *** *** ***** ***** ***** ***** **
852100 ***** 201507162100 ***   0 ***  69 BKN * * * 18.8 ** ** ** ** ** ** ** ** *   76   69 1019.7 *****  998.0  81 *** ***** ***** ***** ***** **
852100 ***** 201507171500 *** *** *** *** *** * * * **** ** ** ** ** ** ** ** ** * **** **** ****** ***** ****** *** *** ***** ***** ***** ***** **
852100 ***** 201507172100 ***   0 *** *** SCT * * * 18.8 ** ** ** ** ** ** ** ** *   82   70 1021.4 *****  999.2  86 *** ***** ***** ***** ***** **
852100 ***** 201507181500 ***   0 ***  15 BKN * * * 18.8 ** ** ** ** ** ** ** ** *   78   71 1022.5 ***** 1000.0 *** *** ***** ***** ***** ***** **
852100 ***** 201507182100 ***   0 *** *** *** * * * 18.8 ** ** ** ** ** ** ** ** *   86   70 1018.0 *****  995.5  90 *** ***** ***** ***** ***** **
852100 ***** 201507191500 360   7 *** *** *** * * * 18.8 ** ** ** ** ** ** ** ** *   86   65 1020.5 *****  998.8 *** *** ***** ***** ***** ***** **
852100 ***** 201507192100 ***   0 *** *** *** * * * 18.8 ** ** ** ** ** ** ** ** *   87   64 1016.0 *****  993.5  93 *** ***** ***** ***** ***** **
852100 ***** 201507201500 ***   0 *** *** *** * * * 18.8 ** ** ** ** ** ** ** ** *   86   67 1020.5 *****  998.8 *** *** ***** ***** ***** ***** **
852100 ***** 201507202100 ***   0 *** *** SCT * * * 18.8 ** ** ** ** ** ** ** ** *   88   64 1017.5 *****  995.0  95 *** ***** ***** ***** ***** **
852100 ***** 201507202200 ***   0 *** *** *** * * *  6.2 ** ** ** ** ** ** ** ** *   79   72 ****** 30.12 ****** *** *** ***** ***** ***** ***** **
852100 ***** 201507211500 180  11 ***  15 OVC * * * 18.8 ** ** ** ** ** ** ** ** *   69   59 1026.5 ***** 1004.5 *** *** ***** ***** ***** ***** **
852100 ***** 201507212100 180   5 ***  12 OVC * * * 18.8 ** ** ** ** ** ** ** ** *   65   58 1023.5 ***** 1001.8  70 *** ***** ***** ***** ***** **
852100 ***** 201507221500 ***   0 ***  15 OVC * * * 18.8 ** ** ** ** ** ** ** ** *   70   62 1025.5 ***** 1003.6 *** *** ***** ***** ***** ***** **
852100 ***** 201507231500 ***   0 ***  69 BKN * * * 18.8 ** ** ** ** ** ** ** ** *   79   67 1023.8 ***** 1002.3 *** *** ***** ***** ***** ***** **
852100 ***** 201507232100 ***   0 ***  69 BKN * * * 18.8 ** ** ** ** ** ** ** ** *   84   71 1020.0 *****  997.9  90 *** ***** ***** ***** ***** **
852100 ***** 201507241500 180   7 *** *** SCT * * * 18.8 ** ** ** ** ** ** ** ** *   76   62 1025.0 ***** 1003.5 *** *** ***** ***** ***** ***** **
852100 ***** 201507242100 180   6 *** *** *** * * * 18.8 ** ** ** ** ** ** ** ** *   79   64 1021.5 *****  999.5  86 *** ***** ***** ***** ***** **
852100 ***** 201507251500 ***   0 *** *** *** * * * 18.8 ** ** ** ** ** ** ** ** *   77   62 1024.5 ***** 1002.8 *** *** ***** ***** ***** ***** **
852100 ***** 201507252100 ***   0 *** *** *** * * * 18.8 ** ** ** ** ** ** ** ** *   83   67 1019.5 *****  997.8  86 *** ***** ***** ***** ***** **
852100 ***** 201507261500 ***   0 *** *** *** * * * 18.8 ** ** ** ** ** ** ** ** *   82   67 1022.2 ***** 1000.5 *** *** ***** ***** ***** ***** **
852100 ***** 201507262100 ***   0 *** *** SCT * * * 18.8 ** ** ** ** ** ** ** ** *   89   67 1017.6 *****  995.8  91 *** ***** ***** ***** ***** **
852100 ***** 201507271500 ***   0 *** *** *** * * * 18.8 ** ** ** ** ** ** ** ** *   86   70 1019.6 *****  998.0 *** *** ***** ***** ***** ***** **
852100 ***** 201507272100 360   7 *** *** *** * * * 18.8 ** ** ** ** ** ** ** ** *   91   63 1015.6 *****  993.0  95 *** ***** ***** ***** ***** **
852100 ***** 201507281500 360   6 *** *** *** * * * 18.8 ** ** ** ** ** ** ** ** *   89   67 1019.5 *****  997.0 *** *** ***** ***** ***** ***** **
852100 ***** 201507281700 360   9 *** 722 CLR * * *  6.2 ** ** ** ** ** ** ** ** *   95   63 ****** 30.09 ****** *** *** ***** ***** ***** ***** **
852100 ***** 201507282100 ***   0 *** *** *** * * * 18.8 ** ** ** ** ** ** ** ** *   92   69 1015.5 *****  993.2  97 *** ***** ***** ***** ***** **
852100 ***** 201507291500 ***   0 *** *** *** * * * 18.8 ** ** ** ** ** ** ** ** *   89   63 1021.6 *****  999.0 *** *** ***** ***** ***** ***** **
852100 ***** 201507292100 ***   0 *** *** *** * * * 18.8 ** ** ** ** ** ** ** ** *   94   63 1018.7 *****  995.0  99 *** ***** ***** ***** ***** **
852100 ***** 201507301500 ***   0 *** *** SCT * * * 18.8 ** ** ** ** ** ** ** ** *   88   69 1021.0 *****  999.0 *** *** ***** ***** ***** ***** **
852100 ***** 201507302100 ***   0 *** *** *** * * * 18.8 ** ** ** ** ** ** ** ** *   94   64 1016.6 *****  993.9  99 *** ***** ***** ***** ***** **
852100 ***** 201507311500 360  14 *** *** *** * * * 18.8 ** ** ** ** ** ** ** ** *   91   63 1019.6 *****  997.5 *** *** ***** ***** ***** ***** **
852100 ***** 201507312100 ***   0 *** *** *** * * * 18.8 ** ** ** ** ** ** ** ** *   93   62 1014.5 *****  992.2  99 *** ***** ***** ***** ***** **
852100 ***** 201508011500 360   6 *** *** *** * * * 18.8 ** ** ** ** ** ** ** ** *   91   63 1020.5 *****  998.8 *** *** ***** ***** ***** ***** **
852100 ***** 201508012100 360   6 *** *** *** * * * 18.8 ** ** ** ** ** ** ** ** *   93   61 1015.5 *****  993.2  97 *** ***** ***** ***** ***** **
852100 ***** 201508021500 360   9 *** *** *** * * * 18.8 ** ** ** ** ** ** ** ** *   89   59 1018.0 *****  996.5 *** *** ***** ***** ***** ***** **
852100 ***** 201508022100 ***   0 *** *** *** * * * 18.8 ** ** ** ** ** ** ** ** *   93   58 1013.6 *****  991.4  97 *** ***** ***** ***** ***** **
852100 ***** 201508031500 360   6 *** *** *** * * * 18.8 ** ** ** ** ** ** ** ** *   91   61 1019.7 *****  998.0 *** *** ***** ***** ***** ***** **
852100 ***** 201508032100 ***   0 *** *** *** * * * 18.8 ** ** ** ** ** ** ** ** *   92   61 1015.7 *****  993.0  97 *** ***** ***** ***** ***** **
852100 ***** 201508041500 360   6 *** *** *** * * * 18.8 ** ** ** ** ** ** ** ** *   91   62 1020.5 *****  998.4 *** *** ***** ***** ***** ***** **
852100 ***** 201508042100 ***   0 *** *** *** * * * 18.8 ** ** ** ** ** ** ** ** *   95   63 1015.3 *****  993.0  99 *** ***** ***** ***** ***** **
852100 ***** 201508051500 360  14 *** *** *** * * * 18.8 ** ** ** ** ** ** ** ** *   91   65 1018.5 *****  996.5 *** *** ***** ***** ***** ***** **
852100 ***** 201508052100 ***   0 *** *** *** * * * 18.8 ** ** ** ** ** ** ** ** *   95   67 1013.6 *****  991.0 100 *** ***** ***** ***** ***** **
852100 ***** 201508061500 360  14 *** *** *** * * * 18.8 ** ** ** ** ** ** ** ** *   91   63 1016.6 *****  995.0 *** *** ***** ***** ***** ***** **
852100 ***** 201508062100 360   9 *** *** SCT * * * 18.8 ** ** ** ** ** ** ** ** *   96   64 1010.3 *****  988.8 100 *** ***** ***** ***** ***** **
852100 ***** 201508071500 360  14 *** *** *** * * * 18.8 ** ** ** ** ** ** ** ** *   91   64 1015.7 *****  994.0 *** *** ***** ***** ***** ***** **
852100 ***** 201508072100 360   6 *** *** *** * * * 18.8 ** ** ** ** ** ** ** ** *   95   64 1011.6 *****  989.5 100 *** ***** ***** ***** ***** **
852100 ***** 201508081500 360   7 *** *** *** * * * 18.8 ** ** ** ** ** ** ** ** *   94   68 1017.5 *****  995.0 *** *** ***** ***** ***** ***** **
852100 ***** 201508082100 360   6 *** *** SCT * * * 18.8 ** ** ** ** ** ** ** ** *   95   69 1012.0 *****  990.2 100 *** ***** ***** ***** ***** **
852100 ***** 201508091500 360   6 *** *** *** * * * 18.8 ** ** ** ** ** ** ** ** *   94   60 1016.8 *****  994.6 *** *** ***** ***** ***** ***** **
852100 ***** 201508092100 ***   0 *** *** *** * * * 18.8 ** ** ** ** ** ** ** ** *   95   62 1011.6 *****  989.7 102 *** ***** ***** ***** ***** **
852100 ***** 201508101500 360   7 *** *** *** * * * 18.8 ** ** ** ** ** ** ** ** *   92   62 1019.5 *****  997.5 *** *** ***** ***** ***** ***** **
852100 ***** 201508102100 ***   0 *** *** SCT * * * 18.8 ** ** ** ** ** ** ** ** *   93   68 1015.0 *****  992.5 100 *** ***** ***** ***** ***** **
852100 ***** 201508111500 360   6 *** *** *** * * * 18.8 ** ** ** ** ** ** ** ** *   91   66 1020.6 *****  998.0 *** *** ***** ***** ***** ***** **
852100 ***** 201508111600 360   9 *** 722 CLR * * *  6.2 ** ** ** ** ** ** ** ** *   95   64 ****** 30.15 ****** *** *** ***** ***** ***** ***** **
852100 ***** 201508112100 ***   0 *** *** *** * * * 18.8 ** ** ** ** ** ** ** ** *   94   64 1015.6 *****  993.0  99 *** ***** ***** ***** ***** **
852100 ***** 201508121500 360   9 *** *** *** * * * 18.8 ** ** ** ** ** ** ** ** *   94   63 1020.5 *****  998.0 *** *** ***** ***** ***** ***** **
852100 ***** 201508122100 360   7 *** *** *** * * * 18.8 ** ** ** ** ** ** ** ** *   93   57 1016.6 *****  994.0  99 *** ***** ***** ***** ***** **
852100 ***** 201508131400 ***   0 *** 722 CLR * * *  6.2 ** ** ** ** ** ** ** ** *   88   63 ****** 30.21 ****** *** *** ***** ***** ***** ***** **
852100 ***** 201508131500 ***   0 *** *** *** * * * 18.8 ** ** ** ** ** ** ** ** *   93   62 1021.0 *****  999.0 *** *** ***** ***** ***** ***** **
852100 ***** 201508131600 360   6 *** 722 CLR * * *  6.2 ** ** ** ** ** ** ** ** *   97   63 ****** 30.18 ****** *** *** ***** ***** ***** ***** **
852100 ***** 201508132000 ***   0 *** 722 CLR * * *  6.2 ** ** ** ** ** ** ** ** *   97   61 ****** 30.06 ****** *** *** ***** ***** ***** ***** **
852100 ***** 201508132100 ***   0 *** *** *** * * * 18.8 ** ** ** ** ** ** ** ** *   95   62 1016.7 *****  994.0  99 *** ***** ***** ***** ***** **
852100 ***** 201508141500 ***   0 *** *** *** * * * 18.8 ** ** ** ** ** ** ** ** *   91   59 1021.5 *****  999.0 *** *** ***** ***** ***** ***** **
852100 ***** 201508142100 ***   0 *** *** *** * * * 18.8 ** ** ** ** ** ** ** ** *   93   60 1016.0 *****  993.5  99 *** ***** ***** ***** ***** **
852100 ***** 201508151500 ***   0 *** *** *** * * * 18.8 ** ** ** ** ** ** ** ** *   89   57 1020.5 *****  999.2 *** *** ***** ***** ***** ***** **
852100 ***** 201508152100 ***   0 *** *** *** * * * 18.8 ** ** ** ** ** ** ** ** *   94   60 1016.7 *****  994.2  97 *** ***** ***** ***** ***** **
852100 ***** 201508152100 ***   0 *** 722 CLR * * *  6.2 ** ** ** ** ** ** ** ** *   93   59 ****** 30.06 ****** *** *** ***** ***** ***** ***** **
852100 ***** 201508161500 ***   0 *** *** *** * * * 18.8 ** ** ** ** ** ** ** ** *   91   61 1020.0 *****  998.5 *** *** ***** ***** ***** ***** **
852100 ***** 201508172100 ***   0 *** *** SCT * * * 18.8 ** ** ** ** ** ** ** ** *   96   58 1013.7 *****  992.0 100 *** ***** ***** ***** ***** **
852100 ***** 201508181500 ***   0 *** *** *** * * * 18.8 ** ** ** ** ** ** ** ** *   93   67 1019.7 *****  998.0 *** *** ***** ***** ***** ***** **
852100 ***** 201508182100 ***   0 *** *** SCT * * * 18.8 ** ** ** ** ** ** ** ** *   91   69 1015.6 *****  993.8  99 *** ***** ***** ***** ***** **
852100 ***** 201508191500 180   7 *** *** *** * * * 18.8 ** ** ** ** ** ** ** ** *   81   59 1023.3 ***** 1001.0 *** *** ***** ***** ***** ***** **
852100 ***** 201508192100 *** *** *** *** *** * * * 18.8 ** ** ** ** ** ** ** ** *   85   63 1018.5 *****  995.8  90 *** ***** ***** ***** ***** **
852100 ***** 201508201500 170   6 *** 197 BKN * * * 18.8 ** ** ** ** ** ** ** ** *   86   60 1021.6 *****  999.4 *** *** ***** ***** ***** ***** **
852100 ***** 201508202100 ***   0 *** *** *** * * * 18.8 ** ** ** ** ** ** ** ** *   91   64 1015.9 *****  994.0  93 *** ***** ***** ***** ***** **
852100 ***** 201508211500 ***   0 *** *** *** * * * 18.8 ** ** ** ** ** ** ** ** *   91   66 1019.6 *****  998.0 *** *** ***** ***** ***** ***** **
852100 ***** 201508212100 ***   0 *** *** *** * * * 18.8 ** ** ** ** ** ** ** ** *   95   64 1013.6 *****  992.0 100 *** ***** ***** ***** ***** **
852100 ***** 201508221500 360   9 *** *** *** * * * 18.8 ** ** ** ** ** ** ** ** *   95   64 1016.5 *****  995.0 *** *** ***** ***** ***** ***** **
852100 ***** 201508222100 360   7 *** *** *** * * * 18.8 ** ** ** ** ** ** ** ** *   99   62 1010.0 *****  989.0 102 *** ***** ***** ***** ***** **
852100 ***** 201508241500 180  11 *** 197 BKN * * *  5.0 04 ** ** ** ** ** ** ** 2   83   64 1019.0 *****  997.2 *** *** ***** ***** ***** ***** **
852100 ***** 201508242100 ***   0 *** *** *** * * *  5.0 04 ** ** ** ** ** ** ** 0   91   68 1013.6 *****  992.0  95 *** ***** ***** ***** ***** **
852100 ***** 201508251500 ***   0 *** *** *** * * *  5.0 04 ** ** ** ** ** ** ** 0   86   65 1018.6 *****  996.0 *** *** ***** ***** ***** ***** **
852100 ***** 201508252100 ***   0 *** *** *** * * *  5.0 04 ** ** ** ** ** ** ** 0   93   71 1012.0 *****  990.5  97 *** ***** ***** ***** ***** **
852100 ***** 201508261500 360   6 *** *** *** * * *  5.0 04 ** ** ** ** ** ** ** 0   97   68 1015.0 *****  994.0 *** *** ***** ***** ***** ***** **
852100 ***** 201508262100 ***   0 *** *** *** * * *  5.0 04 ** ** ** ** ** ** ** 0  100   66 1010.6 *****  988.7 106 *** ***** ***** ***** ***** **
852100 ***** 201508271500 ***   0 ***  20 OVC * * *  5.0 04 ** ** ** ** ** ** ** 2   90   70 1019.6 *****  998.0 *** *** ***** ***** ***** ***** **
852100 ***** 201508272100 ***   0 ***  17 OVC * * * 18.8 29 ** ** ** ** ** ** ** 9   72   71 1018.5 *****  997.0  97 *** ***** ***** ***** ***** **
852100 ***** 201508281500 ***   0 *** *** *** * * *  5.0 04 ** ** ** ** ** ** ** 0   82   71 1022.0 ***** 1001.0 *** *** ***** ***** ***** ***** **
852100 ***** 201508281900 ***   0 *** *** *** * * *  5.0 ** ** ** ** ** ** ** ** *   91   72 ****** 30.09 ****** *** *** ***** ***** ***** ***** **
852100 ***** 201508282100 ***   0 *** *** *** * * *  5.0 04 ** ** ** ** ** ** ** 0   88   73 1017.6 *****  996.0  91 *** ***** ***** ***** ***** **
852100 ***** 201508291500 ***   0 *** *** *** * * * 18.8 ** ** ** ** ** ** ** ** *   90   70 1020.5 *****  999.2 *** *** ***** ***** ***** ***** **
852100 ***** 201508292100 360   7 *** *** *** * * * 18.8 ** ** ** ** ** ** ** ** *   95   70 1016.0 *****  994.4  99 *** ***** ***** ***** ***** **
852100 ***** 201508301500 ***   0 *** *** *** * * * 18.8 ** ** ** ** ** ** ** ** *   94   71 1020.0 *****  999.0 *** *** ***** ***** ***** ***** **
852100 ***** 201508311500 ***   0 *** *** *** * * * 18.8 ** ** ** ** ** ** ** ** *   97   69 1019.6 *****  997.8 *** *** ***** ***** ***** ***** **
852100 ***** 201508312100 ***   0 *** *** *** * * * 18.8 ** ** ** ** ** ** ** ** *   99   69 1014.5 *****  993.0 106 *** ***** ***** ***** ***** **
852100 ***** 201509011500 360   7 *** *** *** * * * 18.8 ** ** ** ** ** ** ** ** *   99   69 1020.5 *****  998.6 *** *** ***** ***** ***** ***** **
852100 ***** 201509012100 ***   0 *** *** *** * * * 18.8 ** ** ** ** ** ** ** ** *  100   64 1015.6 *****  993.6 106 *** ***** ***** ***** ***** **
852100 ***** 201509021500 ***   0 *** *** *** * * * 18.8 ** ** ** ** ** ** ** ** *   97   66 1017.0 *****  996.7 *** *** ***** ***** ***** ***** **
852100 ***** 201509022100 ***   0 *** *** *** * * * 18.8 ** ** ** ** ** ** ** ** *   99   62 1013.0 *****  991.6 106 *** ***** ***** ***** ***** **
852100 ***** 201509031500 ***   0 *** *** *** * * * 18.8 ** ** ** ** ** ** ** ** *   97   65 1018.0 *****  996.6 *** *** ***** ***** ***** ***** **
852100 ***** 201509032100 ***   0 *** *** *** * * * 18.8 ** ** ** ** ** ** ** ** *   98   63 1012.6 *****  991.3 104 *** ***** ***** ***** ***** **
852100 ***** 201509041500 180   9 *** *** *** * * * 18.8 ** ** ** ** ** ** ** ** *   86   65 1020.5 *****  999.0 *** *** ***** ***** ***** ***** **
852100 ***** 201509042100 ***   0 *** *** *** * * * 18.8 ** ** ** ** ** ** ** ** *   91   69 1015.5 *****  994.0  97 *** ***** ***** ***** ***** **
852100 ***** 201509051500 180   9 *** *** *** * * *  5.0 04 ** ** ** ** ** ** ** 0   88   67 1020.6 ***** 1000.0 *** *** ***** ***** ***** ***** **
852100 ***** 201509052100 ***   0 *** *** *** * * * 18.8 ** ** ** ** ** ** ** ** *   91   69 1014.5 *****  994.0  95 *** ***** ***** ***** ***** **
852100 ***** 201509061500 ***   0 *** *** *** * * *  5.0 04 ** ** ** ** ** ** ** 0   91   65 1018.6 *****  997.0 *** *** ***** ***** ***** ***** **
852100 ***** 201509071500 360  17 *** *** *** * * * 18.8 ** ** ** ** ** ** ** ** *   98   71 1014.0 *****  993.0 *** *** ***** ***** ***** ***** **
852100 ***** 201509072100 360  14 *** *** *** * * * 18.8 ** ** ** ** ** ** ** ** *   98   69 1007.0 *****  986.0 102 *** ***** ***** ***** ***** **
852100 ***** 201509081500 360  17 *** *** *** * * *  5.0 04 ** ** ** ** ** ** ** 0   97   70 1013.6 *****  993.0 *** *** ***** ***** ***** ***** **
852100 ***** 201509091500 ***   0 ***  69 OVC * * *  5.0 04 ** ** ** ** ** ** ** 2   83   75 1015.0 *****  994.2 *** *** ***** ***** ***** ***** **
852100 ***** 201509092100 ***   0 ***  69 OVC * * * 18.8 ** ** ** ** ** ** ** ** *   79   75 1011.5 *****  991.0  84 *** ***** ***** ***** ***** **
852100 ***** 201509101500 360  11 *** *** *** * * * 18.8 ** ** ** ** ** ** ** ** *   95   73 1014.5 *****  993.5 *** *** ***** ***** ***** ***** **
852100 ***** 201509102100 360   9 *** 197 BKN * * * 18.8 ** ** ** ** ** ** ** ** *   95   67 1008.6 *****  988.0 102 *** ***** ***** ***** ***** **
852100 ***** 201509111500 180   7 ***  69 OVC * * *  5.0 04 ** ** ** ** ** ** ** 2   84   74 1018.7 *****  997.6 *** *** ***** ***** ***** ***** **
852100 ***** 201509112100 180   7 ***  15 OVC * * * 18.8 ** ** ** ** ** ** ** ** *   69   62 1018.3 *****  997.4  89 *** ***** ***** ***** ***** **
852100 ***** 201509121500 180   7 ***  15 OVC * * * 18.8 ** ** ** ** ** ** ** ** *   62   58 1025.5 ***** 1005.2 *** *** ***** ***** ***** ***** **
852100 ***** 201509122100 ***   0 ***  15 OVC * * * 18.8 ** ** ** ** ** ** ** ** *   68   59 1021.6 ***** 1001.0  70 *** ***** ***** ***** ***** **
852100 ***** 201509131500 ***   0 ***  12 OVC * * * 18.8 ** ** ** ** ** ** ** ** *   68   60 1025.0 ***** 1005.0 *** *** ***** ***** ***** ***** **
852100 ***** 201509132100 ***   0 *** *** *** * * * 18.8 ** ** ** ** ** ** ** ** *   77   64 1019.8 *****  999.5  79 *** ***** ***** ***** ***** **
852100 ***** 201509141500 ***   0 *** *** *** * * * 18.8 ** ** ** ** ** ** ** ** *   83   69 1022.2 ***** 1001.5 *** *** ***** ***** ***** ***** **
852100 ***** 201509142100 ***   0 *** *** *** * * * 18.8 ** ** ** ** ** ** ** ** *   92   69 1016.0 *****  995.0  95 *** ***** ***** ***** ***** **
852100 ***** 201509142200 ***   0 *** 722 CLR * * *  6.2 ** ** ** ** ** ** ** ** *   86   72 ****** 29.85 ****** *** *** ***** ***** ***** ***** **
852100 ***** 201509151500 ***   0 *** *** *** * * * 18.8 ** ** ** ** ** ** ** ** *   95   69 1018.5 *****  998.0 *** *** ***** ***** ***** ***** **
852100 ***** 201509151800 360   7 *** *** *** * * * 18.8 ** ** ** ** ** ** ** ** *  101   70 1014.9 *****  994.0 *** *** ***** ***** ***** ***** **
852100 ***** 201509152100 ***   0 *** *** *** * * * 18.8 ** ** ** ** ** ** ** ** *  101   69 1012.3 *****  991.4 104 *** ***** ***** ***** ***** **
852100 ***** 201509161500 360   9 *** *** *** * * * 18.8 ** ** ** ** ** ** ** ** *   99   73 1016.1 *****  995.2 *** *** ***** ***** ***** ***** **
852100 ***** 201509162100 ***   0 *** *** SCT * * *  5.0 04 ** ** ** ** ** ** ** 1   98   69 1010.6 *****  989.6 102 *** ***** ***** ***** ***** **
852100 ***** 201509171500 360   9 *** *** *** * * *  5.0 04 ** ** ** ** ** ** ** 0   99   72 1015.6 *****  995.0 *** *** ***** ***** ***** ***** **
852100 ***** 201509172100 360   7 *** *** SCT * * * 18.8 ** ** ** ** ** ** ** ** *   99   68 1010.0 *****  989.2 106 *** ***** ***** ***** ***** **
852100 ***** 201509181500 ***   0 *** *** *** * * * 18.8 ** ** ** ** ** ** ** ** *   99   68 1016.8 *****  995.8 *** *** ***** ***** ***** ***** **
852100 ***** 201509182100 ***   0 *** *** *** * * *  5.0 04 ** ** ** ** ** ** ** 0  102   64 1011.0 *****  990.0 108 *** ***** ***** ***** ***** **
852100 ***** 201509191500 ***   0 *** *** SCT * * *  5.0 04 ** ** ** ** ** ** ** 1   98   66 1016.5 *****  996.0 *** *** ***** ***** ***** ***** **
852100 ***** 201509192100 ***   0 *** *** SCT * * * 18.8 ** ** ** ** ** ** ** ** *  101   64 1010.5 *****  989.8 106 *** ***** ***** ***** ***** **
