  USAF  WBAN YR--MODAHRMN DIR SPD GUS CLG SKC L M H  VSB MW MW MW MW AW AW AW AW W TEMP DEWP    SLP   ALT    STP MAX MIN PCP01 PCP06 PCP24 PCPXX SD
913690 ***** 201501040000 090  44 ***  15 OVC * * * 15.0 ** ** ** ** ** ** ** ** *   85   77 1006.8 ***** 1006.5 ***  76 ***** ***** ***** ***** **
913690 ***** 201501060000 090  21 ***  98 OVC * * * 15.0 ** ** ** ** ** ** ** ** *   86   81 1006.5 ***** 1006.3 ***  79 ***** ***** ***** ***** **
913690 ***** 201501091200 090  14 *** 295 OVC * * * 15.0 ** ** ** ** ** ** ** ** *   83   74 1007.3 ***** 1007.0  86 *** ***** ***** ***** ***** **
913690 ***** 201501130000 090  11 ***  98 OVC * * * 15.0 ** ** ** ** ** ** ** ** *   87   80 1008.3 ***** 1008.0 ***  79 ***** ***** ***** ***** **
913690 ***** 201501181200 090  11 *** *** OVC * * * 15.0 ** ** ** ** ** ** ** ** *   81   73 1011.1 ***** 1010.8 *** *** ***** ***** ***** ***** **
913690 ***** 201501190000 090  11 *** *** SCT * * * 15.0 ** ** ** ** ** ** ** ** *   87   81 1011.3 ***** 1011.0 ***  79 ***** ***** ***** ***** **
913690 ***** 201501240000 090  18 *** *** OVC * * * 15.0 ** ** ** ** ** ** ** ** *   87   81 ****** ***** ****** *** *** ***** ***** ***** ***** **
913690 ***** 201501250600 090  17 ***  98 OVC * * * 15.0 ** ** ** ** ** ** ** ** *   83   76 1007.5 ***** 1007.2 *** *** ***** ***** ***** ***** **
913690 ***** 201501251200 090  17 *** 295 OVC * * * 15.0 ** ** ** ** ** ** ** ** *   81   74 1010.4 ***** 1010.1  86 *** ***** ***** ***** ***** **
913690 ***** 201501260000 090  17 *** *** SCT * * * 15.0 ** ** ** ** ** ** ** ** *   88   81 1007.5 ***** 1007.2 ***  79 ***** ***** ***** ***** **
913690 ***** 201502021200 090   6 ***  98 OVC * * * 15.0 ** ** ** ** ** ** ** ** *   83   76 1007.3 ***** 1007.0  87 *** ***** ***** ***** ***** **
913690 ***** 201502030600 090   6 ***  98 OVC * * * 15.0 ** ** ** ** ** ** ** ** *   85   76 1006.8 ***** 1006.5 *** *** ***** ***** ***** ***** **
913690 ***** 201502040000 090  10 ***  98 OVC * * * 15.0 02 ** ** ** ** ** ** ** 8   83   78 1007.8 ***** 1007.5 ***  77 ***** *****  0.24 ***** **
913690 ***** 201502060000 090   6 *** 295 OVC * * * 15.0 ** ** ** ** ** ** ** ** *   88   81 1010.2 ***** 1009.9 ***  79 ***** ***** ***** ***** **
913690 ***** 201502100000 090  17 *** 295 OVC * * * 15.0 ** ** ** ** ** ** ** ** *   88   81 1010.4 ***** 1010.1 ***  80 ***** ***** ***** ***** **
913690 ***** 201502150000 090   6 ***  98 OVC * * * 15.0 02 ** ** ** ** ** ** ** 8   85   79 1007.8 ***** 1007.5 ***  78 ***** *****  0.08 ***** **
913690 ***** 201502160000 230  11 *** 295 OVC * * * 15.0 ** ** ** ** ** ** ** ** *   87   81 1007.3 ***** 1007.0 ***  79 ***** ***** ***** ***** **
913690 ***** 201502191200 090   6 *** *** SCT * * * 15.0 ** ** ** ** ** ** ** ** *   83   76 1010.2 ***** 1009.9  88 *** ***** ***** ***** ***** **
913690 ***** 201502261200 090  14 *** *** OVC * * * 15.0 ** ** ** ** ** ** ** ** *   82   74 ****** ***** ****** *** *** ***** ***** ***** ***** **
913690 ***** 201502270000 090  14 *** 295 OVC * * * 15.0 ** ** ** ** ** ** ** ** *   87   81 1007.3 ***** 1007.0 ***  79 ***** ***** ***** ***** **
913690 ***** 201502271200 090  14 ***  98 OVC * * * 15.0 ** ** ** ** ** ** ** ** *   83   74 1007.3 ***** 1007.0  87 *** ***** ***** ***** ***** **
913690 ***** 201503020600 090   6 ***  98 OVC * * * 15.0 ** ** ** ** ** ** ** ** *   86   76 1006.3 ***** 1006.0 *** *** ***** ***** ***** ***** **
913690 ***** 201503050600 090  14 ***  98 OVC * * * 15.0 ** ** ** ** ** ** ** ** *   85   76 1005.8 ***** 1005.5 *** *** ***** ***** ***** ***** **
913690 ***** 201503170600 090   6 ***  98 OVC * * * 15.0 ** ** ** ** ** ** ** ** *   85   76 1007.5 ***** 1007.2 *** *** ***** ***** ***** ***** **
913690 ***** 201503180000 090   6 ***  98 OVC * * * 15.0 ** ** ** ** ** ** ** ** *   83   79 1008.6 ***** 1008.3 ***  77 ***** *****  9.02 ***** **
913690 ***** 201503210600 090  11 *** *** OVC * * * 15.0 ** ** ** ** ** ** ** ** *   88   81 ****** ***** 1007.2 *** *** ***** ***** ***** ***** **
913690 ***** 201503221200 090   6 ***  98 OVC * * * 15.0 ** ** ** ** ** ** ** ** *   83   77 1008.4 ***** 1008.1  88 *** ***** ***** ***** ***** **
913690 ***** 201503231200 090   6 *** 295 OVC * * * 15.0 ** ** ** ** ** ** ** ** *   81   74 1008.5 ***** 1008.2  88 *** ***** ***** ***** ***** **
913690 ***** 201503250600 090   6 *** 295 OVC * * * 15.0 ** ** ** ** ** ** ** ** *   85   78 1008.4 ***** 1008.1 *** *** ***** ***** ***** ***** **
913690 ***** 201503260000 090   6 *** *** OVC * * * 15.0 ** ** ** ** ** ** ** ** *   83   74 1008.7 ***** 1008.4 ***  81 ***** ***** ***** ***** **
913690 ***** 201503281200 090   6 *** *** SCT * * * 15.0 ** ** ** ** ** ** ** ** *   83   76 1008.7 ***** 1008.4  88 *** ***** ***** ***** ***** **
913690 ***** 201503301200 090  21 ***  98 OVC * * * 15.0 ** ** ** ** ** ** ** ** *   83   77 1008.3 ***** 1008.0  87 *** ***** *****  0.12 ***** **
913690 ***** 201504031200 090   6 ***  98 OVC * * * 15.0 ** ** ** ** ** ** ** ** *   79   74 1007.5 ***** 1007.2  86 *** *****  0.91 ***** ***** **
913690 ***** 201504130000 140   6 ***  15 OVC * * * 15.0 02 ** ** ** ** ** ** ** 8   85   79 1008.5 ***** 1008.2 *** *** ***** 10.12 ***** ***** **
913690 ***** 201504181200 090   3 *** *** SCT * * * 15.0 ** ** ** ** ** ** ** ** *   83   76 1008.3 ***** 1008.0  87 *** ***** ***** ***** ***** **
913690 ***** 201504210000 090   6 *** 295 OVC * * * 15.0 ** ** ** ** ** ** ** ** *   87   83 1008.3 ***** 1008.0 ***  79 ***** ***** ***** ***** **
913690 ***** 201504211200 090   3 ***  15 OVC * * * 15.0 80 ** ** ** ** ** ** ** 8   81   74 1008.3 ***** 1008.0  87 *** *****  0.98 ***** ***** **
913690 ***** 201504221200 090   5 *** *** OVC * * * 15.0 ** ** ** ** ** ** ** ** *   83   76 1008.3 ***** 1008.0  88 *** ***** ***** ***** ***** **
913690 ***** 201504241200 090   3 *** *** SCT * * * 15.0 ** ** ** ** ** ** ** ** *   81   74 1008.4 ***** 1008.1  86 *** ***** ***** ***** ***** **
913690 ***** 201504261200 090   3 *** 295 OVC * * * 15.0 ** ** ** ** ** ** ** ** *   81   74 1008.4 ***** 1008.1  86 *** ***** ***** ***** ***** **
913690 ***** 201505011200 090   7 ***  98 OVC * * * 15.0 ** ** ** ** ** ** ** ** *   83   74 1008.3 ***** 1008.0  86 *** ***** ***** ***** ***** **
913690 ***** 201505080000 140   6 ***  15 OVC * * *  3.0 80 ** ** ** ** ** ** ** 0   83   79 1006.7 ***** 1006.4 ***  77 ***** *****  4.49 ***** **
913690 ***** 201505150000 140  11 ***  15 OVC * * *  3.0 80 ** ** ** ** ** ** ** 8   83   79 1007.6 ***** 1007.3 ***  77 ***** *****  2.28 ***** **
913690 ***** 201505180000 090   6 ***  15 OVC * * *  3.0 ** ** ** ** ** ** ** ** *   83   79 1008.5 ***** 1008.2 ***  77 ***** *****  1.18 ***** **
913690 ***** 201505300000 090   3 ***  15 OVC * * * 15.0 80 ** ** ** ** ** ** ** 8   83   79 1008.3 ***** 1008.0 ***  77 *****  0.98 ***** ***** **
913690 ***** 201505311200 090   3 ***  98 OVC * * * 15.0 ** ** ** ** ** ** ** ** *   81   76 1008.3 ***** 1008.0  87 *** ***** ***** ***** ***** **
913690 ***** 201506050000 090   6 *** 295 OVC * * * 15.0 ** ** ** ** ** ** ** ** *   87   81 1008.4 ***** 1008.1 ***  79 ***** ***** ***** ***** **
913690 ***** 201506071200 090   6 ***  98 OVC * * * 15.0 00 ** ** ** ** ** ** ** 0   79   74 1008.3 ***** 1008.0  86 *** *****  0.71 ***** ***** **
913690 ***** 201506081200 090   6 *** *** SCT * * * 15.0 ** ** ** ** ** ** ** ** *   81   74 1007.6 ***** 1007.3  87 *** ***** ***** ***** ***** **
913690 ***** 201506160600 090   3 ***  15 OVC * * * 15.0 ** ** ** ** ** ** ** ** *   83   76 1006.7 ***** 1006.4 *** *** *****  0.98 ***** ***** **
913690 ***** 201506161200 090   3 *** *** SCT * * * 15.0 ** ** ** ** ** ** ** ** *   81   74 1007.5 ***** 1007.2  86 *** ***** ***** ***** ***** **
913690 ***** 201506180600 090   6 ***  98 OVC * * * 15.0 ** ** ** ** ** ** ** ** *   83   76 1007.3 ***** 1007.0 *** *** ***** ***** ***** ***** **
913690 ***** 201506190600 090   7 ***  98 OVC * * * 15.0 ** ** ** ** ** ** ** ** *   85   76 1007.3 ***** 1007.0 *** *** ***** ***** ***** ***** **
913690 ***** 201506221200 090  17 *** *** SCT * * * 15.0 ** ** ** ** ** ** ** ** *   81   76 1007.3 ***** 1007.0 *** *** ***** ***** ***** ***** **
913690 ***** 201506240600 090   6 ***  98 OVC * * * 15.0 ** ** ** ** ** ** ** ** *   85   76 1007.3 ***** 1007.0 *** *** ***** ***** ***** ***** **
913690 ***** 201506280000 090   6 ***  98 OVC * * * 15.0 ** ** ** ** ** ** ** ** *   87   79 1008.3 ***** 1008.0 ***  79 ***** ***** ***** ***** **
913690 ***** 201506300600 090   6 ***  98 OVC * * * 15.0 ** ** ** ** ** ** ** ** *   85   77 1007.4 ***** 1007.1 *** *** ***** ***** ***** ***** **
913690 ***** 201507081200 090   3 *** *** SCT * * * 15.0 ** ** ** ** ** ** ** ** *   79   74 1008.4 ***** 1008.0  85 *** ***** ***** ***** ***** **
913690 ***** 201507130000 320   6 ***  98 OVC * * * 15.0 ** ** ** ** ** ** ** ** *   85   81 1008.6 ***** 1008.3 ***  79 ***** ***** ***** ***** **
913690 ***** 201507170600 090   6 ***  98 OVC * * * 15.0 ** ** ** ** ** ** ** ** *   83   76 1007.5 ***** 1007.2 *** *** ***** ***** ***** ***** **
913690 ***** 201507171200 090   6 *** *** SCT * * * 15.0 02 ** ** ** ** ** ** ** 8   81   74 1008.4 ***** 1008.1  87 *** *****  0.20 ***** ***** **
913690 ***** 201507200000 090   3 ***  98 OVC * * * 15.0 02 ** ** ** ** ** ** ** 8   85   79 1008.6 ***** 1008.3 *** *** *****  1.61 ***** ***** **
913690 ***** 201507200600 090   3 ***  98 OVC * * * 11.9 80 ** ** ** ** ** ** ** 8   81   74 1007.7 ***** 1007.4 *** *** *****  1.50 ***** ***** **
913690 ***** 201507221200 090   6 *** *** SCT * * * 15.0 ** ** ** ** ** ** ** ** *   81   74 1008.7 ***** 1008.4  83 *** ***** ***** ***** ***** **
913690 ***** 201507241200 320   6 ***  15 OVC * * * 15.0 ** ** ** ** ** ** ** ** *   79   76 1008.4 ***** 1008.1  87 *** ***** ***** ***** ***** **
913690 ***** 201508010000 280   6 ***  98 OVC * * * 15.0 ** ** ** ** ** ** ** ** *   83   79 1007.6 ***** 1007.3 ***  77 ***** ***** ***** ***** **
913690 ***** 201508041200 090   6 *** 295 OVC * * * 15.0 ** ** ** ** ** ** ** ** *   79 **** 1007.5 ***** 1007.2  85 *** ***** ***** ***** ***** **
913690 ***** 201508140600 280   6 ***  98 OVC * * * 15.0 ** ** ** ** ** ** ** ** *   81   76 1007.5 ***** 1007.2 *** *** ***** ***** ***** ***** **
913690 ***** 201508210000 090   3 ***  15 OVC * * *  3.0 80 ** ** ** ** ** ** ** 8   85   79 1008.3 ***** 1008.0 ***  77 *****  8.39 ***** ***** **
913690 ***** 201508210600 280   9 *** 295 OVC * * * 15.0 02 ** ** ** ** ** ** ** 8   83   76 1007.3 ***** 1007.0 *** *** *****  2.40 ***** ***** **
913690 ***** 201508231200 280  37 ***  15 OVC * * *  3.0 80 ** ** ** ** ** ** ** 8   81   74 1008.4 ***** 1008.1  86 *** ***** *****  3.31 ***** **
913690 ***** 201508251200 280   9 ***  98 OVC * * * 15.0 ** ** ** ** ** ** ** ** *   79   74 1008.4 ***** 1008.1  85 *** ***** ***** ***** ***** **
913690 ***** 201508270000 280  11 ***  15 OVC * * * 15.0 ** ** ** ** ** ** ** ** *   83   79 1007.7 ***** 1007.4 ***  77 ***** ***** ***** ***** **
913690 ***** 201508290000 280   6 ***  98 OVC * * * 15.0 ** ** ** ** ** ** ** ** *   88   79 1008.5 ***** 1008.2 ***  77 ***** ***** ***** ***** **
913690 ***** 201509071200 280   6 *** *** SCT * * * 15.0 ** ** ** ** ** ** ** ** *   83   76 1007.7 ***** 1007.4  86 *** ***** ***** ***** ***** **
913690 ***** 201509081200 280   6 *** *** OVC * * * 15.0 02 ** ** ** ** ** ** ** 8   79   74 1007.6 ***** 1007.4 *** *** ***** ***** ***** ***** **
913690 ***** 201509090000 280   6 ***  98 OVC * * * 15.0 ** ** ** ** ** ** ** ** *   88   81 1007.6 ***** 1007.3 ***  79 ***** ***** ***** ***** **
913690 ***** 201509100000 280  11 ***  15 OVC * * * 15.0 ** ** ** ** ** ** ** ** *   85   79 1007.5 ***** 1007.2 ***  77 ***** ***** ***** ***** **
913690 ***** 201509100600 280  14 ***  98 OVC * * * 15.0 ** ** ** ** ** ** ** ** *   81   78 1006.5 ***** 1006.2 *** *** ***** ***** ***** ***** **
913690 ***** 201509110600 280  11 ***  98 OVC * * * 15.0 ** ** ** ** ** ** ** ** *   85   76 1006.6 ***** 1006.3 *** *** ***** ***** ***** ***** **
913690 ***** 201509120600 280   7 ***  98 OVC * * * 15.0 02 ** ** ** ** ** ** ** 8   81   76 1007.3 ***** 1007.0 *** *** *****  0.71 ***** ***** **
913690 ***** 201509121200 280   9 *** *** SCT * * * 15.0 ** ** ** ** ** ** ** ** *   79   74 1007.7 ***** 1007.4  87 *** ***** ***** ***** ***** **
913690 ***** 201509200000 280   6 ***  98 OVC * * * 15.0 ** ** ** ** ** ** ** ** *   86   79 1007.4 ***** 1007.1 ***  77 ***** ***** ***** ***** **
