  USAF  WBAN YR--MODAHRMN DIR SPD GUS CLG SKC L M H  VSB MW MW MW MW AW AW AW AW W TEMP DEWP    SLP   ALT    STP MAX MIN PCP01 PCP06 PCP24 PCPXX SD
914250 ***** 201501010600 060   6 ***  17 OVC * * * 15.0 ** ** ** ** ** ** ** ** *   82   79 1005.4 ***** 1005.3 *** *** ***** *****  0.00 ***** **
914250 ***** 201501011200 040   1 *** *** SCT * * * 15.0 ** ** ** ** ** ** ** ** *   81   78 1008.3 ***** 1008.2  89 *** ***** ***** ***** ***** **
914250 ***** 201501020600 040   3 *** *** OVC * * * 15.0 ** ** ** ** ** ** ** ** *   81   79 1009.1 ***** 1009.0 *** *** ***** ***** ***** ***** **
914250 ***** 201501021200 050   1 ***  17 OVC * * * 15.0 02 ** ** ** ** ** ** ** 8   81   78 1009.4 ***** 1009.3  91 *** *****  0.71  0.71 ***** **
914250 ***** 201501030000 040   1 ***  16 OVC * * * 15.0 81 ** ** ** ** ** ** ** 8   79   77 1010.1 ***** 1010.0 ***  73 ***** *****  2.71 ***** **
914250 ***** 201501030600 040   6 ***  17 OVC * * * 15.0 ** ** ** ** ** ** ** ** *   78   76 1005.5 ***** 1005.4 *** *** ***** *****  2.71 ***** **
914250 ***** 201501031200 040   3 *** 295 OVC * * * 15.0 ** ** ** ** ** ** ** ** *   77   75 1008.4 ***** 1008.3  89 *** ***** *****  2.71 ***** **
914250 ***** 201501040000 040   5 ***  16 OVC * * * 15.0 80 ** ** ** ** ** ** ** 8   76   74 1006.6 ***** 1006.5 ***  74 ***** *****  1.95 ***** **
914250 ***** 201501040600 040   1 ***  17 OVC * * * 15.0 ** ** ** ** ** ** ** ** *   75   73 1005.7 ***** 1005.6 *** *** ***** *****  1.95 ***** **
914250 ***** 201501050000 040   2 ***  16 OVC * * * 15.0 02 ** ** ** ** ** ** ** 8   80   78 1008.1 ***** 1008.0 ***  73 ***** *****  4.10 ***** **
914250 ***** 201501050600 040   6 ***  16 OVC * * * 15.0 ** ** ** ** ** ** ** ** *   79   77 1006.5 ***** 1006.4 *** *** ***** *****  4.10 ***** **
914250 ***** 201501051200 050  10 *** *** OVC * * * 15.0 ** ** ** ** ** ** ** ** *   37 **** ****** ***** ****** *** *** ***** ***** ***** ***** **
914250 ***** 201501060000 040   7 *** 295 OVC * * * 15.0 02 ** ** ** ** ** ** ** 8   79   76 1008.4 ***** 1008.3 ***  75 ***** *****  2.15 ***** **
914250 ***** 201501060600 120  14 ***  16 OVC * * * 15.0 81 ** ** ** ** ** ** ** 8   78   75 1005.3 ***** 1005.2 *** *** *****  2.56  2.56 ***** **
914250 ***** 201501070000 320  15 ***  16 OVC * * * 15.0 80 ** ** ** ** ** ** ** 8   86   82 1007.3 ***** 1007.2 ***  70 ***** *****  3.38 ***** **
914250 ***** 201501070600 320  11 *** *** OVC * * * 15.0 02 ** ** ** ** ** ** ** 8   85   80 1004.4 ***** 1004.3 *** *** *****  0.12 ***** ***** **
914250 ***** 201501080000 320   5 *** *** OVC * * * 15.0 81 ** ** ** ** ** ** ** 8   83   81 1008.6 ***** 1008.5 ***  70 ***** *****  3.43 ***** **
914250 ***** 201501090000 320  15 *** *** OVC * * * 15.0 81 ** ** ** ** ** ** ** 8   79   75 1007.9 ***** 1007.8 *** *** ***** *****  5.55 ***** **
914250 ***** 201501090600 320  14 ***  16 OVC * * * 15.0 81 ** ** ** ** ** ** ** 8   78   74 1005.2 ***** 1005.1 *** *** *****  5.59  5.59 ***** **
914250 ***** 201501091200 320  16 *** *** OVC * * * 15.0 81 ** ** ** ** ** ** ** 8   77   73 1005.1 ***** 1005.0 *** *** *****  7.60 ***** ***** **
914250 ***** 201501100000 050   8 ***  16 OVC * * * 15.0 02 ** ** ** ** ** ** ** 8   81   78 1007.1 ***** 1007.0 ***  61 ***** *****  3.85 ***** **
914250 ***** 201501100600 060   9 ***  16 OVC * * * 13.8 81 ** ** ** ** ** ** ** 8   78   76 1004.8 ***** 1004.7 *** *** *****  0.91  0.91 ***** **
914250 ***** 201501110000 040   1 *** *** BKN * * * 15.0 ** ** ** ** ** ** ** ** *   86   84 1008.2 ***** 1008.1 ***  72 ***** ***** ***** ***** **
914250 ***** 201501110600 040   1 *** *** OVC * * * 15.0 ** ** ** ** ** ** ** ** *   85   82 1009.2 ***** 1009.1 *** *** ***** *****  0.00 ***** **
914250 ***** 201501120000 040   1 *** *** OVC * * * 15.0 ** ** ** ** ** ** ** ** *   86   83 1011.3 ***** 1011.2 ***  78 ***** ***** ***** ***** **
914250 ***** 201501121200 040   6 ***  16 OVC * * * 15.0 ** ** ** ** ** ** ** ** *   81   78 1008.0 ***** 1007.9  93 *** ***** ***** ***** ***** **
914250 ***** 201501130000 040   2 *** *** OVC * * * 15.0 ** ** ** ** ** ** ** ** *   79   76 1009.5 ***** 1009.4 ***  75 ***** ***** ***** ***** **
914250 ***** 201501130600 040   1 *** *** SCT * * * 15.0 ** ** ** ** ** ** ** ** *   78   75 1009.0 ***** 1008.9 *** *** ***** *****  0.00 ***** **
914250 ***** 201501131200 040   3 *** *** OVC * * * 15.0 ** ** ** ** ** ** ** ** *   77   74 ****** ***** ****** *** *** ***** ***** ***** ***** **
914250 ***** 201501140000 040   5 *** *** SCT * * * 15.0 ** ** ** ** ** ** ** ** *   83   80 1011.8 ***** 1011.7 *** *** ***** ***** *****  0.00 **
914250 ***** 201501141200 040   6 *** *** OVC * * * 15.0 81 ** ** ** ** ** ** ** 8   80   78 1009.1 ***** 1009.0 *** *** *****  2.17 ***** ***** **
914250 ***** 201501150000 040   1 *** *** SCT * * * 15.0 ** ** ** ** ** ** ** ** *   87   83 1012.3 ***** 1012.2 ***  76 ***** ***** ***** ***** **
914250 ***** 201501150600 040   1 *** *** SCT * * * 15.0 ** ** ** ** ** ** ** ** *   86   82 1010.1 ***** 1010.0 *** *** ***** *****  0.00 ***** **
914250 ***** 201501160000 090   2 *** *** SCT * * * 15.0 ** ** ** ** ** ** ** ** *   87   37 ****** ***** ****** *** *** ***** ***** ***** ***** **
914250 ***** 201501160600 090   2 *** *** SCT * * * 15.0 ** ** ** ** ** ** ** ** *   87   84 1008.4 ***** 1008.3 *** *** ***** *****  0.00 ***** **
914250 ***** 201501161200 040   2 ***  16 OVC * * * 15.0 ** ** ** ** ** ** ** ** *   85   82 1008.6 ***** 1008.5  93 *** ***** ***** ***** ***** **
914250 ***** 201501170000 050   3 *** *** SCT * * * 15.0 ** ** ** ** ** ** ** ** *   85   81 1007.8 ***** 1007.7 ***  73 ***** ***** ***** ***** **
914250 ***** 201501170600 040   2 *** *** SCT * * * 15.0 ** ** ** ** ** ** ** ** *   84   80 1008.4 ***** 1008.3 *** *** ***** *****  0.00 ***** **
914250 ***** 201501171200 050   1 *** *** SCT * * * 15.0 ** ** ** ** ** ** ** ** *   82   79 1007.4 ***** 1007.3  92 *** ***** ***** ***** ***** **
914250 ***** 201501180000 060   6 *** *** SCT * * * 15.0 ** ** ** ** ** ** ** ** *   84   81 1007.7 ***** 1007.6 ***  77 ***** ***** ***** ***** **
914250 ***** 201501180600 040   3 *** *** SCT * * * 15.0 ** ** ** ** ** ** ** ** *   83   81 1009.8 ***** 1009.7 *** *** ***** ***** ***** ***** **
914250 ***** 201501181200 050   1 *** *** SCT * * * 15.0 ** ** ** ** ** ** ** ** *   81   80 1013.3 ***** 1013.2  89 *** ***** ***** ***** ***** **
914250 ***** 201501190600 030   9 ***  16 OVC * * * 15.0 ** ** ** ** ** ** ** ** *   80   78 1010.3 ***** 1010.2 *** *** ***** *****  0.10 ***** **
914250 ***** 201501191200 050   8 ***  18 OVC * * * 15.0 02 ** ** ** ** ** ** ** 8   81   78 1011.2 ***** 1011.1  86 *** *****  0.20  0.21 ***** **
914250 ***** 201501200000 040   2 *** *** SCT * * * 15.0 ** ** ** ** ** ** ** ** *   81   79 1011.4 ***** 1011.3 *** *** ***** ***** ***** ***** **
914250 ***** 201501200600 040   3 *** *** SCT * * * 15.0 ** ** ** ** ** ** ** ** *   79   77 1009.3 ***** 1009.2 *** *** ***** *****  0.00 ***** **
914250 ***** 201501201200 130   5 ***  16 OVC * * * 15.0 02 ** ** ** ** ** ** ** 8   80   77 1007.1 ***** 1007.0  91 *** *****  1.18  1.19 ***** **
914250 ***** 201501210000 040   1 *** *** BKN * * * 15.0 02 ** ** ** ** ** ** ** 8   85   83 1012.4 ***** 1012.3 ***  74 ***** *****  1.99 ***** **
914250 ***** 201501210600 040   1 *** *** SCT * * * 15.0 ** ** ** ** ** ** ** ** *   84   82 1007.1 ***** 1007.0 *** *** ***** ***** ***** ***** **
914250 ***** 201501211200 040   2 *** *** SCT * * * 15.0 ** ** ** ** ** ** ** ** *   81   79 1007.7 ***** 1007.6  91 *** ***** *****  1.99 ***** **
914250 ***** 201501220000 050   3 ***  16 OVC * * * 15.0 02 ** ** ** ** ** ** ** 8   81   79 1006.9 ***** 1006.8 ***  73 ***** *****  0.87 ***** **
914250 ***** 201501220600 050   7 *** 295 BKN * * * 15.0 ** ** ** ** ** ** ** ** *   82   78 1009.4 ***** 1009.3 *** *** ***** *****  0.87 ***** **
914250 ***** 201501221200 060   2 *** *** SCT * * * 15.0 ** ** ** ** ** ** ** ** *   79   77 1006.2 ***** 1006.1  85 *** ***** *****  0.87 ***** **
914250 ***** 201501230000 060   6 *** 295 BKN * * * 15.0 ** ** ** ** ** ** ** ** *   84   79 1007.3 ***** 1007.2 ***  76 ***** ***** ***** ***** **
914250 ***** 201501230600 050   5 *** 295 OVC * * * 15.0 ** ** ** ** ** ** ** ** *   83   79 1009.7 ***** 1009.6 *** *** ***** *****  0.00 ***** **
914250 ***** 201501231200 050   2 ***  17 OVC * * * 15.0 ** ** ** ** ** ** ** ** *   81   78 1006.8 ***** 1006.7  88 *** ***** ***** ***** ***** **
914250 ***** 201501240000 040   1 *** *** SCT * * * 15.0 02 ** ** ** ** ** ** ** 8   86   81 1013.4 ***** 1013.3 *** *** ***** *****  0.43 ***** **
914250 ***** 201501241200 040   3 ***  17 OVC * * * 15.0 ** ** ** ** ** ** ** ** *   83   78 1012.3 ***** 1012.2  91 *** ***** *****  0.45 ***** **
914250 ***** 201501250000 040   6 *** *** SCT * * * 15.0 ** ** ** ** ** ** ** ** *   79   77 1012.1 ***** 1012.0 *** *** ***** ***** ***** ***** **
914250 ***** 201501250600 040   6 *** *** SCT * * * 15.0 ** ** ** ** ** ** ** ** *   78   76 1007.6 ***** 1007.5 *** *** ***** *****  0.00 ***** **
914250 ***** 201501260000 040   2 *** *** BKN * * * 15.0 ** ** ** ** ** ** ** ** *   80   79 1011.8 ***** 1011.7 ***  75 ***** ***** ***** ***** **
914250 ***** 201501260600 360   7 *** 295 OVC * * * 15.0 ** ** ** ** ** ** ** ** *   81   78 1008.9 ***** 1008.8 *** *** ***** *****  0.00 ***** **
914250 ***** 201501261200 360   7 ***  17 OVC * * * 15.0 ** ** ** ** ** ** ** ** *   79   77 1006.2 ***** 1006.1  92 *** ***** ***** ***** ***** **
914250 ***** 201501270000 040   7 *** 295 BKN * * * 15.0 ** ** ** ** ** ** ** ** *   82   79 1009.3 ***** 1009.2 ***  76 ***** ***** ***** ***** **
914250 ***** 201501270600 040   6 *** *** BKN * * * 15.0 ** ** ** ** ** ** ** ** *   83   78 1006.3 ***** 1006.2 *** *** ***** *****  0.00 ***** **
914250 ***** 201501271200 050   3 ***  17 OVC * * * 15.0 ** ** ** ** ** ** ** ** *   82   79 1009.7 ***** 1009.6  88 *** ***** ***** ***** ***** **
914250 ***** 201501280000 060   7 *** 285 OVC * * * 15.0 02 ** ** ** ** ** ** ** 8   82   79 1009.4 ***** 1009.3 ***  73 ***** *****  0.35 ***** **
914250 ***** 201501280600 060   9 ***  17 OVC * * * 15.0 ** ** ** ** ** ** ** ** *   81   78 1005.5 ***** 1005.4 *** *** ***** *****  0.35 ***** **
914250 ***** 201501281200 060   6 ***  18 OVC * * * 15.0 ** ** ** ** ** ** ** ** *   81   77 1009.0 ***** 1008.9  87 *** ***** *****  0.35 ***** **
914250 ***** 201501290600 050   2 *** *** OVC * * * 15.0 ** ** ** ** ** ** ** ** *   84   79 1006.3 ***** 1006.2 *** *** ***** ***** ***** ***** **
914250 ***** 201501300000 040   5 ***  17 OVC * * * 15.0 80 ** ** ** ** ** ** ** 8   80   77 1009.8 ***** 1009.7 ***  73 ***** *****  0.90 ***** **
914250 ***** 201501300600 040   6 ***  17 OVC * * * 15.0 ** ** ** ** ** ** ** ** *   79   76 1006.4 ***** 1006.3 *** *** ***** *****  0.90 ***** **
914250 ***** 201501301200 040   1 *** *** SCT * * * 15.0 ** ** ** ** ** ** ** ** *   78   75 1010.1 ***** 1010.0  84 *** ***** *****  0.90 ***** **
914250 ***** 201501310000 040  10 *** *** OVC * * * 15.0 88 ** ** ** ** ** ** ** 1   78   76 1007.3 ***** 1007.2 *** *** ***** *****  1.85 ***** **
914250 ***** 201501310600 040  15 ***  17 OVC * * * 15.0 ** ** ** ** ** ** ** ** *   76   74 1006.3 ***** 1006.2 *** *** ***** *****  1.85 ***** **
914250 ***** 201501311200 050   5 ***  18 OVC * * * 15.0 02 ** ** ** ** ** ** ** 8   79   77 1009.3 ***** 1009.2  84 *** *****  1.97  1.98 ***** **
914250 ***** 201502010000 040   2 *** *** BKN * * * 15.0 ** ** ** ** ** ** ** ** *   76   75 1011.5 ***** 1011.4 ***  71 ***** *****  0.13 ***** **
914250 ***** 201502010600 040   8 *** *** SCT * * * 15.0 ** ** ** ** ** ** ** ** *   79   76 1008.6 ***** 1008.5 *** *** ***** *****  0.13 ***** **
914250 ***** 201502011200 040   6 *** *** SCT * * * 15.0 ** ** ** ** ** ** ** ** *   78   75 1011.3 ***** 1011.2  91 *** ***** *****  0.13 ***** **
914250 ***** 201502020600 040   8 *** *** SCT * * * 15.0 ** ** ** ** ** ** ** ** *   83   81 1007.2 ***** 1007.1 *** *** ***** *****  0.00 ***** **
914250 ***** 201502021200 040   5 *** *** SCT * * * 15.0 ** ** ** ** ** ** ** ** *   81   80 1010.1 ***** 1010.0  91 *** ***** ***** ***** ***** **
914250 ***** 201502030000 040   3 ***  16 OVC * * * 15.0 81 ** ** ** ** ** ** ** 8   75   74 1005.3 ***** 1005.2 ***  73 ***** *****  2.56 ***** **
914250 ***** 201502030600 040   5 ***  17 OVC * * * 15.0 80 ** ** ** ** ** ** ** 8   74   73 1006.8 ***** 1006.7 *** *** *****  2.72  2.71 ***** **
914250 ***** 201502040000 050   3 ***  17 OVC * * * 15.0 02 ** ** ** ** ** ** ** 8   82   79 1010.3 ***** 1010.2 ***  72 ***** *****  0.25 ***** **
914250 ***** 201502040600 040   6 *** *** SCT * * * 15.0 ** ** ** ** ** ** ** ** *   80   77 1008.0 ***** 1007.9 *** *** ***** *****  0.25 ***** **
914250 ***** 201502041200 040   1 *** *** SCT * * * 15.0 ** ** ** ** ** ** ** ** *   79   76 1011.3 ***** 1011.2  89 *** ***** *****  0.25 ***** **
914250 ***** 201502050000 040   3 *** *** SCT * * * 15.0 ** ** ** ** ** ** ** ** *   86   83 1010.6 ***** 1010.5 ***  75 ***** ***** ***** ***** **
914250 ***** 201502050600 040   2 *** *** SCT * * * 15.0 ** ** ** ** ** ** ** ** *   84   82 1008.7 ***** 1008.6 *** *** ***** *****  0.00 ***** **
914250 ***** 201502051200 050   3 ***  17 OVC * * * 15.0 ** ** ** ** ** ** ** ** *   82   79 1010.0 ***** 1009.9  92 *** ***** ***** ***** ***** **
914250 ***** 201502060600 040   1 *** 295 OVC * * * 15.0 ** ** ** ** ** ** ** ** *   83   81 1009.2 ***** 1009.1 *** *** ***** *****  0.00 ***** **
914250 ***** 201502061200 040   6 *** *** SCT * * * 15.0 ** ** ** ** ** ** ** ** *   81   80 1010.5 ***** 1010.4  90 *** ***** ***** ***** ***** **
914250 ***** 201502070000 270   8 *** *** SCT * * * 15.0 ** ** ** ** ** ** ** ** *   86   83 1012.3 ***** 1012.2 ***  76 ***** ***** ***** ***** **
914250 ***** 201502070600 040   5 *** *** SCT * * * 15.0 ** ** ** ** ** ** ** ** *   84   80 1010.1 ***** 1010.0 *** *** ***** *****  0.00 ***** **
914250 ***** 201502071200 270  11 ***  16 OVC * * * 15.0 80 ** ** ** ** ** ** ** 8   82   78 1008.3 ***** 1008.2  91 *** *****  0.20  0.19 ***** **
914250 ***** 201502080000 270  14 ***  16 OVC * * * 15.0 02 ** ** ** ** ** ** ** 8   76   74 1005.3 ***** 1005.2 ***  70 ***** *****  1.53 ***** **
914250 ***** 201502080600 220  16 *** *** SCT * * * 15.0 ** ** ** ** ** ** ** ** *   75   73 1006.8 ***** 1006.7 *** *** ***** *****  1.53 ***** **
914250 ***** 201502081200 220  11 ***  16 OVC * * * 15.0 ** ** ** ** ** ** ** ** *   78   75 1010.2 ***** 1010.1  87 *** ***** *****  1.53 ***** **
914250 ***** 201502090000 220   3 *** 295 OVC * * * 15.0 ** ** ** ** ** ** ** ** *   77   75 1011.1 ***** 1011.0 ***  74 ***** ***** ***** ***** **
914250 ***** 201502090600 220   6 *** *** SCT * * * 15.0 ** ** ** ** ** ** ** ** *   75   74 1007.4 ***** 1007.3 *** *** ***** *****  0.00 ***** **
914250 ***** 201502100000 220  11 ***  17 OVC * * * 15.0 ** ** ** ** ** ** ** ** *   85   83 1011.4 ***** 1011.3 ***  73 ***** ***** ***** ***** **
914250 ***** 201502100600 260  15 ***  18 OVC * * * 15.0 80 ** ** ** ** ** ** ** 8   78   76 1008.3 ***** 1008.2 *** *** *****  0.71  0.69 ***** **
914250 ***** 201502110000 040   1 *** *** SCT * * * 15.0 02 ** ** ** ** ** ** ** 8   84   80 1011.6 ***** 1011.5 *** *** ***** *****  1.06 ***** **
914250 ***** 201502110600 090   1 *** *** SCT * * * 15.0 ** ** ** ** ** ** ** ** *   83   79 1007.2 ***** 1007.1 *** *** ***** *****  1.05 ***** **
914250 ***** 201502111200 270   3 ***  16 OVC * * * 15.0 ** ** ** ** ** ** ** ** *   82   76 1008.9 ***** 1008.8  92 *** ***** *****  1.05 ***** **
914250 ***** 201502120000 040   1 *** *** SCT * * * 15.0 ** ** ** ** ** ** ** ** *   84   81 1011.3 ***** 1011.2 ***  78 ***** ***** ***** ***** **
914250 ***** 201502120600 090   2 *** *** SCT * * * 15.0 ** ** ** ** ** ** ** ** *   86   83 1009.1 ***** 1009.0 *** *** ***** *****  0.00 ***** **
914250 ***** 201502130000 220   2 *** *** SCT * * * 15.0 ** ** ** ** ** ** ** ** *   81   79 1011.3 ***** 1011.2 ***  77 ***** ***** ***** ***** **
914250 ***** 201502130600 220   5 *** *** SCT * * * 15.0 ** ** ** ** ** ** ** ** *   80   78 1007.1 ***** 1007.0 *** *** ***** *****  0.00 ***** **
914250 ***** 201502140600 040   1 *** *** SCT * * * 15.0 ** ** ** ** ** ** ** ** *   84   82 1007.9 ***** 1007.8 *** *** ***** *****  0.00 ***** **
914250 ***** 201502141200 040   2 ***  16 OVC * * * 15.0 ** ** ** ** ** ** ** ** *   82   79 1011.7 ***** 1011.6  93 *** ***** ***** ***** ***** **
914250 ***** 201502150000 050   3 *** *** SCT * * * 15.0 ** ** ** ** ** ** ** ** *   85   81 1010.7 ***** 1010.6 ***  73 ***** ***** ***** ***** **
914250 ***** 201502150600 050   2 ***  17 OVC * * * 15.0 ** ** ** ** ** ** ** ** *   82   80 1006.9 ***** 1006.8 *** *** ***** *****  0.00 ***** **
914250 ***** 201502151200 040   5 *** *** SCT * * * 15.0 ** ** ** ** ** ** ** ** *   81   78 1009.4 ***** 1009.3  92 *** ***** ***** ***** ***** **
914250 ***** 201502160000 060   6 *** *** SCT * * * 15.0 ** ** ** ** ** ** ** ** *   83   78 1008.7 ***** 1008.6 *** *** ***** ***** ***** ***** **
914250 ***** 201502160600 060   7 *** *** SCT * * * 15.0 ** ** ** ** ** ** ** ** *   84   79 1006.6 ***** 1006.5 *** *** ***** *****  0.00 ***** **
914250 ***** 201502161200 050   5 *** *** SCT * * * 15.0 ** ** ** ** ** ** ** ** *   81   78 1008.9 ***** 1008.8  88 *** ***** ***** ***** ***** **
914250 ***** 201502170600 050   7 *** 118 BKN * * * 15.0 ** ** ** ** ** ** ** ** *   84   79 1006.8 ***** 1006.7 *** *** ***** *****  0.00 ***** **
914250 ***** 201502171200 060   2 ***  18 OVC * * * 15.0 02 ** ** ** ** ** ** ** 8   78   76 1010.4 ***** 1010.3  88 *** *****  0.24  0.25 ***** **
914250 ***** 201502180000 040   6 *** 118 BKN * * * 15.0 ** ** ** ** ** ** ** ** *   83   80 1010.5 ***** 1010.4 ***  73 ***** *****  0.25 ***** **
914250 ***** 201502180600 040   7 *** *** OVC * * * 15.0 ** ** ** ** ** ** ** ** *   81   78 1006.7 ***** 1006.6 *** *** ***** ***** ***** ***** **
914250 ***** 201502181200 040   7 *** *** SCT * * * 15.0 ** ** ** ** ** ** ** ** *   82   79 ****** ***** 1009.6 *** *** ***** ***** ***** ***** **
914250 ***** 201502190000 040   2 ***  18 OVC * * * 15.0 80 ** ** ** ** ** ** ** 8   78   76 1010.0 ***** 1009.9 ***  72 ***** *****  1.73 ***** **
914250 ***** 201502190600 090   5 *** 118 OVC * * * 15.0 02 ** ** ** ** ** ** ** 8   83   80 1007.8 ***** 1007.7 *** *** *****  1.77  1.78 ***** **
914250 ***** 201502200000 220   2 *** *** SCT * * * 15.0 ** ** ** ** ** ** ** ** *   85   83 1011.1 ***** 1011.0 ***  75 ***** *****  0.05 ***** **
914250 ***** 201502210000 090   2 *** *** SCT * * * 15.0 02 ** ** ** ** ** ** ** 8   86   81 1006.4 ***** 1006.3 ***  75 ***** *****  0.08 ***** **
914250 ***** 201502210600 090   2 ***  17 OVC * * * 15.0 ** ** ** ** ** ** ** ** *   85   81 1008.0 ***** 1007.9 *** *** ***** *****  0.08 ***** **
914250 ***** 201502211200 080   1 *** *** SCT * * * 15.0 ** ** ** ** ** ** ** ** *   81   78 1011.0 ***** 1010.9  92 *** ***** *****  0.08 ***** **
914250 ***** 201502240600 060   6 *** 295 OVC * * * 15.0 02 ** ** ** ** ** ** ** 8   82   80 1007.8 ***** 1007.7 *** *** *****  0.43  0.44 ***** **
914250 ***** 201502250000 040   6 *** 295 OVC * * * 15.0 ** ** ** ** ** ** ** ** *   83   79 1010.8 ***** 1010.7 ***  75 ***** *****  0.05 ***** **
914250 ***** 201502250600 050   6 *** 295 BKN * * * 15.0 ** ** ** ** ** ** ** ** *   82   79 1010.8 ***** 1010.7 *** *** ***** *****  0.00 ***** **
914250 ***** 201502251200 050   3 *** *** SCT * * * 15.0 ** ** ** ** ** ** ** ** *   81   78 1010.9 ***** 1010.8  88 *** ***** ***** ***** ***** **
914250 ***** 201502260000 040   2 ***  18 OVC * * * 15.0 ** ** ** ** ** ** ** ** *   81   78 1010.6 ***** 1010.5 ***  76 ***** ***** ***** ***** **
914250 ***** 201502260600 040   5 ***  17 OVC * * * 15.0 ** ** ** ** ** ** ** ** *   81   78 1012.7 ***** 1012.6 *** *** ***** *****  0.00 ***** **
914250 ***** 201502261200 040   5 *** 118 OVC * * * 15.0 ** ** ** ** ** ** ** ** *   82   79 1009.4 ***** 1009.3  88 *** ***** ***** ***** ***** **
914250 ***** 201502270000 050   7 *** 118 OVC * * * 15.0 02 ** ** ** ** ** ** ** 8   83   79 1010.4 ***** 1010.3 ***  74 ***** *****  0.42 ***** **
914250 ***** 201502270600 050   5 *** 285 OVC * * * 15.0 ** ** ** ** ** ** ** ** *   81   78 1011.5 ***** 1011.4 *** *** ***** *****  0.42 ***** **
914250 ***** 201502271200 040   2 *** 295 BKN * * * 15.0 ** ** ** ** ** ** ** ** *   82   78 1010.8 ***** 1010.7  87 *** ***** *****  0.42 ***** **
914250 ***** 201502280000 050   3 *** 295 BKN * * * 15.0 02 ** ** ** ** ** ** ** 8   83   80 1010.4 ***** 1010.3 ***  78 ***** *****  0.05 ***** **
914250 ***** 201502281200 *** *** *** *** *** * * * **** ** ** ** ** ** ** ** ** * **** **** ****** ***** ****** *** *** ***** ***** ***** ***** **
914250 ***** 201503010000 040   2 *** *** SCT * * * 15.0 02 ** ** ** ** ** ** ** 8   80   78 1010.1 ***** 1010.0 ***  75 ***** *****  2.20 ***** **
914250 ***** 201503011200 040   3 *** *** SCT * * * 15.0 ** ** ** ** ** ** ** ** *   78   76 1010.4 ***** 1010.3  91 *** ***** *****  2.20 ***** **
914250 ***** 201503020000 040   3 *** *** BKN * * * 15.0 02 ** ** ** ** ** ** ** 8   84   83 1012.2 ***** 1012.1 *** *** ***** *****  1.06 ***** **
914250 ***** 201503020600 050   3 ***  17 OVC * * * 15.0 02 ** ** ** ** ** ** ** 8   82   78 1006.2 ***** 1006.1 *** *** *****  2.48  2.46 ***** **
914250 ***** 201503021200 040   1 *** *** SCT * * * 15.0 ** ** ** ** ** ** ** ** *   81   75 1009.6 ***** 1009.5  90 *** ***** *****  2.46 ***** **
914250 ***** 201503030000 040   3 *** 295 BKN * * * 15.0 ** ** ** ** ** ** ** ** *   81   78 1008.5 ***** 1008.4 ***  73 ***** ***** ***** ***** **
914250 ***** 201503040000 040   3 ***  16 OVC * * * 15.0 81 ** ** ** ** ** ** ** 8   76   74 1006.6 ***** 1006.5 ***  75 ***** *****  2.35 ***** **
914250 ***** 201503040600 040   7 ***  16 OVC * * * 15.0 02 ** ** ** ** ** ** ** 8   75   73 1008.1 ***** 1008.0 *** *** *****  1.38 14.35 ***** **
914250 ***** 201503050000 040   1 *** *** OVC * * * 15.0 ** ** ** ** ** ** ** ** *   85   82 1009.7 ***** 1009.6 ***  73 ***** ***** 12.00 ***** **
914250 ***** 201503050600 040   1 *** *** OVC * * * 15.0 ** ** ** ** ** ** ** ** *   85   82 1009.7 ***** 1009.6 *** *** ***** ***** ***** ***** **
914250 ***** 201503051200 040   3 *** *** SCT * * * 15.0 ** ** ** ** ** ** ** ** *   82   80 1011.5 ***** 1011.4  90 *** ***** ***** 12.00 ***** **
914250 ***** 201503060000 040   1 *** 295 OVC * * * 15.0 ** ** ** ** ** ** ** ** *   86   83 1010.4 ***** 1010.3 ***  78 ***** ***** ***** ***** **
914250 ***** 201503060600 040   6 *** *** SCT * * * 15.0 ** ** ** ** ** ** ** ** *   84   82 1008.3 ***** 1008.2 *** *** ***** *****  0.00 ***** **
914250 ***** 201503061200 040   3 *** *** SCT * * * 15.0 ** ** ** ** ** ** ** ** *   83   81 1012.1 ***** 1012.0  93 *** ***** ***** ***** ***** **
914250 ***** 201503070600 040   7 *** 295 BKN * * * 15.0 ** ** ** ** ** ** ** ** *   79   78 1007.5 ***** 1007.4 *** *** ***** *****  0.00 ***** **
914250 ***** 201503071200 040   1 *** *** SCT * * * 15.0 ** ** ** ** ** ** ** ** *   78   76 1008.4 ***** 1008.3  93 *** ***** ***** ***** ***** **
914250 ***** 201503080000 360   6 *** 295 BKN * * * 15.0 02 ** ** ** ** ** ** ** 8   83   80 1008.4 ***** 1008.3 ***  71 ***** *****  0.36 ***** **
914250 ***** 201503080600 360   7 *** 295 OVC * * * 15.0 ** ** ** ** ** ** ** ** *   82   79 1006.5 ***** 1006.4 *** *** ***** *****  0.36 ***** **
914250 ***** 201503081200 360   9 *** 295 BKN * * * 15.0 ** ** ** ** ** ** ** ** *   80   77 1009.6 ***** 1009.5  90 *** ***** *****  0.36 ***** **
914250 ***** 201503090000 360   5 *** *** SCT * * * 15.0 02 ** ** ** ** ** ** ** 8   87   84 1010.7 ***** 1010.6 ***  74 ***** *****  0.85 ***** **
914250 ***** 201503090600 360   8 *** *** SCT * * * 15.0 ** ** ** ** ** ** ** ** *   86   83 1009.1 ***** 1009.0 *** *** ***** *****  0.85 ***** **
914250 ***** 201503091200 360   6 ***  16 OVC * * * 15.0 ** ** ** ** ** ** ** ** *   85   81 1011.2 ***** 1011.1  90 *** ***** *****  0.85 ***** **
914250 ***** 201503100000 040   5 *** *** SCT * * * 15.0 ** ** ** ** ** ** ** ** *   84   81 1012.2 ***** 1012.1 ***  76 ***** ***** ***** ***** **
914250 ***** 201503100600 040   7 *** *** SCT * * * 15.0 ** ** ** ** ** ** ** ** *   83   80 1008.1 ***** 1008.0 *** *** ***** *****  0.00 ***** **
914250 ***** 201503101200 040   9 ***  17 OVC * * * 15.0 ** ** ** ** ** ** ** ** *   82   78 1010.3 ***** 1010.2  92 *** ***** ***** ***** ***** **
914250 ***** 201503110000 360   6 *** *** SCT * * * 15.0 ** ** ** ** ** ** ** ** *   79   76 1012.3 ***** 1012.2 ***  75 ***** ***** ***** ***** **
914250 ***** 201503110600 360   8 *** *** SCT * * * 15.0 ** ** ** ** ** ** ** ** *   77   75 1006.8 ***** 1006.7 *** *** ***** *****  0.00 ***** **
914250 ***** 201503111200 360   9 ***  16 OVC * * * 15.0 ** ** ** ** ** ** ** ** *   76   74 1010.5 ***** 1010.4  93 *** ***** ***** ***** ***** **
914250 ***** 201503120000 360   5 *** *** SCT * * * 15.0 ** ** ** ** ** ** ** ** *   81   79 1008.6 ***** 1008.5 ***  78 ***** ***** ***** ***** **
914250 ***** 201503120600 360   9 *** *** SCT * * * 15.0 ** ** ** ** ** ** ** ** *   80 **** ****** ***** ****** *** *** ***** ***** ***** ***** **
914250 ***** 201503130600 040  10 *** *** SCT * * * 15.0 ** ** ** ** ** ** ** ** *   79   76 1007.2 ***** 1007.1 *** *** ***** *****  0.00 ***** **
914250 ***** 201503131200 040   9 ***  16 OVC * * * 15.0 ** ** ** ** ** ** ** ** *   77   75 1010.4 ***** 1010.3  91 *** ***** ***** ***** ***** **
914250 ***** 201503140000 040   5 *** *** BKN * * * 15.0 ** ** ** ** ** ** ** ** *   86   83 1012.4 ***** 1012.3 ***  75 ***** ***** ***** ***** **
914250 ***** 201503140600 040   3 *** *** SCT * * * 15.0 ** ** ** ** ** ** ** ** *   85   82 1008.3 ***** 1008.2 *** *** ***** *****  0.00 ***** **
914250 ***** 201503141200 220   2 *** *** SCT * * * 15.0 ** ** ** ** ** ** ** ** *   81   79 1010.3 ***** 1010.2  89 *** ***** ***** ***** ***** **
914250 ***** 201503150000 210   5 *** 295 BKN * * * 15.0 ** ** ** ** ** ** ** ** *   86   82 1011.8 ***** 1011.7 ***  70 ***** ***** ***** ***** **
914250 ***** 201503150600 140   3 *** 295 BKN * * * 15.0 ** ** ** ** ** ** ** ** *   85   82 1009.2 ***** 1009.1 *** *** ***** *****  0.00 ***** **
914250 ***** 201503151200 140   1 *** *** SCT * * * 15.0 ** ** ** ** ** ** ** ** *   81   78 1011.9 ***** 1011.8  93 *** ***** ***** ***** ***** **
914250 ***** 201503160000 160   2 *** 295 BKN * * * 15.0 ** ** ** ** ** ** ** ** *   83   80 1012.6 ***** 1012.5 ***  75 ***** ***** ***** ***** **
914250 ***** 201503160600 160   3 *** *** OVC * * * 15.0 ** ** ** ** ** ** ** ** *   83   79 1009.4 ***** 1009.3 *** *** ***** *****  0.00 ***** **
914250 ***** 201503161200 090   2 *** *** SCT * * * 15.0 ** ** ** ** ** ** ** ** *   79   77 1012.9 ***** 1012.8  92 *** ***** ***** ***** ***** **
914250 ***** 201503170000 090   2 *** *** SCT * * * 15.0 ** ** ** ** ** ** ** ** *   83   79 1012.8 ***** 1012.7 ***  74 ***** ***** ***** ***** **
914250 ***** 201503170600 310   5 *** 295 OVC * * * 15.0 ** ** ** ** ** ** ** ** *   84   79 1010.0 ***** 1009.9 *** *** ***** *****  0.00 ***** **
914250 ***** 201503171200 040   2 *** *** SCT * * * 15.0 ** ** ** ** ** ** ** ** *   80   78 1012.8 ***** 1012.7  92 *** ***** ***** ***** ***** **
914250 ***** 201503180000 040   5 *** *** BKN * * * 15.0 ** ** ** ** ** ** ** ** *   85   81 1010.4 ***** 1010.3 ***  77 ***** ***** ***** ***** **
914250 ***** 201503180600 320   5 *** *** SCT * * * 15.0 ** ** ** ** ** ** ** ** *   85   81 1009.3 ***** 1009.2 *** *** ***** *****  0.00 ***** **
914250 ***** 201503181200 120   1 *** 295 OVC * * * 15.0 ** ** ** ** ** ** ** ** *   82   78 1012.2 ***** 1012.1  91 *** ***** ***** ***** ***** **
914250 ***** 201503190000 160   6 *** 295 BKN * * * 15.0 ** ** ** ** ** ** ** ** *   85   82 1012.6 ***** 1012.5 ***  77 ***** ***** ***** ***** **
914250 ***** 201503190600 230   8 *** 285 OVC * * * 15.0 ** ** ** ** ** ** ** ** *   85   81 1010.3 ***** 1010.2 *** *** ***** *****  0.00 ***** **
914250 ***** 201503191200 230   3 ***  16 OVC * * * 15.0 ** ** ** ** ** ** ** ** *   81   79 1012.4 ***** 1012.3  93 *** ***** ***** ***** ***** **
914250 ***** 201503200000 180   5 *** *** OVC * * * 15.0 ** ** ** ** ** ** ** ** *   85   84 ****** ***** ****** *** *** ***** ***** ***** ***** **
914250 ***** 201503200600 180   3 *** *** SCT * * * 15.0 ** ** ** ** ** ** ** ** *   84   82 1008.1 ***** 1008.0 *** *** ***** *****  0.00 ***** **
914250 ***** 201503201200 180   2 *** 295 BKN * * * 15.0 ** ** ** ** ** ** ** ** *   83   80 1012.3 ***** 1012.2  92 *** ***** ***** ***** ***** **
914250 ***** 201503210000 210   2 *** 295 BKN * * * 15.0 02 ** ** ** ** ** ** ** 8   85   82 1012.3 ***** 1012.2 ***  72 ***** *****  1.25 ***** **
914250 ***** 201503210600 210   3 *** *** SCT * * * 15.0 ** ** ** ** ** ** ** ** *   83   80 1007.5 ***** 1007.4 *** *** ***** *****  1.46 ***** **
914250 ***** 201503211200 250   3 ***  17 OVC * * * 15.0 ** ** ** ** ** ** ** ** *   84   81 1012.4 ***** 1012.3  91 *** ***** *****  1.46 ***** **
914250 ***** 201503220000 340   1 *** 285 BKN * * * 15.0 02 ** ** ** ** ** ** ** 8   86   82 1011.9 ***** 1011.8 ***  73 ***** *****  0.34 ***** **
914250 ***** 201503220600 340   3 *** *** SCT * * * 15.0 ** ** ** ** ** ** ** ** *   85   83 1009.4 ***** 1009.3 *** *** ***** *****  0.34 ***** **
914250 ***** 201503221200 090   1 *** *** SCT * * * 15.0 ** ** ** ** ** ** ** ** *   80   78 1011.9 ***** 1011.8  90 *** ***** *****  0.34 ***** **
914250 ***** 201503230000 050   3 *** 295 BKN * * * 15.0 ** ** ** ** ** ** ** ** *   85   81 1012.5 ***** 1012.4 ***  75 ***** ***** ***** ***** **
914250 ***** 201503230600 040   5 *** *** SCT * * * 15.0 ** ** ** ** ** ** ** ** *   83   80 1009.9 ***** 1009.8 *** *** ***** *****  0.00 ***** **
914250 ***** 201503240000 040   1 *** *** SCT * * * 15.0 ** ** ** ** ** ** ** ** *   80   79 1012.1 ***** 1012.0 ***  78 ***** ***** ***** ***** **
914250 ***** 201503240600 040   2 *** 295 BKN * * * 15.0 ** ** ** ** ** ** ** ** *   79   78 1007.2 ***** 1007.1 *** *** ***** *****  0.00 ***** **
914250 ***** 201503250000 090   3 *** *** BKN * * * 15.0 ** ** ** ** ** ** ** ** *   85   81 1013.7 ***** 1013.6 *** *** ***** ***** ***** ***** **
914250 ***** 201503250600 040   3 ***  17 OVC * * * 15.0 ** ** ** ** ** ** ** ** *   84   80 1011.3 ***** 1011.2 *** *** ***** *****  0.00 ***** **
914250 ***** 201503260000 050   6 *** 295 BKN * * * 15.0 ** ** ** ** ** ** ** ** *   83   81 1013.3 ***** 1013.2 ***  75 ***** *****  0.38 ***** **
914250 ***** 201503260600 310   6 *** 285 OVC * * * 15.0 ** ** ** ** ** ** ** ** *   85   82 1010.4 ***** 1010.3 *** *** ***** *****  0.00 ***** **
914250 ***** 201503270000 360   8 *** 285 OVC * * * 15.0 02 ** ** ** ** ** ** ** 8   83   81 1012.8 ***** 1012.7 ***  72 ***** *****  4.30 ***** **
914250 ***** 201503270600 320   6 ***  17 OVC * * * 15.0 ** ** ** ** ** ** ** ** *   82   79 1009.2 ***** 1009.1 *** *** ***** *****  4.30 ***** **
914250 ***** 201503271200 260   6 ***  16 OVC * * * 15.0 ** ** ** ** ** ** ** ** *   83   79 1011.7 ***** 1011.6  87 *** ***** *****  4.30 ***** **
914250 ***** 201503280000 040   5 *** *** SCT * * * 15.0 ** ** ** ** ** ** ** ** *   81   79 1011.3 ***** 1011.2 ***  78 ***** ***** ***** ***** **
914250 ***** 201503280600 230   8 ***  17 OVC * * * 15.0 ** ** ** ** ** ** ** ** *   82   80 1007.8 ***** 1007.7 *** *** ***** *****  0.00 ***** **
914250 ***** 201503281200 170   7 ***  16 OVC * * * 15.0 80 ** ** ** ** ** ** ** 8   82   80 1010.5 ***** 1010.4  91 *** *****  0.35  0.36 ***** **
914250 ***** 201503290000 220   7 ***  17 OVC * * * 15.0 02 ** ** ** ** ** ** ** 8   78   75 1011.5 ***** 1011.4 ***  75 ***** *****  3.01 ***** **
914250 ***** 201503290600 140   3 ***  18 OVC * * * 15.0 02 ** ** ** ** ** ** ** 8   83   81 1008.2 ***** 1008.1 *** *** *****  3.23  3.24 ***** **
914250 ***** 201503291200 150   5 ***  17 OVC * * * 15.0 ** ** ** ** ** ** ** ** *   81   79 1011.9 ***** 1011.8  90 *** ***** *****  3.24 ***** **
914250 ***** 201503300000 *** *** *** *** *** * * * **** ** ** ** ** ** ** ** ** * **** **** ****** ***** ****** *** *** ***** ***** ***** ***** **
914250 ***** 201503300600 040   2 ***  18 OVC * * * 15.0 ** ** ** ** ** ** ** ** *   82   79 1010.2 ***** 1010.1 *** *** ***** *****  2.94 ***** **
914250 ***** 201503301200 040   6 *** 285 OVC * * * 15.0 ** ** ** ** ** ** ** ** *   81   78 1013.4 ***** 1013.3  84 *** ***** *****  2.94 ***** **
914250 ***** 201503310000 050   6 ***  18 OVC * * * 15.0 ** ** ** ** ** ** ** ** *   83   80 1012.0 ***** 1011.9 ***  77 ***** ***** ***** ***** **
914250 ***** 201503310600 050   7 ***  17 OVC * * * 15.0 02 ** ** ** ** ** ** ** 8   81   79 1008.2 ***** 1008.1 *** *** *****  0.12  0.10 ***** **
914250 ***** 201503311200 090   5 *** *** OVC * * * 15.0 ** ** ** ** ** ** ** ** *   81   79 1011.2 ***** 1011.1 *** *** ***** ***** ***** ***** **
914250 ***** 201504010000 040   5 *** *** SCT * * * 15.0 ** ** ** ** ** ** ** ** *   80   76 1011.8 ***** 1011.7 ***  76 ***** ***** ***** ***** **
914250 ***** 201504011200 040   1 *** *** SCT * * * 15.0 ** ** ** ** ** ** ** ** *   77   74 1011.6 ***** 1011.5  90 *** ***** ***** ***** ***** **
914250 ***** 201504020000 040   3 *** 295 OVC * * * 15.0 ** ** ** ** ** ** ** ** *   85   83 1010.3 ***** 1010.2 ***  75 ***** ***** ***** ***** **
914250 ***** 201504030000 040   1 *** *** BKN * * * 15.0 ** ** ** ** ** ** ** ** *   86   81 1012.1 ***** 1012.0 ***  76 ***** ***** ***** ***** **
914250 ***** 201504030600 220   5 *** *** SCT * * * 15.0 ** ** ** ** ** ** ** ** *   85   82 1008.3 ***** 1008.2 *** *** ***** *****  0.00 ***** **
914250 ***** 201504031200 220   3 *** *** SCT * * * 15.0 ** ** ** ** ** ** ** ** *   80   78 1010.6 ***** 1010.5  90 *** ***** ***** ***** ***** **
914250 ***** 201504040000 220   6 *** *** SCT * * * 15.0 ** ** ** ** ** ** ** ** *   86   84 ****** ***** 1000.9 *** *** ***** ***** ***** ***** **
914250 ***** 201504040600 220   8 *** *** SCT * * * 15.0 ** ** ** ** ** ** ** ** *   84   83 1006.5 ***** 1006.4 *** *** ***** *****  0.00 ***** **
914250 ***** 201504041200 220   6 *** *** OVC * * * 15.0 81 ** ** ** ** ** ** ** 8   82   81 1008.6 ***** 1008.5 *** *** *****  0.12 ***** ***** **
914250 ***** 201504050000 210   3 ***  17 OVC * * * 15.0 02 ** ** ** ** ** ** ** 8   81   78 1008.3 ***** 1008.2 ***  72 ***** *****  1.02 ***** **
914250 ***** 201504051200 130   2 ***  16 OVC * * * 15.0 02 ** ** ** ** ** ** ** 8   78   76 1008.3 ***** 1008.2  91 *** *****  1.34  1.34 ***** **
914250 ***** 201504060000 130   1 *** *** SCT * * * 15.0 ** ** ** ** ** ** ** ** *   85   83 1010.1 ***** 1010.0 ***  72 ***** *****  0.42 ***** **
914250 ***** 201504060600 130   1 *** *** SCT * * * 15.0 ** ** ** ** ** ** ** ** *   84   82 1007.3 ***** 1007.2 *** *** ***** *****  0.42 ***** **
914250 ***** 201504061200 130   1 *** *** SCT * * * 15.0 ** ** ** ** ** ** ** ** *   83   81 1009.7 ***** 1009.6  92 *** ***** *****  0.42 ***** **
914250 ***** 201504070000 230   6 ***  17 OVC * * * 15.0 02 ** ** ** ** ** ** ** 8   83   79 1010.4 ***** 1010.3 ***  73 ***** *****  1.05 ***** **
914250 ***** 201504071200 230   1 *** *** SCT * * * 15.0 ** ** ** ** ** ** ** ** *   80   77 1010.4 ***** 1010.3  90 *** ***** *****  1.05 ***** **
914250 ***** 201504080000 230   3 *** *** SCT * * * 15.0 ** ** ** ** ** ** ** ** *   84   80 1012.3 ***** 1012.2 ***  75 ***** ***** ***** ***** **
914250 ***** 201504080600 230   2 *** *** SCT * * * 15.0 ** ** ** ** ** ** ** ** *   83   79 1008.6 ***** 1008.5 *** *** ***** *****  0.00 ***** **
914250 ***** 201504081200 230   1 *** *** SCT * * * 15.0 ** ** ** ** ** ** ** ** *   81   75 1011.4 ***** 1011.3  91 *** ***** ***** ***** ***** **
914250 ***** 201504090000 360   5 *** *** SCT * * * 15.0 ** ** ** ** ** ** ** ** *   85   81 1011.3 ***** 1011.2 ***  76 ***** ***** ***** ***** **
914250 ***** 201504090600 360   6 *** 295 BKN * * * 15.0 ** ** ** ** ** ** ** ** *   83   79 1008.4 ***** 1008.3 *** *** ***** *****  0.00 ***** **
914250 ***** 201504091200 040   1 ***  16 OVC * * * 15.0 ** ** ** ** ** ** ** ** *   82   78 1011.3 ***** 1011.2  91 *** ***** ***** ***** ***** **
914250 ***** 201504100000 040   1 *** *** BKN * * * 15.0 ** ** ** ** ** ** ** ** *   85   81 1012.1 ***** 1012.0 ***  79 ***** ***** ***** ***** **
914250 ***** 201504100600 040   2 *** *** SCT * * * 15.0 ** ** ** ** ** ** ** ** *   83   80 1008.8 ***** 1008.7 *** *** ***** *****  0.00 ***** **
914250 ***** 201504110000 040   1 *** *** SCT * * * 15.0 ** ** ** ** ** ** ** ** *   86   84 1011.5 ***** 1011.4 ***  78 ***** ***** ***** ***** **
914250 ***** 201504110600 040   1 *** *** SCT * * * 15.0 ** ** ** ** ** ** ** ** *   85   83 1009.2 ***** 1009.1 *** *** ***** *****  0.00 ***** **
914250 ***** 201504120000 040   1 *** *** SCT * * * 15.0 ** ** ** ** ** ** ** ** *   86   83 1010.3 ***** 1010.2 ***  79 ***** ***** ***** ***** **
914250 ***** 201504120600 040   1 *** *** SCT * * * 15.0 ** ** ** ** ** ** ** ** *   84   81 1008.5 ***** 1008.4 *** *** ***** *****  0.00 ***** **
914250 ***** 201504121200 040   2 ***  16 OVC * * * 15.0 ** ** ** ** ** ** ** ** *   82   80 1012.5 ***** 1012.4  91 *** ***** ***** ***** ***** **
914250 ***** 201504130000 040   3 ***  16 OVC * * * 15.0 81 ** ** ** ** ** ** ** 8   82   78 1013.2 ***** 1013.1 ***  74 ***** *****  0.53 ***** **
914250 ***** 201504130600 040   1 *** *** OVC * * * 15.0 02 ** ** ** ** ** ** ** 8   81   77 1006.5 ***** 1006.4 *** *** *****  1.57 ***** ***** **
914250 ***** 201504131200 040   1 ***  16 OVC * * * 15.0 ** ** ** ** ** ** ** ** *   80   76 1011.2 ***** 1011.1  90 *** ***** *****  1.59 ***** **
914250 ***** 201504140000 040   1 *** *** SCT * * * 15.0 02 ** ** ** ** ** ** ** 8   83   79 1012.7 ***** 1012.6 *** *** ***** *****  2.80 ***** **
914250 ***** 201504140600 040   3 *** *** SCT * * * 15.0 ** ** ** ** ** ** ** ** *   81   77 1007.2 ***** 1007.1 *** *** ***** *****  2.79 ***** **
914250 ***** 201504141200 040   1 ***  16 OVC * * * 15.0 ** ** ** ** ** ** ** ** *   80   76 1010.3 ***** 1010.2  93 *** ***** *****  2.79 ***** **
914250 ***** 201504150000 040   2 *** *** SCT * * * 15.0 ** ** ** ** ** ** ** ** *   87   84 1011.8 ***** 1011.7 ***  76 ***** ***** ***** ***** **
914250 ***** 201504150600 *** *** *** *** *** * * * **** ** ** ** ** ** ** ** ** * **** **** ****** ***** ****** *** *** ***** ***** ***** ***** **
914250 ***** 201504151200 040   2 ***  16 OVC * * * 15.0 ** ** ** ** ** ** ** ** *   84   81 1011.5 ***** 1011.4  90 *** ***** ***** ***** ***** **
914250 ***** 201504160000 050   3 ***  16 OVC * * * 15.0 02 ** ** ** ** ** ** ** 8   81   78 1014.4 ***** 1014.3 ***  74 ***** *****  0.34 ***** **
914250 ***** 201504160600 140   3 ***  17 OVC * * * 15.0 02 ** ** ** ** ** ** ** 8   79   77 1011.8 ***** 1011.7 *** *** *****  1.61  1.63 ***** **
914250 ***** 201504161200 090   2 ***  17 OVC * * * 15.0 ** ** ** ** ** ** ** ** *   80   77 1013.2 ***** 1013.1  88 *** ***** *****  1.63 ***** **
914250 ***** 201504170000 040   5 *** *** BKN * * * 15.0 ** ** ** ** ** ** ** ** *   84   79 1012.1 ***** 1012.0 ***  71 ***** *****  1.29 ***** **
914250 ***** 201504170600 050   6 *** *** SCT * * * 15.0 ** ** ** ** ** ** ** ** *   82   79 1008.3 ***** 1008.2 *** *** ***** *****  0.00 ***** **
914250 ***** 201504171200 050   3 *** *** SCT * * * 15.0 ** ** ** ** ** ** ** ** *   81   78 1011.2 ***** 1011.1  87 *** ***** ***** ***** ***** **
914250 ***** 201504180000 090   2 *** *** OVC * * * 15.0 ** ** ** ** ** ** ** ** *   86   83 1011.8 ***** 1011.7 *** *** ***** *****  0.12 ***** **
914250 ***** 201504180600 090   1 *** *** SCT * * * 15.6 ** ** ** ** ** ** ** ** *   85   81 1008.2 ***** 1008.1 *** *** ***** *****  0.12 ***** **
914250 ***** 201504181200 090   1 *** *** SCT * * * 15.0 ** ** ** ** ** ** ** ** *   79   77 1011.1 ***** 1011.0  91 *** ***** *****  0.12 ***** **
914250 ***** 201504190000 040   2 *** *** SCT * * * 15.0 ** ** ** ** ** ** ** ** *   83   81 1011.4 ***** 1011.3 ***  75 ***** ***** ***** ***** **
914250 ***** 201504190600 320   6 *** *** SCT * * * 15.0 02 ** ** ** ** ** ** ** 8   84   81 1008.5 ***** 1008.4 *** *** *****  0.08  0.07 ***** **
914250 ***** 201504191200 040   6 *** *** SCT * * * 15.0 ** ** ** ** ** ** ** ** *   82   79 1010.7 ***** 1010.6  89 *** ***** *****  0.07 ***** **
914250 ***** 201504200600 310   8 *** 295 OVC * * * 15.0 ** ** ** ** ** ** ** ** *   83   80 1007.4 ***** 1007.3 *** *** ***** *****  0.00 ***** **
914250 ***** 201504201200 210   6 *** *** OVC * * * 15.0 ** ** ** ** ** ** ** ** *   82   80 1009.8 ***** 1009.7 *** *** ***** ***** ***** ***** **
914250 ***** 201504210000 210   5 *** 295 BKN * * * 15.0 ** ** ** ** ** ** ** ** *   85   82 1010.3 ***** 1010.2 ***  75 ***** ***** ***** ***** **
914250 ***** 201504210600 210   3 *** 295 OVC * * * 15.0 ** ** ** ** ** ** ** ** *   85   81 1007.4 ***** 1007.3 *** *** ***** *****  0.00 ***** **
914250 ***** 201504211200 140   1 *** *** SCT * * * 15.0 ** ** ** ** ** ** ** ** *   82   79 1010.0 ***** 1009.9  91 *** ***** ***** ***** ***** **
914250 ***** 201504220000 140   2 ***  18 OVC * * * 15.0 02 ** ** ** ** ** ** ** 8   83   82 1009.7 ***** 1009.6 ***  75 ***** *****  0.37 ***** **
914250 ***** 201504220600 160   3 ***  17 OVC * * * 15.0 ** ** ** ** ** ** ** ** *   86   83 1007.2 ***** 1007.1 *** *** ***** *****  0.37 ***** **
914250 ***** 201504221200 160   3 *** 285 OVC * * * 15.0 ** ** ** ** ** ** ** ** *   83   80 1010.3 ***** 1010.2  90 *** ***** *****  0.37 ***** **
914250 ***** 201504230000 040   1 *** *** BKN * * * 15.0 02 ** ** ** ** ** ** ** 8   87   82 1012.0 ***** 1011.9 *** *** ***** *****  0.04 ***** **
914250 ***** 201504230600 160   3 *** *** SCT * * * 15.0 ** ** ** ** ** ** ** ** *   87   85 1007.9 ***** 1007.8 *** *** ***** *****  0.05 ***** **
914250 ***** 201504240000 090   2 *** 295 BKN * * * 15.0 ** ** ** ** ** ** ** ** *   85   82 1010.3 ***** 1010.2 ***  77 ***** ***** ***** ***** **
914250 ***** 201504250000 310   8 *** *** OVC * * * 15.0 ** ** ** ** ** ** ** ** *   82   79 1011.1 ***** 1011.0 *** *** ***** *****  0.12 ***** **
914250 ***** 201504260000 040   2 *** *** BKN * * * 15.0 ** ** ** ** ** ** ** ** *   85   81 1011.9 ***** 1011.8 *** *** ***** ***** ***** ***** **
914250 ***** 201504260600 320   3 ***  17 OVC * * * 15.0 ** ** ** ** ** ** ** ** *   84   83 1009.7 ***** 1009.6 *** *** ***** *****  0.00 ***** **
914250 ***** 201504261200 040   3 ***  16 BKN * * * 15.0 02 ** ** ** ** ** ** ** 8   82   80 1012.3 ***** 1012.2  90 *** *****  0.04  0.06 ***** **
914250 ***** 201504270000 050   2 *** 295 BKN * * * 15.0 ** ** ** ** ** ** ** ** *   83   80 1011.3 ***** 1011.2 ***  76 ***** *****  0.06 ***** **
914250 ***** 201504270600 160   1 *** 295 BKN * * * 15.0 ** ** ** ** ** ** ** ** *   85   82 1008.8 ***** 1008.7 *** *** ***** *****  0.00 ***** **
914250 ***** 201504271200 160   1 ***  18 OVC * * * 15.0 ** ** ** ** ** ** ** ** *   83   79 1012.2 ***** 1012.1  90 *** ***** ***** ***** ***** **
914250 ***** 201504280600 260   7 *** 295 BKN * * * 15.0 ** ** ** ** ** ** ** ** *   85   82 1008.8 ***** 1008.7 *** *** ***** *****  0.90 ***** **
914250 ***** 201504281200 310   6 ***  18 OVC * * * 15.0 ** ** ** ** ** ** ** ** *   82   79 1012.1 ***** 1012.0  90 *** ***** *****  0.90 ***** **
914250 ***** 201504290000 220   6 ***  17 OVC * * * 15.0 ** ** ** ** ** ** ** ** *   86   82 1011.8 ***** 1011.7 ***  78 ***** ***** ***** ***** **
914250 ***** 201504291200 220   5 ***  18 OVC * * * 15.0 02 ** ** ** ** ** ** ** 8   80   78 1011.9 ***** 1011.8  89 *** *****  0.55  0.55 ***** **
914250 ***** 201504300000 180  10 ***  16 OVC * * * 15.0 02 ** ** ** ** ** ** ** 8   83   79 1011.8 ***** 1011.7 ***  73 ***** *****  1.01 ***** **
914250 ***** 201505010000 140   1 *** *** SCT * * * 15.0 02 ** ** ** ** ** ** ** 8   86   83 1011.8 ***** 1011.7 ***  77 ***** *****  0.10 ***** **
914250 ***** 201505020600 040   6 *** *** SCT * * * 15.0 ** ** ** ** ** ** ** ** *   80   78 1008.2 ***** 1008.1 *** *** ***** *****  0.00 ***** **
914250 ***** 201505021200 210   7 *** *** SCT * * * 15.0 ** ** ** ** ** ** ** ** *   79   76 1010.3 ***** 1010.2  93 *** ***** ***** ***** ***** **
914250 ***** 201505030000 220   7 *** *** SCT * * * 15.0 ** ** ** ** ** ** ** ** *   87   84 1010.5 ***** 1010.4 ***  77 ***** ***** ***** ***** **
914250 ***** 201505040000 040   7 *** *** SCT * * * 15.0 02 ** ** ** ** ** ** ** 8   80   78 1012.1 ***** 1012.0 ***  76 ***** *****  1.82 ***** **
914250 ***** 201505040600 270   9 *** *** OVC * * * 15.0 81 ** ** ** ** ** ** ** 8   78   76 1006.8 ***** 1006.7 *** *** *****  2.32 ***** ***** **
914250 ***** 201505041200 270  11 *** *** OVC * * * 15.0 81 ** ** ** ** ** ** ** 8   79   75 1006.9 ***** 1006.8 *** *** *****  4.37 ***** ***** **
914250 ***** 201505050000 270  15 ***  16 OVC * * * 15.0 81 ** ** ** ** ** ** ** 8   79   78 1008.1 ***** 1008.0 ***  70 ***** *****  7.23 ***** **
914250 ***** 201505050600 220  16 *** *** OVC * * * 15.0 81 ** ** ** ** ** ** ** 8   78   77 1006.2 ***** 1006.1 *** *** *****  5.75 ***** ***** **
914250 ***** 201505051200 220  15 ***  16 OVC * * * 15.0 ** ** ** ** ** ** ** ** *   77   76 1009.3 ***** 1009.2  90 *** ***** *****  5.75 ***** **
914250 ***** 201505060000 140  10 *** *** OVC * * * 15.0 ** ** ** ** ** ** ** ** *   80   78 1008.8 ***** 1008.7 *** *** ***** *****  0.59 ***** **
914250 ***** 201505060600 140   9 ***  16 OVC * * * 15.0 80 ** ** ** ** ** ** ** 8   79   75 1006.1 ***** 1006.0 *** *** *****  4.92  4.91 ***** **
914250 ***** 201505061200 220  11 *** *** OVC * * * 15.0 ** ** ** ** ** ** ** ** *   75   74 ****** ***** 1010.0 *** *** ***** ***** ***** ***** **
914250 ***** 201505071200 150   1 *** *** SCT * * * 15.0 ** ** ** ** ** ** ** ** *   80   76 1012.3 ***** 1012.2  91 *** ***** *****  1.86 ***** **
914250 ***** 201505080000 040   1 *** *** BKN * * * 15.0 02 ** ** ** ** ** ** ** 8   75   74 1010.2 ***** 1010.1 *** *** ***** *****  1.88 ***** **
914250 ***** 201505080600 040   1 ***  17 OVC * * * 15.0 02 ** ** ** ** ** ** ** 8   76   73 1007.9 ***** 1007.8 *** *** *****  2.24  2.23 ***** **
914250 ***** 201505081200 040   1 *** *** OVC * * * 15.0 02 ** ** ** ** ** ** ** 8   79   75 1010.4 ***** 1010.3  92 *** *****  2.52 ***** ***** **
914250 ***** 201505090600 040   6 *** *** OVC * * * 15.0 ** ** ** ** ** ** ** ** *   84   80 1007.3 ***** 1007.2 *** *** ***** ***** ***** ***** **
914250 ***** 201505100000 040   5 *** *** SCT * * * 15.0 ** ** ** ** ** ** ** ** *   80   78 1011.5 ***** 1011.4 ***  73 ***** ***** ***** ***** **
914250 ***** 201505100600 150   8 *** *** SCT * * * 15.0 ** ** ** ** ** ** ** ** *   79   76 1008.0 ***** 1007.9 *** *** ***** *****  0.00 ***** **
914250 ***** 201505101200 040   9 *** *** OVC * * * 15.0 ** ** ** ** ** ** ** ** *   77   75 1010.6 ***** 1010.5  92 *** ***** ***** ***** ***** **
914250 ***** 201505110000 040   7 *** *** SCT * * * 15.0 ** ** ** ** ** ** ** ** *   81   79 1011.4 ***** 1011.3 ***  76 ***** ***** ***** ***** **
914250 ***** 201505110600 040  13 *** *** SCT * * * 15.0 ** ** ** ** ** ** ** ** *   80   76 1008.4 ***** 1008.3 *** *** ***** *****  0.00 ***** **
914250 ***** 201505111200 210  15 ***  16 OVC * * * 15.0 ** ** ** ** ** ** ** ** *   79   75 1005.4 ***** 1005.3  90 *** ***** ***** ***** ***** **
914250 ***** 201505120000 230  14 *** *** SCT * * * 15.0 02 ** ** ** ** ** ** ** 8   83   81 1010.4 ***** 1010.3 ***  70 ***** *****  1.95 ***** **
914250 ***** 201505120600 230  11 *** *** SCT * * * 15.0 ** ** ** ** ** ** ** ** *   82   80 1007.4 ***** 1007.3 *** *** ***** *****  1.95 ***** **
914250 ***** 201505130000 *** *** *** *** *** * * * **** ** ** ** ** ** ** ** ** * **** **** ****** ***** ****** *** *** ***** ***** ***** ***** **
914250 ***** 201505130600 220  11 *** *** SCT * * * 15.0 ** ** ** ** ** ** ** ** *   85   82 1006.8 ***** 1006.7 *** *** ***** *****  0.16 ***** **
914250 ***** 201505131200 230  10 ***  16 OVC * * * 15.0 ** ** ** ** ** ** ** ** *   83   80 1009.6 ***** 1009.5  91 *** ***** *****  0.16 ***** **
914250 ***** 201505140000 240   9 *** *** SCT * * * 15.0 ** ** ** ** ** ** ** ** *   86 **** ****** ***** ****** *** *** ***** ***** ***** ***** **
914250 ***** 201505140600 240   6 *** *** SCT * * * 15.0 ** ** ** ** ** ** ** ** *   85   83 1007.9 ***** 1007.8 *** *** ***** *****  0.00 ***** **
914250 ***** 201505141200 230   2 *** *** OVC * * * 15.0 ** ** ** ** ** ** ** ** *   83   81 1006.1 ***** 1006.0  92 *** ***** ***** ***** ***** **
914250 ***** 201505150000 040   1 *** *** SCT * * * 15.0 ** ** ** ** ** ** ** ** *   86   80 1008.6 ***** 1008.5 ***  74 ***** ***** ***** ***** **
914250 ***** 201505151200 040   2 *** *** OVC * * * 15.0 ** ** ** ** ** ** ** ** *   82   76 1008.0 ***** 1007.9  90 *** ***** ***** ***** ***** **
914250 ***** 201505161200 360   3 *** *** OVC * * * 15.0 ** ** ** ** ** ** ** ** *   81   77 1008.9 ***** 1008.8 *** *** ***** ***** ***** ***** **
914250 ***** 201505170000 050   6 *** 295 BKN * * * 15.0 ** ** ** ** ** ** ** ** *   85   81 1012.5 ***** 1012.4 ***  77 ***** ***** ***** ***** **
914250 ***** 201505171200 040   3 *** *** SCT * * * 15.0 ** ** ** ** ** ** ** ** *   81   79 1013.0 ***** 1012.9  89 *** ***** *****  0.44 ***** **
914250 ***** 201505180600 360   6 *** 295 BKN * * * 15.0 ** ** ** ** ** ** ** ** *   83   80 1009.2 ***** 1009.1 *** *** ***** *****  0.00 ***** **
914250 ***** 201505181200 360   5 *** *** SCT * * * 15.0 ** ** ** ** ** ** ** ** *   82   79 1011.9 ***** 1011.8  89 *** ***** ***** ***** ***** **
914250 ***** 201505190600 360   3 *** *** SCT * * * 15.0 ** ** ** ** ** ** ** ** *   83   80 1009.8 ***** 1009.7 *** *** ***** ***** ***** ***** **
914250 ***** 201505191200 040   1 *** *** SCT * * * 15.0 ** ** ** ** ** ** ** ** *   83   80 1012.4 ***** 1012.3  90 *** ***** ***** ***** ***** **
914250 ***** 201505200000 040   2 ***  17 OVC * * * 15.0 02 ** ** ** ** ** ** ** 8   85   81 1012.7 ***** 1012.6 ***  76 ***** *****  0.19 ***** **
914250 ***** 201505200600 050   6 ***  16 OVC * * * 15.0 ** ** ** ** ** ** ** ** *   83   80 1010.0 ***** 1009.9 *** *** ***** *****  0.19 ***** **
914250 ***** 201505201200 040   1 ***  18 OVC * * * 15.0 02 ** ** ** ** ** ** ** 8   80   78 1013.3 ***** 1013.2  88 *** *****  0.31  0.31 ***** **
914250 ***** 201505211200 160   1 *** 295 BKN * * * 15.0 ** ** ** ** ** ** ** ** *   81   79 1012.8 ***** 1012.7  91 *** ***** *****  0.17 ***** **
914250 ***** 201505220000 140   1 ***  18 OVC * * * 15.0 02 ** ** ** ** ** ** ** 8   82   80 1012.3 ***** 1012.2 ***  76 ***** *****  0.12 ***** **
914250 ***** 201505220600 310  10 ***  17 OVC * * * 15.0 02 ** ** ** ** ** ** ** 8   81   79 1009.8 ***** 1009.7 *** *** *****  0.16  0.17 ***** **
914250 ***** 201505230000 160   9 ***  16 OVC * * * 15.0 02 ** ** ** ** ** ** ** 8   80   79 1013.1 ***** 1013.0 ***  72 ***** *****  2.60 ***** **
914250 ***** 201505230600 220   6 ***  18 OVC * * * 15.0 ** ** ** ** ** ** ** ** *   82   80 1009.8 ***** 1009.7 *** *** ***** *****  2.60 ***** **
914250 ***** 201505231200 160   2 ***  17 OVC * * * 15.0 ** ** ** ** ** ** ** ** *   81   79 1011.9 ***** 1011.8  86 *** ***** *****  2.60 ***** **
914250 ***** 201505240000 170   2 *** 295 BKN * * * 15.0 ** ** ** ** ** ** ** ** *   85   83 1012.5 ***** 1012.4 ***  77 ***** ***** ***** ***** **
914250 ***** 201505240600 170   2 *** 285 OVC * * * 15.0 ** ** ** ** ** ** ** ** *   83   81 1009.9 ***** 1009.8 *** *** ***** *****  0.00 ***** **
914250 ***** 201505250000 160   1 *** *** SCT * * * 15.0 02 ** ** ** ** ** ** ** 8   85   82 1013.2 ***** 1013.1 ***  74 ***** *****  0.58 ***** **
914250 ***** 201505250600 160   3 *** 285 BKN * * * 15.0 ** ** ** ** ** ** ** ** *   86   82 1011.5 ***** 1011.4 *** *** ***** *****  0.58 ***** **
914250 ***** 201505251200 040   1 *** *** SCT * * * 15.0 ** ** ** ** ** ** ** ** *   82   79 1013.9 ***** 1013.8  90 *** ***** *****  0.58 ***** **
914250 ***** 201505260000 360   6 *** *** BKN * * * 15.0 ** ** ** ** ** ** ** ** *   85   81 1013.7 ***** 1013.6 *** *** ***** ***** ***** ***** **
914250 ***** 201505260600 360   6 *** 295 OVC * * * 15.0 ** ** ** ** ** ** ** ** *   83   80 1010.9 ***** 1010.8 *** *** ***** *****  0.00 ***** **
914250 ***** 201505261200 040   2 ***  17 OVC * * * 15.0 02 ** ** ** ** ** ** ** 8   78   76 1013.2 ***** 1013.1  89 *** *****  0.31  0.30 ***** **
914250 ***** 201505270000 210   3 *** 285 OVC * * * 15.0 02 ** ** ** ** ** ** ** 8   85   83 1011.9 ***** 1011.8 ***  71 ***** *****  1.33 ***** **
914250 ***** 201505270600 220   2 *** *** SCT * * * 15.0 ** ** ** ** ** ** ** ** *   83   81 1007.2 ***** 1007.1 *** *** ***** *****  1.33 ***** **
914250 ***** 201505271200 310   8 *** *** OVC * * * 15.0 ** ** ** ** ** ** ** ** *   80   78 1012.8 ***** 1012.7 *** *** ***** ***** ***** ***** **
914250 ***** 201505280000 140   1 ***  16 OVC * * * 15.0 ** ** ** ** ** ** ** ** *   85   82 1013.3 ***** 1013.2 ***  74 ***** *****  0.36 ***** **
914250 ***** 201505280600 140   1 *** 295 BKN * * * 15.0 ** ** ** ** ** ** ** ** *   86   81 1011.0 ***** 1010.9 *** *** ***** *****  0.00 ***** **
914250 ***** 201505291200 040   1 *** *** SCT * * * 15.0 ** ** ** ** ** ** ** ** *   81   78 1013.4 ***** 1013.3  89 *** ***** *****  0.27 ***** **
914250 ***** 201505300000 310   6 ***  17 OVC * * * 15.0 02 ** ** ** ** ** ** ** 8   83   80 1013.3 ***** 1013.2 ***  72 ***** *****  0.95 ***** **
914250 ***** 201505300600 310   2 *** 295 OVC * * * 15.0 ** ** ** ** ** ** ** ** *   85   81 1010.0 ***** 1009.9 *** *** ***** *****  0.95 ***** **
914250 ***** 201505301200 090   1 *** *** SCT * * * 15.0 ** ** ** ** ** ** ** ** *   81   78 1012.4 ***** 1012.3  89 *** ***** *****  0.95 ***** **
914250 ***** 201505310000 250   5 *** 295 BKN * * * 15.0 ** ** ** ** ** ** ** ** *   83   80 1011.8 ***** 1011.7 ***  75 ***** ***** ***** ***** **
914250 ***** 201505310600 250   5 *** 295 OVC * * * 15.0 ** ** ** ** ** ** ** ** *   84   80 1008.8 ***** 1008.7 *** *** ***** *****  0.00 ***** **
914250 ***** 201505311200 220   5 ***  18 OVC * * * 15.0 ** ** ** ** ** ** ** ** *   83   79 1011.8 ***** 1011.7  91 *** ***** ***** ***** ***** **
914250 ***** 201506010000 220   6 ***  17 OVC * * * 15.0 80 ** ** ** ** ** ** ** 8   80   78 1011.7 ***** 1011.6 ***  75 ***** *****  0.05 ***** **
914250 ***** 201506010600 220   8 *** *** SCT * * * 15.0 ** ** ** ** ** ** ** ** *   79   76 1009.3 ***** 1009.2 *** *** ***** *****  0.05 ***** **
914250 ***** 201506011200 220   9 *** *** SCT * * * 15.0 ** ** ** ** ** ** ** ** *   77   74 1011.8 ***** 1011.7  90 *** ***** *****  0.05 ***** **
914250 ***** 201506020000 240  11 *** *** OVC * * * 15.0 81 ** ** ** ** ** ** ** 8   79   77 1013.1 ***** 1013.0 *** *** ***** *****  0.20 ***** **
914250 ***** 201506020600 270   1 ***  17 OVC * * * 15.0 02 ** ** ** ** ** ** ** 8   80   75 1008.4 ***** 1008.3 *** *** *****  0.91  0.90 ***** **
914250 ***** 201506021200 230   3 *** *** SCT * * * 15.0 ** ** ** ** ** ** ** ** *   79   74 1006.9 ***** 1006.8  87 *** ***** *****  0.90 ***** **
914250 ***** 201506030000 040   1 *** *** SCT * * * 15.0 ** ** ** ** ** ** ** ** *   86   83 1011.9 ***** 1011.8 ***  75 ***** *****  0.72 ***** **
914250 ***** 201506030600 040   1 *** *** SCT * * * 15.0 ** ** ** ** ** ** ** ** *   84   81 1009.4 ***** 1009.3 *** *** ***** *****  0.72 ***** **
914250 ***** 201506040000 090   3 *** *** BKN * * * 15.0 ** ** ** ** ** ** ** ** *   87   82 1011.4 ***** 1011.3 ***  75 ***** ***** ***** ***** **
914250 ***** 201506040600 040   2 *** *** SCT * * * 15.0 ** ** ** ** ** ** ** ** *   86   80 1007.1 ***** 1007.0 *** *** ***** ***** ***** ***** **
914250 ***** 201506050000 040   5 *** *** SCT * * * 15.0 ** ** ** ** ** ** ** ** *   79   76 1011.3 ***** 1011.2 ***  76 ***** ***** ***** ***** **
914250 ***** 201506050600 040   3 *** *** SCT * * * 15.0 ** ** ** ** ** ** ** ** *   77   75 1010.3 ***** 1010.2 *** *** ***** *****  0.00 ***** **
914250 ***** 201506051200 040   1 *** *** SCT * * * 15.0 ** ** ** ** ** ** ** ** *   76   74 1008.3 ***** 1008.2  87 *** ***** ***** ***** ***** **
914250 ***** 201506060000 040   2 *** *** SCT * * * 15.0 ** ** ** ** ** ** ** ** *   85   83 1007.3 ***** 1007.2 ***  75 ***** ***** ***** ***** **
914250 ***** 201506060600 090   2 *** *** SCT * * * 15.0 ** ** ** ** ** ** ** ** *   84   80 1006.2 ***** 1006.1 *** *** ***** *****  0.00 ***** **
914250 ***** 201506061200 090   1 ***  17 BKN * * * 15.0 ** ** ** ** ** ** ** ** *   83   78 1010.5 ***** 1010.4  92 *** ***** ***** ***** ***** **
914250 ***** 201506070600 090   3 *** *** SCT * * * 15.0 ** ** ** ** ** ** ** ** *   80   77 1008.6 ***** 1008.5 *** *** ***** *****  0.00 ***** **
914250 ***** 201506071200 090   1 *** *** OVC * * * 15.0 ** ** ** ** ** ** ** ** *   79   75 1010.7 ***** 1010.6 *** *** ***** ***** ***** ***** **
914250 ***** 201506080600 090   1 *** *** SCT * * * 15.0 ** ** ** ** ** ** ** ** *   81   78 1007.1 ***** 1007.0 *** *** ***** *****  0.00 ***** **
914250 ***** 201506081200 090   2 ***  16 OVC * * * 15.0 ** ** ** ** ** ** ** ** *   80   76 1010.6 ***** 1010.5  91 *** ***** ***** ***** ***** **
914250 ***** 201506090000 090   1 *** *** BKN * * * 15.0 ** ** ** ** ** ** ** ** *   87   83 1011.3 ***** 1011.2 ***  73 ***** ***** ***** ***** **
914250 ***** 201506090600 090   1 *** *** SCT * * * 15.0 ** ** ** ** ** ** ** ** *   86   82 1008.1 ***** 1008.0 *** *** ***** *****  0.00 ***** **
914250 ***** 201506091200 090   1 ***  16 OVC * * * 15.0 ** ** ** ** ** ** ** ** *   85   80 1010.2 ***** 1010.1  91 *** ***** ***** ***** ***** **
914250 ***** 201506100000 040   2 *** *** SCT * * * 15.0 ** ** ** ** ** ** ** ** *   82   78 1009.1 ***** 1009.0 ***  75 ***** ***** ***** ***** **
914250 ***** 201506100600 040   1 *** *** SCT * * * 15.0 ** ** ** ** ** ** ** ** *   81   77 1007.6 ***** 1007.5 *** *** ***** ***** ***** ***** **
914250 ***** 201506101200 040   1 *** *** OVC * * * 15.0 02 ** ** ** ** ** ** ** 8   80   75 1008.4 ***** 1008.3 *** *** *****  0.35 ***** ***** **
914250 ***** 201506110000 040   3 ***  16 OVC * * * 15.0 80 ** ** ** ** ** ** ** 8   80   78 1009.2 ***** 1009.1 ***  75 ***** *****  1.72 ***** **
914250 ***** 201506110600 040   5 *** *** OVC * * * 15.0 81 ** ** ** ** ** ** ** 8   79   77 1006.4 ***** 1006.3 *** *** *****  2.20 ***** ***** **
914250 ***** 201506111200 090   1 ***  16 OVC * * * 15.0 02 ** ** ** ** ** ** ** 8   78   76 1009.7 ***** 1009.6  92 *** *****  2.48  2.49 ***** **
914250 ***** 201506120000 220   2 *** *** SCT * * * 15.0 ** ** ** ** ** ** ** ** *   87   83 1010.5 ***** 1010.4 ***  73 ***** *****  1.14 ***** **
914250 ***** 201506120600 220   3 *** *** SCT * * * 15.0 ** ** ** ** ** ** ** ** *   86   84 1007.0 ***** 1006.9 *** *** ***** *****  1.14 ***** **
914250 ***** 201506121200 220   1 *** *** OVC * * * 15.0 ** ** ** ** ** ** ** ** *   85   82 1010.6 ***** 1010.5  90 *** ***** ***** ***** ***** **
914250 ***** 201506130000 230   5 *** *** SCT * * * 15.0 ** ** ** ** ** ** ** ** *   79   77 1012.4 ***** 1012.3 ***  77 ***** ***** ***** ***** **
914250 ***** 201506140000 040   1 *** *** SCT * * * 15.0 ** ** ** ** ** ** ** ** *   87   84 1010.4 ***** 1010.3 ***  75 ***** ***** ***** ***** **
914250 ***** 201506140600 090   1 *** *** SCT * * * 15.0 ** ** ** ** ** ** ** ** *   86   83 1009.1 ***** 1009.0 *** *** ***** *****  0.00 ***** **
914250 ***** 201506150000 040   3 *** *** SCT * * * 15.0 ** ** ** ** ** ** ** ** *   86   83 1010.7 ***** 1010.6 ***  75 ***** ***** ***** ***** **
914250 ***** 201506150600 090   2 *** *** SCT * * * 15.0 ** ** ** ** ** ** ** ** *   85   81 1007.9 ***** 1007.8 *** *** ***** *****  0.00 ***** **
914250 ***** 201506151200 090   3 *** *** OVC * * * 15.0 ** ** ** ** ** ** ** ** *   84   80 1011.2 ***** 1011.1  90 *** ***** ***** ***** ***** **
914250 ***** 201506160000 090   1 *** *** OVC * * * 15.0 02 ** ** ** ** ** ** ** 9   85   81 1009.9 ***** 1009.8 *** *** ***** *****  1.26 ***** **
914250 ***** 201506161200 090   2 ***  18 OVC * * * 15.0 02 ** ** ** ** ** ** ** 8   80   78 1010.2 ***** 1010.1  91 *** *****  1.34  1.34 ***** **
914250 ***** 201506170000 090   1 *** *** SCT * * * 15.0 ** ** ** ** ** ** ** ** *   83   80 1010.5 ***** 1010.4 ***  76 ***** *****  0.07 ***** **
914250 ***** 201506170600 140   2 *** 295 BKN * * * 15.0 ** ** ** ** ** ** ** ** *   86   82 1007.3 ***** 1007.2 *** *** ***** *****  0.00 ***** **
914250 ***** 201506171200 140   2 *** *** SCT * * * 15.0 ** ** ** ** ** ** ** ** *   82   79 1009.4 ***** 1009.3  93 *** ***** ***** ***** ***** **
914250 ***** 201506180000 360   5 *** *** SCT * * * 15.0 ** ** ** ** ** ** ** ** *   85   81 1010.0 ***** 1009.9 ***  76 ***** ***** ***** ***** **
914250 ***** 201506180600 360   6 ***  17 OVC * * * 15.0 02 ** ** ** ** ** ** ** 8   83   79 1007.4 ***** 1007.3 *** *** *****  0.08  0.07 ***** **
914250 ***** 201506200000 220   2 ***  18 OVC * * * 15.0 ** ** ** ** ** ** ** ** *   83   81 1010.1 ***** 1010.0 ***  75 ***** *****  0.41 ***** **
914250 ***** 201506201200 160   2 ***  17 OVC * * * 15.0 02 ** ** ** ** ** ** ** 8   80   78 1010.2 ***** 1010.1  87 *** *****  0.08  0.07 ***** **
914250 ***** 201506210000 170   1 *** 295 BKN * * * 15.0 02 ** ** ** ** ** ** ** 8   84   82 1010.2 ***** 1010.1 ***  75 ***** *****  0.31 ***** **
914250 ***** 201506210600 220   3 ***  17 OVC * * * 15.0 02 ** ** ** ** ** ** ** 8   83   81 1008.6 ***** 1008.5 *** *** *****  0.43  0.43 ***** **
914250 ***** 201506220000 160   2 ***  16 OVC * * * 15.0 02 ** ** ** ** ** ** ** 8   82   80 1010.5 ***** 1010.4 ***  74 ***** *****  0.62 ***** **
914250 ***** 201506220600 160   3 ***  17 OVC * * * 15.0 ** ** ** ** ** ** ** ** *   85   83 1008.2 ***** 1008.1 *** *** ***** *****  0.62 ***** **
914250 ***** 201506221200 140   1 *** *** SCT * * * 15.0 ** ** ** ** ** ** ** ** *   80   78 1009.9 ***** 1009.8  89 *** ***** *****  0.62 ***** **
914250 ***** 201506230000 040   5 ***  16 OVC * * * 14.4 81 ** ** ** ** ** ** ** 8   79   77 1010.8 ***** 1010.7 ***  74 ***** *****  0.72 ***** **
914250 ***** 201506230600 260   2 ***  17 OVC * * * 15.0 02 ** ** ** ** ** ** ** 8   80   77 1010.8 ***** 1010.7 *** *** *****  2.05  2.04 ***** **
914250 ***** 201506251200 220  11 ***  18 OVC * * * 15.0 ** ** ** ** ** ** ** ** *   80   78 1011.7 ***** 1011.6  87 *** ***** *****  0.22 ***** **
914250 ***** 201506260000 220   6 ***  18 OVC * * * 15.0 ** ** ** ** ** ** ** ** *   83   81 1011.6 ***** 1011.5 ***  70 ***** *****  0.09 ***** **
914250 ***** 201506261200 220  14 *** *** OVC * * * 15.0 02 ** ** ** ** ** ** ** 8   80   79 1011.9 ***** 1011.8 *** *** *****  0.39 ***** ***** **
914250 ***** 201506280000 220  15 ***  17 OVC * * * 15.0 ** ** ** ** ** ** ** ** *   80   79 1007.4 ***** 1007.3 ***  69 ***** *****  1.48 ***** **
914250 ***** 201506280600 220  14 ***  16 OVC * * * 15.0 ** ** ** ** ** ** ** ** *   82   79 1008.4 ***** 1008.3 *** *** ***** *****  1.48 ***** **
914250 ***** 201506281200 220   8 ***  18 OVC * * * 15.0 ** ** ** ** ** ** ** ** *   81   78 1011.9 ***** 1011.8  89 *** ***** *****  1.48 ***** **
914250 ***** 201506290000 220   9 *** *** SCT * * * 15.0 ** ** ** ** ** ** ** ** *   85   83 1007.5 ***** 1007.4 ***  67 ***** ***** ***** ***** **
914250 ***** 201506290600 220   7 *** 295 OVC * * * 15.0 ** ** ** ** ** ** ** ** *   83   81 1008.2 ***** 1008.1 *** *** ***** *****  0.00 ***** **
914250 ***** 201506291200 220   7 ***  18 OVC * * * 15.0 ** ** ** ** ** ** ** ** *   82   80 1011.7 ***** 1011.6  91 *** ***** ***** ***** ***** **
914250 ***** 201506301200 220   3 *** 295 OVC * * * 15.0 ** ** ** ** ** ** ** ** *   82   80 1010.3 ***** 1010.2  89 *** ***** ***** ***** ***** **
914250 ***** 201507010000 230   9 *** *** BKN * * * 15.0 02 ** ** ** ** ** ** ** 8   84   82 1010.4 ***** 1010.3 *** *** ***** *****  1.77 ***** **
914250 ***** 201507010600 220   7 *** *** SCT * * * 15.0 ** ** ** ** ** ** ** ** *   82   81 1007.3 ***** 1007.2 *** *** ***** *****  1.76 ***** **
914250 ***** 201507011200 220  13 *** *** OVC * * * 15.0 80 ** ** ** ** ** ** ** 8   83   80 1010.5 ***** 1010.4 *** *** *****  1.85 ***** ***** **
914250 ***** 201507020000 230  11 *** *** SCT * * * 15.0 02 ** ** ** ** ** ** ** 8   80   78 1008.6 ***** 1008.5 *** *** ***** *****  1.54 ***** **
914250 ***** 201507020600 230   6 *** *** OVC * * * 15.0 02 ** ** ** ** ** ** ** 8   79   76 1006.4 ***** 1006.3 *** *** *****  3.46 ***** ***** **
914250 ***** 201507030000 240   7 *** 295 OVC * * * 15.0 02 ** ** ** ** ** ** ** 8   78   75 1009.3 ***** 1009.2 ***  74 ***** *****  3.52 ***** **
914250 ***** 201507030600 220   6 *** *** SCT * * * 15.0 ** ** ** ** ** ** ** ** *   77   74 1007.5 ***** 1007.4 *** *** ***** *****  3.52 ***** **
914250 ***** 201507040000 220   1 *** *** SCT * * * 15.0 ** ** ** ** ** ** ** ** *   73 **** 1011.2 ***** 1011.1 *** *** ***** ***** ***** ***** **
914250 ***** 201507040600 220   2 *** *** SCT * * * 15.0 ** ** ** ** ** ** ** ** *   84   82 1007.9 ***** 1007.8 *** *** ***** *****  0.00 ***** **
914250 ***** 201507050000 220   3 *** 295 BKN * * * 15.0 ** ** ** ** ** ** ** ** *   86   83 1010.3 ***** 1010.2 ***  80 ***** ***** ***** ***** **
914250 ***** 201507051200 220   2 ***  17 OVC * * * 15.0 ** ** ** ** ** ** ** ** *   84   78 1011.6 ***** 1011.5  92 *** ***** ***** ***** ***** **
914250 ***** 201507060000 220   3 *** *** SCT * * * 15.0 ** ** ** ** ** ** ** ** *   87   84 1010.6 ***** 1010.5 ***  79 ***** ***** ***** ***** **
914250 ***** 201507060600 220   2 *** *** SCT * * * 15.0 ** ** ** ** ** ** ** ** *   86   83 1009.1 ***** 1009.0 *** *** ***** *****  0.00 ***** **
914250 ***** 201507061200 230   1 ***  16 OVC * * * 15.0 ** ** ** ** ** ** ** ** *   85   81 1012.2 ***** 1012.1  90 *** ***** ***** ***** ***** **
914250 ***** 201507070000 220   2 *** *** SCT * * * 15.0 ** ** ** ** ** ** ** ** *   87   82 1011.1 ***** 1011.0 ***  75 ***** ***** ***** ***** **
914250 ***** 201507070600 220   1 *** *** SCT * * * 15.0 ** ** ** ** ** ** ** ** *   85   81 1008.4 ***** 1008.3 *** *** ***** *****  0.00 ***** **
914250 ***** 201507071200 230   3 ***  17 OVC * * * 15.0 ** ** ** ** ** ** ** ** *   83   80 1011.7 ***** 1011.6  92 *** ***** ***** ***** ***** **
914250 ***** 201507080000 220   1 *** *** SCT * * * 15.0 ** ** ** ** ** ** ** ** *   88   81 1013.1 ***** 1013.0 ***  75 ***** ***** ***** ***** **
914250 ***** 201507080600 220   2 *** *** SCT * * * 15.0 ** ** ** ** ** ** ** ** *   87   80 1006.7 ***** 1006.6 *** *** ***** *****  0.00 ***** **
914250 ***** 201507081200 220   1 *** *** OVC * * * 15.0 ** ** ** ** ** ** ** ** *   86   78 1007.8 ***** 1007.7  92 *** ***** ***** ***** ***** **
914250 ***** 201507090000 220   1 *** *** SCT * * * 15.0 ** ** ** ** ** ** ** ** *   85   80 1012.3 ***** 1012.2 ***  73 ***** ***** ***** ***** **
914250 ***** 201507090600 220   1 *** *** SCT * * * 15.0 ** ** ** ** ** ** ** ** *   83   79 1007.1 ***** 1007.0 *** *** ***** *****  0.00 ***** **
914250 ***** 201507091200 230   1 *** *** OVC * * * 15.0 ** ** ** ** ** ** ** ** *   82   77 1007.5 ***** 1007.4  91 *** ***** ***** ***** ***** **
914250 ***** 201507100000 220   3 *** *** SCT * * * 15.0 ** ** ** ** ** ** ** ** *   80   78 1012.4 ***** 1012.3 ***  75 ***** ***** ***** ***** **
914250 ***** 201507110000 230   5 *** *** SCT * * * 15.0 ** ** ** ** ** ** ** ** *   80   78 1010.3 ***** 1010.2 ***  79 ***** ***** ***** ***** **
914250 ***** 201507110600 220   2 *** *** SCT * * * 15.0 ** ** ** ** ** ** ** ** *   79   77 1007.2 ***** 1007.1 *** *** ***** *****  0.00 ***** **
914250 ***** 201507111200 230   6 ***  17 OVC * * * 15.0 ** ** ** ** ** ** ** ** *   78   75 1009.3 ***** 1009.2  87 *** ***** ***** ***** ***** **
914250 ***** 201507120000 220   7 *** *** SCT * * * 15.0 ** ** ** ** ** ** ** ** *   81   79 1012.4 ***** 1012.3 ***  76 ***** ***** ***** ***** **
914250 ***** 201507120600 230   3 *** *** SCT * * * 15.0 ** ** ** ** ** ** ** ** *   80   77 1007.1 ***** 1007.0 *** *** ***** *****  0.00 ***** **
914250 ***** 201507121200 240   6 ***  16 OVC * * * 15.0 ** ** ** ** ** ** ** ** *   79   76 1008.2 ***** 1008.1  90 *** ***** ***** ***** ***** **
914250 ***** 201507130000 230   1 *** *** BKN * * * 15.0 ** ** ** ** ** ** ** ** *   85   83 1008.4 ***** 1008.3 ***  77 ***** ***** ***** ***** **
914250 ***** 201507130600 220   5 *** *** SCT * * * 15.0 ** ** ** ** ** ** ** ** *   84   81 1007.6 ***** 1007.5 *** *** ***** *****  0.00 ***** **
914250 ***** 201507140000 240   3 *** *** SCT * * * 15.0 ** ** ** ** ** ** ** ** *   78   76 1007.3 ***** 1007.2 ***  69 ***** ***** ***** ***** **
914250 ***** 201507140600 240   2 *** *** SCT * * * 15.0 ** ** ** ** ** ** ** ** *   77   75 1009.5 ***** 1009.4 *** *** ***** *****  0.00 ***** **
914250 ***** 201507150000 240   6 *** *** SCT * * * 15.0 ** ** ** ** ** ** ** ** *   80   78 1010.1 ***** 1010.0 ***  76 ***** ***** ***** ***** **
914250 ***** 201507150600 220   1 *** *** SCT * * * 15.0 ** ** ** ** ** ** ** ** *   79   77 1009.2 ***** 1009.1 *** *** ***** *****  0.00 ***** **
914250 ***** 201507160000 220   1 *** *** SCT * * * 15.0 ** ** ** ** ** ** ** ** *   85   82 1011.1 ***** 1011.0 ***  76 ***** ***** ***** ***** **
914250 ***** 201507160600 220   3 *** *** SCT * * * 15.0 ** ** ** ** ** ** ** ** * ****   81 ****** ***** ****** *** *** ***** ***** ***** ***** **
914250 ***** 201507161200 270   5 ***  16 OVC * * * 15.0 ** ** ** ** ** ** ** ** *   83   80 1007.2 ***** 1007.1  91 *** ***** ***** ***** ***** **
914250 ***** 201507170000 320   9 *** *** SCT * * * 15.0 ** ** ** ** ** ** ** ** *   85   81 1012.7 ***** 1012.6 ***  74 ***** ***** ***** ***** **
914250 ***** 201507170600 320   6 *** 118 OVC * * * 15.0 ** ** ** ** ** ** ** ** *   84   81 1010.3 ***** 1010.2 *** *** ***** *****  0.00 ***** **
914250 ***** 201507180000 310   5 *** *** SCT * * * 15.0 ** ** ** ** ** ** ** ** *   85   81 1012.3 ***** 1012.2 *** *** ***** ***** ***** ***** **
914250 ***** 201507180600 310   5 *** *** SCT * * * 15.0 ** ** ** ** ** ** ** ** *   83   80 1011.2 ***** 1011.1 *** *** ***** *****  0.00 ***** **
914250 ***** 201507181200 040   2 *** *** SCT * * * 15.0 ** ** ** ** ** ** ** ** *   82   79 1013.2 ***** 1013.1  91 *** ***** ***** ***** ***** **
914250 ***** 201507190000 040   1 *** *** SCT * * * 15.0 ** ** ** ** ** ** ** ** *   81   79 1012.5 ***** 1012.4 ***  78 ***** ***** ***** ***** **
914250 ***** 201507190600 360   2 ***  18 OVC * * * 15.0 ** ** ** ** ** ** ** ** *   83   81 1010.4 ***** 1010.3 *** *** ***** *****  0.00 ***** **
914250 ***** 201507191200 040   1 *** *** SCT * * * 15.0 ** ** ** ** ** ** ** ** *   81   78 1012.9 ***** 1012.8  90 *** ***** ***** ***** ***** **
914250 ***** 201507200000 140   2 *** *** SCT * * * 15.0 02 ** ** ** ** ** ** ** 8   83   80 1012.9 ***** 1012.8 ***  74 ***** *****  0.18 ***** **
914250 ***** 201507200600 140   2 *** *** SCT * * * 15.0 ** ** ** ** ** ** ** ** *   84   81 1010.7 ***** 1010.6 *** *** ***** *****  0.18 ***** **
914250 ***** 201507210000 130   3 *** *** SCT * * * 15.0 ** ** ** ** ** ** ** ** *   86   82 1012.8 ***** 1012.7 ***  75 ***** ***** ***** ***** **
914250 ***** 201507211200 140   2 *** *** SCT * * * 15.0 ** ** ** ** ** ** ** ** *   80   77 1014.3 ***** 1014.2 *** *** ***** ***** ***** ***** **
914250 ***** 201507220000 310   2 *** *** SCT * * * 15.0 ** ** ** ** ** ** ** ** *   83   80 1014.8 ***** 1014.7 ***  75 ***** ***** ***** ***** **
914250 ***** 201507220600 220   2 *** *** SCT * * * 15.0 ** ** ** ** ** ** ** ** *   86   81 1011.1 ***** 1011.0 *** *** ***** *****  0.00 ***** **
914250 ***** 201507221200 220   2 *** *** SCT * * * 15.0 ** ** ** ** ** ** ** ** *   84   80 1011.6 ***** 1011.5  91 *** ***** ***** ***** ***** **
914250 ***** 201507230000 360   5 *** 295 BKN * * * 15.0 ** ** ** ** ** ** ** ** *   85   81 1014.2 ***** 1014.1 ***  75 ***** ***** ***** ***** **
914250 ***** 201507231200 360   1 *** *** SCT * * * 15.0 ** ** ** ** ** ** ** ** *   85   79 1008.4 ***** 1008.3  91 *** ***** ***** ***** ***** **
914250 ***** 201507240600 160   5 *** 285 OVC * * * 15.0 02 ** ** ** ** ** ** ** 8   83   79 1010.8 ***** 1010.7 *** *** *****  0.31  0.31 ***** **
914250 ***** 201507250000 170   3 *** 295 BKN * * * 15.0 02 ** ** ** ** ** ** ** 8   84   80 1013.8 ***** 1013.7 ***  74 ***** *****  1.26 ***** **
914250 ***** 201507251200 220   8 *** 295 BKN * * * 15.0 ** ** ** ** ** ** ** ** *   81   78 1013.7 ***** 1013.6  88 *** ***** *****  0.37 ***** **
914250 ***** 201507260000 220  10 ***  16 OVC * * * 15.0 80 ** ** ** ** ** ** ** 8   78   76 1013.8 ***** 1013.7 ***  74 ***** *****  0.62 ***** **
914250 ***** 201507260600 220  11 ***  17 OVC * * * 15.0 02 ** ** ** ** ** ** ** 8   80   78 1011.3 ***** 1011.2 *** *** *****  0.39  0.40 ***** **
914250 ***** 201507270000 230   9 *** *** OVC * * * 15.0 ** ** ** ** ** ** ** ** *   80   78 1012.6 ***** 1012.5 *** *** ***** ***** ***** ***** **
914250 ***** 201507271200 260  11 ***  17 OVC * * * 15.0 ** ** ** ** ** ** ** ** *   79   77 1012.7 ***** 1012.6  87 *** ***** *****  0.06 ***** **
914250 ***** 201507280600 210   9 ***  16 OVC * * * 15.0 ** ** ** ** ** ** ** ** *   81   78 1009.0 ***** 1008.9 *** *** ***** *****  0.11 ***** **
914250 ***** 201507290000 220   6 ***  16 OVC * * * 15.0 02 ** ** ** ** ** ** ** 8   83   81 1011.6 ***** 1011.5 ***  71 ***** *****  0.79 ***** **
914250 ***** 201507291200 310   8 ***  18 OVC * * * 15.0 80 ** ** ** ** ** ** ** 8   79   77 1012.5 ***** 1012.4  88 *** *****  1.30  1.28 ***** **
914250 ***** 201507300000 310   6 *** *** SCT * * * 15.0 02 ** ** ** ** ** ** ** 8   83   80 1011.7 ***** 1011.6 ***  73 ***** *****  1.27 ***** **
914250 ***** 201507300600 220   7 ***  17 OVC * * * 15.0 ** ** ** ** ** ** ** ** *   82   79 1007.8 ***** 1007.7 *** *** ***** *****  1.27 ***** **
914250 ***** 201507301200 220   7 *** 295 OVC * * * 15.0 ** ** ** ** ** ** ** ** *   81   78 1010.3 ***** 1010.2  87 *** ***** *****  1.27 ***** **
914250 ***** 201507310000 180   5 ***  16 OVC * * * 15.0 80 ** ** ** ** ** ** ** 8   80   78 1010.5 ***** 1010.4 ***  72 ***** *****  0.70 ***** **
914250 ***** 201507310600 270  21 ***  16 OVC * * * 15.0 81 ** ** ** ** ** ** ** 8   78   77 1006.2 ***** 1006.1 *** *** *****  3.66  3.65 ***** **
914250 ***** 201508010000 270   1 *** *** OVC * * * 15.0 02 ** ** ** ** ** ** ** 8   76 **** 1010.5 ***** 1010.4 ***  70 ***** *****  4.77 ***** **
914250 ***** 201508010600 270   2 *** *** OVC * * * 15.0 02 ** ** ** ** ** ** ** 8   75   74 1007.8 ***** 1007.7 *** *** *****  0.59 ***** ***** **
914250 ***** 201508011200 270   5 ***  16 OVC * * * 15.0 02 ** ** ** ** ** ** ** 8   83   79 1007.3 ***** 1007.2  87 *** *****  0.75  0.75 ***** **
914250 ***** 201508020000 270   3 *** *** SCT * * * 15.0 ** ** ** ** ** ** ** ** *   78   76 1008.2 ***** 1008.1 ***  73 ***** *****  0.28 ***** **
914250 ***** 201508020600 270   1 *** *** SCT * * * 15.0 ** ** ** ** ** ** ** ** *   77   75 1009.1 ***** 1009.0 *** *** ***** *****  0.28 ***** **
914250 ***** 201508021200 190   9 *** *** OVC * * *  0.1 ** ** ** ** ** ** ** ** *   76   74 1010.5 ***** 1010.4  92 *** ***** *****  0.28 ***** **
914250 ***** 201508030000 270   3 *** *** SCT * * * 15.0 02 ** ** ** ** ** ** ** 8   86   82 1012.1 ***** 1012.0 ***  75 ***** *****  0.47 ***** **
914250 ***** 201508030600 270   1 *** *** SCT * * * 15.0 ** ** ** ** ** ** ** ** *   85   81 1008.6 ***** 1008.5 *** *** ***** *****  0.46 ***** **
914250 ***** 201508040000 270   1 *** *** SCT * * * 15.0 02 ** ** ** ** ** ** ** 8   87   84 1011.5 ***** 1011.4 *** *** ***** *****  2.36 ***** **
914250 ***** 201508040600 270   2 *** *** SCT * * * 15.0 ** ** ** ** ** ** ** ** *   86   83 1008.4 ***** 1008.3 *** *** ***** *****  2.35 ***** **
914250 ***** 201508041200 270   1 *** *** SCT * * * 15.0 ** ** ** ** ** ** ** ** *   85   82 1010.7 ***** 1010.6  92 *** ***** *****  2.35 ***** **
914250 ***** 201508050000 040   3 ***  18 OVC * * * 15.0 02 ** ** ** ** ** ** ** 8   82   80 1010.7 ***** 1010.6 ***  72 ***** *****  0.31 ***** **
914250 ***** 201508051200 040   3 *** *** OVC * * * 15.0 02 ** ** ** ** ** ** ** 8   78   75 1011.3 ***** 1011.2  90 *** *****  1.89 ***** ***** **
914250 ***** 201508060000 040   1 *** *** SCT * * * 15.0 02 ** ** ** ** ** ** ** 8   81   78 1012.0 ***** 1011.9 ***  73 ***** *****  3.05 ***** **
914250 ***** 201508061200 040   6 *** *** OVC * * * 15.0 ** ** ** ** ** ** ** ** *   79   75 1008.2 ***** 1008.1  93 *** ***** ***** ***** ***** **
914250 ***** 201508070000 040   2 *** *** SCT * * * 15.0 02 ** ** ** ** ** ** ** 8   80   77 1012.1 ***** 1012.0 ***  77 ***** *****  0.16 ***** **
914250 ***** 201508070600 260   9 ***  16 OVC * * * 15.0 02 ** ** ** ** ** ** ** 8   79   77 1009.8 ***** 1009.7 *** *** *****  0.28  0.29 ***** **
914250 ***** 201508071200 270   6 ***  16 OVC * * * 15.0 ** ** ** ** ** ** ** ** *   78   76 1007.4 ***** 1007.3  89 *** ***** *****  0.29 ***** **
914250 ***** 201508080000 270   3 ***  16 OVC * * * 15.0 80 ** ** ** ** ** ** ** 8   76   74 1006.8 ***** 1006.7 ***  72 ***** *****  2.59 ***** **
914250 ***** 201508080600 270   2 ***  17 OVC * * * 15.0 80 ** ** ** ** ** ** ** 8   77   75 1010.4 ***** 1010.3 *** *** *****  3.39  3.37 ***** **
914250 ***** 201508081200 270   1 ***  16 OVC * * * 15.0 ** ** ** ** ** ** ** ** *   78   74 1011.1 ***** 1011.0  88 *** ***** *****  3.37 ***** **
914250 ***** 201508090000 270   1 *** *** SCT * * * 15.0 ** ** ** ** ** ** ** ** *   85   83 1007.7 ***** 1007.6 *** *** ***** *****  0.91 ***** **
914250 ***** 201508100000 270   6 *** *** OVC * * * 15.0 02 ** ** ** ** ** ** ** 8   80   78 1012.2 ***** 1012.1 *** *** ***** *****  3.54 ***** **
914250 ***** 201508100600 220   7 ***  16 OVC * * * 15.0 02 ** ** ** ** ** ** ** 8   79   76 1007.0 ***** 1006.9 *** *** *****  3.31  3.30 ***** **
914250 ***** 201508110000 180   6 ***  16 OVC * * * 15.0 ** ** ** ** ** ** ** ** *   82   80 1012.4 ***** 1012.3 ***  72 ***** *****  0.25 ***** **
914250 ***** 201508110600 180   5 *** *** OVC * * * 15.0 ** ** ** ** ** ** ** ** *   82 **** ****** ***** ****** *** *** ***** ***** ***** ***** **
914250 ***** 201508120600 180   3 *** *** OVC * * * 15.0 ** ** ** ** ** ** ** ** *   79   76 1006.4 ***** 1006.3 *** *** ***** ***** ***** ***** **
914250 ***** 201508121200 180   9 ***  16 OVC * * * 15.0 ** ** ** ** ** ** ** ** *   78   75 1007.3 ***** 1007.2  84 *** ***** *****  5.52 ***** **
914250 ***** 201508130000 180   1 *** *** SCT * * * 15.0 ** ** ** ** ** ** ** ** *   86   80 1011.6 ***** 1011.5 ***  69 ***** ***** ***** ***** **
914250 ***** 201508131200 220   3 ***  16 OVC * * * 15.0 ** ** ** ** ** ** ** ** *   82   75 1007.3 ***** 1007.2  91 *** ***** ***** ***** ***** **
914250 ***** 201508140000 220   3 *** *** SCT * * * 15.0 ** ** ** ** ** ** ** ** *   77   76 1007.6 ***** 1007.5 ***  77 ***** ***** ***** ***** **
914250 ***** 201508140600 230   2 *** *** SCT * * * 15.0 ** ** ** ** ** ** ** ** *   76   75 1008.6 ***** 1008.5 *** *** ***** *****  0.00 ***** **
914250 ***** 201508141200 230   1 *** *** OVC * * * 15.0 ** ** ** ** ** ** ** ** *   77   74 1007.8 ***** 1007.7  91 *** ***** ***** ***** ***** **
914250 ***** 201508150000 270   1 *** *** SCT * * * 15.0 ** ** ** ** ** ** ** ** *   86   84 1008.7 ***** 1008.6 ***  77 ***** ***** ***** ***** **
914250 ***** 201508150600 270   3 *** *** SCT * * * 15.0 ** ** ** ** ** ** ** ** *   85   83 1009.6 ***** 1009.5 *** *** ***** *****  0.00 ***** **
914250 ***** 201508151200 270   1 ***  17 OVC * * * 15.0 ** ** ** ** ** ** ** ** *   84   81 1015.4 ***** 1011.3  91 *** ***** ***** ***** ***** **
914250 ***** 201508160000 220   6 *** 295 BKN * * * 15.0 ** ** ** ** ** ** ** ** *   85   82 1011.3 ***** 1011.2 ***  75 ***** ***** ***** ***** **
914250 ***** 201508161200 140   1 *** *** SCT * * * 15.0 ** ** ** ** ** ** ** ** *   81   79 1010.7 ***** 1010.6  92 *** ***** ***** ***** ***** **
914250 ***** 201508170000 160   6 *** *** SCT * * * 15.0 ** ** ** ** ** ** ** ** *   86   83 1010.6 ***** 1010.5 ***  78 ***** ***** ***** ***** **
914250 ***** 201508170600 160   6 *** 295 BKN * * * 15.0 ** ** ** ** ** ** ** ** *   85   82 1008.3 ***** 1008.2 *** *** ***** *****  0.00 ***** **
914250 ***** 201508171200 160   3 *** *** SCT * * * 15.0 ** ** ** ** ** ** ** ** *   82   79 1010.8 ***** 1010.7  92 *** ***** ***** ***** ***** **
914250 ***** 201508180000 160   6 *** 295 BKN * * * 15.0 ** ** ** ** ** ** ** ** *   85   82 1012.2 ***** 1012.1 ***  79 ***** ***** ***** ***** **
914250 ***** 201508180600 170   5 *** 285 OVC * * * 15.0 ** ** ** ** ** ** ** ** *   84   81 1009.2 ***** 1009.1 *** *** ***** *****  0.00 ***** **
914250 ***** 201508181200 140   1 *** *** SCT * * * 15.0 ** ** ** ** ** ** ** ** *   82   80 1011.8 ***** 1011.7  92 *** ***** ***** ***** ***** **
914250 ***** 201508190000 130   2 *** 295 OVC * * * 15.0 ** ** ** ** ** ** ** ** *   85   82 1012.3 ***** 1012.2 ***  77 ***** ***** ***** ***** **
914250 ***** 201508190600 130   2 ***  16 OVC * * * 15.0 ** ** ** ** ** ** ** ** *   86   82 1010.8 ***** 1010.7 *** *** ***** *****  0.00 ***** **
914250 ***** 201508191200 090   1 *** *** SCT * * * 15.0 ** ** ** ** ** ** ** ** *   81   80 1012.4 ***** 1012.3  92 *** ***** ***** ***** ***** **
914250 ***** 201508200000 090   2 *** *** SCT * * * 15.0 ** ** ** ** ** ** ** ** *   81   78 1009.6 ***** 1009.5 ***  79 ***** ***** ***** ***** **
914250 ***** 201508200600 040   3 *** *** SCT * * * 15.0 ** ** ** ** ** ** ** ** *   83   80 1010.5 ***** 1010.4 *** *** ***** *****  0.00 ***** **
914250 ***** 201508201200 090   2 *** *** SCT * * * 15.0 ** ** ** ** ** ** ** ** *   82   79 1012.9 ***** 1012.8  91 *** ***** ***** ***** ***** **
914250 ***** 201508210000 090   2 *** 295 BKN * * * 15.0 ** ** ** ** ** ** ** ** *   83   80 1013.3 ***** 1013.2 ***  76 ***** ***** ***** ***** **
914250 ***** 201508210600 090   2 *** *** SCT * * * 15.0 ** ** ** ** ** ** ** ** *   84   79 1010.8 ***** 1010.7 *** *** ***** *****  0.00 ***** **
914250 ***** 201508220000 040   5 *** 295 BKN * * * 15.0 ** ** ** ** ** ** ** ** *   83   80 1013.4 ***** 1014.2 ***  75 ***** ***** ***** ***** **
914250 ***** 201508220600 040   5 *** 295 BKN * * * 15.0 ** ** ** ** ** ** ** ** *   82   79 1011.5 ***** 1011.4 *** *** ***** *****  0.00 ***** **
914250 ***** 201508221200 040   2 *** *** SCT * * * 15.0 ** ** ** ** ** ** ** ** *   81   78 1013.3 ***** 1013.2  91 *** ***** ***** ***** ***** **
914250 ***** 201508230000 360   5 *** *** SCT * * * 15.0 ** ** ** ** ** ** ** ** *   82   79 1013.4 ***** 1013.3 ***  77 ***** ***** ***** ***** **
914250 ***** 201508230600 320   6 ***  17 OVC * * * 15.0 80 ** ** ** ** ** ** ** 8   80   78 1011.2 ***** 1011.1 *** *** *****  0.24  0.25 ***** **
914250 ***** 201508231200 140   1 ***  18 OVC * * * 15.0 02 ** ** ** ** ** ** ** 8   78   76 1012.7 ***** 1012.6  91 *** *****  0.59  0.57 ***** **
914250 ***** 201508240000 140   6 ***   2 OVC * * * 15.0 80 ** ** ** ** ** ** ** 8   80   78 1010.2 ***** 1010.1 *** *** ***** *****  1.77 ***** **
914250 ***** 201508241200 310   2 ***  17 OVC * * * 15.0 02 ** ** ** ** ** ** ** 8   78   75 1012.8 ***** 1012.7  88 *** *****  1.89  1.87 ***** **
914250 ***** 201508250000 220   7 *** 295 BKN * * * 15.0 02 ** ** ** ** ** ** ** 8   85   81 1012.8 ***** 1012.7 ***  73 ***** *****  0.99 ***** **
914250 ***** 201508250600 210   6 ***  16 OVC * * * 15.0 02 ** ** ** ** ** ** ** 8   81   78 1010.3 ***** 1010.2 *** *** *****  0.55  0.53 ***** **
914250 ***** 201508251200 170   5 *** 285 OVC * * * 15.0 ** ** ** ** ** ** ** ** *   79   77 1012.4 ***** 1012.3  89 *** ***** ***** ***** ***** **
914250 ***** 201508260000 180   6 ***  17 OVC * * * 15.0 02 ** ** ** ** ** ** ** 8   83   80 1012.4 ***** 1012.3 ***  74 ***** *****  0.21 ***** **
914250 ***** 201508260600 210   7 *** 285 OVC * * * 15.0 ** ** ** ** ** ** ** ** *   81   78 1009.8 ***** 1009.7 *** *** ***** *****  0.21 ***** **
914250 ***** 201508261200 210   3 ***  18 OVC * * * 15.0 ** ** ** ** ** ** ** ** *   82   78 1010.6 ***** 1010.5  88 *** ***** *****  0.21 ***** **
914250 ***** 201508270000 230   2 *** *** BKN * * * 15.0 ** ** ** ** ** ** ** ** *   85   80 1007.1 ***** 1007.0 ***  75 ***** ***** ***** ***** **
914250 ***** 201508271200 220   9 ***  17 OVC * * * 15.0 ** ** ** ** ** ** ** ** *   80   76 1012.2 ***** 1012.1  90 *** ***** *****  1.88 ***** **
914250 ***** 201508280000 160   2 ***  17 OVC * * * 15.0 ** ** ** ** ** ** ** ** *   85   81 1011.4 ***** 1011.3 ***  72 ***** *****  1.88 ***** **
914250 ***** 201508280600 160   1 *** *** SCT * * * 15.0 ** ** ** ** ** ** ** ** *   84   79 1009.1 ***** 1009.0 *** *** ***** *****  1.88 ***** **
914250 ***** 201508281200 160   1 *** *** SCT * * * 15.0 ** ** ** ** ** ** ** ** *   83   76 1012.2 ***** 1012.1  90 *** ***** ***** ***** ***** **
914250 ***** 201508290000 220   8 ***  17 OVC * * * 15.0 80 ** ** ** ** ** ** ** 8   78   76 1013.8 ***** 1013.7 ***  71 ***** *****  1.99  0.55 **
914250 ***** 201509040000 270   1 *** *** SCT * * * 15.0 ** ** ** ** ** ** ** ** *   84   80 1011.4 ***** 1011.3 ***  75 ***** ***** ***** ***** **
914250 ***** 201509050000 270   1 *** *** SCT * * * 15.0 ** ** ** ** ** ** ** ** *   81   78 1012.6 ***** 1012.5 ***  74 ***** ***** ***** ***** **
914250 ***** 201509050600 270   1 *** *** SCT * * * 15.0 ** ** ** ** ** ** ** ** *   80   77 1008.3 ***** 1008.2 *** *** ***** *****  0.00 ***** **
914250 ***** 201509051200 080   1 ***  16 OVC * * * 15.0 ** ** ** ** ** ** ** ** *   79   75 1009.4 ***** 1009.1 *** *** ***** ***** ***** ***** **
914250 ***** 201509060000 270   1 *** *** SCT * * * 15.0 ** ** ** ** ** ** ** ** *   80   79 1010.3 ***** 1010.2 ***  76 ***** ***** ***** ***** **
914250 ***** 201509061200 200   1 ***  16 OVC * * * 15.0 02 ** ** ** ** ** ** ** 8   80   77 1011.7 ***** 1011.6  90 *** *****  0.39  0.39 ***** **
914250 ***** 201509070600 220   5 ***  18 OVC * * * 15.0 ** ** ** ** ** ** ** ** *   84   82 1009.1 ***** 1009.0 *** *** ***** *****  3.19 ***** **
914250 ***** 201509080000 180   3 *** 295 BKN * * * 15.0 ** ** ** ** ** ** ** ** *   85   81 1012.3 ***** 1012.2 ***  73 ***** *****  0.32 ***** **
914250 ***** 201509080600 180   5 *** 295 BKN * * * 15.0 ** ** ** ** ** ** ** ** *   85   82 1009.2 ***** 1009.1 *** *** ***** *****  0.00 ***** **
914250 ***** 201509081200 180   1 *** *** SCT * * * 15.0 ** ** ** ** ** ** ** ** *   80   78 1012.7 ***** 1012.6  90 *** ***** ***** ***** ***** **
914250 ***** 201509090000 260   5 *** 285 OVC * * * 15.0 ** ** ** ** ** ** ** ** *   83   81 1013.0 ***** 1012.9 ***  76 ***** ***** ***** ***** **
914250 ***** 201509090600 260   6 *** 118 BKN * * * 15.0 ** ** ** ** ** ** ** ** *   82   80 1009.8 ***** 1009.7 *** *** ***** *****  0.00 ***** **
914250 ***** 201509091200 210   1 *** 285 OVC * * * 15.0 ** ** ** ** ** ** ** ** *   81   79 1012.8 ***** 1012.7  90 *** ***** ***** ***** ***** **
914250 ***** 201509100000 220   6 *** 295 BKN * * * 15.0 ** ** ** ** ** ** ** ** *   83   81 1012.4 ***** 1012.3 ***  78 ***** ***** ***** ***** **
914250 ***** 201509100600 220   8 *** 276 OVC * * * 15.0 ** ** ** ** ** ** ** ** *   83   81 1009.4 ***** 1009.3 *** *** ***** *****  0.00 ***** **
914250 ***** 201509110000 210  77 ***  17 OVC * * * 15.0 02 ** ** ** ** ** ** ** 8   85   82 1011.6 ***** 1011.5 ***  77 ***** *****  0.11 ***** **
914250 ***** 201509110600 210   7 *** 295 OVC * * * 15.0 ** ** ** ** ** ** ** ** *   83   80 1009.0 ***** 1008.9 *** *** ***** *****  0.11 ***** **
914250 ***** 201509111200 210   3 ***  18 OVC * * * 15.0 ** ** ** ** ** ** ** ** *   81   79 1011.4 ***** 1011.3  92 *** ***** *****  0.11 ***** **
914250 ***** 201509120000 220   5 *** 118 OVC * * * 15.0 02 ** ** ** ** ** ** ** 8   85   81 1012.8 ***** 1012.7 ***  73 ***** *****  0.47 ***** **
914250 ***** 201509120600 210   6 ***  16 OVC * * * 15.0 ** ** ** ** ** ** ** ** *   81   78 1008.9 ***** 1008.8 *** *** ***** *****  0.07 ***** **
914250 ***** 201509121200 220   2 ***  17 OVC * * * 15.0 ** ** ** ** ** ** ** ** *   80   72 1011.3 ***** 1011.2  89 *** ***** *****  0.47 ***** **
914250 ***** 201509130600 210   6 *** 295 BKN * * * 15.0 ** ** ** ** ** ** ** ** *   84   80 1008.7 ***** 1008.6 *** *** ***** *****  0.00 ***** **
914250 ***** 201509131200 210   3 ***  17 OVC * * * 15.0 ** ** ** ** ** ** ** ** *   81   79 1011.8 ***** 1011.7  91 *** ***** ***** ***** ***** **
914250 ***** 201509140000 310  11 ***  16 OVC * * * 15.0 02 ** ** ** ** ** ** ** 8   82   79 1011.8 ***** 1011.7 ***  75 ***** *****  0.10 ***** **
914250 ***** 201509140600 250  10 ***  16 OVC * * * 15.0 ** ** ** ** ** ** ** ** *   83   79 1008.7 ***** 1008.6 *** *** ***** *****  0.10 ***** **
914250 ***** 201509141200 250   6 *** *** SCT * * * 15.0 ** ** ** ** ** ** ** ** *   82   80 1011.4 ***** 1011.3  86 *** ***** *****  0.10 ***** **
914250 ***** 201509150000 260  10 *** *** SCT * * * 15.0 ** ** ** ** ** ** ** ** *   85   81 1009.8 ***** 1009.7 ***  76 ***** ***** ***** ***** **
914250 ***** 201509151200 270   9 *** *** SCT * * * 15.0 ** ** ** ** ** ** ** ** *   81   79 1010.7 ***** 1010.6  89 *** ***** ***** ***** ***** **
914250 ***** 201509161200 250   6 *** *** SCT * * * 15.0 ** ** ** ** ** ** ** ** *   82   79 1011.7 ***** 1011.6  90 *** ***** ***** ***** ***** **
914250 ***** 201509170000 280   9 *** *** OVC * * * 15.0 01 ** ** ** ** ** ** ** 2   84   81 1011.9 ***** 1011.8 *** *** ***** *****  0.12 ***** **
914250 ***** 201509170600 280  11 ***  16 OVC * * * 15.0 ** ** ** ** ** ** ** ** *   82   80 1009.4 ***** 1009.3 *** *** ***** *****  0.12 ***** **
914250 ***** 201509171200 310   9 ***  17 OVC * * * 15.0 80 ** ** ** ** ** ** ** 8   81   78 1011.4 ***** 1011.3  88 *** *****  0.20  0.20 ***** **
914250 ***** 201509180000 260  13 ***  16 OVC * * * 14.4 80 ** ** ** ** ** ** ** 8   78   76 1011.3 ***** 1011.2 ***  71 ***** *****  1.11 ***** **
914250 ***** 201509181200 160   6 ***  18 OVC * * * 14.4 02 ** ** ** ** ** ** ** 8   79   77 1011.8 ***** 1011.7  84 *** *****  1.50  1.48 ***** **
914250 ***** 201509190000 170   6 *** *** OVC * * * 15.0 ** ** ** ** ** ** ** ** *   81 **** ****** ***** ****** *** *** ***** ***** ***** ***** **
914250 ***** 201509190600 220   5 *** *** SCT * * * 15.0 ** ** ** ** ** ** ** ** *   82   79 1007.9 ***** 1007.8 *** *** ***** *****  1.00 ***** **
914250 ***** 201509191200 160   2 ***  18 OVC * * * 15.0 ** ** ** ** ** ** ** ** *   81   78 1009.8 ***** 1009.7  87 *** ***** *****  1.00 ***** **
914250 ***** 201509200000 170   1 *** 295 BKN * * * 15.0 02 ** ** ** ** ** ** ** 8   84   81 1010.9 ***** 1010.8 ***  76 ***** *****  0.05 ***** **
