  USAF  WBAN YR--MODAHRMN DIR SPD GUS CLG SKC L M H  VSB MW MW MW MW AW AW AW AW W TEMP DEWP    SLP   ALT    STP MAX MIN PCP01 PCP06 PCP24 PCPXX SD
943200 ***** 201501010100 ***   0 *** *** BKN * * * 21.9 03 ** ** ** ** ** ** ** 1   90   60 1007.1 *****  961.3 *** *** ***** *****  0.00 ***** **
943200 ***** 201501010700 070  11 *** *** BKN * * * 21.9 03 ** ** ** ** ** ** ** 2   98   54 1002.6 *****  957.0 *** *** *****  0.00 ***** ***** **
943200 ***** 201503180100 *** *** *** *** *** * * * **** 00 ** ** ** ** ** ** ** 0 **** **** 1007.1 *****  961.0 *** *** ***** ***** ***** ***** **
943200 ***** 201503190100 *** *** *** *** *** * * * **** 00 ** ** ** ** ** ** ** 0 **** **** 1009.7 *****  963.4 *** *** ***** ***** ***** ***** **
943200 ***** 201503200100 *** *** *** *** *** * * * **** 00 ** ** ** ** ** ** ** 0 **** **** 1013.0 *****  966.6 *** *** ***** ***** ***** ***** **
943200 ***** 201503210100 *** *** *** *** *** * * * **** 00 ** ** ** ** ** ** ** 0 **** **** 1013.5 *****  967.1 *** *** ***** ***** ***** ***** **
943200 ***** 201503220100 *** *** *** *** *** * * * **** 00 ** ** ** ** ** ** ** 0 **** **** 1012.2 *****  965.8 *** *** ***** ***** ***** ***** **
943200 ***** 201503230100 *** *** *** *** *** * * * **** 00 ** ** ** ** ** ** ** 0 **** **** 1010.3 *****  964.0 *** *** ***** ***** ***** ***** **
943200 ***** 201503240100 *** *** *** *** *** * * * **** 00 ** ** ** ** ** ** ** 0 **** **** 1011.5 *****  965.2 *** *** ***** ***** ***** ***** **
943200 ***** 201503250100 *** *** *** *** *** * * * **** 00 ** ** ** ** ** ** ** 0 **** **** 1014.0 *****  967.5 *** *** ***** ***** ***** ***** **
943200 ***** 201503260100 *** *** *** *** *** * * * **** 00 ** ** ** ** ** ** ** 0 **** **** 1016.3 *****  969.7 *** *** ***** ***** ***** ***** **
943200 ***** 201503270100 *** *** *** *** *** * * * **** 00 ** ** ** ** ** ** ** 0 **** **** 1017.0 *****  970.4 *** *** ***** ***** ***** ***** **
943200 ***** 201503280100 *** *** *** *** *** * * * **** 00 ** ** ** ** ** ** ** 0 **** **** 1014.8 *****  968.3 *** *** ***** ***** ***** ***** **
943200 ***** 201503290100 *** *** *** *** *** * * * **** 00 ** ** ** ** ** ** ** 0 **** **** 1015.0 *****  968.5 *** *** ***** ***** ***** ***** **
943200 ***** 201503300100 *** *** *** *** *** * * * **** 00 ** ** ** ** ** ** ** 0 **** **** 1015.3 *****  968.8 *** *** ***** ***** ***** ***** **
943200 ***** 201503310100 *** *** *** *** *** * * * **** 00 ** ** ** ** ** ** ** 0 **** **** 1014.9 *****  968.4 *** *** ***** ***** ***** ***** **
943200 ***** 201504020100 *** *** *** *** *** * * * **** 00 ** ** ** ** ** ** ** 0 **** **** 1011.6 *****  964.8 *** *** ***** ***** ***** ***** **
943200 ***** 201504030100 *** *** *** *** *** * * * **** 00 ** ** ** ** ** ** ** 0 **** **** 1011.4 *****  964.6 *** *** ***** ***** ***** ***** **
943200 ***** 201504040100 *** *** *** *** *** * * * **** 00 ** ** ** ** ** ** ** 0 **** **** 1011.6 *****  964.8 *** *** ***** ***** ***** ***** **
943200 ***** 201504050100 *** *** *** *** *** * * * **** 00 ** ** ** ** ** ** ** 0 **** **** 1010.5 *****  963.8 *** *** ***** ***** ***** ***** **
943200 ***** 201504060100 *** *** *** *** *** * * * **** 00 ** ** ** ** ** ** ** 0 **** **** 1012.7 *****  965.9 *** *** ***** ***** ***** ***** **
943200 ***** 201504070100 *** *** *** *** *** * * * **** 00 ** ** ** ** ** ** ** 0 **** **** 1014.9 *****  968.0 *** *** ***** ***** ***** ***** **
943200 ***** 201504080100 *** *** *** *** *** * * * **** 00 ** ** ** ** ** ** ** 0 **** **** 1016.9 *****  969.9 *** *** ***** ***** ***** ***** **
943200 ***** 201504090100 *** *** *** *** *** * * * **** 00 ** ** ** ** ** ** ** 0 **** **** 1016.0 *****  969.0 *** *** ***** ***** ***** ***** **
943200 ***** 201504100100 *** *** *** *** *** * * * **** 00 ** ** ** ** ** ** ** 0 **** **** 1015.8 *****  968.8 *** *** ***** ***** ***** ***** **
943200 ***** 201504110100 *** *** *** *** *** * * * **** 00 ** ** ** ** ** ** ** 0 **** **** 1013.6 *****  966.7 *** *** ***** ***** ***** ***** **
943200 ***** 201504120100 *** *** *** *** *** * * * **** 00 ** ** ** ** ** ** ** 0 **** **** 1013.6 *****  966.7 *** *** ***** ***** ***** ***** **
943200 ***** 201504130100 *** *** *** *** *** * * * **** 00 ** ** ** ** ** ** ** 0 **** **** 1012.4 *****  965.6 *** *** ***** ***** ***** ***** **
943200 ***** 201504140100 *** *** *** *** *** * * * **** 00 ** ** ** ** ** ** ** 0 **** **** 1012.7 *****  965.9 *** *** ***** ***** ***** ***** **
943200 ***** 201504150100 *** *** *** *** *** * * * **** 00 ** ** ** ** ** ** ** 0 **** **** 1013.2 *****  966.3 *** *** ***** ***** ***** ***** **
943200 ***** 201504160100 *** *** *** *** *** * * * **** 00 ** ** ** ** ** ** ** 0 **** **** 1014.5 *****  967.6 *** *** ***** ***** ***** ***** **
943200 ***** 201504170100 *** *** *** *** *** * * * **** 00 ** ** ** ** ** ** ** 0 **** **** 1014.7 *****  967.8 *** *** ***** *****  0.03 ***** **
943200 ***** 201504180100 *** *** *** *** *** * * * **** 00 ** ** ** ** ** ** ** 0 **** **** 1014.9 *****  968.0 *** *** ***** ***** ***** ***** **
943200 ***** 201504190100 *** *** *** *** *** * * * **** 00 ** ** ** ** ** ** ** 0 **** **** 1017.9 *****  970.8 *** *** ***** *****  0.04 ***** **
943200 ***** 201504200100 *** *** *** *** *** * * * **** 00 ** ** ** ** ** ** ** 0 **** **** 1018.5 *****  971.4 *** *** ***** ***** ***** ***** **
943200 ***** 201504210100 *** *** *** *** *** * * * **** 00 ** ** ** ** ** ** ** 0 **** **** 1018.2 *****  971.1 *** *** ***** ***** ***** ***** **
943200 ***** 201504220100 *** *** *** *** *** * * * **** 00 ** ** ** ** ** ** ** 0 **** **** 1015.8 *****  968.8 *** *** ***** ***** ***** ***** **
943200 ***** 201504270100 *** *** *** *** *** * * * **** 00 ** ** ** ** ** ** ** 0 **** **** 1018.8 *****  971.7 *** *** ***** ***** ***** ***** **
943200 ***** 201504280100 *** *** *** *** *** * * * **** 00 ** ** ** ** ** ** ** 0 **** **** 1018.0 *****  970.9 *** *** ***** ***** ***** ***** **
943200 ***** 201504290100 *** *** *** *** *** * * * **** 00 ** ** ** ** ** ** ** 0 **** **** 1018.7 *****  971.6 *** *** ***** ***** ***** ***** **
943200 ***** 201504300100 *** *** *** *** *** * * * **** 00 ** ** ** ** ** ** ** 0 **** **** 1018.1 *****  971.0 *** *** ***** ***** ***** ***** **
943200 ***** 201505010100 *** *** *** *** *** * * * **** 00 ** ** ** ** ** ** ** 0 **** **** 1017.7 *****  969.8 *** *** ***** ***** ***** ***** **
943200 ***** 201505020100 *** *** *** *** *** * * * **** 00 ** ** ** ** ** ** ** 0 **** **** 1016.6 *****  968.8 *** *** ***** ***** ***** ***** **
943200 ***** 201505030100 *** *** *** *** *** * * * **** 00 ** ** ** ** ** ** ** 0 **** **** 1016.3 *****  968.5 *** *** ***** ***** ***** ***** **
943200 ***** 201505040100 *** *** *** *** *** * * * **** 00 ** ** ** ** ** ** ** 0 **** **** 1015.0 *****  967.3 *** *** ***** ***** ***** ***** **
943200 ***** 201505050100 *** *** *** *** *** * * * **** 00 ** ** ** ** ** ** ** 0 **** **** 1015.0 *****  967.3 *** *** ***** ***** ***** ***** **
943200 ***** 201505060100 *** *** *** *** *** * * * **** 00 ** ** ** ** ** ** ** 0 **** **** 1016.6 *****  968.8 *** *** ***** ***** ***** ***** **
943200 ***** 201505070100 *** *** *** *** *** * * * **** 00 ** ** ** ** ** ** ** 0 **** **** 1020.2 *****  972.2 *** *** ***** ***** ***** ***** **
943200 ***** 201505080100 *** *** *** *** *** * * * **** 00 ** ** ** ** ** ** ** 0 **** **** 1020.2 *****  972.2 *** *** ***** ***** ***** ***** **
943200 ***** 201505090100 *** *** *** *** *** * * * **** 00 ** ** ** ** ** ** ** 0 **** **** 1018.9 *****  971.0 *** *** ***** ***** ***** ***** **
943200 ***** 201505100100 *** *** *** *** *** * * * **** 00 ** ** ** ** ** ** ** 0 **** **** 1018.8 *****  970.9 *** *** ***** ***** ***** ***** **
943200 ***** 201505110100 *** *** *** *** *** * * * **** 00 ** ** ** ** ** ** ** 0 **** **** 1020.1 *****  972.1 *** *** ***** ***** ***** ***** **
943200 ***** 201505120100 *** *** *** *** *** * * * **** 00 ** ** ** ** ** ** ** 0 **** **** 1019.3 *****  971.4 *** *** ***** ***** ***** ***** **
943200 ***** 201505130100 *** *** *** *** *** * * * **** 00 ** ** ** ** ** ** ** 0 **** **** 1021.0 *****  973.0 *** *** ***** ***** ***** ***** **
943200 ***** 201505210100 *** *** *** *** *** * * * **** 00 ** ** ** ** ** ** ** 0 **** **** 1019.9 *****  971.9 *** *** ***** ***** ***** ***** **
943200 ***** 201505220100 *** *** *** *** *** * * * **** 00 ** ** ** ** ** ** ** 0 **** **** 1021.2 *****  973.2 *** *** ***** ***** ***** ***** **
943200 ***** 201505230100 *** *** *** *** *** * * * **** 00 ** ** ** ** ** ** ** 0 **** **** 1020.4 *****  972.4 *** *** ***** ***** ***** ***** **
943200 ***** 201505240100 *** *** *** *** *** * * * **** 00 ** ** ** ** ** ** ** 0 **** **** 1019.5 *****  971.6 *** *** ***** ***** ***** ***** **
943200 ***** 201505250100 *** *** *** *** *** * * * **** 00 ** ** ** ** ** ** ** 0 **** **** 1020.4 *****  972.4 *** *** ***** ***** ***** ***** **
943200 ***** 201505260100 *** *** *** *** *** * * * **** 00 ** ** ** ** ** ** ** 0 **** **** 1019.6 *****  971.7 *** *** ***** ***** ***** ***** **
943200 ***** 201505270100 *** *** *** *** *** * * * **** 00 ** ** ** ** ** ** ** 0 **** **** 1016.2 *****  968.4 *** *** ***** ***** ***** ***** **
943200 ***** 201505280100 *** *** *** *** *** * * * **** 00 ** ** ** ** ** ** ** 0 **** **** 1016.1 *****  968.3 *** *** ***** ***** ***** ***** **
943200 ***** 201505290100 *** *** *** *** *** * * * **** 00 ** ** ** ** ** ** ** 0 **** **** 1016.8 *****  969.0 *** *** ***** ***** ***** ***** **
943200 ***** 201505300100 *** *** *** *** *** * * * **** 00 ** ** ** ** ** ** ** 0 **** **** 1016.6 *****  968.8 *** *** ***** ***** ***** ***** **
943200 ***** 201505310100 *** *** *** *** *** * * * **** 00 ** ** ** ** ** ** ** 0 **** **** 1015.4 *****  967.7 *** *** ***** ***** ***** ***** **
943200 ***** 201506010100 *** *** *** *** *** * * * **** 00 ** ** ** ** ** ** ** 0 **** **** 1017.6 *****  969.2 *** *** ***** ***** ***** ***** **
943200 ***** 201506020100 *** *** *** *** *** * * * **** 00 ** ** ** ** ** ** ** 0 **** **** 1019.9 *****  971.4 *** *** ***** ***** ***** ***** **
943200 ***** 201506030100 *** *** *** *** *** * * * **** 00 ** ** ** ** ** ** ** 0 **** **** 1019.4 *****  970.9 *** *** ***** ***** ***** ***** **
943200 ***** 201506040100 *** *** *** *** *** * * * **** 00 ** ** ** ** ** ** ** 0 **** **** 1020.5 *****  972.0 *** *** ***** ***** ***** ***** **
943200 ***** 201506050100 *** *** *** *** *** * * * **** 00 ** ** ** ** ** ** ** 0 **** **** 1021.8 *****  973.2 *** *** ***** ***** ***** ***** **
943200 ***** 201506060100 *** *** *** *** *** * * * **** 00 ** ** ** ** ** ** ** 0 **** **** 1021.2 *****  972.6 *** *** ***** ***** ***** ***** **
943200 ***** 201506070100 *** *** *** *** *** * * * **** 00 ** ** ** ** ** ** ** 0 **** **** 1020.8 *****  972.2 *** *** ***** ***** ***** ***** **
943200 ***** 201506080100 *** *** *** *** *** * * * **** 00 ** ** ** ** ** ** ** 0 **** **** 1019.6 *****  971.1 *** *** ***** ***** ***** ***** **
943200 ***** 201506090100 *** *** *** *** *** * * * **** 00 ** ** ** ** ** ** ** 0 **** **** 1020.3 *****  971.8 *** *** ***** ***** ***** ***** **
943200 ***** 201506100100 *** *** *** *** *** * * * **** 00 ** ** ** ** ** ** ** 0 **** **** 1020.1 *****  971.6 *** *** ***** ***** ***** ***** **
943200 ***** 201506110100 *** *** *** *** *** * * * **** 00 ** ** ** ** ** ** ** 0 **** **** 1020.5 *****  972.0 *** *** ***** ***** ***** ***** **
943200 ***** 201506120100 *** *** *** *** *** * * * **** 00 ** ** ** ** ** ** ** 0 **** **** 1018.7 *****  970.2 *** *** ***** ***** ***** ***** **
943200 ***** 201506130100 *** *** *** *** *** * * * **** 00 ** ** ** ** ** ** ** 0 **** **** 1017.1 *****  968.7 *** *** ***** ***** ***** ***** **
943200 ***** 201506140100 *** *** *** 722 CLR * * * **** 00 ** ** ** ** ** ** ** 0 **** **** 1016.6 *****  968.2 *** *** ***** ***** ***** ***** **
943200 ***** 201506150100 *** *** *** *** *** * * * **** 00 ** ** ** ** ** ** ** 0 **** **** 1017.0 *****  968.6 *** *** ***** ***** ***** ***** **
943200 ***** 201506160100 *** *** *** *** *** * * * **** 00 ** ** ** ** ** ** ** 0 **** **** 1016.8 *****  968.4 *** *** ***** ***** ***** ***** **
943200 ***** 201506170100 *** *** *** *** *** * * * **** 00 ** ** ** ** ** ** ** 0 **** **** 1016.5 *****  968.1 *** *** ***** ***** ***** ***** **
943200 ***** 201506180100 *** *** *** *** *** * * * **** 00 ** ** ** ** ** ** ** 0 **** **** 1017.7 *****  969.3 *** *** ***** ***** ***** ***** **
943200 ***** 201506190100 *** *** *** *** *** * * * **** 00 ** ** ** ** ** ** ** 0 **** **** 1020.2 *****  971.7 *** *** ***** ***** ***** ***** **
943200 ***** 201506200100 *** *** *** *** *** * * * **** 00 ** ** ** ** ** ** ** 0 **** **** 1020.5 *****  972.0 *** *** ***** ***** ***** ***** **
943200 ***** 201506210100 *** *** *** *** *** * * * **** 00 ** ** ** ** ** ** ** 0 **** **** 1020.0 *****  971.5 *** *** ***** ***** ***** ***** **
943200 ***** 201506220100 *** *** *** *** *** * * * **** 00 ** ** ** ** ** ** ** 0 **** **** 1018.1 *****  969.7 *** *** ***** ***** ***** ***** **
943200 ***** 201506230100 *** *** *** *** *** * * * **** 00 ** ** ** ** ** ** ** 0 **** **** 1019.2 *****  970.7 *** *** ***** ***** ***** ***** **
943200 ***** 201506240100 *** *** *** *** *** * * * **** 00 ** ** ** ** ** ** ** 0 **** **** 1022.5 *****  973.9 *** *** ***** ***** ***** ***** **
943200 ***** 201506250100 *** *** *** 722 CLR * * * **** 00 ** ** ** ** ** ** ** 0 **** **** 1025.7 *****  976.9 *** *** ***** ***** ***** ***** **
943200 ***** 201506260100 *** *** *** *** *** * * * **** 00 ** ** ** ** ** ** ** 0 **** **** 1024.7 *****  976.0 *** *** ***** ***** ***** ***** **
943200 ***** 201506270100 *** *** *** *** *** * * * **** 00 ** ** ** ** ** ** ** 0 **** **** 1024.1 *****  975.4 *** *** ***** ***** ***** ***** **
943200 ***** 201506280100 *** *** *** *** *** * * * **** 00 ** ** ** ** ** ** ** 0 **** **** 1023.2 *****  974.5 *** *** ***** ***** ***** ***** **
943200 ***** 201506290100 *** *** *** *** *** * * * **** 00 ** ** ** ** ** ** ** 0 **** **** 1022.0 *****  973.4 *** *** ***** ***** ***** ***** **
943200 ***** 201506300100 *** *** *** *** *** * * * **** 00 ** ** ** ** ** ** ** 0 **** **** 1022.8 *****  974.1 *** *** ***** ***** ***** ***** **
943200 ***** 201507010100 *** *** *** *** *** * * * **** 00 ** ** ** ** ** ** ** 0 **** **** 1024.4 *****  975.7 *** *** ***** ***** ***** ***** **
943200 ***** 201507130100 *** *** *** *** *** * * * **** 00 ** ** ** ** ** ** ** 0 **** **** 1024.9 *****  976.1 *** *** ***** ***** ***** ***** **
943200 ***** 201507140100 *** *** *** *** *** * * * **** 00 ** ** ** ** ** ** ** 0 **** **** 1022.4 *****  973.8 *** *** ***** ***** ***** ***** **
943200 ***** 201507150100 *** *** *** *** *** * * * **** 00 ** ** ** ** ** ** ** 0 **** **** 1022.4 *****  973.8 *** *** ***** ***** ***** ***** **
943200 ***** 201507160100 *** *** *** *** *** * * * **** 00 ** ** ** ** ** ** ** 0 **** **** 1022.9 *****  974.2 *** *** ***** ***** ***** ***** **
943200 ***** 201507170100 *** *** *** *** *** * * * **** 00 ** ** ** ** ** ** ** 0 **** **** 1023.8 *****  975.1 *** *** ***** ***** ***** ***** **
943200 ***** 201507180100 *** *** *** *** *** * * * **** 00 ** ** ** ** ** ** ** 0 **** **** ****** ***** ****** *** *** ***** ***** ***** ***** **
943200 ***** 201507190100 *** *** *** *** *** * * * **** 00 ** ** ** ** ** ** ** 0 **** **** 1022.9 *****  974.2 *** *** ***** ***** ***** ***** **
943200 ***** 201507200100 *** *** *** *** *** * * * **** 00 ** ** ** ** ** ** ** 0 **** **** 1021.7 *****  973.1 *** *** ***** ***** ***** ***** **
943200 ***** 201507210100 *** *** *** *** *** * * * **** 00 ** ** ** ** ** ** ** 0 **** **** 1019.3 *****  970.8 *** *** ***** ***** ***** ***** **
943200 ***** 201507220100 *** *** *** *** *** * * * **** 00 ** ** ** ** ** ** ** 0 **** **** 1019.5 *****  971.0 *** *** ***** ***** ***** ***** **
943200 ***** 201507230100 *** *** *** *** *** * * * **** 00 ** ** ** ** ** ** ** 0 **** **** 1018.9 *****  970.4 *** *** ***** ***** ***** ***** **
943200 ***** 201507240100 *** *** *** *** *** * * * **** 00 ** ** ** ** ** ** ** 0 **** **** 1019.3 *****  970.8 *** *** ***** ***** ***** ***** **
943200 ***** 201507260100 *** *** *** *** *** * * * **** 00 ** ** ** ** ** ** ** 0 **** **** 1022.8 *****  974.1 *** *** ***** ***** ***** ***** **
943200 ***** 201507270100 *** *** *** *** *** * * * **** 00 ** ** ** ** ** ** ** 0 **** **** 1024.9 *****  976.1 *** *** ***** ***** ***** ***** **
943200 ***** 201507280100 *** *** *** *** *** * * * **** 00 ** ** ** ** ** ** ** 0 **** **** 1025.3 *****  976.5 *** *** ***** ***** ***** ***** **
943200 ***** 201507290100 *** *** *** *** *** * * * **** 00 ** ** ** ** ** ** ** 0 **** **** 1024.2 *****  975.5 *** *** ***** ***** ***** ***** **
943200 ***** 201507300100 *** *** *** *** *** * * * **** 00 ** ** ** ** ** ** ** 0 **** **** 1023.2 *****  974.5 *** *** ***** ***** ***** ***** **
943200 ***** 201508030100 *** *** *** *** *** * * * **** 00 ** ** ** ** ** ** ** 0 **** **** 1021.2 *****  973.0 *** *** ***** ***** ***** ***** **
943200 ***** 201508040100 *** *** *** *** *** * * * **** 00 ** ** ** ** ** ** ** 0 **** **** 1023.1 *****  974.8 *** *** ***** ***** ***** ***** **
943200 ***** 201508050100 *** *** *** *** *** * * * **** 00 ** ** ** ** ** ** ** 0 **** **** 1022.2 *****  974.0 *** *** ***** ***** ***** ***** **
943200 ***** 201508060100 *** *** *** *** *** * * * **** 00 ** ** ** ** ** ** ** 0 **** **** 1021.0 *****  972.8 *** *** ***** ***** ***** ***** **
943200 ***** 201508070100 *** *** *** *** *** * * * **** 00 ** ** ** ** ** ** ** 0 **** **** 1020.6 *****  972.4 *** *** ***** ***** ***** ***** **
943200 ***** 201508080100 *** *** *** *** *** * * * **** 00 ** ** ** ** ** ** ** 0 **** **** 1018.9 *****  970.8 *** *** ***** ***** ***** ***** **
943200 ***** 201508090100 *** *** *** *** *** * * * **** 00 ** ** ** ** ** ** ** 0 **** **** 1017.9 *****  969.9 *** *** ***** ***** ***** ***** **
943200 ***** 201508100100 *** *** *** *** *** * * * **** 00 ** ** ** ** ** ** ** 0 **** **** 1018.3 *****  970.2 *** *** ***** ***** ***** ***** **
943200 ***** 201508110100 *** *** *** *** *** * * * **** 00 ** ** ** ** ** ** ** 0 **** **** 1019.2 *****  971.1 *** *** ***** ***** ***** ***** **
943200 ***** 201508120100 *** *** *** *** *** * * * **** 00 ** ** ** ** ** ** ** 0 **** **** 1020.4 *****  972.2 *** *** ***** ***** ***** ***** **
943200 ***** 201508170100 090   2 *** 722 CLR * * * 25.0 02 ** ** ** ** ** ** ** 0   73   55 ****** ***** ****** *** *** ***** ***** ***** ***** **
943200 ***** 201508180100 110   3 *** 722 CLR * * * 25.0 02 ** ** ** ** ** ** ** 0   73   58 ****** ***** ****** *** *** ***** ***** ***** ***** **
943200 ***** 201508190100 050   3 *** 722 CLR * * * 25.0 02 ** ** ** ** ** ** ** 0   77   61 1018.6 *****  970.5 *** *** ***** ***** ***** ***** **
943200 ***** 201508200100 360   2 *** 722 CLR * * * 25.0 02 ** ** ** ** ** ** ** 0   82   63 1016.6 *****  968.6 *** *** ***** ***** ***** ***** **
943200 ***** 201508210100 310   2 *** 722 CLR * * * 25.0 02 ** ** ** ** ** ** ** 0   79   65 1015.0 *****  967.1 *** *** ***** ***** ***** ***** **
943200 ***** 201508220100 250   2 *** 722 CLR * * * 25.0 02 ** ** ** ** ** ** ** 0   81   69 1015.8 *****  967.9 *** *** ***** ***** ***** ***** **
943200 ***** 201508230100 160   5 *** 722 CLR * * * 25.0 02 ** ** ** ** ** ** ** 0   76   66 1017.2 *****  969.2 *** *** ***** ***** ***** ***** **
943200 ***** 201508240100 130   5 *** 722 CLR * * * 25.0 02 ** ** ** ** ** ** ** 0   78   66 1018.2 *****  970.1 *** *** ***** ***** ***** ***** **
943200 ***** 201508250100 050   2 *** 722 CLR * * * 25.0 02 ** ** ** ** ** ** ** 0   80   47 1016.5 *****  968.5 *** *** ***** ***** ***** ***** **
943200 ***** 201508260100 090   1 *** 722 CLR * * * 25.0 02 ** ** ** ** ** ** ** 0   77   61 1016.8 *****  968.8 *** *** ***** ***** ***** ***** **
943200 ***** 201508270100 090   2 *** *** BKN * * * 25.0 03 ** ** ** ** ** ** ** 2   81   62 1017.0 *****  969.0 *** *** ***** ***** ***** ***** **
943200 ***** 201508280100 070   2 *** 722 SCT * * * 25.0 02 ** ** ** ** ** ** ** 0   76   62 1018.3 *****  970.2 *** *** ***** *****  0.16 ***** **
943200 ***** 201508290100 050   2 *** 722 SCT * * * 25.0 02 ** ** ** ** ** ** ** 0   76   61 1019.6 *****  971.5 *** *** ***** *****  0.01 ***** **
943200 ***** 201508300100 360   1 *** 722 SCT * * * 25.0 02 ** ** ** ** ** ** ** 0   82   60 1017.5 *****  969.5 *** *** ***** ***** ***** ***** **
943200 ***** 201508310100 360   1 *** 722 SCT * * * 25.0 02 ** ** ** ** ** ** ** 0   84   56 1015.7 *****  967.8 *** *** ***** ***** ***** ***** **
943200 ***** 201509010100 230   1 *** 722 SCT * * * 25.0 02 ** ** ** ** ** ** ** 0   78   49 1013.1 *****  966.0 *** *** ***** ***** ***** ***** **
943200 ***** 201509020100 130   3 *** 722 CLR * * * 25.0 02 ** ** ** ** ** ** ** 0   75   31 1016.6 *****  969.4 *** *** ***** ***** ***** ***** **
943200 ***** 201509030100 070   3 *** 722 CLR * * * 25.0 02 ** ** ** ** ** ** ** 0   78   25 1019.0 *****  971.7 *** *** ***** ***** ***** ***** **
943200 ***** 201509040100 090   5 *** 722 CLR * * * 25.0 02 ** ** ** ** ** ** ** 0   80   26 1019.1 *****  971.8 *** *** ***** ***** ***** ***** **
943200 ***** 201509050100 020   1 *** 722 CLR * * * 25.0 02 ** ** ** ** ** ** ** 0   85   38 1017.8 *****  970.5 *** *** ***** ***** ***** ***** **
943200 ***** 201509060100 360   2 *** 722 CLR * * * 25.0 02 ** ** ** ** ** ** ** 0   86   39 1016.5 *****  969.3 *** *** ***** ***** ***** ***** **
943200 ***** 201509070100 360   0 *** 722 CLR * * * 25.0 02 ** ** ** ** ** ** ** 0   86   42 1016.5 *****  969.3 *** *** ***** ***** ***** ***** **
943200 ***** 201509080100 050   5 *** 722 SCT * * * 25.0 03 ** ** ** ** ** ** ** 2   79   33 1019.4 *****  972.0 *** *** ***** ***** ***** ***** **
943200 ***** 201509090100 090   5 *** 722 CLR * * * 25.0 02 ** ** ** ** ** ** ** 0   79   33 1022.4 *****  974.9 *** *** ***** ***** ***** ***** **
943200 ***** 201509100100 020   2 *** 722 CLR * * * 25.0 02 ** ** ** ** ** ** ** 0   78   29 1024.4 *****  976.8 *** *** ***** ***** ***** ***** **
943200 ***** 201509140100 310   2 *** 722 CLR * * * 25.0 02 ** ** ** ** ** ** ** 0   88   88 1014.6 *****  967.5 *** *** ***** ***** ***** ***** **
943200 ***** 201509150100 050   2 *** 722 CLR * * * 25.0 02 ** ** ** ** ** ** ** 0   84   84 1012.3 *****  965.3 *** *** ***** ***** ***** ***** **
943200 ***** 201509160100 130   6 *** 722 CLR * * * 25.0 02 ** ** ** ** ** ** ** 0   88   86 1014.6 *****  967.5 *** *** ***** ***** ***** ***** **
943200 ***** 201509170100 110   7 *** 722 SCT * * * 25.0 02 ** ** ** ** ** ** ** 0   88   85 1016.6 *****  969.4 *** *** ***** ***** ***** ***** **
943200 ***** 201509180100 050   6 *** *** BKN * * * 25.0 03 ** ** ** ** ** ** ** 2   83   83 1019.4 *****  972.0 *** *** ***** ***** ***** ***** **
943200 ***** 201509190100 050   2 *** 722 CLR * * * 25.0 00 ** ** ** ** ** ** ** 0   87   87 1016.8 *****  969.6 *** *** ***** ***** ***** ***** **
