  USAF  WBAN YR--MODAHRMN DIR SPD GUS CLG SKC L M H  VSB MW MW MW MW AW AW AW AW W TEMP DEWP    SLP   ALT    STP MAX MIN PCP01 PCP06 PCP24 PCPXX SD
944100 ***** 201503030700 110  13 *** *** BKN * * * 12.5 00 ** ** ** ** ** ** ** *   91   73 1005.9 *****  989.7 *** *** ***** ***** ***** ***** **
944100 ***** 201503040100 090  20 *** *** BKN * * * 12.5 00 ** ** ** ** ** ** ** *   80   73 1012.3 *****  996.0 *** *** ***** *****  1.02 ***** **
944100 ***** 201503040700 090  20 *** *** OVC * * * 12.5 00 ** ** ** ** ** ** ** *   91   73 1008.7 *****  992.5 *** *** *****  0.00 ***** ***** **
944100 ***** 201503050100 990   6 *** *** OVC * * * 12.5 02 ** ** ** ** ** ** ** 2   73   70 1014.7 *****  998.4 *** *** ***** *****  0.02 ***** **
944100 ***** 201503050700 140   8 *** *** OVC * * * 12.5 02 ** ** ** ** ** ** ** 2   73   70 1012.5 *****  996.2 *** *** *****  0.00 ***** ***** **
944100 ***** 201503060100 090  25 *** *** *** * * * 12.5 02 ** ** ** ** ** ** ** 2   74   65 1012.0 *****  995.7 *** *** ***** *****  0.59 ***** **
944100 ***** 201503060700 ***   0 *** 722 SCT * * * 12.5 02 ** ** ** ** ** ** ** 1   90   71 1008.1 *****  991.9 *** *** *****  0.00 ***** ***** **
944100 ***** 201503070100 320  21 *** *** OVC * * * 12.5 00 ** ** ** ** ** ** ** *   75   71 ****** ***** ****** *** *** ***** *****  1.57 ***** **
944100 ***** 201503070700 320  18 *** *** BKN * * * **** 00 ** ** ** ** ** ** ** * **** **** ****** ***** ****** *** *** ***** ***** ***** ***** **
944100 ***** 201503080100 140  11 *** 722 SCT * * * 12.5 00 ** ** ** ** ** ** ** *   70 **** ****** ***** ****** *** *** ***** *****  0.00 ***** **
944100 ***** 201503080700 140   9 *** 722 SCT * * * 12.5 00 ** ** ** ** ** ** ** *   90   78 ****** ***** ****** *** *** *****  0.00 ***** ***** **
944100 ***** 201503090100 990   2 *** 722 SCT * * * 12.5 00 ** ** ** ** ** ** ** *   79   71 1012.8 *****  996.5 *** *** ***** *****  0.13 ***** **
944100 ***** 201503090700 990   2 *** 722 SCT * * * 12.5 03 ** ** ** ** ** ** ** 0   93   64 1009.3 *****  993.1 *** *** *****  0.00 ***** ***** **
944100 ***** 201503100100 050   7 *** *** *** * * * 12.5 02 ** ** ** ** ** ** ** 0   85   66 1010.8 *****  994.5 *** *** ***** *****  0.00 ***** **
944100 ***** 201503100700 ***   0 *** 722 SCT * * * 12.5 03 ** ** ** ** ** ** ** 0   95   61 1008.2 *****  992.0 *** *** *****  0.00 ***** ***** **
944100 ***** 201503110100 090   7 *** 722 SCT * * * 12.5 02 ** ** ** ** ** ** ** 0   86   75 1011.0 *****  994.7 *** *** ***** *****  0.00 ***** **
944100 ***** 201503110700 090   6 *** 722 SCT * * * 12.5 03 ** ** ** ** ** ** ** 0  100   53 1007.4 *****  991.2 *** *** *****  0.00 ***** ***** **
944100 ***** 201503120100 050   2 *** *** BKN * * * 12.5 03 ** ** ** ** ** ** ** *   85   73 1009.3 *****  993.1 *** *** ***** ***** ***** ***** **
944100 ***** 201503120700 050  20 *** *** BKN * * * 12.5 03 ** ** ** ** ** ** ** *  100   62 1005.3 *****  989.1 *** *** ***** ***** ***** ***** **
944100 ***** 201503130100 140  69 *** *** BKN * * *  6.2 06 ** ** ** ** ** ** ** 3   86   74 1003.9 *****  987.7 *** *** ***** ***** ***** ***** **
944100 ***** 201503130700 *** *** *** *** BKN * * *  6.2 06 ** ** ** ** ** ** ** 3   88   69  999.7 *****  983.6 *** *** ***** ***** ***** ***** **
944100 ***** 201503140100 050   2 *** *** BKN * * * 12.5 01 ** ** ** ** ** ** ** 2   78   75 1009.6 *****  993.4 *** *** ***** *****  1.10 ***** **
944100 ***** 201503150100 140   6 *** 722 SCT * * * 12.5 02 ** ** ** ** ** ** ** 1   78   71 1010.4 *****  994.1 *** *** ***** ***** ***** ***** **
944100 ***** 201503150700 140   3 *** 722 SCT * * * 12.5 02 ** ** ** ** ** ** ** 0   91   67 1005.8 *****  989.6 *** *** ***** ***** ***** ***** **
944100 ***** 201503160100 180   6 *** 722 CLR * * * 12.5 02 ** ** ** ** ** ** ** *   77   62 1014.3 *****  998.0 *** *** ***** ***** ***** ***** **
944100 ***** 201503160700 140   8 *** 722 CLR * * * 12.5 02 ** ** ** ** ** ** ** 0   88   57 1010.4 *****  994.1 *** *** ***** ***** ***** ***** **
944100 ***** 201503170100 360   0 *** 722 CLR * * * 12.5 02 ** ** ** ** ** ** ** 0   74   65 1011.1 *****  994.8 *** *** ***** ***** ***** ***** **
944100 ***** 201503170700 360   0 *** 722 CLR * * * 12.5 02 ** ** ** ** ** ** ** 0   92   56 1007.1 *****  990.9 *** *** ***** ***** ***** ***** **
944100 ***** 201503180100 360   0 *** 722 SCT * * * 12.5 03 ** ** ** ** ** ** ** 0   75   64 1010.9 *****  994.6 *** *** ***** ***** ***** ***** **
944100 ***** 201503180700 360   2 *** 722 SCT * * * 12.5 01 ** ** ** ** ** ** ** 0   87   60 1007.5 *****  991.3 *** *** ***** ***** ***** ***** **
944100 ***** 201503190100 180   6 *** 722 CLR * * * 12.5 02 ** ** ** ** ** ** ** 0   78   65 1013.1 *****  996.8 *** *** ***** ***** ***** ***** **
944100 ***** 201503190700 360   0 *** 722 SCT * * * 12.5 03 ** ** ** ** ** ** ** 1   88   61 1010.2 *****  993.9 *** *** ***** ***** ***** ***** **
944100 ***** 201503200100 360   1 *** 722 CLR * * * 12.5 02 ** ** ** ** ** ** ** 0   80   62 1014.4 *****  998.1 *** *** ***** ***** ***** ***** **
944100 ***** 201503200700 360   1 *** 722 SCT * * * 12.5 03 ** ** ** ** ** ** ** *   98   60 1011.0 *****  994.7 *** *** ***** ***** ***** ***** **
944100 ***** 201503210100 050   1 *** 722 SCT * * * 12.5 02 ** ** ** ** ** ** ** *   76   67 1010.5 *****  994.2 *** *** ***** ***** ***** ***** **
944100 ***** 201503210700 050   4 *** 722 CLR * * * 12.5 02 ** ** ** ** ** ** ** *   91   58 1008.3 *****  992.1 *** *** ***** ***** ***** ***** **
944100 ***** 201503220100 140  10 *** 722 CLR * * * 12.5 02 ** ** ** ** ** ** ** *   74   63 1013.0 *****  996.7 *** *** ***** ***** ***** ***** **
944100 ***** 201503220700 140   4 *** 722 CLR * * * 12.5 02 ** ** ** ** ** ** ** *   87   58 1010.1 *****  993.8 *** *** ***** ***** ***** ***** **
944100 ***** 201503230100 090  23 *** 722 SCT * * * 12.5 02 ** ** ** ** ** ** ** *   81   56 1014.4 *****  998.1 *** *** ***** ***** ***** ***** **
944100 ***** 201503230700 090   2 *** 722 SCT * * * 12.5 03 ** ** ** ** ** ** ** *   87   58 1010.3 *****  994.0 *** *** ***** ***** ***** ***** **
944100 ***** 201503240100 050  18 *** 722 SCT * * * 12.5 02 ** ** ** ** ** ** ** 1   81   66 ****** ***** ****** *** *** ***** ***** ***** ***** **
944100 ***** 201503240700 050  19 *** *** OVC * * * 12.5 03 ** ** ** ** ** ** ** 2   97   59 1009.5 *****  993.3 *** *** ***** ***** ***** ***** **
944100 ***** 201503250100 090  10 *** *** BKN * * * 12.5 03 ** ** ** ** ** ** ** 1   78   68 1014.3 *****  998.0 *** *** ***** ***** ***** ***** **
944100 ***** 201503250700 360   0 *** *** OVC * * * 12.5 03 ** ** ** ** ** ** ** 2   93   58 1011.2 *****  994.9 *** *** ***** ***** ***** ***** **
944100 ***** 201503260100 270   6 *** 722 SCT * * * 12.5 03 ** ** ** ** ** ** ** *   78   67 1017.7 ***** 1001.3 *** *** ***** *****  0.14 ***** **
944100 ***** 201503260700 270   6 *** 722 SCT * * * 12.5 03 ** ** ** ** ** ** ** *   82   64 1015.5 *****  999.2 *** *** ***** ***** ***** ***** **
944100 ***** 201503270100 360   0 *** 722 SCT * * *  6.2 03 ** ** ** ** ** ** ** *   71   65 1018.0 ***** 1001.6 *** *** ***** *****  0.57 ***** **
944100 ***** 201503270700 270   2 *** 722 SCT * * * 12.5 01 ** ** ** ** ** ** ** *   72   68 1015.2 *****  998.9 *** *** ***** ***** ***** ***** **
944100 ***** 201503280100 360   0 *** *** BKN * * * 12.5 61 ** ** ** ** ** ** ** 2   68   68 1016.1 *****  999.8 *** *** ***** *****  0.53 ***** **
944100 ***** 201503280700 230   2 *** 722 SCT * * * 12.5 01 ** ** ** ** ** ** ** 1   87   59 1013.0 *****  996.7 *** *** ***** ***** ***** ***** **
944100 ***** 201503290100 360   0 *** 722 SCT * * * 12.5 02 ** ** ** ** ** ** ** 1   78   64 1015.1 *****  998.8 *** *** ***** ***** ***** ***** **
944100 ***** 201503290700 360   0 *** *** BKN * * * 12.5 02 ** ** ** ** ** ** ** 2   90   63 1011.5 *****  995.2 *** *** ***** ***** ***** ***** **
944100 ***** 201503300100 050   2 *** *** BKN * * *  9.4 03 ** ** ** ** ** ** ** 2   71   70 1015.9 *****  999.6 *** *** ***** *****  0.24 ***** **
944100 ***** 201503300700 360   0 *** *** OVC * * *  6.2 63 ** ** ** ** ** ** ** 6   72   70 1015.2 *****  998.9 *** *** ***** ***** ***** ***** **
944100 ***** 201503310100 360   0 *** *** OVC * * *  6.2 03 ** ** ** ** ** ** ** *   73   70 1015.4 *****  999.1 *** *** ***** *****  1.18 ***** **
944100 ***** 201503310700 360   0 *** *** BKN * * * 12.5 01 ** ** ** ** ** ** ** *   83   69 1012.6 *****  996.3 *** *** ***** ***** ***** ***** **
944100 ***** 201504010100 360   0 *** 722 SCT * * * 12.5 01 ** ** ** ** ** ** ** 2   75   68 1016.2 *****  999.6 *** *** ***** ***** ***** ***** **
944100 ***** 201504010700 360   0 *** *** BKN * * * 12.5 03 ** ** ** ** ** ** ** *   85   66 1012.1 *****  995.6 *** *** ***** ***** ***** ***** **
944100 ***** 201504020100 360 *** *** 722 CLR * * * 12.5 02 ** ** ** ** ** ** ** 0   74   68 1013.8 *****  997.3 *** *** ***** ***** ***** ***** **
944100 ***** 201504020700 360   0 *** *** BKN * * * 12.5 03 ** ** ** ** ** ** ** 2   84   72 1010.0 *****  993.5 *** *** ***** ***** ***** ***** **
944100 ***** 201504030100 360   0 *** *** OVC * * * 15.6 02 ** ** ** ** ** ** ** 2   73   70 1013.0 *****  996.5 *** *** ***** ***** ***** ***** **
944100 ***** 201504030700 050   1 *** *** BKN * * * 12.5 02 ** ** ** ** ** ** ** 2   81   65 1010.8 *****  994.3 *** *** ***** ***** ***** ***** **
944100 ***** 201504040100 360   0 *** 722 SCT * * * 12.5 02 ** ** ** ** ** ** ** *   77   74 1014.6 *****  998.0 *** *** ***** ***** ***** ***** **
944100 ***** 201504040700 270   0 *** 722 SCT * * *  9.4 20 ** ** ** ** ** ** ** *   76   68 1014.9 *****  998.3 *** *** ***** ***** ***** ***** **
944100 ***** 201504050100 360   0 *** *** BKN * * * 15.6 02 ** ** ** ** ** ** ** *   77   64 1015.8 *****  999.2 *** *** ***** *****  0.01 ***** **
944100 ***** 201504050700 360   0 *** 722 SCT * * * 15.6 02 ** ** ** ** ** ** ** *   90   64 1011.9 *****  995.4 *** *** ***** ***** ***** ***** **
944100 ***** 201504060100 090   2 *** 722 SCT * * * 12.5 02 ** ** ** ** ** ** ** *   81   70 1014.2 *****  997.7 *** *** ***** ***** ***** ***** **
944100 ***** 201504060700 360   0 *** 722 SCT * * * 12.5 03 ** ** ** ** ** ** ** *   91   63 1011.5 *****  995.0 *** *** ***** ***** ***** ***** **
944100 ***** 201504070100 090   3 *** 722 SCT * * * 12.5 02 ** ** ** ** ** ** ** 1   79   61 1014.3 *****  997.8 *** *** ***** ***** ***** ***** **
944100 ***** 201504070700 360   0 *** 722 SCT * * * 12.5 02 ** ** ** ** ** ** ** 0   91   71 1012.4 *****  995.9 *** *** ***** ***** ***** ***** **
944100 ***** 201504080100 090   3 *** 722 SCT * * * 12.5 02 ** ** ** ** ** ** ** 1   77   62 1014.3 *****  997.8 *** *** ***** ***** ***** ***** **
944100 ***** 201504080700 360   0 *** 722 SCT * * * 12.5 02 ** ** ** ** ** ** ** 1   92   81 1011.7 *****  995.2 *** *** ***** ***** ***** ***** **
944100 ***** 201504090100 090   1 *** 722 SCT * * * 12.5 02 ** ** ** ** ** ** ** *   81   64 1013.1 *****  996.6 *** *** ***** ***** ***** ***** **
944100 ***** 201504090700 050   4 *** 722 SCT * * * 12.5 02 ** ** ** ** ** ** ** *   97   58 1009.8 *****  993.3 *** *** ***** ***** ***** ***** **
944100 ***** 201504100100 360   0 *** *** BKN * * * 12.5 02 ** ** ** ** ** ** ** 2   83   62 1014.2 *****  997.7 *** *** ***** ***** ***** ***** **
944100 ***** 201504100700 140  11 *** *** BKN * * * 12.5 03 ** ** ** ** ** ** ** 1   91   62 1011.3 *****  994.8 *** *** ***** ***** ***** ***** **
944100 ***** 201504130100 140  11 *** 722 SCT * * * 12.5 02 ** ** ** ** ** ** ** 0   73   57 1013.8 *****  997.3 *** *** ***** ***** ***** ***** **
944100 ***** 201504130700 360   0 *** 722 SCT * * * 12.5 02 ** ** ** ** ** ** ** 0   81   56 1010.0 *****  993.5 *** *** ***** ***** ***** ***** **
944100 ***** 201504140100 090  11 *** *** *** * * * 12.5 02 ** ** ** ** ** ** ** *   73   56 1013.4 *****  996.9 *** *** ***** ***** ***** ***** **
944100 ***** 201504140700 230   5 *** 722 SCT * * * 12.5 01 ** ** ** ** ** ** ** *   84   49 1010.4 *****  993.9 *** *** ***** ***** ***** ***** **
944100 ***** 201504150100 090  25 *** 722 SCT * * * 12.5 02 ** ** ** ** ** ** ** *   72   48 1016.5 *****  999.9 *** *** ***** ***** ***** ***** **
944100 ***** 201504150700 090  25 *** 722 SCT * * * 12.5 02 ** ** ** ** ** ** ** *   86   49 1013.7 *****  997.2 *** *** ***** ***** ***** ***** **
944100 ***** 201504160100 090  31 *** 722 SCT * * * 12.5 02 ** ** ** ** ** ** ** 0   73   47 1016.9 ***** 1000.3 *** *** ***** ***** ***** ***** **
944100 ***** 201504160700 090  32 *** *** BKN * * * 12.5 03 ** ** ** ** ** ** ** 1   85   55 1016.1 *****  999.5 *** *** ***** ***** ***** ***** **
944100 ***** 201504170100 090  22 *** *** OVC * * * 12.5 02 ** ** ** ** ** ** ** 2   73   56 1017.8 ***** 1001.2 *** *** ***** ***** ***** ***** **
944100 ***** 201504170700 090   3 *** *** OVC * * * 12.5 03 ** ** ** ** ** ** ** 2   83   58 1013.5 *****  997.0 *** *** ***** ***** ***** ***** **
944100 ***** 201504200100 090  31 *** 722 SCT * * * 12.5 02 ** ** ** ** ** ** ** *   75   49 1017.6 ***** 1001.0 *** *** ***** ***** ***** ***** **
944100 ***** 201504200700 090   3 *** *** BKN * * * 12.5 03 ** ** ** ** ** ** ** *   85   50 1013.8 *****  997.3 *** *** ***** ***** ***** ***** **
944100 ***** 201504210100 090  17 *** 722 SCT * * * 12.5 01 ** ** ** ** ** ** ** 1   73   52 1016.1 *****  999.5 *** *** ***** ***** ***** ***** **
944100 ***** 201504210119 090  17 *** 722 SCT * * * 12.5 01 ** ** ** ** ** ** ** 1   73   52 1016.1 *****  999.5 *** *** ***** ***** ***** ***** **
944100 ***** 201504210700 090  22 *** 722 SCT * * * 12.5 02 ** ** ** ** ** ** ** 0   81   52 1012.3 *****  995.8 *** *** ***** ***** ***** ***** **
944100 ***** 201504220100 050  11 *** 722 SCT * * * 12.5 02 ** ** ** ** ** ** ** 0   68   50 1015.5 *****  998.9 *** *** ***** ***** ***** ***** **
944100 ***** 201504220700 090   6 *** 722 SCT * * * 12.5 02 ** ** ** ** ** ** ** 0   77   42 1012.3 *****  995.8 *** *** ***** ***** ***** ***** **
944100 ***** 201504230100 050   5 *** 722 SCT * * * 12.5 02 ** ** ** ** ** ** ** *   68   51 1016.5 *****  999.9 *** *** ***** ***** ***** ***** **
944100 ***** 201504230700 050   6 *** 722 SCT * * * 12.5 02 ** ** ** ** ** ** ** *   80   52 1013.2 *****  996.7 *** *** ***** ***** ***** ***** **
944100 ***** 201504240100 090   9 *** 722 SCT * * * 12.5 02 ** ** ** ** ** ** ** *   69   51 1017.1 ***** 1000.5 *** *** ***** ***** ***** ***** **
944100 ***** 201504240700 090   9 *** 722 SCT * * * 12.5 00 ** ** ** ** ** ** ** *   83   49 1013.3 *****  996.8 *** *** ***** ***** ***** ***** **
944100 ***** 201504280100 090   3 *** 722 SCT * * * 12.5 02 ** ** ** ** ** ** ** *   74   45 1018.3 ***** 1001.7 *** *** ***** ***** ***** ***** **
944100 ***** 201504280700 090   6 *** 722 CLR * * * 12.5 02 ** ** ** ** ** ** ** *   89   34 1014.2 *****  997.7 *** *** ***** ***** ***** ***** **
944100 ***** 201504290100 *** *** *** *** BKN * * * 12.5 03 ** ** ** ** ** ** ** *   74   45 1017.6 ***** 1001.0 *** *** ***** ***** ***** ***** **
944100 ***** 201504300100 360   0 *** *** BKN * * * 12.5 03 ** ** ** ** ** ** ** 1   74   49 1015.2 *****  998.6 *** *** ***** ***** ***** ***** **
944100 ***** 201504300700 360   0 *** *** BKN * * * 12.5 02 ** ** ** ** ** ** ** 2   86   44 1016.3 *****  999.7 *** *** ***** ***** ***** ***** **
944100 ***** 201505010100 360   0 *** *** OVC * * * 12.5 03 ** ** ** ** ** ** ** *   75   53 1012.9 *****  996.1 *** *** ***** ***** ***** ***** **
944100 ***** 201505040700 090   3 *** 722 CLR * * * 12.5 02 ** ** ** ** ** ** ** *   75   44 1019.0 ***** 1002.1 *** *** ***** ***** ***** ***** **
944100 ***** 201505050100 090  11 *** 722 CLR * * * 12.5 02 ** ** ** ** ** ** ** 0   62   36 1023.1 ***** 1006.1 *** *** ***** ***** ***** ***** **
944100 ***** 201505050700 090  13 *** 722 CLR * * * 12.5 02 ** ** ** ** ** ** ** 0   72   31 1018.3 ***** 1001.4 *** *** ***** ***** ***** ***** **
944100 ***** 201505060100 090  13 *** 722 CLR * * * 12.5 02 ** ** ** ** ** ** ** 0   64   34 1022.0 ***** 1005.0 *** *** ***** ***** ***** ***** **
944100 ***** 201505060700 090   9 *** 722 CLR * * * 12.5 02 ** ** ** ** ** ** ** 2   76   34 1018.4 ***** 1001.5 *** *** ***** ***** ***** ***** **
944100 ***** 201505070100 090  11 *** 722 SCT * * * 12.5 02 ** ** ** ** ** ** ** 2   66   43 1022.2 ***** 1005.3 *** *** ***** ***** ***** ***** **
944100 ***** 201505070700 070   6 *** 722 SCT * * * 12.5 03 ** ** ** ** ** ** ** 2   79   40 1018.8 ***** 1001.9 *** *** ***** ***** ***** ***** **
944100 ***** 201505080100 070   5 *** 722 SCT * * * 12.5 02 ** ** ** ** ** ** ** 2   67   42 1020.6 ***** 1003.7 *** *** ***** ***** ***** ***** **
944100 ***** 201505080700 360   2 *** 722 CLR * * * 12.5 02 ** ** ** ** ** ** ** 2   83   40 1017.0 ***** 1000.2 *** *** ***** ***** ***** ***** **
944100 ***** 201505110100 360   2 *** 722 CLR * * * 12.5 02 ** ** ** ** ** ** ** 2   65   41 1022.2 ***** 1005.3 *** *** ***** ***** ***** ***** **
944100 ***** 201505110700 360   2 *** 722 SCT * * * 12.5 03 ** ** ** ** ** ** ** 2   81   30 1018.8 ***** 1001.9 *** *** ***** ***** ***** ***** **
944100 ***** 201505120100 360   0 *** 722 CLR * * * 12.5 02 ** ** ** ** ** ** ** 2   64   40 1021.7 ***** 1004.8 *** *** ***** ***** ***** ***** **
944100 ***** 201505120700 360   2 *** 722 CLR * * * 12.5 02 ** ** ** ** ** ** ** 2   84   31 1018.1 ***** 1001.2 *** *** ***** ***** ***** ***** **
944100 ***** 201505130100 090   6 *** 722 SCT * * * 12.5 03 ** ** ** ** ** ** ** 2   68   43 1022.5 ***** 1005.6 *** *** ***** ***** ***** ***** **
944100 ***** 201505130700 050   5 *** 722 SCT * * * 12.5 02 ** ** ** ** ** ** ** 2   83   40 1018.7 ***** 1001.8 *** *** ***** ***** ***** ***** **
944100 ***** 201505140100 090   3 *** 722 CLR * * * 12.5 02 ** ** ** ** ** ** ** 2   69   47 1023.4 ***** 1006.5 *** *** ***** ***** ***** ***** **
944100 ***** 201505140700 090   5 *** 722 CLR * * * 12.5 02 ** ** ** ** ** ** ** 2   83   40 1020.1 ***** 1003.2 *** *** ***** ***** ***** ***** **
944100 ***** 201505150100 050   7 *** 722 CLR * * * 12.5 02 ** ** ** ** ** ** ** 2   67   39 1023.0 ***** 1006.1 *** *** ***** ***** ***** ***** **
944100 ***** 201505150700 360   2 *** 722 SCT * * * 12.5 02 ** ** ** ** ** ** ** 2   83   34 1018.9 ***** 1002.0 *** *** ***** ***** ***** ***** **
944100 ***** 201505180700 360   2 *** 722 SCT * * * 12.5 03 ** ** ** ** ** ** ** 2   75   46 1015.7 *****  998.9 *** *** ***** ***** ***** ***** **
944100 ***** 201505190100 360   2 *** *** BKN * * * 12.5 03 ** ** ** ** ** ** ** 2   64   53 1018.8 ***** 1001.9 *** *** ***** ***** ***** ***** **
944100 ***** 201505190700 130   3 *** 722 SCT * * * 12.5 01 ** ** ** ** ** ** ** 0   77   47 1016.1 *****  999.3 *** *** ***** ***** ***** ***** **
944100 ***** 201505200100 090   6 *** 722 SCT * * * 12.5 02 ** ** ** ** ** ** ** 0   65   46 1019.6 ***** 1002.7 *** *** ***** ***** ***** ***** **
944100 ***** 201505200700 360   2 *** 722 SCT * * * 12.5 02 ** ** ** ** ** ** ** 0   79   47 1016.4 *****  999.6 *** *** ***** ***** ***** ***** **
944100 ***** 201505210700 360   2 *** *** BKN * * * 12.5 03 ** ** ** ** ** ** ** 2   83   55 1014.1 *****  997.3 *** *** ***** ***** ***** ***** **
944100 ***** 201505220100 360   2 *** *** OVC * * * 12.5 03 ** ** ** ** ** ** ** 2   69   55 1017.3 ***** 1000.5 *** *** ***** ***** ***** ***** **
944100 ***** 201505220700 360   2 *** *** OVC * * * 12.5 03 ** ** ** ** ** ** ** 2   77   52 1014.9 *****  998.1 *** *** ***** ***** ***** ***** **
944100 ***** 201505250100 360   2 *** 722 CLR * * * 12.5 02 ** ** ** ** ** ** ** 0   64   48 1018.4 ***** 1001.5 *** *** ***** ***** ***** ***** **
944100 ***** 201505260100 360   2 *** 722 SCT * * * 12.5 01 ** ** ** ** ** ** ** 0   66   58 1020.1 ***** 1003.2 *** *** ***** ***** ***** ***** **
944100 ***** 201505260700 090   5 *** *** BKN * * * 12.5 03 ** ** ** ** ** ** ** 2   80   49 1015.9 *****  999.1 *** *** ***** ***** ***** ***** **
944100 ***** 201505270100 360   2 *** 722 SCT * * * 12.5 02 ** ** ** ** ** ** ** 0   65   53 1017.7 ***** 1000.9 *** *** ***** ***** ***** ***** **
944100 ***** 201505270700 360   2 *** 722 SCT * * * 12.5 03 ** ** ** ** ** ** ** 2   77   52 1013.4 *****  996.6 *** *** ***** ***** ***** ***** **
944100 ***** 201505280100 360   2 *** *** BKN * * * 12.5 03 ** ** ** ** ** ** ** 2   65   54 1016.6 *****  999.8 *** *** ***** ***** ***** ***** **
944100 ***** 201505280700 360   0 *** *** BKN * * * 12.5 03 ** ** ** ** ** ** ** 2   79   52 1014.0 *****  997.2 *** *** ***** ***** ***** ***** **
944100 ***** 201505290100 360   2 *** 722 SCT * * * 12.5 01 ** ** ** ** ** ** ** 0   68   55 1019.0 ***** 1002.1 *** *** ***** ***** ***** ***** **
944100 ***** 201505290700 360   2 *** *** BKN * * * 12.5 03 ** ** ** ** ** ** ** 2   81   47 1015.9 *****  999.1 *** *** ***** ***** ***** ***** **
944100 ***** 201506020100 360   0 *** *** BKN * * * 12.5 03 ** ** ** ** ** ** ** 2   66   49 1018.3 ***** 1001.2 *** *** ***** ***** ***** ***** **
944100 ***** 201506020700 360   2 *** *** BKN * * * 12.5 03 ** ** ** ** ** ** ** 2   79   54 1015.3 *****  998.3 *** *** ***** ***** ***** ***** **
944100 ***** 201506030100 360   2 *** 722 CLR * * * 12.5 01 ** ** ** ** ** ** ** 0   65   54 1021.2 ***** 1004.1 *** *** ***** ***** ***** ***** **
944100 ***** 201506030700 360   2 *** 722 CLR * * * 12.5 02 ** ** ** ** ** ** ** 0   79   54 1018.8 ***** 1001.7 *** *** ***** ***** ***** ***** **
944100 ***** 201506040700 360   1 *** 722 SCT * * * 12.5 02 ** ** ** ** ** ** ** 0   85   48 1018.5 ***** 1001.4 *** *** ***** ***** ***** ***** **
944100 ***** 201506050100 090   6 *** 722 CLR * * * 12.5 02 ** ** ** ** ** ** ** 0   66   46 1020.2 ***** 1003.1 *** *** ***** ***** ***** ***** **
944100 ***** 201506080100 360   0 *** *** OVC * * * 12.5 03 ** ** ** ** ** ** ** 2   69   47 1021.0 ***** 1003.9 *** *** ***** ***** ***** ***** **
944100 ***** 201506080700 360   2 *** *** OVC * * * 12.5 02 ** ** ** ** ** ** ** 2   82   37 1017.7 ***** 1000.6 *** *** ***** ***** ***** ***** **
944100 ***** 201506090100 360   0 *** *** BKN * * * 12.5 02 ** ** ** ** ** ** ** 2   66   45 1021.3 ***** 1004.2 *** *** ***** ***** ***** ***** **
944100 ***** 201506090700 360   2 *** 722 SCT * * * 12.5 01 ** ** ** ** ** ** ** 0   80   37 1017.8 ***** 1000.7 *** *** ***** ***** ***** ***** **
944100 ***** 201506100100 090   3 *** 722 CLR * * * 12.5 02 ** ** ** ** ** ** ** 0   66   46 1017.2 ***** 1000.2 *** *** ***** ***** ***** ***** **
944100 ***** 201506110100 360   2 *** 722 CLR * * * 12.5 02 ** ** ** ** ** ** ** 0   63   44 1019.5 ***** 1002.4 *** *** ***** ***** ***** ***** **
944100 ***** 201506110700 360   0 *** 722 CLR * * * 12.5 02 ** ** ** ** ** ** ** 0   83   43 1015.9 *****  998.9 *** *** ***** ***** ***** ***** **
944100 ***** 201506120100 360   0 *** 722 CLR * * * 12.5 02 ** ** ** ** ** ** ** 0   59   48 1019.0 ***** 1001.9 *** *** ***** ***** ***** ***** **
944100 ***** 201506120700 360   0 *** 722 CLR * * * 12.5 02 ** ** ** ** ** ** ** 0   80   49 1015.1 *****  998.1 *** *** ***** ***** ***** ***** **
944100 ***** 201506150100 360   0 *** *** BKN * * * 12.5 02 ** ** ** ** ** ** ** 2   59   49 1016.0 *****  999.0 *** *** ***** ***** ***** ***** **
944100 ***** 201506150700 360   0 *** *** BKN * * * 12.5 03 ** ** ** ** ** ** ** 2   78   51 1012.8 *****  995.8 *** *** ***** ***** ***** ***** **
944100 ***** 201506160100 360   0 *** *** BKN * * * 12.5 02 ** ** ** ** ** ** ** 2   59   48 1015.0 *****  998.0 *** *** ***** ***** ***** ***** **
944100 ***** 201506160700 360   0 *** *** BKN * * * 12.5 02 ** ** ** ** ** ** ** 2   79   54 1012.3 *****  995.3 *** *** ***** ***** ***** ***** **
944100 ***** 201506170100 090   3 *** *** BKN * * * 12.5 02 ** ** ** ** ** ** ** 2   66   57 1013.9 *****  996.9 *** *** ***** ***** ***** ***** **
944100 ***** 201506170700 360   1 *** *** BKN * * * 12.5 03 ** ** ** ** ** ** ** 2   78   62 1010.3 *****  993.4 *** *** ***** ***** ***** ***** **
944100 ***** 201506180700 360   0 *** *** BKN * * * 12.5 03 ** ** ** ** ** ** ** *   74   68 1011.4 *****  994.4 *** *** ***** *****  0.47 ***** **
944100 ***** 201506190100 360   0 *** *** BKN * * * 12.5 03 ** ** ** ** ** ** ** 2   68   68 1016.8 *****  999.8 *** *** ***** ***** *****  0.02 **
944100 ***** 201506190700 360   3 *** *** BKN * * * 12.5 01 ** ** ** ** ** ** ** 1   78   68 1014.8 *****  997.8 *** *** *****  0.03 ***** ***** **
944100 ***** 201506220100 360   5 *** *** BKN * * * 12.5 01 ** ** ** ** ** ** ** 2   58   53 1022.2 ***** 1005.1 *** *** ***** ***** *****  0.04 **
944100 ***** 201506220700 360   5 *** 722 SCT * * * 12.5 01 ** ** ** ** ** ** ** 1   64   48 1020.4 ***** 1003.3 *** *** ***** ***** ***** ***** **
944100 ***** 201506230100 090   7 *** 722 CLR * * * 12.5 02 ** ** ** ** ** ** ** 0   54   48 1024.6 ***** 1007.4 *** *** ***** ***** ***** ***** **
944100 ***** 201506230700 090   7 *** 722 CLR * * * 12.5 02 ** ** ** ** ** ** ** 0   67   48 1021.2 ***** 1004.1 *** *** ***** ***** ***** ***** **
944100 ***** 201506240100 090   6 *** 722 CLR * * * 12.5 02 ** ** ** ** ** ** ** 0   57   48 1019.2 ***** 1002.1 *** *** ***** ***** ***** ***** **
944100 ***** 201506240700 360   0 *** 722 CLR * * * 12.5 02 ** ** ** ** ** ** ** 0   71   49 1022.3 ***** 1005.2 *** *** ***** ***** ***** ***** **
944100 ***** 201506250100 360   3 *** 722 CLR * * * 12.5 02 ** ** ** ** ** ** ** 0   57   49 1024.2 ***** 1007.0 *** *** ***** ***** ***** ***** **
944100 ***** 201506250700 360   0 *** 722 CLR * * * 12.5 02 ** ** ** ** ** ** ** 0   73   52 1020.5 ***** 1003.4 *** *** ***** ***** ***** ***** **
944100 ***** 201506260100 360   0 *** 722 SCT * * * 12.5 02 ** ** ** ** ** ** ** 0   57   50 1024.1 ***** 1006.9 *** *** ***** ***** ***** ***** **
944100 ***** 201506260700 360   0 *** 722 SCT * * * 12.5 02 ** ** ** ** ** ** ** 0   76   46 1020.3 ***** 1003.2 *** *** ***** ***** ***** ***** **
944100 ***** 201506290100 360   0 *** 722 CLR * * * 12.5 02 ** ** ** ** ** ** ** 0   60   46 1024.9 ***** 1007.7 *** *** ***** ***** ***** ***** **
944100 ***** 201506290700 360   0 *** 722 CLR * * * 12.5 02 ** ** ** ** ** ** ** 0   80   53 1021.2 ***** 1004.1 *** *** ***** ***** ***** ***** **
944100 ***** 201506300100 360   3 *** 722 SCT * * * 12.5 02 ** ** ** ** ** ** ** 0   57   42 1024.3 ***** 1007.1 *** *** ***** ***** ***** ***** **
944100 ***** 201506300700 360   0 *** 722 SCT * * * 12.5 02 ** ** ** ** ** ** ** 0   77   52 1020.3 ***** 1003.2 *** *** ***** ***** ***** ***** **
944100 ***** 201507010100 360   1 *** 722 SCT * * * 12.5 02 ** ** ** ** ** ** ** 0   58   45 1023.3 ***** 1006.1 *** *** ***** ***** ***** ***** **
944100 ***** 201507010700 360   3 *** 722 SCT * * * 12.5 02 ** ** ** ** ** ** ** 0   80   56 1020.0 ***** 1002.8 *** *** ***** ***** ***** ***** **
944100 ***** 201507020100 360   3 *** 722 SCT * * * 12.5 02 ** ** ** ** ** ** ** 0   64   50 1023.1 ***** 1005.9 *** *** ***** ***** ***** ***** **
944100 ***** 201507020700 360   3 *** 722 SCT * * * 12.5 02 ** ** ** ** ** ** ** 0   82   59 1019.8 ***** 1002.6 *** *** ***** ***** ***** ***** **
944100 ***** 201507030100 360   0 *** 722 SCT * * * 12.5 00 ** ** ** ** ** ** ** *   65   50 1022.4 ***** 1005.2 *** *** ***** ***** ***** ***** **
944100 ***** 201507030700 360   0 *** 722 SCT * * * 12.5 02 ** ** ** ** ** ** ** *   81   59 1019.6 ***** 1002.4 *** *** ***** ***** ***** ***** **
944100 ***** 201507060100 090   3 *** 722 SCT * * * 12.5 02 ** ** ** ** ** ** ** *   60   53 1020.7 ***** 1003.5 *** *** ***** ***** ***** ***** **
944100 ***** 201507060700 090   3 *** 722 SCT * * * 12.5 02 ** ** ** ** ** ** ** *   77   58 1017.8 ***** 1000.6 *** *** ***** ***** ***** ***** **
944100 ***** 201507070100 360   3 *** 722 CLR * * * 12.5 02 ** ** ** ** ** ** ** 0   59   49 1019.2 ***** 1002.1 *** *** ***** ***** ***** ***** **
944100 ***** 201507070700 360   0 *** 722 CLR * * * 12.5 02 ** ** ** ** ** ** ** 0   77   42 1015.8 *****  998.7 *** *** ***** ***** ***** ***** **
944100 ***** 201507080100 360   3 *** 722 CLR * * * 12.5 02 ** ** ** ** ** ** ** 0   61   53 1019.9 ***** 1002.7 *** *** ***** ***** ***** ***** **
944100 ***** 201507080700 230   8 *** 722 SCT * * * 12.5 03 ** ** ** ** ** ** ** 0   73   51 1016.8 *****  999.7 *** *** ***** ***** ***** ***** **
944100 ***** 201507090100 090  11 *** 722 CLR * * * 12.5 01 ** ** ** ** ** ** ** 0   52   35 1023.2 ***** 1006.0 *** *** ***** ***** ***** ***** **
944100 ***** 201507090700 110  29 *** 722 CLR * * * 12.5 02 ** ** ** ** ** ** ** 0   67   32 1019.8 ***** 1002.6 *** *** ***** ***** ***** ***** **
944100 ***** 201507100100 110   9 *** 722 CLR * * * 12.5 02 ** ** ** ** ** ** ** 0   54   42 1024.7 ***** 1007.5 *** *** ***** ***** ***** ***** **
944100 ***** 201507130100 110   5 *** *** OVC * * * 12.5 03 ** ** ** ** ** ** ** 2   55   50 1022.3 ***** 1005.1 *** *** ***** ***** *****  0.31 **
944100 ***** 201507130700 090   7 *** *** OVC * * * 12.5 03 ** ** ** ** ** ** ** 2   63   47 1019.1 ***** 1002.0 *** *** ***** ***** ***** ***** **
944100 ***** 201507140100 090   5 *** *** OVC * * * 12.5 03 ** ** ** ** ** ** ** 2   58   49 ****** ***** ****** *** *** ***** ***** ***** ***** **
944100 ***** 201507140700 090   9 *** *** BKN * * * 12.5 01 ** ** ** ** ** ** ** 2   68   47 ****** ***** ****** *** *** ***** ***** ***** ***** **
944100 ***** 201507150100 070   9 *** 722 SCT * * * 12.5 01 ** ** ** ** ** ** ** 0   62   50 ****** ***** ****** *** *** ***** ***** ***** ***** **
944100 ***** 201507150700 090   6 *** 722 CLR * * * 12.5 02 ** ** ** ** ** ** ** 0   74   50 ****** ***** ****** *** *** ***** ***** ***** ***** **
944100 ***** 201507160100 360   2 *** 722 SCT * * * 12.5 02 ** ** ** ** ** ** ** *   60   47 ****** ***** ****** *** *** ***** ***** ***** ***** **
944100 ***** 201507160700 360   3 *** 722 SCT * * * 12.5 02 ** ** ** ** ** ** ** *   75   49 ****** ***** ****** *** *** ***** ***** ***** ***** **
944100 ***** 201507170100 360   0 *** *** BKN * * * 12.5 03 ** ** ** ** ** ** ** *   59   48 ****** ***** ****** *** *** ***** ***** ***** ***** **
944100 ***** 201507170700 360   0 *** *** BKN * * * 12.5 03 ** ** ** ** ** ** ** *   73   51 ****** ***** ****** *** *** ***** ***** ***** ***** **
944100 ***** 201507200100 360   0 *** 722 SCT * * * 12.5 03 ** ** ** ** ** ** ** *   66   59 ****** ***** ****** *** *** ***** ***** ***** ***** **
944100 ***** 201507200700 320  11 *** 722 SCT * * * 12.5 02 ** ** ** ** ** ** ** 0   78   54 ****** ***** ****** *** *** ***** ***** ***** ***** **
944100 ***** 201507210100 140   2 *** 722 SCT * * * 12.5 02 ** ** ** ** ** ** ** *   63   61 ****** ***** ****** *** *** ***** *****  0.31 ***** **
944100 ***** 201507220100 360   0 *** 722 SCT * * * 12.5 02 ** ** ** ** ** ** ** *   61   56 ****** ***** ****** *** *** ***** *****  0.04 ***** **
944100 ***** 201507220700 360   0 *** 722 SCT * * * 12.5 02 ** ** ** ** ** ** ** *   68   58 ****** ***** ****** *** *** ***** ***** ***** ***** **
944100 ***** 201507230100 360   0 *** *** OVC * * * 12.5 02 ** ** ** ** ** ** ** 2   61   57 ****** ***** ****** *** *** ***** ***** ***** ***** **
944100 ***** 201507240100 090   3 *** *** OVC * * * 12.5 02 ** ** ** ** ** ** ** 2   59   52 1021.4 ***** 1004.2 *** *** ***** ***** ***** ***** **
944100 ***** 201507240700 360   2 *** *** OVC * * * 12.5 02 ** ** ** ** ** ** ** 2   64   48 1027.1 ***** 1009.8 *** *** ***** ***** ***** ***** **
944100 ***** 201507270100 090   6 *** 722 SCT * * * 12.5 02 ** ** ** ** ** ** ** 0   62   43 1024.1 ***** 1006.9 *** *** ***** ***** ***** ***** **
944100 ***** 201507270700 360   3 *** 722 SCT * * * 12.5 02 ** ** ** ** ** ** ** 0   78   51 1034.3 ***** 1016.9 *** *** ***** ***** ***** ***** **
944100 ***** 201507280100 090   7 *** 722 CLR * * * 12.5 02 ** ** ** ** ** ** ** 0   66   49 1022.1 ***** 1004.9 *** *** ***** ***** ***** ***** **
944100 ***** 201507280700 130   6 *** 722 SCT * * * 12.5 02 ** ** ** ** ** ** ** 0   85   57 1031.9 ***** 1014.5 *** *** ***** ***** ***** ***** **
944100 ***** 201507290100 360   2 *** 722 SCT * * * 12.5 02 ** ** ** ** ** ** ** 0   66   58 1019.1 ***** 1002.0 *** *** ***** ***** ***** ***** **
944100 ***** 201507290700 360   3 *** 722 CLR * * * 12.5 02 ** ** ** ** ** ** ** 0   86   60 1029.8 ***** 1012.5 *** *** ***** ***** ***** ***** **
944100 ***** 201507300100 360   3 *** 722 SCT * * * 12.5 02 ** ** ** ** ** ** ** 0   69   63 1018.1 ***** 1000.9 *** *** ***** ***** ***** ***** **
944100 ***** 201507300700 360   3 *** 722 SCT * * * 12.5 03 ** ** ** ** ** ** ** 0   88   59 1025.8 ***** 1008.5 *** *** ***** ***** ***** ***** **
944100 ***** 201507310700 090  11 *** *** BKN * * * 12.5 02 ** ** ** ** ** ** ** 1   81   65 1023.1 ***** 1005.8 *** *** ***** ***** ***** ***** **
944100 ***** 201508040100 090   5 *** 722 SCT * * * 12.5 02 ** ** ** ** ** ** ** 2   63   48 1016.9 *****  999.9 *** *** ***** ***** ***** ***** **
944100 ***** 201508050100 090   5 *** 722 SCT * * * 12.5 02 ** ** ** ** ** ** ** 0   61   49 1015.8 *****  998.8 *** *** ***** ***** ***** ***** **
944100 ***** 201508060100 090   5 *** *** BKN * * * 12.5 02 ** ** ** ** ** ** ** 2   64   51 1013.8 *****  996.8 *** *** ***** ***** ***** ***** **
944100 ***** 201508070100 360   2 *** *** BKN * * * 12.5 00 ** ** ** ** ** ** ** 2   69   58 1017.0 ***** 1000.0 *** *** ***** ***** ***** ***** **
944100 ***** 201508100100 090  11 *** 722 SCT * * * 12.5 02 ** ** ** ** ** ** ** 0   56   37 1013.8 *****  996.8 *** *** ***** ***** ***** ***** **
944100 ***** 201508110100 070  16 *** 722 SCT * * * 12.5 02 ** ** ** ** ** ** ** 0   61   51 1020.5 ***** 1003.4 *** *** ***** ***** ***** ***** **
944100 ***** 201508120100 090  17 *** 722 SCT * * * 12.5 02 ** ** ** ** ** ** ** 0   57   42 1022.7 ***** 1005.6 *** *** ***** ***** ***** ***** **
944100 ***** 201508130100 090   9 *** 722 CLR * * * 12.5 02 ** ** ** ** ** ** ** *   63   42 1018.2 ***** 1001.1 *** *** ***** ***** ***** ***** **
944100 ***** 201508140100 360   5 *** 722 SCT * * * 12.5 02 ** ** ** ** ** ** ** *   66   44 1016.5 *****  999.4 *** *** ***** ***** ***** ***** **
944100 ***** 201508170100 360   0 *** *** OVC * * * 12.5 03 ** ** ** ** ** ** ** 2   70   59 1018.7 ***** 1001.6 *** *** ***** ***** ***** ***** **
944100 ***** 201508180100 360   3 *** *** OVC * * * 12.5 03 ** ** ** ** ** ** ** 2   70   67 1020.5 ***** 1003.4 *** *** ***** *****  0.03 ***** **
944100 ***** 201508180700 360   3 *** *** OVC * * * 12.5 03 ** ** ** ** ** ** ** 2   78   64 1024.1 ***** 1006.9 *** *** ***** ***** ***** ***** **
944100 ***** 201508190100 360   0 *** *** OVC * * * 12.5 02 ** ** ** ** ** ** ** *   65   54 1014.0 *****  997.0 *** *** ***** ***** ***** ***** **
944100 ***** 201508200100 360   3 *** 722 SCT * * * 12.5 02 ** ** ** ** ** ** ** 0   64   57 1014.3 *****  997.3 *** *** ***** ***** *****  0.01 **
944100 ***** 201508210100 360   0 *** 722 CLR * * * 12.5 02 ** ** ** ** ** ** ** 0   62   53 1011.4 *****  994.5 *** *** ***** ***** ***** ***** **
944100 ***** 201508240100 090  11 *** 722 CLR * * * 12.5 02 ** ** ** ** ** ** ** 0   62   46 1017.2 ***** 1000.2 *** *** ***** ***** ***** ***** **
944100 ***** 201508240700 090   6 *** 722 CLR * * * 12.5 02 ** ** ** ** ** ** ** 0   78   44 1026.1 ***** 1008.9 *** *** ***** ***** ***** ***** **
944100 ***** 201508250100 090  16 *** 722 CLR * * * 12.5 02 ** ** ** ** ** ** ** 0   66   43 1017.7 ***** 1000.7 *** *** ***** ***** ***** ***** **
944100 ***** 201508250700 360   1 *** 722 CLR * * * 12.5 02 ** ** ** ** ** ** ** 0   81   47 1027.0 ***** 1009.8 *** *** ***** ***** ***** ***** **
944100 ***** 201508260100 360   2 *** 722 CLR * * * 12.5 02 ** ** ** ** ** ** ** 0   68   46 1014.9 *****  997.9 *** *** ***** ***** ***** ***** **
944100 ***** 201508260700 360   0 *** 722 SCT * * * 12.5 02 ** ** ** ** ** ** ** 0   87   51 1024.5 ***** 1007.3 *** *** ***** ***** ***** ***** **
944100 ***** 201508270100 *** *** *** 722 SCT * * * 12.5 02 ** ** ** ** ** ** ** *   68   53 1016.0 *****  998.9 *** *** ***** ***** ***** ***** **
944100 ***** 201508280100 360   0 *** 722 SCT * * * 12.5 02 ** ** ** ** ** ** ** 0   64   57 1012.7 *****  995.7 *** *** ***** ***** ***** ***** **
944100 ***** 201508310100 090  11 *** 722 SCT * * * 12.5 02 ** ** ** ** ** ** ** 0   66   53 1014.9 *****  997.9 *** *** ***** ***** ***** ***** **
944100 ***** 201508310700 070   7 *** 722 SCT * * * 12.5 02 ** ** ** ** ** ** ** 0   74   58 1020.9 ***** 1003.8 *** *** ***** ***** ***** ***** **
944100 ***** 201509010100 110  14 *** 722 CLR * * * 12.5 02 ** ** ** ** ** ** ** 0   62   53 1013.6 *****  996.8 *** *** ***** ***** ***** ***** **
944100 ***** 201509010700 090   6 *** 722 CLR * * * 12.5 02 ** ** ** ** ** ** ** 0   73   55 1021.6 ***** 1004.6 *** *** ***** ***** ***** ***** **
944100 ***** 201509020100 090  13 *** 722 CLR * * * 12.5 02 ** ** ** ** ** ** ** 0   59   46 1012.5 *****  995.7 *** *** ***** ***** ***** ***** **
944100 ***** 201509020700 360   0 *** 722 CLR * * * 12.5 02 ** ** ** ** ** ** ** 0   75   57 1022.5 ***** 1005.5 *** *** ***** ***** ***** ***** **
944100 ***** 201509030100 360   0 *** 722 CLR * * * 12.5 02 ** ** ** ** ** ** ** 0   60   46 1018.8 ***** 1001.9 *** *** ***** ***** ***** ***** **
944100 ***** 201509030700 360   1 *** 722 CLR * * * 12.5 02 ** ** ** ** ** ** ** 0   82   63 1023.0 ***** 1006.0 *** *** ***** ***** ***** ***** **
944100 ***** 201509040100 360   2 *** 722 CLR * * * 12.5 02 ** ** ** ** ** ** ** 0   63   52 1018.4 ***** 1001.5 *** *** ***** ***** ***** ***** **
944100 ***** 201509040700 360   2 *** 722 SCT * * * 12.5 02 ** ** ** ** ** ** ** 0   78   62 1023.4 ***** 1006.4 *** *** ***** ***** ***** ***** **
944100 ***** 201509070100 090  16 *** 722 CLR * * * 12.5 02 ** ** ** ** ** ** ** 0   72   60 1017.5 ***** 1000.6 *** *** ***** ***** ***** ***** **
944100 ***** 201509070700 360   5 *** 722 CLR * * * 12.5 02 ** ** ** ** ** ** ** 0   85   35 1022.7 ***** 1005.7 *** *** ***** ***** ***** ***** **
944100 ***** 201509080100 090   6 *** 722 CLR * * * 12.5 02 ** ** ** ** ** ** ** 0   71   33 1015.0 *****  998.2 *** *** ***** ***** ***** ***** **
944100 ***** 201509080700 360   3 *** 722 CLR * * * 12.5 02 ** ** ** ** ** ** ** 0   91   44 1024.7 ***** 1007.7 *** *** ***** ***** ***** ***** **
944100 ***** 201509090100 360   0 *** 722 CLR * * * 12.5 02 ** ** ** ** ** ** ** 0   75   49 1015.7 *****  998.8 *** *** ***** ***** ***** ***** **
944100 ***** 201509090700 070   5 *** 722 CLR * * * 12.5 02 ** ** ** ** ** ** ** 0   95   50 1020.9 ***** 1004.0 *** *** ***** ***** ***** ***** **
944100 ***** 201509100100 100   1 *** 722 SCT * * * 12.5 02 ** ** ** ** ** ** ** 0   82   51 1014.5 *****  997.6 *** *** ***** ***** ***** ***** **
944100 ***** 201509110100 360   0 *** 722 CLR * * * 12.5 02 ** ** ** ** ** ** ** 0   69   60 1017.6 ***** 1000.7 *** *** ***** ***** ***** ***** **
944100 ***** 201509140100 090  15 *** 722 CLR * * * 12.5 02 ** ** ** ** ** ** ** *   64   37 1015.0 *****  998.1 *** *** ***** ***** ***** ***** **
944100 ***** 201509140700 090   8 *** 722 CLR * * * 12.5 02 ** ** ** ** ** ** ** *   77   21 ****** ***** ****** *** *** ***** ***** ***** ***** **
944100 ***** 201509150100 090  16 *** 722 CLR * * * 12.5 02 ** ** ** ** ** ** ** *   65   39 1016.0 *****  999.1 *** *** ***** ***** ***** ***** **
944100 ***** 201509160100 090   8 *** 722 SCT * * * 12.5 02 ** ** ** ** ** ** ** *   76   37 1016.3 *****  999.4 *** *** ***** ***** ***** ***** **
944100 ***** 201509170100 090  11 *** 722 SCT * * * 12.5 03 ** ** ** ** ** ** ** *   81   47 1018.2 ***** 1001.2 *** *** ***** ***** ***** ***** **
