  USAF  WBAN YR--MODAHRMN DIR SPD GUS CLG SKC L M H  VSB MW MW MW MW AW AW AW AW W TEMP DEWP    SLP   ALT    STP MAX MIN PCP01 PCP06 PCP24 PCPXX SD
947000 ***** 201501010400 230   5 *** 722 SCT * * * 31.2 03 ** ** ** ** ** ** ** 0   99   26 ****** ***** ****** *** *** ***** ***** ***** ***** **
947000 ***** 201501012200 ***   0 *** *** *** * * * **** ** ** ** ** ** ** ** ** *   86   49 1013.3 *****  999.6 *** *** ***** ***** *****  0.00 **
947000 ***** 201501020400 ***   0 *** 722 SCT * * * **** ** ** ** ** ** ** ** ** *  106   33 1010.5 *****  996.9 *** *** *****  0.00 ***** ***** **
947000 ***** 201501022200 ***   0 *** *** *** * * * **** ** ** ** ** ** ** ** ** *   82   55 1016.0 ***** 1002.3 *** *** ***** *****  0.00 ***** **
947000 ***** 201501030400 ***   0 *** 722 SCT * * * **** ** ** ** ** ** ** ** ** *  101   64 1011.2 *****  997.6 *** *** *****  0.00 ***** ***** **
947000 ***** 201501032200 ***   0 *** 722 SCT * * * **** ** ** ** ** ** ** ** ** *   89   58 1012.9 *****  999.2 *** *** ***** *****  0.00 ***** **
947000 ***** 201501040400 360   1 *** *** OVC * * * 12.5 61 ** ** ** ** ** ** ** 9   78   68 1012.3 *****  998.6 *** *** *****  0.02 ***** ***** **
947000 ***** 201501042200 ***   0 *** 722 SCT * * * **** ** ** ** ** ** ** ** ** *   78   65 1015.3 ***** 1001.6 *** *** ***** *****  0.02 ***** **
947000 ***** 201501050400 ***   0 *** *** BKN * * * **** ** ** ** ** ** ** ** ** *   92   61 1013.6 *****  999.9 *** *** *****  0.00 ***** ***** **
947000 ***** 201501052200 ***   0 *** *** *** * * * **** ** ** ** ** ** ** ** ** *   82   63 1017.7 ***** 1004.0 *** *** ***** *****  0.00 ***** **
947000 ***** 201501060400 ***   0 *** *** BKN * * * **** ** ** ** ** ** ** ** ** *   97   56 1015.2 ***** 1001.5 *** *** *****  0.00 ***** ***** **
947000 ***** 201501062200 ***   0 *** 722 SCT * * * **** ** ** ** ** ** ** ** ** *   82   59 1016.3 ***** 1002.6 *** *** ***** *****  0.00 ***** **
947000 ***** 201501070400 ***   0 *** *** BKN * * * 25.0 03 ** ** ** ** ** ** ** 1  100   58 1013.4 *****  999.7 *** *** ***** ***** *****  0.00 **
947000 ***** 201501072200 ***   0 *** 722 SCT * * * **** ** ** ** ** ** ** ** ** *   84   61 1011.8 *****  998.1 *** *** ***** *****  0.00 ***** **
947000 ***** 201501080400 ***   0 *** *** BKN * * * **** ** ** ** ** ** ** ** ** *  100   48 1007.4 *****  993.8 *** *** *****  0.00 ***** ***** **
947000 ***** 201501082200 ***   0 *** *** BKN * * * **** ** ** ** ** ** ** ** ** *   79   67 1006.6 *****  993.0 *** *** ***** *****  0.01 ***** **
947000 ***** 201501090400 ***   0 *** *** OVC * * * **** ** ** ** ** ** ** ** ** *   93   58 1003.9 *****  990.4 *** *** *****  0.00 ***** ***** **
947000 ***** 201501092200 ***   0 *** *** OVC * * * **** ** ** ** ** ** ** ** ** *   73   67 1007.4 *****  993.8 *** *** ***** *****  1.03 ***** **
947000 ***** 201501100400 ***   0 *** *** OVC * * * **** 61 ** ** ** ** ** ** ** 6   72   67 1007.4 *****  993.8 *** *** *****  0.24 ***** ***** **
947000 ***** 201501102200 ***   0 *** *** OVC * * * **** ** ** ** ** ** ** ** ** *   72   70 1010.1 *****  996.5 *** *** ***** *****  0.76 ***** **
947000 ***** 201501110400 040   2 *** *** OVC * * * 18.8 60 ** ** ** ** ** ** ** 6   77   70 1009.5 *****  995.8 *** *** *****  0.12 ***** ***** **
947000 ***** 201501112200 *** *** *** *** OVC * * * **** ** ** ** ** ** ** ** ** *   68   67 1011.2 *****  997.6 *** *** ***** *****  0.17 ***** **
947000 ***** 201501120400 ***   0 *** *** BKN * * * **** ** ** ** ** ** ** ** ** *   80   66 1008.7 *****  995.1 *** *** *****  0.00 ***** ***** **
947000 ***** 201501122200 ***   0 *** *** OVC * * * **** ** ** ** ** ** ** ** ** *   74   61 1004.7 *****  991.1 *** *** ***** *****  0.02 ***** **
947000 ***** 201501130400 360   2 *** *** OVC * * *  6.2 61 ** ** ** ** ** ** ** 6   73   71 ****** ***** ****** *** *** ***** ***** ***** ***** **
947000 ***** 201501132200 ***   0 *** *** OVC * * * **** ** ** ** ** ** ** ** ** *   68   59 1005.1 *****  991.5 *** *** ***** *****  0.64 ***** **
947000 ***** 201501140400 ***   0 *** *** OVC * * * **** ** ** ** ** ** ** ** ** *   74   63 1005.0 *****  991.4 *** *** *****  0.01 ***** ***** **
947000 ***** 201501142200 ***   0 *** 722 SCT * * * **** ** ** ** ** ** ** ** ** *   66   54 1005.1 *****  991.5 *** *** ***** *****  0.01 ***** **
947000 ***** 201501150400 ***   0 *** 722 SCT * * * **** ** ** ** ** ** ** ** ** *   77   52 1008.1 *****  994.5 *** *** *****  0.00 ***** ***** **
947000 ***** 201501152200 ***   0 *** *** *** * * * **** ** ** ** ** ** ** ** ** *   66   52 1011.6 *****  997.9 *** *** ***** *****  0.00 ***** **
947000 ***** 201501160400 ***   0 *** *** *** * * * **** ** ** ** ** ** ** ** ** *   84   41 1009.4 *****  995.8 *** *** *****  0.00 ***** ***** **
947000 ***** 201501162200 *** *** *** 722 CLR * * * **** ** ** ** ** ** ** ** ** *   70   49 1012.8 *****  999.1 *** *** ***** ***** ***** ***** **
947000 ***** 201501170400 *** *** *** 722 CLR * * * **** ** ** ** ** ** ** ** ** *   84   49 1010.1 *****  996.5 *** *** ***** ***** ***** ***** **
947000 ***** 201501172200 *** *** *** 722 SCT * * * **** ** ** ** ** ** ** ** ** *   70   49 1014.2 ***** 1000.5 *** *** ***** ***** ***** ***** **
947000 ***** 201501180400 230   3 *** *** SCT * * * 31.2 03 ** ** ** ** ** ** ** 1   83   45 1019.3 ***** 1005.5 *** *** *****  0.00 ***** ***** **
947000 ***** 201501182200 ***   0 *** *** BKN * * * **** ** ** ** ** ** ** ** ** *   74   63 1005.0 *****  991.4 *** *** ***** *****  0.08 ***** **
947000 ***** 201501190400 ***   0 *** *** BKN * * * **** ** ** ** ** ** ** ** ** *   83   30 1009.6 *****  996.0 *** *** *****  0.00 ***** ***** **
947000 ***** 201501192200 ***   0 *** *** *** * * * **** ** ** ** ** ** ** ** ** *   70   56 1007.5 *****  993.9 *** *** ***** *****  0.00 ***** **
947000 ***** 201501200400 ***   0 *** *** OVC * * * **** ** ** ** ** ** ** ** ** *   88   71 1003.4 *****  989.9 *** *** *****  0.00 ***** ***** **
947000 ***** 201501202200 ***   0 *** *** BKN * * * **** ** ** ** ** ** ** ** ** *   74   57 1006.6 *****  993.0 *** *** ***** *****  0.00 ***** **
947000 ***** 201501210400 ***   0 *** *** *** * * * **** ** ** ** ** ** ** ** ** *   87   57 1005.1 *****  991.5 *** *** *****  0.00 ***** ***** **
947000 ***** 201501212200 ***   0 *** *** *** * * * **** ** ** ** ** ** ** ** ** *   79   61 1010.9 *****  997.3 *** *** ***** *****  0.00 ***** **
947000 ***** 201501220400 ***   0 *** *** BKN * * * **** ** ** ** ** ** ** ** ** *   93   58 1007.3 *****  993.7 *** *** *****  0.00 ***** ***** **
947000 ***** 201501222200 ***   0 *** *** *** * * * **** ** ** ** ** ** ** ** ** *   82   59 1007.4 *****  993.8 *** *** ***** *****  0.00 ***** **
947000 ***** 201501230400 ***   0 *** 722 SCT * * * **** ** ** ** ** ** ** ** ** *   98   56 1003.8 *****  990.3 *** *** *****  0.00 ***** ***** **
947000 ***** 201501232200 ***   0 *** *** BKN * * * **** ** ** ** ** ** ** ** ** *   80   60 1005.1 *****  991.5 *** *** ***** *****  0.04 ***** **
947000 ***** 201501240400 360   0 *** *** BKN * * * 25.0 60 ** ** ** ** ** ** ** 6   85   60 1005.9 *****  992.3 *** *** ***** ***** ***** ***** **
947000 ***** 201501242200 *** *** *** 722 CLR * * * **** ** ** ** ** ** ** ** ** *   71   49 1008.3 *****  994.7 *** *** ***** *****  0.02 ***** **
947000 ***** 201501250400 270   5 *** 722 SCT * * * 31.2 02 ** ** ** ** ** ** ** 0   82   46 ****** ***** ****** *** *** ***** ***** ***** ***** **
947000 ***** 201501252200 180  18 *** *** *** * * * 31.2 02 ** ** ** ** ** ** ** 0   64   38 ****** ***** ****** *** *** ***** *****  0.00 ***** **
947000 ***** 201501260400 180   5 *** *** SCT * * * 31.2 02 ** ** ** ** ** ** ** 0   80   31 ****** ***** ****** *** *** ***** ***** ***** ***** **
947000 ***** 201501262200 *** *** *** 722 CLR * * * **** ** ** ** ** ** ** ** ** *   62   29 1011.4 *****  997.8 *** *** ***** ***** ***** ***** **
947000 ***** 201501270400 ***   0 *** *** *** * * * **** ** ** ** ** ** ** ** ** *   83   35 1008.2 *****  994.6 *** *** *****  0.00 ***** ***** **
947000 ***** 201501272200 ***   0 *** 722 SCT * * * **** ** ** ** ** ** ** ** ** *   73   53 1011.3 *****  997.7 *** *** ***** *****  0.00 ***** **
947000 ***** 201501280400 ***   0 *** *** BKN * * * **** ** ** ** ** ** ** ** ** *   86   52 1009.5 *****  995.9 *** *** *****  0.00 ***** ***** **
947000 ***** 201501282200 ***   0 *** *** *** * * * **** ** ** ** ** ** ** ** ** *   73   51 1013.8 ***** 1000.1 *** *** ***** *****  0.00 ***** **
947000 ***** 201501290400 *** *** *** 722 SCT * * * **** ** ** ** ** ** ** ** ** *   83   47 1011.1 *****  997.5 *** *** ***** ***** ***** ***** **
947000 ***** 201501300400 230   6 *** *** SCT * * * 31.2 03 ** ** ** ** ** ** ** 0   81   30 ****** ***** ****** *** *** ***** ***** ***** ***** **
947000 ***** 201501302200 ***   0 *** *** *** * * * **** ** ** ** ** ** ** ** ** *   65   45 1010.5 *****  996.9 *** *** ***** ***** *****  0.00 **
947000 ***** 201501310400 270   2 *** *** *** * * * 31.2 02 ** ** ** ** ** ** ** *   82   39 1010.9 *****  997.2 *** *** ***** *****  0.00 ***** **
947000 ***** 201501312200 ***   0 *** 722 SCT * * * **** ** ** ** ** ** ** ** ** *   65   49 1010.6 *****  997.0 *** *** ***** *****  0.00 ***** **
947000 ***** 201502010400 ***   0 *** 722 SCT * * * 31.2 03 ** ** ** ** ** ** ** 0   81   44 1010.5 *****  996.8 *** *** ***** *****  0.00 ***** **
947000 ***** 201502012200 ***   0 *** *** *** * * * **** ** ** ** ** ** ** ** ** *   65   53 1013.3 *****  999.6 *** *** ***** *****  0.00 ***** **
947000 ***** 201502020400 ***   0 *** *** BKN * * * **** ** ** ** ** ** ** ** ** *   86   47 1012.2 *****  998.5 *** *** *****  0.00 ***** ***** **
947000 ***** 201502022200 ***   0 *** *** *** * * * **** ** ** ** ** ** ** ** ** *   70   50 1019.3 ***** 1005.5 *** *** ***** *****  0.00 ***** **
947000 ***** 201502030400 ***   0 *** *** BKN * * * **** ** ** ** ** ** ** ** ** *   88   45 1015.8 ***** 1002.1 *** *** *****  0.00 ***** ***** **
947000 ***** 201502032200 ***   0 *** *** *** * * * **** ** ** ** ** ** ** ** ** *   65   46 1015.1 ***** 1001.4 *** *** ***** *****  0.00 ***** **
947000 ***** 201502040400 *** *** *** 722 SCT * * * **** ** ** ** ** ** ** ** ** *   86   35 1012.6 *****  998.9 *** *** ***** ***** ***** ***** **
947000 ***** 201502042200 ***   0 *** *** *** * * * **** ** ** ** ** ** ** ** ** *   72   52 1014.1 ***** 1000.4 *** *** ***** *****  0.00 ***** **
947000 ***** 201502050400 050   3 *** *** BKN * * * 25.0 03 ** ** ** ** ** ** ** 1   92   48 1017.5 ***** 1003.7 *** *** ***** ***** ***** ***** **
947000 ***** 201502052200 ***   0 *** *** *** * * * **** ** ** ** ** ** ** ** ** *   74   54 1023.5 ***** 1009.7 *** *** ***** *****  0.00 ***** **
947000 ***** 201502060400 050   7 *** *** BKN * * * 31.2 03 ** ** ** ** ** ** ** 1   95   48 ****** ***** ****** *** *** ***** ***** ***** ***** **
947000 ***** 201502062200 ***   0 *** 722 SCT * * * **** ** ** ** ** ** ** ** ** *   76   53 1022.2 ***** 1008.4 *** *** ***** *****  0.00 ***** **
947000 ***** 201502070400 320   3 *** *** SCT * * * 31.2 03 ** ** ** ** ** ** ** 1   93   41 ****** ***** ****** *** *** *****  0.00 ***** ***** **
947000 ***** 201502072200 ***   0 *** *** *** * * * **** ** ** ** ** ** ** ** ** *   83   46 1018.6 ***** 1004.8 *** *** ***** *****  0.00 ***** **
947000 ***** 201502080400 180   2 *** *** BKN * * * 31.2 03 ** ** ** ** ** ** ** 1  102   44 ****** ***** ****** *** *** *****  0.00 ***** ***** **
947000 ***** 201502082200 ***   0 *** *** *** * * * **** ** ** ** ** ** ** ** ** *   69   51 1019.5 ***** 1005.7 *** *** ***** *****  0.00 ***** **
947000 ***** 201502090400 *** *** *** 722 CLR * * * **** ** ** ** ** ** ** ** ** *   95   42 1017.4 ***** 1003.7 *** *** ***** ***** ***** ***** **
947000 ***** 201502092200 ***   0 *** *** *** * * * **** ** ** ** ** ** ** ** ** *   77   56 1019.2 ***** 1005.4 *** *** ***** *****  0.00 ***** **
947000 ***** 201502100400 *** *** *** 722 SCT * * * **** ** ** ** ** ** ** ** ** *   99   50 1015.6 ***** 1001.9 *** *** ***** ***** ***** ***** **
947000 ***** 201502102200 ***   0 *** 722 SCT * * * **** ** ** ** ** ** ** ** ** *   82   59 1017.9 ***** 1004.2 *** *** ***** *****  0.00 ***** **
947000 ***** 201502110400 ***   0 *** *** BKN * * * **** ** ** ** ** ** ** ** ** *   97   55 1015.1 ***** 1001.4 *** *** *****  0.00 ***** ***** **
947000 ***** 201502112200 *** *** *** *** BKN * * * **** ** ** ** ** ** ** ** ** *   70   64 1019.5 ***** 1005.7 *** *** ***** *****  0.50 ***** **
947000 ***** 201502120400 ***   0 *** *** BKN * * * **** ** ** ** ** ** ** ** ** *   89   64 1016.8 ***** 1003.1 *** *** *****  0.00 ***** ***** **
947000 ***** 201502130400 ***   0 *** *** BKN * * * **** ** ** ** ** ** ** ** ** *   92   53 1017.0 ***** 1003.3 *** *** ***** *****  0.00 ***** **
947000 ***** 201502132200 ***   0 *** *** OVC * * * **** ** ** ** ** ** ** ** ** *   75   60 1019.8 ***** 1006.0 *** *** ***** ***** *****  0.00 **
947000 ***** 201502140400 360   0 *** *** SCT * * * 31.2 03 ** ** ** ** ** ** ** 0   95   57 ****** ***** ****** *** *** ***** ***** ***** ***** **
947000 ***** 201502142200 ***   0 *** *** *** * * * **** ** ** ** ** ** ** ** ** *   74   64 1014.9 ***** 1001.2 *** *** ***** *****  0.06 ***** **
947000 ***** 201502150400 230   7 *** *** SCT * * * 31.2 03 ** ** ** ** ** ** ** 0  100   52 1014.0 ***** 1000.3 *** *** ***** ***** ***** ***** **
947000 ***** 201502152200 ***   0 *** *** BKN * * * **** ** ** ** ** ** ** ** ** *   79   58 1012.9 *****  999.2 *** *** ***** *****  0.00 ***** **
947000 ***** 201502160400 ***   0 *** *** BKN * * * **** ** ** ** ** ** ** ** ** *  100   52 1011.3 *****  997.6 *** *** *****  0.00 ***** ***** **
947000 ***** 201502162200 ***   0 *** *** BKN * * * **** ** ** ** ** ** ** ** ** *   74   55 1014.6 ***** 1000.9 *** *** ***** *****  0.00 ***** **
947000 ***** 201502170400 ***   0 *** *** OVC * * * **** ** ** ** ** ** ** ** ** *   82   55 1014.6 ***** 1000.9 *** *** *****  0.01 ***** ***** **
947000 ***** 201502172200 ***   0 *** *** BKN * * * **** ** ** ** ** ** ** ** ** *   73   62 1016.2 ***** 1002.5 *** *** ***** *****  0.02 ***** **
947000 ***** 201502180400 ***   0 *** *** BKN * * * **** ** ** ** ** ** ** ** ** *   91   56 1014.2 ***** 1000.5 *** *** *****  0.00 ***** ***** **
947000 ***** 201502182200 *** *** *** *** BKN * * * **** ** ** ** ** ** ** ** ** *   73   65 1016.5 ***** 1002.8 *** *** ***** *****  0.00 ***** **
947000 ***** 201502190400 *** *** *** *** OVC * * * **** ** ** ** ** ** ** ** ** *   90   52 1013.6 *****  999.9 *** *** ***** ***** ***** ***** **
947000 ***** 201502200400 ***   0 *** *** BKN * * * **** ** ** ** ** ** ** ** ** *   93   58 1012.1 *****  998.4 *** *** ***** *****  0.00 ***** **
947000 ***** 201502202200 ***   0 *** *** BKN * * * **** ** ** ** ** ** ** ** ** *   75   65 1013.1 *****  999.4 *** *** ***** ***** *****  0.12 **
947000 ***** 201502210400 180   3 *** 722 SCT * * * 25.0 01 ** ** ** ** ** ** ** *   91   56 ****** ***** ****** *** *** ***** ***** ***** ***** **
947000 ***** 201502212200 ***   0 *** *** *** * * * **** ** ** ** ** ** ** ** ** *   80   61 1013.5 *****  999.8 *** *** ***** *****  0.00 ***** **
947000 ***** 201502220400 ***   0 *** 722 SCT * * * **** ** ** ** ** ** ** ** ** *   95   61 1011.5 *****  997.8 *** *** *****  0.00 ***** ***** **
947000 ***** 201502222200 ***   0 *** 722 SCT * * * **** ** ** ** ** ** ** ** ** *   79   63 1012.2 *****  998.5 *** *** ***** *****  0.00 ***** **
947000 ***** 201502230400 ***   0 *** *** BKN * * * **** ** ** ** ** ** ** ** ** *   99   63 1008.8 *****  995.2 *** *** *****  0.00 ***** ***** **
947000 ***** 201502232200 ***   0 *** 722 SCT * * * **** ** ** ** ** ** ** ** ** *   72   66 1013.5 *****  999.8 *** *** ***** *****  0.09 ***** **
947000 ***** 201502240400 ***   0 *** 722 SCT * * * **** ** ** ** ** ** ** ** ** *   90   57 1012.2 *****  998.5 *** *** *****  0.00 ***** ***** **
947000 ***** 201502250400 ***   0 *** 722 SCT * * * **** ** ** ** ** ** ** ** ** *   89   52 1010.1 *****  996.5 *** *** ***** *****  0.00 ***** **
947000 ***** 201502252200 ***   0 *** *** BKN * * * **** ** ** ** ** ** ** ** ** *   63   45 1008.9 *****  995.3 *** *** ***** ***** *****  0.00 **
947000 ***** 201502260400 ***   0 *** 722 SCT * * * **** ** ** ** ** ** ** ** ** *   90   42 1006.7 *****  993.1 *** *** *****  0.00 ***** ***** **
947000 ***** 201502262200 ***   0 *** *** *** * * * **** ** ** ** ** ** ** ** ** *   73   57 1009.1 *****  995.5 *** *** ***** *****  0.00 ***** **
947000 ***** 201502270400 ***   0 *** 722 SCT * * * **** ** ** ** ** ** ** ** ** *   94   48 1006.8 *****  993.2 *** *** *****  0.00 ***** ***** **
947000 ***** 201502272200 ***   0 *** *** *** * * * **** ** ** ** ** ** ** ** ** *   70   50 1007.2 *****  993.6 *** *** ***** *****  0.00 ***** **
947000 ***** 201502280400 340   7 *** 722 SCT * * * 31.2 01 ** ** ** ** ** ** ** 1   98   32 ****** ***** ****** *** *** ***** ***** ***** ***** **
947000 ***** 201502282200 *** *** *** 722 SCT * * * **** ** ** ** ** ** ** ** ** *   73   58 1009.6 *****  995.8 *** *** ***** ***** ***** ***** **
947000 ***** 201503010400 180  11 *** *** SCT * * * 31.2 03 ** ** ** ** ** ** ** 1   85   43 ****** ***** ****** *** *** ***** ***** ***** ***** **
947000 ***** 201503012200 *** *** *** 722 CLR * * * **** ** ** ** ** ** ** ** ** *   64   47 1014.5 ***** 1000.6 *** *** ***** ***** ***** ***** **
947000 ***** 201503020400 ***   0 *** 722 SCT * * * **** ** ** ** ** ** ** ** ** *   90   48 1010.8 *****  997.0 *** *** *****  0.00 ***** ***** **
947000 ***** 201503022200 ***   0 *** *** BKN * * * **** ** ** ** ** ** ** ** ** *   71   44 1013.5 *****  999.7 *** *** ***** *****  0.00 ***** **
947000 ***** 201503030400 360   0 *** 722 SCT * * * 31.2 01 ** ** ** ** ** ** ** 1   91   33 ****** ***** ****** *** *** ***** ***** ***** ***** **
947000 ***** 201503032200 ***   0 *** 722 SCT * * * **** ** ** ** ** ** ** ** ** *   71   39 1014.5 ***** 1000.6 *** *** ***** *****  0.00 ***** **
947000 ***** 201503040400 ***   0 *** 722 SCT * * * **** ** ** ** ** ** ** ** ** *   91   33 1012.0 *****  998.2 *** *** *****  0.00 ***** ***** **
947000 ***** 201503042200 ***   0 *** 722 SCT * * * **** ** ** ** ** ** ** ** ** *   64   50 1015.8 ***** 1001.9 *** *** ***** *****  0.00 ***** **
947000 ***** 201503050400 ***   0 *** 722 SCT * * * **** ** ** ** ** ** ** ** ** *   74   24 1015.5 ***** 1001.6 *** *** *****  0.00 ***** ***** **
947000 ***** 201503052200 ***   0 *** 722 SCT * * * **** ** ** ** ** ** ** ** ** *   59   39 1014.9 ***** 1001.0 *** *** ***** *****  0.00 ***** **
947000 ***** 201503060400 ***   0 *** *** *** * * * **** ** ** ** ** ** ** ** ** *   76   43 1011.8 *****  998.0 *** *** *****  0.00 ***** ***** **
947000 ***** 201503062200 ***   0 *** 722 SCT * * * **** ** ** ** ** ** ** ** ** *   65   49 1013.5 *****  999.7 *** *** ***** *****  0.00 ***** **
947000 ***** 201503070400 270   7 *** *** BKN * * * 31.2 03 ** ** ** ** ** ** ** 1   80   49 ****** ***** ****** *** *** *****  0.00 ***** ***** **
947000 ***** 201503080400 180   2 *** *** *** * * * 31.2 02 ** ** ** ** ** ** ** 1   84   44 ****** ***** ****** *** *** *****  0.00 ***** ***** **
947000 ***** 201503082200 ***   0 *** *** *** * * * **** ** ** ** ** ** ** ** ** *   67   45 1013.9 ***** 1000.1 *** *** ***** ***** *****  0.00 **
947000 ***** 201503090400 ***   0 *** 722 SCT * * * **** ** ** ** ** ** ** ** ** *   88   45 1012.2 *****  998.4 *** *** *****  0.00 ***** ***** **
947000 ***** 201503092200 ***   0 *** 722 SCT * * * **** ** ** ** ** ** ** ** ** *   69   47 1016.2 ***** 1002.3 *** *** ***** *****  0.00 ***** **
947000 ***** 201503100400 ***   0 *** *** *** * * * **** ** ** ** ** ** ** ** ** *   90   43 1013.4 *****  999.6 *** *** *****  0.00 ***** ***** **
947000 ***** 201503102200 ***   0 *** 722 SCT * * * **** ** ** ** ** ** ** ** ** *   71   39 1015.5 ***** 1001.6 *** *** ***** *****  0.00 ***** **
947000 ***** 201503110400 *** *** *** 722 CLR * * * **** ** ** ** ** ** ** ** ** *   93   38 1012.2 *****  998.4 *** *** ***** ***** ***** ***** **
947000 ***** 201503112200 ***   0 *** 722 SCT * * * **** ** ** ** ** ** ** ** ** *   65   36 1016.6 ***** 1002.7 *** *** ***** *****  0.00 ***** **
947000 ***** 201503120400 ***   0 *** *** *** * * * **** ** ** ** ** ** ** ** ** *   88   33 1014.5 ***** 1000.6 *** *** *****  0.00 ***** ***** **
947000 ***** 201503122200 *** *** *** 722 CLR * * * **** ** ** ** ** ** ** ** ** *   57   42 1019.0 ***** 1005.1 *** *** ***** ***** ***** ***** **
947000 ***** 201503130400 ***   0 *** *** *** * * * **** ** ** ** ** ** ** ** ** *   81   36 1016.0 ***** 1002.1 *** *** *****  0.00 ***** ***** **
947000 ***** 201503132200 ***   0 *** *** *** * * * **** ** ** ** ** ** ** ** ** *   69   53 1017.6 ***** 1003.7 *** *** ***** *****  0.00 ***** **
947000 ***** 201503140400 360   0 *** 722 SCT * * * 18.8 03 ** ** ** ** ** ** ** 0   88   45 1016.5 ***** 1002.6 *** *** ***** ***** ***** ***** **
947000 ***** 201503142200 ***   0 *** 722 SCT * * * **** ** ** ** ** ** ** ** ** *   67   49 1011.8 *****  998.0 *** *** ***** *****  0.00 ***** **
947000 ***** 201503150400 180   8 *** *** *** * * * 31.2 02 ** ** ** ** ** ** ** 0   82   34 1012.3 *****  998.4 *** *** ***** ***** ***** ***** **
947000 ***** 201503152200 ***   0 *** 722 SCT * * * **** ** ** ** ** ** ** ** ** *   66   49 1014.1 ***** 1000.3 *** *** ***** *****  0.00 ***** **
947000 ***** 201503160400 *** *** *** 722 SCT * * * **** ** ** ** ** ** ** ** ** *   87   42 1010.8 *****  997.0 *** *** ***** ***** ***** ***** **
947000 ***** 201503162200 *** *** *** *** OVC * * * **** ** ** ** ** ** ** ** ** *   73   40 1009.4 *****  995.6 *** *** ***** ***** ***** ***** **
947000 ***** 201503170400 360   7 *** *** OVC * * * 25.0 03 ** ** ** ** ** ** ** 1   90   43 1006.7 *****  992.9 *** *** *****  0.00 ***** ***** **
947000 ***** 201503172200 ***   0 *** 722 SCT * * * **** ** ** ** ** ** ** ** ** *   73   55 1006.8 *****  993.1 *** *** ***** *****  0.00 ***** **
947000 ***** 201503180400 *** *** *** 722 SCT * * * **** ** ** ** ** ** ** ** ** *   86   52 1006.1 *****  992.4 *** *** ***** ***** ***** ***** **
947000 ***** 201503182200 ***   0 *** *** *** * * * **** ** ** ** ** ** ** ** ** *   69   51 1011.2 *****  997.4 *** *** ***** *****  0.00 ***** **
947000 ***** 201503190400 ***   0 *** *** *** * * * **** ** ** ** ** ** ** ** ** *   95   46 1008.4 *****  994.6 *** *** *****  0.00 ***** ***** **
947000 ***** 201503192200 ***   0 *** *** *** * * * **** ** ** ** ** ** ** ** ** *   69   49 1016.3 ***** 1002.4 *** *** ***** *****  0.00 ***** **
947000 ***** 201503202200 ***   0 *** *** *** * * * **** ** ** ** ** ** ** ** ** *   57   47 1021.4 ***** 1007.5 *** *** ***** *****  0.00 ***** **
947000 ***** 201503210400 180   9 *** *** SCT * * * 18.8 02 ** ** ** ** ** ** ** 0   85   49 ****** ***** ****** *** *** ***** ***** ***** ***** **
947000 ***** 201503212200 ***   0 *** *** *** * * * **** ** ** ** ** ** ** ** ** *   66   49 1019.7 ***** 1005.8 *** *** ***** *****  0.00 ***** **
947000 ***** 201503220400 140   5 *** *** SCT * * * 31.2 00 ** ** ** ** ** ** ** *   88   59 ****** ***** ****** *** *** *****  0.00 ***** ***** **
947000 ***** 201503222200 ***   0 *** *** BKN * * * **** ** ** ** ** ** ** ** ** *   75   54 1013.3 *****  999.5 *** *** ***** *****  0.00 ***** **
947000 ***** 201503230400 *** *** *** *** BKN * * * **** ** ** ** ** ** ** ** ** *   94   50 1008.8 *****  995.0 *** *** ***** ***** ***** ***** **
947000 ***** 201503232200 *** *** *** *** BKN * * * **** ** ** ** ** ** ** ** ** *   63   51 1015.2 ***** 1001.3 *** *** ***** ***** ***** ***** **
947000 ***** 201503240400 *** *** *** 722 SCT * * * **** ** ** ** ** ** ** ** ** *   66   49 1014.4 ***** 1000.5 *** *** ***** ***** ***** ***** **
947000 ***** 201503242200 ***   0 *** 722 SCT * * * **** ** ** ** ** ** ** ** ** *   50   38 1018.5 ***** 1004.6 *** *** ***** *****  0.00 ***** **
947000 ***** 201503250400 230   1 *** *** SCT * * * 31.2 03 ** ** ** ** ** ** ** 0   70   40 ****** ***** ****** *** *** *****  0.00 ***** ***** **
947000 ***** 201503252200 ***   0 *** *** BKN * * * **** ** ** ** ** ** ** ** ** *   54   42 1022.3 ***** 1008.3 *** *** ***** *****  0.00 ***** **
947000 ***** 201503260400 270   7 *** *** SCT * * * 31.2 01 ** ** ** ** ** ** ** 0   70   28 ****** ***** ****** *** *** *****  0.00 ***** ***** **
947000 ***** 201503262200 ***   0 *** *** *** * * * **** ** ** ** ** ** ** ** ** *   52   40 1026.1 ***** 1012.1 *** *** ***** *****  0.00 ***** **
947000 ***** 201503270400 *** *** *** 722 SCT * * * **** ** ** ** ** ** ** ** ** *   73   40 1022.6 ***** 1008.6 *** *** ***** ***** ***** ***** **
947000 ***** 201503272200 ***   0 *** 722 SCT * * * **** ** ** ** ** ** ** ** ** *   53   38 1025.2 ***** 1011.2 *** *** ***** *****  0.00 ***** **
947000 ***** 201503280400 230   5 *** *** SCT * * * 31.2 03 ** ** ** ** ** ** ** 1   74   35 1024.3 ***** 1010.3 *** *** *****  0.00 ***** ***** **
947000 ***** 201503282200 ***   0 *** *** BKN * * * **** ** ** ** ** ** ** ** ** *   65   37 1023.3 ***** 1009.3 *** *** ***** *****  0.00 ***** **
947000 ***** 201503290400 360   0 *** *** BKN * * * 31.2 03 ** ** ** ** ** ** ** 1   79   39 ****** ***** ****** *** *** ***** ***** ***** ***** **
947000 ***** 201503292200 ***   0 *** *** BKN * * * **** ** ** ** ** ** ** ** ** *   64   44 1023.8 ***** 1009.8 *** *** ***** *****  0.00 ***** **
947000 ***** 201503300400 ***   0 *** 722 SCT * * * **** ** ** ** ** ** ** ** ** *   83   39 1021.0 ***** 1007.1 *** *** *****  0.00 ***** ***** **
947000 ***** 201503302200 *** *** *** 722 CLR * * * **** ** ** ** ** ** ** ** ** *   60   38 1024.8 ***** 1010.8 *** *** ***** ***** ***** ***** **
947000 ***** 201503310400 *** *** *** 722 CLR * * * **** ** ** ** ** ** ** ** ** *   86   41 1021.4 ***** 1007.5 *** *** ***** ***** ***** ***** **
947000 ***** 201503312200 ***   0 *** 722 SCT * * * **** ** ** ** ** ** ** ** ** *   66   53 1021.6 ***** 1007.4 *** *** ***** *****  0.00 ***** **
947000 ***** 201504010400 ***   0 *** *** *** * * * **** ** ** ** ** ** ** ** ** *   86   47 1017.3 ***** 1003.2 *** *** *****  0.00 ***** ***** **
947000 ***** 201504012200 *** *** *** *** OVC * * * **** ** ** ** ** ** ** ** ** *   71   51 1018.8 ***** 1004.7 *** *** ***** ***** ***** ***** **
947000 ***** 201504020400 ***   0 *** *** OVC * * * **** ** ** ** ** ** ** ** ** *   75   48 1018.4 ***** 1004.3 *** *** *****  0.00 ***** ***** **
947000 ***** 201504022200 180   9 *** *** BKN * * * 25.0 01 ** ** ** ** ** ** ** 2   54   35 ****** ***** ****** *** *** ***** *****  0.00 ***** **
947000 ***** 201504030400 180   5 *** *** BKN * * * 25.0 03 ** ** ** ** ** ** ** 2   72   30 ****** ***** ****** *** *** *****  0.00 ***** ***** **
947000 ***** 201504032200 ***   0 *** *** OVC * * * **** ** ** ** ** ** ** ** ** *   57   54 1019.0 ***** 1004.9 *** *** ***** ***** *****  0.20 **
947000 ***** 201504040400 360   0 *** *** OVC * * * 18.8 03 ** ** ** ** ** ** ** 6   74   61 ****** ***** ****** *** *** ***** ***** ***** ***** **
947000 ***** 201504042300 ***   0 *** *** BKN * * * **** ** ** ** ** ** ** ** ** *   63   60 1013.1 *****  999.0 *** *** ***** *****  0.06 ***** **
947000 ***** 201504050500 180   5 *** *** BKN * * * 25.0 03 ** ** ** ** ** ** ** 0   77   47 ****** ***** ****** *** *** *****  0.00 ***** ***** **
947000 ***** 201504052300 ***   0 *** *** SCT * * * 25.0 03 ** ** ** ** ** ** ** 1   64   56 ****** ***** ****** *** *** ***** *****  0.00 ***** **
947000 ***** 201504060500 270   7 *** *** BKN * * * 25.0 03 ** ** ** ** ** ** ** 8   70   52 ****** ***** ****** *** *** *****  0.08 ***** ***** **
947000 ***** 201504062300 ***   0 *** *** OVC * * * **** ** ** ** ** ** ** ** ** *   51   48 1011.2 *****  997.2 *** *** ***** ***** *****  0.35 **
947000 ***** 201504070500 ***   0 *** *** OVC * * * **** ** ** ** ** ** ** ** ** *   54   52 1012.3 *****  998.2 *** *** *****  0.16 ***** ***** **
947000 ***** 201504072200 *** *** *** 722 SCT * * * **** ** ** ** ** ** ** ** ** *   52   44 1022.0 ***** 1007.8 *** *** ***** ***** ***** ***** **
947000 ***** 201504080500 230   9 *** *** BKN * * * 25.0 03 ** ** ** ** ** ** ** 2   68   44 ****** ***** ****** *** *** ***** ***** ***** ***** **
947000 ***** 201504082200 *** *** *** 722 CLR * * * **** ** ** ** ** ** ** ** ** *   52   48 1024.1 ***** 1009.9 *** *** ***** ***** ***** ***** **
947000 ***** 201504090500 180   2 *** 722 CLR * * * 25.0 02 ** ** ** ** ** ** ** 0   70   45 ****** ***** ****** *** *** ***** ***** ***** ***** **
947000 ***** 201504092300 ***   0 *** 722 SCT * * * **** ** ** ** ** ** ** ** ** *   59   47 1023.7 ***** 1009.5 *** *** ***** *****  0.00 ***** **
947000 ***** 201504100500 090   2 *** *** SCT * * * 31.2 03 ** ** ** ** ** ** ** 1   74   44 ****** ***** ****** *** *** *****  0.00 ***** ***** **
947000 ***** 201504102300 ***   0 *** *** *** * * * **** ** ** ** ** ** ** ** ** *   65   50 1022.2 ***** 1008.0 *** *** ***** *****  0.00 ***** **
947000 ***** 201504110500 140   2 *** 722 SCT * * * 31.2 03 ** ** ** ** ** ** ** *   78   42 1020.4 ***** 1006.2 *** *** ***** *****  0.00 ***** **
947000 ***** 201504112300 ***   0 *** *** BKN * * * **** ** ** ** ** ** ** ** ** *   63   48 1019.7 ***** 1005.5 *** *** ***** *****  0.00 ***** **
947000 ***** 201504120500 180   2 *** *** BKN * * * 25.0 03 ** ** ** ** ** ** ** 2   77   39 1019.0 ***** 1004.8 *** *** *****  0.00 ***** ***** **
947000 ***** 201504122300 ***   0 *** 722 SCT * * * **** ** ** ** ** ** ** ** ** *   68   45 1021.4 ***** 1007.2 *** *** ***** *****  0.00 ***** **
947000 ***** 201504130500 *** *** *** 722 SCT * * * **** ** ** ** ** ** ** ** ** *   80   44 1017.8 ***** 1003.7 *** *** ***** ***** ***** ***** **
947000 ***** 201504132300 ***   0 *** *** BKN * * * **** ** ** ** ** ** ** ** ** *   68   47 1020.1 ***** 1005.9 *** *** ***** *****  0.00 ***** **
947000 ***** 201504140500 ***   0 *** *** BKN * * * **** ** ** ** ** ** ** ** ** *   85   40 1016.3 ***** 1002.2 *** *** *****  0.00 ***** ***** **
947000 ***** 201504142300 ***   0 *** *** BKN * * * **** ** ** ** ** ** ** ** ** *   74   73 1019.9 ***** 1005.7 *** *** ***** *****  0.00 ***** **
947000 ***** 201504150500 ***   0 *** 722 SCT * * * **** ** ** ** ** ** ** ** ** *   90   63 1017.9 ***** 1003.8 *** *** *****  0.00 ***** ***** **
947000 ***** 201504152300 ***   0 *** *** BKN * * * **** ** ** ** ** ** ** ** ** *   69   51 1023.5 ***** 1009.3 *** *** ***** *****  0.00 ***** **
947000 ***** 201504160500 ***   0 *** *** BKN * * * **** ** ** ** ** ** ** ** ** *   83   80 1021.1 ***** 1006.9 *** *** *****  0.00 ***** ***** **
947000 ***** 201504162300 ***   0 *** *** OVC * * * **** ** ** ** ** ** ** ** ** *   66   57 1022.8 ***** 1008.6 *** *** ***** *****  0.26 ***** **
947000 ***** 201504170500 *** *** *** *** OVC * * * **** ** ** ** ** ** ** ** ** *   72   56 1016.8 ***** 1002.7 *** *** *****  0.01 ***** ***** **
947000 ***** 201504172300 ***   0 *** *** OVC * * * **** ** ** ** ** ** ** ** ** *   65   64 1016.2 ***** 1002.1 *** *** ***** *****  0.11 ***** **
947000 ***** 201504180500 360   5 *** *** OVC * * *  6.2 63 ** ** ** ** ** ** ** 6   65   62 ****** ***** ****** *** *** *****  0.16 ***** ***** **
947000 ***** 201504182300 ***   0 *** 722 SCT * * * **** ** ** ** ** ** ** ** ** *   55   45 1024.9 ***** 1010.7 *** *** ***** *****  0.31 ***** **
947000 ***** 201504190500 180  14 *** 722 SCT * * * 31.2 03 ** ** ** ** ** ** ** *   61   37 ****** ***** ****** *** *** ***** ***** ***** ***** **
947000 ***** 201504192300 ***   0 *** 722 SCT * * * **** ** ** ** ** ** ** ** ** *   48   46 1030.9 ***** 1016.6 *** *** ***** *****  0.00 ***** **
947000 ***** 201504200500 ***   0 *** *** BKN * * * **** ** ** ** ** ** ** ** ** *   64   44 1028.1 ***** 1013.8 *** *** *****  0.00 ***** ***** **
947000 ***** 201504202300 ***   0 *** 722 SCT * * * **** ** ** ** ** ** ** ** ** *   50   38 1027.7 ***** 1013.4 *** *** ***** *****  0.00 ***** **
947000 ***** 201504210500 ***   0 *** *** BKN * * * **** ** ** ** ** ** ** ** ** *   68   32 1023.9 ***** 1009.7 *** *** *****  0.00 ***** ***** **
947000 ***** 201504212300 ***   0 *** 722 SCT * * * **** ** ** ** ** ** ** ** ** *   52   42 1022.3 ***** 1008.1 *** *** ***** *****  0.00 ***** **
947000 ***** 201504220500 *** *** *** 722 SCT * * * **** ** ** ** ** ** ** ** ** *   71   44 1017.1 ***** 1003.0 *** *** ***** ***** ***** ***** **
947000 ***** 201504222300 ***   0 *** 722 SCT * * * **** ** ** ** ** ** ** ** ** *   55   51 1015.6 ***** 1001.5 *** *** ***** *****  0.00 ***** **
947000 ***** 201504230500 ***   0 *** *** BKN * * * **** ** ** ** ** ** ** ** ** *   73   50 1011.2 *****  997.2 *** *** *****  0.00 ***** ***** **
947000 ***** 201504232300 ***   0 *** *** OVC * * * **** ** ** ** ** ** ** ** ** *   57   51 1009.9 *****  995.9 *** *** ***** *****  0.00 ***** **
947000 ***** 201504242300 ***   0 *** 722 SCT * * * **** ** ** ** ** ** ** ** ** *   56   47 1009.0 *****  995.0 *** *** ***** *****  0.01 ***** **
947000 ***** 201504250500 360   0 *** *** BKN * * * 18.8 03 ** ** ** ** ** ** ** 6   56   48 1007.8 *****  993.7 *** *** *****  0.04 ***** ***** **
947000 ***** 201504252300 ***   0 *** 722 SCT * * * **** ** ** ** ** ** ** ** ** *   53   44 1018.2 ***** 1004.1 *** *** ***** *****  0.06 ***** **
947000 ***** 201504260500 270   9 *** *** BKN * * * 25.0 03 ** ** ** ** ** ** ** 2   60   42 1018.3 ***** 1004.1 *** *** *****  0.00 ***** ***** **
947000 ***** 201504262300 *** *** *** 722 CLR * * * **** ** ** ** ** ** ** ** ** *   51   41 1024.4 ***** 1010.2 *** *** ***** ***** ***** ***** **
947000 ***** 201504270500 ***   0 *** 722 SCT * * * **** ** ** ** ** ** ** ** ** *   63   38 1022.6 ***** 1008.4 *** *** *****  0.00 ***** ***** **
947000 ***** 201504272300 ***   0 *** 722 SCT * * * **** ** ** ** ** ** ** ** ** *   55   43 1027.2 ***** 1012.9 *** *** ***** *****  0.00 ***** **
947000 ***** 201504280500 180   5 *** *** BKN * * * 31.2 03 ** ** ** ** ** ** ** 1   65   34 ****** ***** ****** *** *** *****  0.00 ***** ***** **
947000 ***** 201504282300 ***   0 *** *** BKN * * * **** ** ** ** ** ** ** ** ** *   55   40 1028.4 ***** 1014.1 *** *** ***** *****  0.00 ***** **
947000 ***** 201504290500 *** *** *** *** BKN * * * **** ** ** ** ** ** ** ** ** *   69   42 1024.7 ***** 1010.5 *** *** ***** ***** ***** ***** **
947000 ***** 201504292300 *** *** *** 722 SCT * * * **** ** ** ** ** ** ** ** ** *   60   48 1027.4 ***** 1013.1 *** *** ***** ***** ***** ***** **
947000 ***** 201504300500 ***   0 *** *** BKN * * * **** ** ** ** ** ** ** ** ** *   73   46 1023.9 ***** 1009.7 *** *** *****  0.00 ***** ***** **
947000 ***** 201505010500 ***   0 *** 722 SCT * * * **** ** ** ** ** ** ** ** ** *   75   44 1021.9 ***** 1007.5 *** *** *****  0.00 ***** ***** **
947000 ***** 201505012300 *** *** *** *** BKN * * * **** ** ** ** ** ** ** ** ** *   57   50 1020.6 ***** 1006.2 *** *** ***** ***** ***** ***** **
947000 ***** 201505020500 180   1 *** 722 SCT * * * 31.2 01 ** ** ** ** ** ** ** 0   75   -7 ****** ***** ****** *** *** *****  0.00 ***** ***** **
947000 ***** 201505022300 ***   0 *** *** *** * * * **** ** ** ** ** ** ** ** ** *   59   45 1019.4 ***** 1005.0 *** *** ***** *****  0.00 ***** **
947000 ***** 201505030500 180   5 *** 722 CLR * * * 31.2 02 ** ** ** ** ** ** ** 0   74   45 ****** ***** ****** *** *** ***** ***** ***** ***** **
947000 ***** 201505032300 *** *** *** 722 CLR * * * **** ** ** ** ** ** ** ** ** *   55   46 1016.5 ***** 1002.2 *** *** ***** ***** ***** ***** **
947000 ***** 201505040500 *** *** *** 722 CLR * * * **** ** ** ** ** ** ** ** ** *   74   40 1013.5 *****  999.2 *** *** ***** ***** ***** ***** **
947000 ***** 201505042300 ***   0 *** 722 SCT * * * **** ** ** ** ** ** ** ** ** *   69   36 1008.3 *****  994.1 *** *** ***** *****  0.00 ***** **
947000 ***** 201505050500 270  11 *** *** *** * * * 31.2 02 ** ** ** ** ** ** ** 0   73   26 ****** ***** ****** *** *** *****  0.00 ***** ***** **
947000 ***** 201505052300 ***   0 *** *** *** * * * **** ** ** ** ** ** ** ** ** *   48   35 1020.2 ***** 1005.8 *** *** ***** *****  0.00 ***** **
947000 ***** 201505060500 ***   0 *** 722 SCT * * * **** ** ** ** ** ** ** ** ** *   64   36 1019.0 ***** 1004.6 *** *** *****  0.00 ***** ***** **
947000 ***** 201505070500 ***   0 *** *** BKN * * * **** ** ** ** ** ** ** ** ** *   62   38 1021.4 ***** 1007.0 *** *** *****  0.00 ***** ***** **
947000 ***** 201505072300 ***   0 *** *** *** * * * **** ** ** ** ** ** ** ** ** *   48   44 1024.8 ***** 1010.4 *** *** ***** *****  0.00 ***** **
947000 ***** 201505080500 ***   0 *** *** BKN * * * **** ** ** ** ** ** ** ** ** *   61   38 1021.6 ***** 1007.2 *** *** *****  0.00 ***** ***** **
947000 ***** 201505082300 ***   0 *** *** OVC * * * **** ** ** ** ** ** ** ** ** *   56   39 1021.4 ***** 1007.0 *** *** ***** *****  0.00 ***** **
947000 ***** 201505092300 ***   0 *** *** BKN * * * **** ** ** ** ** ** ** ** ** *   57   57 1014.7 ***** 1000.4 *** *** ***** *****  0.00 ***** **
947000 ***** 201505100500 270  11 *** *** OVC * * * 18.8 00 ** ** ** ** ** ** ** *   67   45 1012.5 *****  998.2 *** *** *****  0.00 ***** ***** **
947000 ***** 201505102300 ***   0 *** *** OVC * * * **** ** ** ** ** ** ** ** ** *   55   41 1018.1 ***** 1003.7 *** *** ***** *****  0.00 ***** **
947000 ***** 201505110500 ***   0 *** *** BKN * * * **** ** ** ** ** ** ** ** ** *   66   49 1017.2 ***** 1002.9 *** *** *****  0.00 ***** ***** **
947000 ***** 201505112300 ***   0 *** *** BKN * * * **** ** ** ** ** ** ** ** ** *   57   47 1019.6 ***** 1005.2 *** *** ***** *****  0.00 ***** **
947000 ***** 201505120500 ***   0 *** *** OVC * * * **** ** ** ** ** ** ** ** ** *   63   44 1016.9 ***** 1002.6 *** *** *****  0.00 ***** ***** **
947000 ***** 201505122300 ***   0 *** *** *** * * * **** ** ** ** ** ** ** ** ** *   46   35 1024.5 ***** 1010.1 *** *** ***** *****  0.02 ***** **
947000 ***** 201505130500 *** *** *** 722 SCT * * * **** ** ** ** ** ** ** ** ** *   56   27 1025.9 ***** 1011.4 *** *** ***** ***** ***** ***** **
947000 ***** 201505132300 ***   0 *** *** *** * * * **** ** ** ** ** ** ** ** ** *   45   41 1032.9 ***** 1018.3 *** *** ***** *****  0.00 ***** **
947000 ***** 201505140500 ***   0 *** 722 SCT * * * **** ** ** ** ** ** ** ** ** *   63   37 1031.3 ***** 1016.8 *** *** *****  0.00 ***** ***** **
947000 ***** 201505142300 *** *** *** *** OVC * * * **** ** ** ** ** ** ** ** ** *   46   42 1034.7 ***** 1020.1 *** *** ***** ***** ***** ***** **
947000 ***** 201505150500 ***   0 *** *** *** * * * **** ** ** ** ** ** ** ** ** *   65   42 1031.4 ***** 1016.9 *** *** *****  0.00 ***** ***** **
947000 ***** 201505152300 ***   0 *** *** *** * * * **** ** ** ** ** ** ** ** ** *   54   40 1035.1 ***** 1020.5 *** *** ***** *****  0.00 ***** **
947000 ***** 201505160500 050   2 *** 722 CLR * * * 31.2 02 ** ** ** ** ** ** ** 0   72   38 ****** ***** ****** *** *** ***** ***** ***** ***** **
947000 ***** 201505162300 ***   0 *** 722 SCT * * * **** ** ** ** ** ** ** ** ** *   54   46 1034.2 ***** 1019.6 *** *** ***** *****  0.00 ***** **
947000 ***** 201505170500 090   2 *** *** BKN * * * 25.0 03 ** ** ** ** ** ** ** *   70   46 ****** ***** ****** *** *** ***** ***** ***** ***** **
947000 ***** 201505172300 ***   0 *** 722 SCT * * * **** ** ** ** ** ** ** ** ** *   57   43 1031.0 ***** 1016.5 *** *** ***** *****  0.00 ***** **
947000 ***** 201505180500 ***   0 *** 722 SCT * * * **** ** ** ** ** ** ** ** ** *   74   41 1022.9 ***** 1008.5 *** *** *****  0.00 ***** ***** **
947000 ***** 201505182300 ***   0 *** *** BKN * * * **** ** ** ** ** ** ** ** ** *   64   51 1016.4 ***** 1002.1 *** *** ***** *****  0.00 ***** **
947000 ***** 201505190500 270   2 *** *** BKN * * * 18.8 95 ** ** ** ** ** ** ** 9   62   57 ****** ***** ****** *** *** *****  0.24 ***** ***** **
947000 ***** 201505192300 ***   0 *** 722 SCT * * * **** ** ** ** ** ** ** ** ** *   57   53 1016.2 ***** 1001.9 *** *** ***** *****  0.27 ***** **
947000 ***** 201505200500 ***   0 *** *** OVC * * * **** ** ** ** ** ** ** ** ** *   66   50 1016.1 ***** 1001.8 *** *** *****  0.00 ***** ***** **
947000 ***** 201505202300 ***   0 *** *** OVC * * * **** ** ** ** ** ** ** ** ** *   50   46 1021.4 ***** 1007.0 *** *** ***** *****  0.00 ***** **
947000 ***** 201505210500 ***   0 *** *** OVC * * * **** ** ** ** ** ** ** ** ** *   59   45 1020.1 ***** 1005.7 *** *** *****  0.00 ***** ***** **
947000 ***** 201505212300 ***   0 *** 722 SCT * * * **** ** ** ** ** ** ** ** ** *   47   44 1024.9 ***** 1010.5 *** *** ***** *****  0.00 ***** **
947000 ***** 201505220500 ***   0 *** 722 SCT * * * **** ** ** ** ** ** ** ** ** *   67   44 1024.6 ***** 1010.2 *** *** *****  0.00 ***** ***** **
947000 ***** 201505222300 ***   0 *** *** *** * * * **** ** ** ** ** ** ** ** ** *   46   42 1031.4 ***** 1016.9 *** *** ***** *****  0.00 ***** **
947000 ***** 201505230500 ***   0 *** 722 SCT * * * 18.8 02 ** ** ** ** ** ** ** 0   66   40 ****** ***** ****** *** *** *****  0.00 ***** ***** **
947000 ***** 201505232300 ***   0 *** 722 SCT * * * **** ** ** ** ** ** ** ** ** *   50   39 1032.0 ***** 1017.5 *** *** ***** *****  0.00 ***** **
947000 ***** 201505240500 ***   0 *** *** BKN * * * 25.0 03 ** ** ** ** ** ** ** 2   64   36 ****** ***** ****** *** *** *****  0.00 ***** ***** **
947000 ***** 201505242300 *** *** *** *** BKN * * * **** ** ** ** ** ** ** ** ** *   50   43 1031.8 ***** 1017.3 *** *** ***** ***** ***** ***** **
947000 ***** 201505250500 ***   0 *** *** BKN * * * **** ** ** ** ** ** ** ** ** *   66   45 1028.3 ***** 1013.8 *** *** *****  0.00 ***** ***** **
947000 ***** 201505252300 *** *** *** *** OVC * * * **** ** ** ** ** ** ** ** ** *   55   44 1029.4 ***** 1014.9 *** *** ***** ***** ***** ***** **
947000 ***** 201505260500 ***   0 *** *** OVC * * * **** ** ** ** ** ** ** ** ** *   64   47 1025.4 ***** 1010.9 *** *** *****  0.00 ***** ***** **
947000 ***** 201505262300 ***   0 *** *** OVC * * * **** ** ** ** ** ** ** ** ** *   58   49 1024.6 ***** 1010.2 *** *** ***** *****  0.02 ***** **
947000 ***** 201505270500 *** *** *** 722 SCT * * * **** ** ** ** ** ** ** ** ** *   65   53 1021.2 ***** 1006.8 *** *** ***** ***** ***** ***** **
947000 ***** 201505272300 ***   0 *** 722 SCT * * * **** ** ** ** ** ** ** ** ** *   54   50 1022.7 ***** 1008.3 *** *** ***** *****  0.00 ***** **
947000 ***** 201505280500 ***   0 *** *** OVC * * * **** ** ** ** ** ** ** ** ** *   68   52 1019.6 ***** 1005.2 *** *** *****  0.02 ***** ***** **
947000 ***** 201505282300 ***   0 *** *** OVC * * * **** ** ** ** ** ** ** ** ** *   55   52 1024.4 ***** 1010.0 *** *** ***** *****  0.16 ***** **
947000 ***** 201505290500 ***   0 *** 722 SCT * * * **** ** ** ** ** ** ** ** ** *   63   45 1023.2 ***** 1008.8 *** *** *****  0.00 ***** ***** **
947000 ***** 201505292300 ***   0 *** *** OVC * * * **** ** ** ** ** ** ** ** ** *   53   46 1024.6 ***** 1010.2 *** *** ***** *****  0.00 ***** **
947000 ***** 201505300500 230   1 *** *** OVC * * * 25.0 03 ** ** ** ** ** ** ** 2   59   46 ****** ***** ****** *** *** *****  0.00 ***** ***** **
947000 ***** 201505302300 ***   0 *** *** BKN * * * **** ** ** ** ** ** ** ** ** *   49   44 1020.0 ***** 1005.6 *** *** ***** *****  0.01 ***** **
947000 ***** 201505310500 270   5 *** 722 SCT * * * 25.0 01 ** ** ** ** ** ** ** 1   64   38 ****** ***** ****** *** *** *****  0.00 ***** ***** **
947000 ***** 201505312300 ***   0 *** *** *** * * * **** ** ** ** ** ** ** ** ** *   45   36 1024.5 ***** 1009.9 *** *** ***** *****  0.00 ***** **
947000 ***** 201506010500 *** *** *** 722 CLR * * * **** ** ** ** ** ** ** ** ** *   55   23 1024.5 ***** 1009.9 *** *** ***** ***** ***** ***** **
947000 ***** 201506020500 ***   0 *** 722 SCT * * * **** ** ** ** ** ** ** ** ** *   55   28 1025.9 ***** 1011.3 *** *** *****  0.00 ***** ***** **
947000 ***** 201506022300 ***   0 *** 722 SCT * * * **** ** ** ** ** ** ** ** ** *   37   35 1025.3 ***** 1010.7 *** *** ***** *****  0.00 ***** **
947000 ***** 201506030500 ***   0 *** 722 SCT * * * **** ** ** ** ** ** ** ** ** *   54   32 1023.4 ***** 1008.8 *** *** *****  0.00 ***** ***** **
947000 ***** 201506032300 ***   0 *** 722 SCT * * * **** ** ** ** ** ** ** ** ** *   39   34 1024.3 ***** 1009.7 *** *** ***** *****  0.00 ***** **
947000 ***** 201506040500 ***   0 *** 722 SCT * * * **** ** ** ** ** ** ** ** ** *   58   31 1018.9 ***** 1004.4 *** *** *****  0.00 ***** ***** **
947000 ***** 201506042300 ***   0 *** *** OVC * * * **** ** ** ** ** ** ** ** ** *   47   42 1022.4 ***** 1007.8 *** *** ***** *****  0.06 ***** **
947000 ***** 201506050500 ***   0 *** *** OVC * * * **** ** ** ** ** ** ** ** ** *   55   46 1023.2 ***** 1008.6 *** *** *****  0.01 ***** ***** **
947000 ***** 201506052300 ***   0 *** *** BKN * * * **** ** ** ** ** ** ** ** ** *   52   43 1030.8 ***** 1016.1 *** *** ***** *****  0.01 ***** **
947000 ***** 201506060500 140   2 *** *** SCT * * * 25.0 01 ** ** ** ** ** ** ** 0   59   40 1030.2 ***** 1015.5 *** *** *****  0.00 ***** ***** **
947000 ***** 201506062300 ***   0 *** 722 SCT * * * **** ** ** ** ** ** ** ** ** *   48   40 1029.7 ***** 1015.0 *** *** ***** *****  0.00 ***** **
947000 ***** 201506070500 360   3 *** *** SCT * * * 25.0 03 ** ** ** ** ** ** ** 0   66   39 1027.2 ***** 1012.5 *** *** ***** *****  0.00 ***** **
947000 ***** 201506072300 360   0 *** 722 CLR * * * 31.2 02 ** ** ** ** ** ** ** *   52   28 ****** ***** ****** *** *** ***** ***** ***** ***** **
947000 ***** 201506080500 320  11 *** 722 CLR * * * 31.2 02 ** ** ** ** ** ** ** *   68   35 ****** ***** ****** *** *** ***** ***** ***** ***** **
947000 ***** 201506082300 ***   0 *** *** *** * * * **** ** ** ** ** ** ** ** ** *   49   40 1024.6 ***** 1010.0 *** *** ***** ***** *****  0.00 **
947000 ***** 201506090500 *** *** *** *** BKN * * * **** ** ** ** ** ** ** ** ** *   62   46 1024.7 ***** 1010.1 *** *** *****  0.28 ***** ***** **
947000 ***** 201506092300 ***   0 *** *** *** * * * **** ** ** ** ** ** ** ** ** *   42   34 1032.9 ***** 1018.2 *** *** ***** ***** ***** ***** **
947000 ***** 201506100500 *** *** *** 722 CLR * * * **** ** ** ** ** ** ** ** ** *   58   55 1030.8 ***** 1016.1 *** *** ***** ***** ***** ***** **
947000 ***** 201506102300 ***   0 *** *** *** * * * **** ** ** ** ** ** ** ** ** *   49   38 1033.8 ***** 1019.1 *** *** ***** ***** ***** ***** **
947000 ***** 201506110500 090   5 *** 722 CLR * * * 31.2 02 ** ** ** ** ** ** ** 0   67   44 ****** ***** ****** *** *** ***** ***** ***** ***** **
947000 ***** 201506112300 ***   0 *** *** BKN * * * **** ** ** ** ** ** ** ** ** *   52   44 1033.4 ***** 1018.7 *** *** ***** ***** *****  0.00 **
947000 ***** 201506120500 ***   0 *** *** BKN * * * **** ** ** ** ** ** ** ** ** *   66   41 1033.4 ***** 1018.7 *** *** *****  0.00 ***** ***** **
947000 ***** 201506122300 ***   0 *** *** BKN * * * **** ** ** ** ** ** ** ** ** *   52   44 1029.6 ***** 1014.9 *** *** ***** *****  0.00 ***** **
947000 ***** 201506130500 ***   0 *** 722 SCT * * * 25.0 01 ** ** ** ** ** ** ** *   67   47 ****** ***** ****** *** *** *****  0.00 ***** ***** **
947000 ***** 201506132300 *** *** *** *** BKN * * * **** ** ** ** ** ** ** ** ** *   54   46 1026.8 ***** 1012.2 *** *** ***** ***** ***** ***** **
947000 ***** 201506140500 ***   0 *** *** BKN * * * 25.0 03 ** ** ** ** ** ** ** 2   67   46 ****** ***** ****** *** *** *****  0.00 ***** ***** **
947000 ***** 201506142300 ***   0 *** *** OVC * * * **** ** ** ** ** ** ** ** ** *   57   46 1023.3 ***** 1008.7 *** *** ***** *****  0.02 ***** **
947000 ***** 201506150500 ***   0 *** *** OVC * * * **** ** ** ** ** ** ** ** ** *   55   48 1020.1 ***** 1005.6 *** *** *****  0.43 ***** ***** **
947000 ***** 201506152300 ***   0 *** *** OVC * * * **** ** ** ** ** ** ** ** ** *   57   54 1019.0 ***** 1004.5 *** *** ***** *****  0.93 ***** **
947000 ***** 201506160500 180   2 *** *** OVC * * * 18.8 03 ** ** ** ** ** ** ** 2   60   57 ****** ***** ****** *** *** ***** ***** ***** ***** **
947000 ***** 201506162300 ***   0 *** *** OVC * * * **** ** ** ** ** ** ** ** ** *   55   50 1012.5 *****  998.1 *** *** ***** *****  1.46 ***** **
947000 ***** 201506170500 *** *** *** *** OVC * * * **** ** ** ** ** ** ** ** ** *   57   53 1013.3 *****  998.9 *** *** *****  0.12 ***** ***** **
947000 ***** 201506172300 ***   0 *** *** OVC * * * **** ** ** ** ** ** ** ** ** *   51   49 1016.9 ***** 1002.4 *** *** ***** *****  0.14 ***** **
947000 ***** 201506180500 ***   0 *** *** BKN * * * **** ** ** ** ** ** ** ** ** *   56   50 1015.4 ***** 1000.9 *** *** *****  0.00 ***** ***** **
947000 ***** 201506182300 ***   0 *** *** OVC * * * **** ** ** ** ** ** ** ** ** *   51   48 1020.9 ***** 1006.4 *** *** ***** *****  0.05 ***** **
947000 ***** 201506190500 *** *** *** *** BKN * * * **** ** ** ** ** ** ** ** ** *   58   46 1021.2 ***** 1006.6 *** *** ***** ***** ***** ***** **
947000 ***** 201506192300 ***   0 *** *** *** * * * **** ** ** ** ** ** ** ** ** *   39   37 1026.3 ***** 1011.7 *** *** ***** *****  0.00 ***** **
947000 ***** 201506200500 360   0 *** 722 SCT * * * 25.0 03 ** ** ** ** ** ** ** 0   53   40 ****** ***** ****** *** *** ***** ***** ***** ***** **
947000 ***** 201506202300 ***   0 *** *** *** * * * **** ** ** ** ** ** ** ** ** *   42   39 1028.9 ***** 1014.2 *** *** ***** *****  0.00 ***** **
947000 ***** 201506210500 ***   0 *** *** *** * * * 31.2 02 ** ** ** ** ** ** ** 0   56   38 ****** ***** ****** *** *** *****  0.00 ***** ***** **
947000 ***** 201506212300 ***   0 *** 722 SCT * * * **** ** ** ** ** ** ** ** ** *   46   39 1028.1 ***** 1013.4 *** *** ***** *****  0.00 ***** **
947000 ***** 201506220500 *** *** *** 722 SCT * * * **** ** ** ** ** ** ** ** ** *   62   38 1024.2 ***** 1009.6 *** *** ***** ***** ***** ***** **
947000 ***** 201506222300 *** *** *** 722 SCT * * * **** ** ** ** ** ** ** ** ** *   52   40 1024.0 ***** 1009.4 *** *** ***** ***** ***** ***** **
947000 ***** 201506230500 ***   0 *** *** BKN * * * **** ** ** ** ** ** ** ** ** *   67   46 1018.0 ***** 1003.5 *** *** *****  0.00 ***** ***** **
947000 ***** 201506232300 ***   0 *** *** OVC * * * **** ** ** ** ** ** ** ** ** *   54   50 1021.1 ***** 1006.5 *** *** ***** *****  0.33 ***** **
947000 ***** 201506240500 ***   0 *** *** OVC * * * **** ** ** ** ** ** ** ** ** *   57   53 1020.2 ***** 1005.7 *** *** *****  0.04 ***** ***** **
947000 ***** 201506242300 ***   0 *** 722 SCT * * * **** ** ** ** ** ** ** ** ** *   47   42 1028.1 ***** 1013.4 *** *** ***** *****  0.04 ***** **
947000 ***** 201506250500 ***   0 *** *** BKN * * * **** ** ** ** ** ** ** ** ** *   55   45 1028.6 ***** 1013.9 *** *** *****  0.00 ***** ***** **
947000 ***** 201506252300 ***   0 *** *** *** * * * **** ** ** ** ** ** ** ** ** *   39   38 1033.0 ***** 1018.3 *** *** ***** *****  0.00 ***** **
947000 ***** 201506260500 ***   0 *** 722 SCT * * * **** ** ** ** ** ** ** ** ** *   57   50 1031.8 ***** 1017.1 *** *** *****  0.00 ***** ***** **
947000 ***** 201506262300 ***   0 *** *** *** * * * **** ** ** ** ** ** ** ** ** *   37   34 1034.9 ***** 1020.2 *** *** ***** *****  0.00 ***** **
947000 ***** 201506270500 ***   0 *** 722 SCT * * * **** ** ** ** ** ** ** ** ** *   56   44 1031.8 ***** 1017.1 *** *** *****  0.00 ***** ***** **
947000 ***** 201506272300 ***   0 *** 722 SCT * * * **** ** ** ** ** ** ** ** ** *   42   40 1035.1 ***** 1020.3 *** *** ***** *****  0.02 ***** **
947000 ***** 201506280500 ***   0 *** 722 SCT * * * **** ** ** ** ** ** ** ** ** *   50   38 1033.2 ***** 1018.5 *** *** *****  0.00 ***** ***** **
947000 ***** 201506282300 ***   0 *** *** OVC * * * **** ** ** ** ** ** ** ** ** *   37   34 1033.4 ***** 1018.7 *** *** ***** *****  0.00 ***** **
947000 ***** 201506290500 *** *** *** *** BKN * * * **** ** ** ** ** ** ** ** ** *   52   40 1030.4 ***** 1015.7 *** *** ***** ***** ***** ***** **
947000 ***** 201506292300 ***   0 *** *** OVC * * * **** ** ** ** ** ** ** ** ** *   44   40 1030.6 ***** 1015.9 *** *** ***** *****  0.00 ***** **
947000 ***** 201506300500 ***   0 *** *** BKN * * * **** ** ** ** ** ** ** ** ** *   50   42 1028.7 ***** 1014.0 *** *** *****  0.04 ***** ***** **
947000 ***** 201506302300 ***   0 *** *** *** * * * **** ** ** ** ** ** ** ** ** *   38   36 1030.3 ***** 1015.6 *** *** ***** *****  0.06 ***** **
947000 ***** 201507010500 *** *** *** *** BKN * * * **** ** ** ** ** ** ** ** ** *   54   42 1027.3 ***** 1012.6 *** *** ***** ***** ***** ***** **
947000 ***** 201507012300 ***   0 *** 722 SCT * * * **** ** ** ** ** ** ** ** ** *   42   35 1027.1 ***** 1012.4 *** *** ***** *****  0.00 ***** **
947000 ***** 201507020500 ***   0 *** 722 SCT * * * **** ** ** ** ** ** ** ** ** *   56   43 1024.8 ***** 1010.1 *** *** *****  0.00 ***** ***** **
947000 ***** 201507022300 ***   0 *** 722 SCT * * * **** ** ** ** ** ** ** ** ** *   35   27 1029.6 ***** 1014.9 *** *** ***** *****  0.00 ***** **
947000 ***** 201507030500 *** *** *** 722 SCT * * * **** ** ** ** ** ** ** ** ** *   54   32 1027.2 ***** 1012.5 *** *** ***** ***** ***** ***** **
947000 ***** 201507032300 ***   0 *** *** BKN * * * **** ** ** ** ** ** ** ** ** *   39   37 1026.5 ***** 1011.8 *** *** ***** *****  0.00 ***** **
947000 ***** 201507040500 180   6 *** 722 SCT * * * 25.0 01 ** ** ** ** ** ** ** 1   53   33 1026.3 ***** 1011.6 *** *** *****  0.00 ***** ***** **
947000 ***** 201507042300 *** *** *** 722 SCT * * * **** ** ** ** ** ** ** ** ** *   41   36 1023.7 ***** 1009.1 *** *** ***** ***** ***** ***** **
947000 ***** 201507050500 320   1 *** *** SCT * * * 25.0 01 ** ** ** ** ** ** ** 0   55   35 ****** ***** ****** *** *** *****  0.00 ***** ***** **
947000 ***** 201507052300 *** *** *** *** BKN * * * **** ** ** ** ** ** ** ** ** *   39   35 1019.8 ***** 1005.2 *** *** ***** ***** ***** ***** **
947000 ***** 201507060500 ***   0 *** 722 SCT * * * **** ** ** ** ** ** ** ** ** *   60   41 1017.6 ***** 1003.0 *** *** *****  0.00 ***** ***** **
947000 ***** 201507062300 ***   0 *** *** BKN * * * **** ** ** ** ** ** ** ** ** *   45   40 1022.3 ***** 1007.7 *** *** ***** *****  0.00 ***** **
947000 ***** 201507070500 ***   0 *** 722 SCT * * * **** ** ** ** ** ** ** ** ** *   59   44 1015.2 ***** 1000.7 *** *** *****  0.00 ***** ***** **
947000 ***** 201507072300 ***   0 *** *** *** * * * **** ** ** ** ** ** ** ** ** *   46   42 1027.0 ***** 1012.3 *** *** ***** *****  0.00 ***** **
947000 ***** 201507080500 ***   0 *** 722 SCT * * * **** ** ** ** ** ** ** ** ** *   63   43 1025.2 ***** 1010.5 *** *** *****  0.00 ***** ***** **
947000 ***** 201507082300 ***   0 *** 722 SCT * * * **** ** ** ** ** ** ** ** ** *   44   37 1027.5 ***** 1012.8 *** *** ***** *****  0.00 ***** **
947000 ***** 201507090500 090   2 *** 722 SCT * * * 25.0 01 ** ** ** ** ** ** ** 1   63   40 ****** ***** ****** *** *** ***** ***** ***** ***** **
947000 ***** 201507092300 ***   0 *** 722 SCT * * * **** ** ** ** ** ** ** ** ** *   52   46 1020.0 ***** 1005.4 *** *** ***** *****  0.17 ***** **
947000 ***** 201507100500 ***   0 *** 722 SCT * * * **** ** ** ** ** ** ** ** ** *   64   42 1016.7 ***** 1002.2 *** *** *****  0.00 ***** ***** **
947000 ***** 201507102300 ***   0 *** *** BKN * * * **** ** ** ** ** ** ** ** ** *   52   50 1011.7 *****  997.2 *** *** ***** *****  0.00 ***** **
947000 ***** 201507110500 ***   0 *** *** BKN * * * 18.8 02 ** ** ** ** ** ** ** 0   63   40 ****** ***** ****** *** *** *****  0.00 ***** ***** **
947000 ***** 201507112300 ***   0 *** *** OVC * * * **** ** ** ** ** ** ** ** ** *   44   40 1008.5 *****  994.1 *** *** ***** *****  0.18 ***** **
947000 ***** 201507120500 250  14 *** *** BKN * * * 12.5 03 ** ** ** ** ** ** ** 6   49   40 ****** ***** ****** *** *** *****  0.04 ***** ***** **
947000 ***** 201507130500 *** *** *** *** OVC * * * **** ** ** ** ** ** ** ** ** *   53   40 1015.6 ***** 1001.1 *** *** ***** ***** ***** ***** **
947000 ***** 201507132300 ***   0 *** *** OVC * * * **** ** ** ** ** ** ** ** ** *   45   37 1018.7 ***** 1004.1 *** *** ***** ***** *****  0.02 **
947000 ***** 201507140500 320   7 *** *** BKN * * * 25.0 03 ** ** ** ** ** ** ** *   50   37 1016.5 ***** 1001.9 *** *** ***** ***** ***** ***** **
947000 ***** 201507142300 ***   0 *** *** OVC * * * **** ** ** ** ** ** ** ** ** *   44   42 1017.1 ***** 1002.6 *** *** ***** *****  0.09 ***** **
947000 ***** 201507150500 ***   0 *** *** BKN * * * **** ** ** ** ** ** ** ** ** *   50   37 1016.2 ***** 1001.7 *** *** *****  0.00 ***** ***** **
947000 ***** 201507152300 ***   0 *** *** OVC * * * **** ** ** ** ** ** ** ** ** *   41   39 1019.8 ***** 1005.2 *** *** ***** *****  0.13 ***** **
947000 ***** 201507160500 ***   0 *** *** OVC * * * **** ** ** ** ** ** ** ** ** *   48   45 1018.3 ***** 1003.7 *** *** *****  0.12 ***** ***** **
947000 ***** 201507162300 ***   0 *** 722 SCT * * * **** ** ** ** ** ** ** ** ** *   41   38 1022.2 ***** 1007.6 *** *** ***** *****  0.14 ***** **
947000 ***** 201507170500 ***   0 *** *** OVC * * * **** ** ** ** ** ** ** ** ** *   51   42 1022.7 ***** 1008.1 *** *** *****  0.01 ***** ***** **
947000 ***** 201507172300 ***   0 *** *** *** * * * **** ** ** ** ** ** ** ** ** *   38   36 1029.3 ***** 1014.6 *** *** ***** *****  0.01 ***** **
947000 ***** 201507180500 270   2 *** *** SCT * * * 18.8 03 ** ** ** ** ** ** ** 0   52   36 1030.1 ***** 1015.3 *** *** ***** ***** ***** ***** **
947000 ***** 201507190500 ***   0 *** 722 SCT * * * 31.2 03 ** ** ** ** ** ** ** 0   56   39 1032.6 ***** 1017.8 *** *** ***** *****  0.00 ***** **
947000 ***** 201507192300 ***   0 *** 722 SCT * * * **** ** ** ** ** ** ** ** ** *   41   40 1033.1 ***** 1018.3 *** *** ***** *****  0.00 ***** **
947000 ***** 201507200500 ***   0 *** 722 SCT * * * **** ** ** ** ** ** ** ** ** *   61   38 1029.6 ***** 1014.9 *** *** *****  0.00 ***** ***** **
947000 ***** 201507202300 ***   0 *** *** BKN * * * **** ** ** ** ** ** ** ** ** *   46   42 1030.1 ***** 1015.4 *** *** ***** *****  0.00 ***** **
947000 ***** 201507210500 360  11 *** *** BKN * * * 31.2 03 ** ** ** ** ** ** ** 1   64   42 ****** ***** ****** *** *** *****  0.00 ***** ***** **
947000 ***** 201507212300 ***   0 *** *** OVC * * * **** ** ** ** ** ** ** ** ** *   52   50 1022.1 ***** 1007.5 *** *** ***** *****  0.32 ***** **
947000 ***** 201507220500 ***   0 *** *** OVC * * * **** ** ** ** ** ** ** ** ** *   55   52 1022.5 ***** 1007.9 *** *** *****  0.35 ***** ***** **
947000 ***** 201507222300 ***   0 *** *** OVC * * * **** ** ** ** ** ** ** ** ** *   43   42 1026.3 ***** 1011.6 *** *** ***** *****  0.38 ***** **
947000 ***** 201507230500 ***   0 *** 722 SCT * * * **** ** ** ** ** ** ** ** ** *   57   50 1022.9 ***** 1008.3 *** *** *****  0.00 ***** ***** **
947000 ***** 201507240500 ***   0 *** *** BKN * * * **** ** ** ** ** ** ** ** ** *   59   55 1014.0 *****  999.5 *** *** ***** *****  0.08 ***** **
947000 ***** 201507242300 ***   0 *** *** *** * * * **** ** ** ** ** ** ** ** ** *   46   40 1021.2 ***** 1006.6 *** *** ***** ***** *****  0.00 **
947000 ***** 201507250500 320   5 *** 722 SCT * * * 31.2 03 ** ** ** ** ** ** ** 1   59   42 1021.4 ***** 1006.7 *** *** ***** ***** ***** ***** **
947000 ***** 201507252300 *** *** *** *** OVC * * * **** ** ** ** ** ** ** ** ** *   51   43 1021.4 ***** 1006.8 *** *** ***** ***** ***** ***** **
947000 ***** 201507260500 270   9 *** *** OVC * * * 25.0 03 ** ** ** ** ** ** ** 1   55   37 ****** ***** ****** *** *** *****  0.00 ***** ***** **
947000 ***** 201507262300 ***   0 *** *** *** * * * **** ** ** ** ** ** ** ** ** *   39   36 1032.2 ***** 1017.4 *** *** ***** *****  0.00 ***** **
947000 ***** 201507270500 ***   0 *** 722 SCT * * * **** ** ** ** ** ** ** ** ** *   53   33 1031.7 ***** 1016.9 *** *** *****  0.00 ***** ***** **
947000 ***** 201507272300 ***   0 *** *** *** * * * **** ** ** ** ** ** ** ** ** *   41   39 1037.3 ***** 1022.5 *** *** ***** *****  0.00 ***** **
947000 ***** 201507280500 *** *** *** 722 SCT * * * **** ** ** ** ** ** ** ** ** *   55   39 1034.5 ***** 1019.7 *** *** ***** ***** ***** ***** **
947000 ***** 201507282300 ***   0 *** 722 SCT * * * **** ** ** ** ** ** ** ** ** *   42   35 1035.0 ***** 1020.2 *** *** ***** *****  0.00 ***** **
947000 ***** 201507290500 *** *** *** 722 SCT * * * **** ** ** ** ** ** ** ** ** *   57   38 1030.8 ***** 1016.1 *** *** ***** ***** ***** ***** **
947000 ***** 201507292300 ***   0 *** 722 SCT * * * **** ** ** ** ** ** ** ** ** *   45   40 1026.4 ***** 1011.7 *** *** ***** *****  0.00 ***** **
947000 ***** 201507300500 360   7 *** *** BKN * * * 31.2 03 ** ** ** ** ** ** ** 1   58   36 1023.5 ***** 1008.8 *** *** ***** ***** ***** ***** **
947000 ***** 201507302300 ***   0 *** 722 SCT * * * **** ** ** ** ** ** ** ** ** *   45   39 1023.0 ***** 1008.4 *** *** ***** *****  0.00 ***** **
947000 ***** 201507310500 ***   0 *** 722 SCT * * * **** ** ** ** ** ** ** ** ** *   64   38 1020.3 ***** 1005.7 *** *** *****  0.00 ***** ***** **
947000 ***** 201507312300 *** *** *** *** BKN * * * **** ** ** ** ** ** ** ** ** *   56   36 1017.7 ***** 1003.2 *** *** ***** ***** ***** ***** **
947000 ***** 201508012300 *** *** *** *** OVC * * * **** ** ** ** ** ** ** ** ** *   50   48 1015.9 ***** 1001.5 *** *** ***** ***** ***** ***** **
947000 ***** 201508022300 ***   0 *** *** BKN * * * **** ** ** ** ** ** ** ** ** *   48   41 1022.7 ***** 1008.2 *** *** ***** *****  0.01 ***** **
947000 ***** 201508032300 *** *** *** *** BKN * * * **** ** ** ** ** ** ** ** ** *   45   40 1026.1 ***** 1011.5 *** *** ***** *****  0.01 ***** **
947000 ***** 201508042300 ***   0 *** *** OVC * * * **** ** ** ** ** ** ** ** ** *   47   39 1019.5 ***** 1005.0 *** *** ***** *****  0.00 ***** **
947000 ***** 201508052300 ***   0 *** *** *** * * * **** ** ** ** ** ** ** ** ** *   41   39 1023.4 ***** 1008.8 *** *** ***** *****  0.04 ***** **
947000 ***** 201508062300 ***   0 *** *** BKN * * * **** ** ** ** ** ** ** ** ** *   46   42 1027.3 ***** 1012.7 *** *** ***** *****  0.00 ***** **
947000 ***** 201508072300 *** *** *** *** BKN * * * **** ** ** ** ** ** ** ** ** *   50   46 1025.6 ***** 1011.0 *** *** ***** ***** ***** ***** **
947000 ***** 201508082300 *** *** *** *** BKN * * * **** ** ** ** ** ** ** ** ** *   49   41 1023.0 ***** 1008.5 *** *** ***** ***** ***** ***** **
947000 ***** 201508092300 ***   0 *** *** BKN * * * **** ** ** ** ** ** ** ** ** *   48   35 1015.6 ***** 1001.2 *** *** ***** *****  0.00 ***** **
947000 ***** 201508102300 *** *** *** 722 SCT * * * **** ** ** ** ** ** ** ** ** *   45   36 1014.4 ***** 1000.0 *** *** ***** ***** ***** ***** **
947000 ***** 201508112300 ***   0 *** *** BKN * * * **** ** ** ** ** ** ** ** ** *   47   39 1007.7 *****  993.4 *** *** ***** *****  0.06 ***** **
947000 ***** 201508122300 *** *** *** 722 SCT * * * **** ** ** ** ** ** ** ** ** *   43   38 1022.6 ***** 1008.1 *** *** ***** *****  0.16 ***** **
947000 ***** 201508132300 ***   0 *** *** BKN * * * **** ** ** ** ** ** ** ** ** *   52   46 1028.3 ***** 1013.7 *** *** ***** *****  0.00 ***** **
947000 ***** 201508142300 *** *** *** *** BKN * * * **** ** ** ** ** ** ** ** ** *   53   47 1031.8 ***** 1017.1 *** *** ***** ***** ***** ***** **
947000 ***** 201508152300 *** *** *** 722 SCT * * * **** ** ** ** ** ** ** ** ** *   54   48 1029.0 ***** 1014.4 *** *** ***** ***** ***** ***** **
947000 ***** 201508162300 ***   0 *** 722 SCT * * * **** ** ** ** ** ** ** ** ** *   48   42 1021.8 ***** 1007.3 *** *** ***** *****  0.00 ***** **
947000 ***** 201508172300 ***   0 *** *** BKN * * * **** ** ** ** ** ** ** ** ** *   47   39 1024.2 ***** 1009.6 *** *** ***** *****  0.00 ***** **
947000 ***** 201508182300 ***   0 *** 722 SCT * * * **** ** ** ** ** ** ** ** ** *   43   36 1027.2 ***** 1012.6 *** *** ***** *****  0.00 ***** **
947000 ***** 201508192300 ***   0 *** 722 SCT * * * **** ** ** ** ** ** ** ** ** *   50   38 1026.8 ***** 1012.2 *** *** ***** *****  0.00 ***** **
947000 ***** 201508202300 ***   0 *** *** BKN * * * **** ** ** ** ** ** ** ** ** *   55   36 1021.4 ***** 1006.9 *** *** ***** *****  0.00 ***** **
947000 ***** 201508212300 ***   0 *** *** *** * * * **** ** ** ** ** ** ** ** ** *   60   43 1018.3 ***** 1003.8 *** *** ***** *****  0.00 ***** **
947000 ***** 201508222300 ***   0 *** *** OVC * * * **** ** ** ** ** ** ** ** ** *   56   53 1019.9 ***** 1005.4 *** *** ***** *****  0.31 ***** **
947000 ***** 201508232300 *** *** *** *** OVC * * * **** ** ** ** ** ** ** ** ** *   56   53 1013.5 *****  999.1 *** *** ***** *****  0.31 ***** **
947000 ***** 201508242300 ***   0 *** *** OVC * * * **** ** ** ** ** ** ** ** ** *   52   48 1021.1 ***** 1006.6 *** *** ***** *****  0.28 ***** **
947000 ***** 201508252300 ***   0 *** *** BKN * * * **** ** ** ** ** ** ** ** ** *   50   46 1025.3 ***** 1010.7 *** *** ***** *****  0.04 ***** **
947000 ***** 201508262300 ***   0 *** *** BKN * * * **** ** ** ** ** ** ** ** ** *   54   50 1022.6 ***** 1008.1 *** *** ***** *****  0.08 ***** **
947000 ***** 201508272300 ***   0 *** 722 SCT * * * **** ** ** ** ** ** ** ** ** *   48   44 1025.9 ***** 1011.3 *** *** ***** *****  0.16 ***** **
947000 ***** 201508282300 *** *** *** 722 CLR * * * **** ** ** ** ** ** ** ** ** *   46   39 1027.1 ***** 1012.5 *** *** ***** ***** ***** ***** **
947000 ***** 201508292300 ***   0 *** *** *** * * * **** ** ** ** ** ** ** ** ** *   47   41 1024.7 ***** 1010.1 *** *** ***** *****  0.00 ***** **
947000 ***** 201508312300 ***   0 *** *** *** * * * **** ** ** ** ** ** ** ** ** *   52   37 1018.8 ***** 1004.5 *** *** ***** *****  0.00 ***** **
947000 ***** 201509012300 ***   0 *** 722 SCT * * * **** ** ** ** ** ** ** ** ** *   55   40 1012.5 *****  998.3 *** *** ***** *****  0.00 ***** **
947000 ***** 201509022300 ***   0 *** *** OVC * * * **** ** ** ** ** ** ** ** ** *   52   46 1010.9 *****  996.7 *** *** ***** *****  0.59 ***** **
947000 ***** 201509032300 ***   0 *** *** *** * * * **** ** ** ** ** ** ** ** ** *   50   40 1024.9 ***** 1010.5 *** *** ***** *****  0.00 ***** **
947000 ***** 201509042300 ***   0 *** 722 SCT * * * **** ** ** ** ** ** ** ** ** *   45   40 1024.8 ***** 1010.4 *** *** ***** *****  0.00 ***** **
947000 ***** 201509052300 ***   0 *** *** BKN * * * **** ** ** ** ** ** ** ** ** *   50   42 1023.0 ***** 1008.6 *** *** ***** *****  0.00 ***** **
947000 ***** 201509062300 ***   0 *** 722 SCT * * * **** ** ** ** ** ** ** ** ** *   52   40 1022.6 ***** 1008.2 *** *** ***** *****  0.00 ***** **
947000 ***** 201509072300 270   2 *** *** BKN * * * 25.0 03 ** ** ** ** ** ** ** 2   52   44 ****** ***** ****** *** *** ***** *****  0.00 ***** **
947000 ***** 201509082300 ***   0 *** *** *** * * * **** ** ** ** ** ** ** ** ** *   48   44 1028.3 ***** 1013.8 *** *** ***** ***** *****  0.04 **
947000 ***** 201509092300 ***   0 *** *** *** * * * **** ** ** ** ** ** ** ** ** *   52   40 1032.0 ***** 1017.5 *** *** ***** *****  0.00 ***** **
947000 ***** 201509102300 ***   0 *** *** *** * * * **** ** ** ** ** ** ** ** ** *   55   43 1030.1 ***** 1015.6 *** *** ***** *****  0.00 ***** **
947000 ***** 201509112300 *** *** *** 722 SCT * * * **** ** ** ** ** ** ** ** ** *   59   49 1028.1 ***** 1013.6 *** *** ***** ***** ***** ***** **
947000 ***** 201509122300 *** *** *** 722 CLR * * * **** ** ** ** ** ** ** ** ** *   67   48 1026.4 ***** 1012.0 *** *** ***** ***** ***** ***** **
947000 ***** 201509132300 ***   0 *** *** *** * * * **** ** ** ** ** ** ** ** ** *   66   45 1022.4 ***** 1008.0 *** *** ***** *****  0.00 ***** **
947000 ***** 201509142300 ***   0 *** *** BKN * * * **** ** ** ** ** ** ** ** ** *   57   50 1018.7 ***** 1004.4 *** *** ***** *****  0.00 ***** **
947000 ***** 201509152300 ***   0 *** *** *** * * * **** ** ** ** ** ** ** ** ** *   56   43 1020.4 ***** 1006.0 *** *** ***** *****  0.00 ***** **
947000 ***** 201509162300 ***   0 *** 722 SCT * * * **** ** ** ** ** ** ** ** ** *   57   37 1022.5 ***** 1008.1 *** *** ***** *****  0.00 ***** **
947000 ***** 201509172300 ***   0 *** *** *** * * * **** ** ** ** ** ** ** ** ** *   52   40 1027.8 ***** 1013.3 *** *** ***** *****  0.00 ***** **
947000 ***** 201509182300 *** *** *** 722 SCT * * * **** ** ** ** ** ** ** ** ** *   58   47 1024.7 ***** 1010.3 *** *** ***** ***** ***** ***** **
947000 ***** 201509192300 *** *** *** 722 SCT * * * **** ** ** ** ** ** ** ** ** *   63   61 1022.3 ***** 1007.9 *** *** ***** ***** ***** ***** **
