  USAF  WBAN YR--MODAHRMN DIR SPD GUS CLG SKC L M H  VSB MW MW MW MW AW AW AW AW W TEMP DEWP    SLP   ALT    STP MAX MIN PCP01 PCP06 PCP24 PCPXX SD
948820 ***** 201501010400 230  16 *** *** BKN * * * 31.2 03 ** ** ** ** ** ** ** 2   81   52 ****** ***** ****** *** *** *****  0.00 ***** ***** **
948820 ***** 201501012200 090   2 *** *** SCT * * * 31.2 02 ** ** ** ** ** ** ** 0   67   53 ****** ***** ****** *** *** ***** *****  0.00 ***** **
948820 ***** 201501020400 050   2 *** *** SCT * * * 31.2 02 ** ** ** ** ** ** ** 0  100   47 ****** ***** ****** *** *** *****  0.00 ***** ***** **
948820 ***** 201501022200 050   9 *** *** *** * * * 31.2 02 ** ** ** ** ** ** ** 0   84   54 ****** ***** ****** *** *** ***** *****  0.00 ***** **
948820 ***** 201501030400 050  17 *** *** SCT * * * 31.2 02 ** ** ** ** ** ** ** 0   99   56 ****** ***** ****** *** *** *****  0.00 ***** ***** **
948820 ***** 201501032200 270  17 *** *** OVC * * * 31.2 03 ** ** ** ** ** ** ** 8   70   64 ****** ***** ****** *** *** ***** *****  0.09 ***** **
948820 ***** 201501040400 180   5 *** *** SCT * * * 31.2 01 ** ** ** ** ** ** ** 0   84   65 ****** ***** ****** *** *** *****  0.00 ***** ***** **
948820 ***** 201501042200 ***   0 *** *** *** * * * 31.2 02 ** ** ** ** ** ** ** 0   59   50 ****** ***** ****** *** *** ***** *****  0.00 ***** **
948820 ***** 201501050400 270  17 *** *** BKN * * * 31.2 02 ** ** ** ** ** ** ** 1   89   47 ****** ***** ****** *** *** *****  0.00 ***** ***** **
948820 ***** 201501052200 230   2 *** *** *** * * * 31.2 02 ** ** ** ** ** ** ** 0   63   56 ****** ***** ****** *** *** ***** *****  0.00 ***** **
948820 ***** 201501060400 230   2 *** *** SCT * * * 31.2 02 ** ** ** ** ** ** ** 0   92   54 ****** ***** ****** *** *** *****  0.00 ***** ***** **
948820 ***** 201501062200 050   2 *** *** *** * * * 31.2 02 ** ** ** ** ** ** ** 0   77   64 ****** ***** ****** *** *** ***** *****  0.00 ***** **
948820 ***** 201501070400 360   5 *** *** BKN * * * 31.2 02 ** ** ** ** ** ** ** 1   94   63 ****** ***** ****** *** *** *****  0.00 ***** ***** **
948820 ***** 201501072200 ***   0 *** *** BKN * * * 18.8 02 ** ** ** ** ** ** ** 2   81   60 ****** ***** ****** *** *** ***** *****  0.00 ***** **
948820 ***** 201501080400 130   2 *** *** BKN * * * 18.8 02 ** ** ** ** ** ** ** 6   87   65 ****** ***** ****** *** *** *****  0.04 ***** ***** **
948820 ***** 201501082200 ***   0 *** *** BKN * * * 18.8 02 ** ** ** ** ** ** ** 6   71   69 ****** ***** ****** *** *** ***** *****  0.30 ***** **
948820 ***** 201501090400 090   2 *** *** BKN * * * 18.8 02 ** ** ** ** ** ** ** 2   82   66 ****** ***** ****** *** *** *****  0.00 ***** ***** **
948820 ***** 201501092200 ***   0 *** *** OVC * * *  3.1 62 ** ** ** ** ** ** ** 6   58   57 ****** ***** ****** *** *** ***** *****  1.17 ***** **
948820 ***** 201501100400 ***   0 *** *** OVC * * *  3.1 50 ** ** ** ** ** ** ** 6   65   62 ****** ***** ****** *** *** *****  0.12 ***** ***** **
948820 ***** 201501102200 180   2 *** *** SCT * * * 31.2 02 ** ** ** ** ** ** ** 1   64   60 ****** ***** ****** *** *** ***** *****  0.12 ***** **
948820 ***** 201501110400 090   5 *** *** SCT * * * 31.2 02 ** ** ** ** ** ** ** 0   84   62 ****** ***** ****** *** *** *****  0.00 ***** ***** **
948820 ***** 201501112200 050   2 *** *** *** * * * 31.2 02 ** ** ** ** ** ** ** 0   71   60 ****** ***** ****** *** *** ***** *****  0.00 ***** **
948820 ***** 201501120400 050   5 *** *** SCT * * * 31.2 02 ** ** ** ** ** ** ** 0   91   37 ****** ***** ****** *** *** *****  0.00 ***** ***** **
948820 ***** 201501122200 360   6 *** *** BKN * * * 31.2 03 ** ** ** ** ** ** ** 1   75   57 ****** ***** ****** *** *** ***** *****  0.00 ***** **
948820 ***** 201501130400 ***   0 *** *** OVC * * *  5.0 63 ** ** ** ** ** ** ** 6   69   66 ****** ***** ****** *** *** *****  0.12 ***** ***** **
948820 ***** 201501132200 ***   0 *** *** OVC * * *  6.2 50 ** ** ** ** ** ** ** 6   66   62 ****** ***** ****** *** *** ***** *****  0.53 ***** **
948820 ***** 201501140400 250  10 *** *** OVC * * * 18.8 02 ** ** ** ** ** ** ** 5   67   61 ****** ***** ****** *** *** *****  0.02 ***** ***** **
948820 ***** 201501142200 250   2 *** *** BKN * * * 25.0 02 ** ** ** ** ** ** ** 2   62   53 ****** ***** ****** *** *** ***** *****  0.04 ***** **
948820 ***** 201501150400 270  15 *** *** SCT * * * 31.2 02 ** ** ** ** ** ** ** 1   71   52 ****** ***** ****** *** *** *****  0.00 ***** ***** **
948820 ***** 201501152200 180   6 *** *** *** * * * 31.2 02 ** ** ** ** ** ** ** 0   58   51 ****** ***** ****** *** *** ***** *****  0.00 ***** **
948820 ***** 201501160400 250  10 *** *** SCT * * * 31.2 02 ** ** ** ** ** ** ** 0   79   49 ****** ***** ****** *** *** *****  0.00 ***** ***** **
948820 ***** 201501162200 250   2 *** *** BKN * * * 25.0 02 ** ** ** ** ** ** ** 1   60   50 ****** ***** ****** *** *** ***** *****  0.00 ***** **
948820 ***** 201501170400 180  15 *** *** SCT * * * 31.2 02 ** ** ** ** ** ** ** 1   76   40 ****** ***** ****** *** *** *****  0.00 ***** ***** **
948820 ***** 201501172200 250   2 *** *** SCT * * * 31.2 02 ** ** ** ** ** ** ** 0   59   47 ****** ***** ****** *** *** ***** *****  0.00 ***** **
948820 ***** 201501180400 230  15 *** *** BKN * * * 31.2 03 ** ** ** ** ** ** ** 1   73   41 ****** ***** ****** *** *** *****  0.00 ***** ***** **
948820 ***** 201501182200 180   7 *** *** SCT * * * 31.2 02 ** ** ** ** ** ** ** 0   55   44 ****** ***** ****** *** *** ***** *****  0.00 ***** **
948820 ***** 201501190400 180   5 *** *** SCT * * * 31.2 02 ** ** ** ** ** ** ** 0   79   42 ****** ***** ****** *** *** *****  0.00 ***** ***** **
948820 ***** 201501192200 ***   0 *** *** BKN * * * 31.2 02 ** ** ** ** ** ** ** 2   66   55 ****** ***** ****** *** *** ***** *****  0.00 ***** **
948820 ***** 201501200400 130   9 *** *** OVC * * * 31.2 03 ** ** ** ** ** ** ** 2   82   55 ****** ***** ****** *** *** *****  0.00 ***** ***** **
948820 ***** 201501202200 ***   0 *** *** BKN * * * 31.2 02 ** ** ** ** ** ** ** 9   66   63 ****** ***** ****** *** *** ***** *****  0.67 ***** **
948820 ***** 201501210400 230   2 *** *** SCT * * * 31.2 02 ** ** ** ** ** ** ** 0   87   61 ****** ***** ****** *** *** *****  0.00 ***** ***** **
948820 ***** 201501212200 130   2 *** *** *** * * * 31.2 02 ** ** ** ** ** ** ** 0   71   61 ****** ***** ****** *** *** ***** *****  0.00 ***** **
948820 ***** 201501220400 050  10 *** *** SCT * * * 31.2 03 ** ** ** ** ** ** ** 0   91   59 ****** ***** ****** *** *** *****  0.00 ***** ***** **
948820 ***** 201501222200 270   2 *** *** BKN * * * 31.2 03 ** ** ** ** ** ** ** 2   75   67 ****** ***** ****** *** *** ***** *****  0.00 ***** **
948820 ***** 201501230400 180   2 *** *** BKN * * * 31.2 03 ** ** ** ** ** ** ** 2   95   57 ****** ***** ****** *** *** *****  0.00 ***** ***** **
948820 ***** 201501232200 ***   0 *** *** BKN * * * 31.2 02 ** ** ** ** ** ** ** 1   62   56 ****** ***** ****** *** *** ***** *****  0.00 ***** **
948820 ***** 201501240400 230   7 *** *** BKN * * * 31.2 02 ** ** ** ** ** ** ** 2   88   53 ****** ***** ****** *** *** *****  0.00 ***** ***** **
948820 ***** 201501242200 230  16 *** *** SCT * * * 31.2 03 ** ** ** ** ** ** ** 2   66   51 ****** ***** ****** *** *** ***** *****  0.00 ***** **
948820 ***** 201501250400 230  23 *** *** SCT * * * 31.2 02 ** ** ** ** ** ** ** 0   72   41 ****** ***** ****** *** *** *****  0.00 ***** ***** **
948820 ***** 201501252200 180   2 *** *** *** * * * 31.2 02 ** ** ** ** ** ** ** 0   72   41 ****** ***** ****** *** *** ***** *****  0.00 ***** **
948820 ***** 201501260400 130   5 *** *** SCT * * * 31.2 02 ** ** ** ** ** ** ** 0   73   44 ****** ***** ****** *** *** *****  0.00 ***** ***** **
948820 ***** 201501262200 230   2 *** *** *** * * * 31.2 02 ** ** ** ** ** ** ** 0   55   47 ****** ***** ****** *** *** ***** *****  0.00 ***** **
948820 ***** 201501270400 180  14 *** *** SCT * * * 31.2 02 ** ** ** ** ** ** ** 0   78   52 ****** ***** ****** *** *** *****  0.00 ***** ***** **
948820 ***** 201501272200 270   2 *** *** BKN * * * 31.2 02 ** ** ** ** ** ** ** 1   57   49 ****** ***** ****** *** *** ***** *****  0.00 ***** **
948820 ***** 201501280400 090  14 *** *** SCT * * * 31.2 02 ** ** ** ** ** ** ** 1   76   45 ****** ***** ****** *** *** *****  0.00 ***** ***** **
948820 ***** 201501282200 090  11 *** *** SCT * * * 31.2 02 ** ** ** ** ** ** ** 0   62   45 ****** ***** ****** *** *** ***** *****  0.00 ***** **
948820 ***** 201501292200 180   2 ***  33 OVC * * * 25.0 02 ** ** ** ** ** ** ** 1   52   45 ****** ***** ****** *** *** ***** ***** ***** ***** **
948820 ***** 201501300400 090  10 *** *** BKN * * * 31.2 02 ** ** ** ** ** ** ** 2   68   46 ****** ***** ****** *** *** *****  0.00 ***** ***** **
948820 ***** 201501302200 ***   0 *** *** *** * * * 31.2 02 ** ** ** ** ** ** ** 1   56   47 ****** ***** ****** *** *** ***** *****  0.00 ***** **
948820 ***** 201501310400 230   2 *** *** BKN * * * 31.2 02 ** ** ** ** ** ** ** 1   73   51 ****** ***** ****** *** *** *****  0.00 ***** ***** **
948820 ***** 201501312200 ***   0 *** *** SCT * * * 31.2 02 ** ** ** ** ** ** ** 1   57   51 ****** ***** ****** *** *** ***** *****  0.00 ***** **
948820 ***** 201502010400 180   2 *** *** SCT * * * 31.2 02 ** ** ** ** ** ** ** 0   79   53 ****** ***** ****** *** *** *****  0.00 ***** ***** **
948820 ***** 201502012200 230   2 *** *** *** * * * 31.2 02 ** ** ** ** ** ** ** 6   59   52 ****** ***** ****** *** *** ***** *****  0.13 ***** **
948820 ***** 201502020400 230   5 *** *** SCT * * * 31.2 02 ** ** ** ** ** ** ** 0   80   54 ****** ***** ****** *** *** *****  0.00 ***** ***** **
948820 ***** 201502022200 250   6 *** *** *** * * * 31.2 02 ** ** ** ** ** ** ** 0   57   53 ****** ***** ****** *** *** ***** *****  0.00 ***** **
948820 ***** 201502030400 250  10 *** *** *** * * * 31.2 02 ** ** ** ** ** ** ** 0   80   51 ****** ***** ****** *** *** *****  0.00 ***** ***** **
948820 ***** 201502032200 110   6 *** *** BKN * * * 31.2 02 ** ** ** ** ** ** ** 1   61   46 ****** ***** ****** *** *** ***** *****  0.00 ***** **
948820 ***** 201502040400 130  10 *** *** SCT * * * 31.2 02 ** ** ** ** ** ** ** 1   76   49 ****** ***** ****** *** *** *****  0.00 ***** ***** **
948820 ***** 201502042200 250   2 *** *** SCT * * * 31.2 02 ** ** ** ** ** ** ** 0   58   51 ****** ***** ****** *** *** ***** *****  0.00 ***** **
948820 ***** 201502050400 090  10 *** *** SCT * * * 31.2 03 ** ** ** ** ** ** ** 0   86   55 ****** ***** ****** *** *** *****  0.00 ***** ***** **
948820 ***** 201502052200 050   6 *** *** *** * * * 31.2 02 ** ** ** ** ** ** ** 0   71   58 ****** ***** ****** *** *** ***** *****  0.00 ***** **
948820 ***** 201502060400 130   5 *** *** SCT * * * 31.2 02 ** ** ** ** ** ** ** 0   91   57 ****** ***** ****** *** *** *****  0.00 ***** ***** **
948820 ***** 201502070400 310   6 *** *** BKN * * * 31.2 03 ** ** ** ** ** ** ** 2   90   57 ****** ***** ****** *** *** *****  0.00 ***** ***** **
948820 ***** 201502072200 020   2 *** *** BKN * * * 31.2 02 ** ** ** ** ** ** ** 2   70   59 ****** ***** ****** *** *** ***** *****  0.00 ***** **
948820 ***** 201502080400 290  15 *** *** SCT * * * 31.2 02 ** ** ** ** ** ** ** 1   92   61 ****** ***** ****** *** *** *****  0.00 ***** ***** **
948820 ***** 201502082200 180   2 *** *** *** * * * 31.2 02 ** ** ** ** ** ** ** 0   56   49 ****** ***** ****** *** *** ***** *****  0.00 ***** **
948820 ***** 201502090400 180   2 *** *** *** * * * 31.2 02 ** ** ** ** ** ** ** 0   89   59 ****** ***** ****** *** *** *****  0.00 ***** ***** **
948820 ***** 201502092200 ***   0 *** *** *** * * * 31.2 02 ** ** ** ** ** ** ** 0   66   60 ****** ***** ****** *** *** ***** *****  0.00 ***** **
948820 ***** 201502100400 310   7 *** *** BKN * * * 31.2 03 ** ** ** ** ** ** ** 0   89   63 ****** ***** ****** *** *** *****  0.00 ***** ***** **
948820 ***** 201502102200 ***   0 *** *** SCT * * * 31.2 02 ** ** ** ** ** ** ** 0   73   62 ****** ***** ****** *** *** ***** *****  0.00 ***** **
948820 ***** 201502110400 050   7 *** *** SCT * * * 31.2 02 ** ** ** ** ** ** ** 0   95   63 ****** ***** ****** *** *** *****  0.00 ***** ***** **
948820 ***** 201502112200 ***   0 *** *** SCT * * * 31.2 02 ** ** ** ** ** ** ** 9   64   55 ****** ***** ****** *** *** ***** *****  0.00 ***** **
948820 ***** 201502120400 200  10 *** *** BKN * * * 31.2 03 ** ** ** ** ** ** ** 1   89   58 ****** ***** ****** *** *** *****  0.00 ***** ***** **
948820 ***** 201502122200 180   2 *** *** *** * * * 31.2 02 ** ** ** ** ** ** ** 0   68   60 ****** ***** ****** *** *** ***** *****  0.00 ***** **
948820 ***** 201502130400 310   7 *** *** OVC * * * 31.2 03 ** ** ** ** ** ** ** 2   90   56 ****** ***** ****** *** *** *****  0.00 ***** ***** **
948820 ***** 201502140400 090   2 *** *** BKN * * * 31.2 01 ** ** ** ** ** ** ** 8   75   66 ****** ***** ****** *** *** *****  0.43 ***** ***** **
948820 ***** 201502142200 ***   0 *** *** SCT * * * 31.2 02 ** ** ** ** ** ** ** 0   62   60 ****** ***** ****** *** *** ***** *****  0.43 ***** **
948820 ***** 201502150400 090   2 *** *** *** * * * 31.2 02 ** ** ** ** ** ** ** 0   86   63 ****** ***** ****** *** *** *****  0.00 ***** ***** **
948820 ***** 201502152200 ***   0 *** *** *** * * * 31.2 02 ** ** ** ** ** ** ** 0   71   64 ****** ***** ****** *** *** ***** *****  0.00 ***** **
948820 ***** 201502160400 090   2 *** *** SCT * * * 31.2 02 ** ** ** ** ** ** ** 0   91   65 ****** ***** ****** *** *** *****  0.00 ***** ***** **
948820 ***** 201502162200 180   2 *** *** *** * * * 31.2 02 ** ** ** ** ** ** ** 0   64   58 ****** ***** ****** *** *** ***** *****  0.00 ***** **
948820 ***** 201502170400 180   9 *** *** SCT * * * 31.2 02 ** ** ** ** ** ** ** 0   85   65 ****** ***** ****** *** *** *****  0.00 ***** ***** **
948820 ***** 201502172200 ***   0 *** *** OVC * * * 31.2 02 ** ** ** ** ** ** ** 1   61   58 ****** ***** ****** *** *** ***** *****  0.00 ***** **
948820 ***** 201502180400 ***   0 *** *** OVC * * * 25.0 02 ** ** ** ** ** ** ** 6   69   61 ****** ***** ****** *** *** *****  0.01 ***** ***** **
948820 ***** 201502182200 ***   0 *** *** OVC * * *  6.2 02 ** ** ** ** ** ** ** 6   63   61 ****** ***** ****** *** *** ***** *****  0.09 ***** **
948820 ***** 201502190400 360   2 *** *** SCT * * * 31.2 02 ** ** ** ** ** ** ** 1   85   63 ****** ***** ****** *** *** *****  0.00 ***** ***** **
948820 ***** 201502192200 090   2 *** *** *** * * * 31.2 02 ** ** ** ** ** ** ** 0   67   60 ****** ***** ****** *** *** ***** *****  0.00 ***** **
948820 ***** 201502200400 130   5 *** *** SCT * * * 31.2 02 ** ** ** ** ** ** ** 0   92   58 ****** ***** ****** *** *** *****  0.00 ***** ***** **
948820 ***** 201502202200 ***   0 *** *** *** * * * 31.2 02 ** ** ** ** ** ** ** 0   70   62 ****** ***** ****** *** *** ***** *****  0.00 ***** **
948820 ***** 201502210400 180   5 *** *** SCT * * * 31.2 02 ** ** ** ** ** ** ** 0   93   62 ****** ***** ****** *** *** *****  0.00 ***** ***** **
948820 ***** 201502212200 090   2 *** *** SCT * * * 31.2 02 ** ** ** ** ** ** ** 0   70   62 ****** ***** ****** *** *** ***** *****  0.00 ***** **
948820 ***** 201502220400 090   5 *** *** SCT * * * 31.2 03 ** ** ** ** ** ** ** 0   92   64 ****** ***** ****** *** *** *****  0.00 ***** ***** **
948820 ***** 201502222200 ***   0 *** *** *** * * * 31.2 02 ** ** ** ** ** ** ** 1   69   63 ****** ***** ****** *** *** ***** *****  0.00 ***** **
948820 ***** 201502230400 050  14 *** *** OVC * * *  1.2 97 ** ** ** ** ** ** ** 9   69   67 ****** ***** ****** *** *** *****  0.59 ***** ***** **
948820 ***** 201502232200 090   6 *** *** BKN * * * 31.2 02 ** ** ** ** ** ** ** 6   61   49 ****** ***** ****** *** *** ***** *****  0.68 ***** **
948820 ***** 201502240400 090  15 *** *** SCT * * * 31.2 02 ** ** ** ** ** ** ** 2   73   56 ****** ***** ****** *** *** *****  0.00 ***** ***** **
948820 ***** 201502242200 090   2 *** *** BKN * * * 31.2 02 ** ** ** ** ** ** ** 2   58   54 ****** ***** ****** *** *** ***** *****  0.00 ***** **
948820 ***** 201502250400 110  10 *** *** SCT * * * 31.2 02 ** ** ** ** ** ** ** 2   81   62 ****** ***** ****** *** *** *****  0.00 ***** ***** **
948820 ***** 201502252200 090   2 *** *** OVC * * * 25.0 02 ** ** ** ** ** ** ** 2   61   59 ****** ***** ****** *** *** ***** *****  0.00 ***** **
948820 ***** 201502260400 270  10 *** *** SCT * * * 31.2 02 ** ** ** ** ** ** ** 1   82   59 ****** ***** ****** *** *** *****  0.00 ***** ***** **
948820 ***** 201502262200 270   2 *** *** *** * * * 31.2 02 ** ** ** ** ** ** ** 4   56   56 ****** ***** ****** *** *** ***** *****  0.00 ***** **
948820 ***** 201502270400 180   6 *** *** SCT * * * 31.2 02 ** ** ** ** ** ** ** 0   82   53 ****** ***** ****** *** *** *****  0.00 ***** ***** **
948820 ***** 201502280400 050   2 *** *** OVC * * * 31.2 02 ** ** ** ** ** ** ** 2   77   61 ****** ***** ****** *** *** *****  0.00 ***** ***** **
948820 ***** 201503010400 160  15 *** *** SCT * * * 31.2 01 ** ** ** ** ** ** ** 1   74   48 ****** ***** ****** *** *** *****  0.00 ***** ***** **
948820 ***** 201503012200 180   2 *** *** SCT * * * 31.2 02 ** ** ** ** ** ** ** 0   47   46 ****** ***** ****** *** *** ***** *****  0.00 ***** **
948820 ***** 201503020400 ***   0 *** *** SCT * * * 31.2 02 ** ** ** ** ** ** ** 2   77   55 ****** ***** ****** *** *** *****  0.00 ***** ***** **
948820 ***** 201503022200 ***   0 *** *** OVC * * * 25.0 03 ** ** ** ** ** ** ** 2   60   56 ****** ***** ****** *** *** ***** *****  0.00 ***** **
948820 ***** 201503030400 270   2 *** *** SCT * * * 31.2 02 ** ** ** ** ** ** ** 0   80   47 ****** ***** ****** *** *** *****  0.00 ***** ***** **
948820 ***** 201503032200 ***   0 *** *** SCT * * * 31.2 02 ** ** ** ** ** ** ** 0   50   50 ****** ***** ****** *** *** ***** *****  0.00 ***** **
948820 ***** 201503040400 270   2 *** *** *** * * * 31.2 02 ** ** ** ** ** ** ** 0   77   49 ****** ***** ****** *** *** *****  0.00 ***** ***** **
948820 ***** 201503042200 230  14 *** *** SCT * * * 31.2 02 ** ** ** ** ** ** ** 6   55   40 ****** ***** ****** *** *** ***** *****  0.02 ***** **
948820 ***** 201503050400 230   9 *** *** SCT * * * 31.2 01 ** ** ** ** ** ** ** 0   66   42 ****** ***** ****** *** *** *****  0.00 ***** ***** **
948820 ***** 201503052200 270   7 *** *** OVC * * * 18.8 03 ** ** ** ** ** ** ** 2   55   47 ****** ***** ****** *** *** ***** *****  0.00 ***** **
948820 ***** 201503060400 230   7 *** *** OVC * * * 18.8 02 ** ** ** ** ** ** ** 2   65   55 ****** ***** ****** *** *** *****  0.00 ***** ***** **
948820 ***** 201503062200 ***   0 *** *** SCT * * * 31.2 01 ** ** ** ** ** ** ** 0   55   54 ****** ***** ****** *** *** ***** *****  0.01 ***** **
948820 ***** 201503070400 230   2 *** *** OVC * * * 31.2 03 ** ** ** ** ** ** ** 2   68   53 ****** ***** ****** *** *** *****  0.00 ***** ***** **
948820 ***** 201503072200 050   2 *** *** *** * * * 31.2 01 ** ** ** ** ** ** ** 0   59   54 ****** ***** ****** *** *** ***** *****  0.00 ***** **
948820 ***** 201503080400 310  14 *** *** SCT * * * 31.2 02 ** ** ** ** ** ** ** 0   81   52 ****** ***** ****** *** *** *****  0.00 ***** ***** **
948820 ***** 201503082200 ***   0 *** *** *** * * * 31.2 02 ** ** ** ** ** ** ** 0   52   52 ****** ***** ****** *** *** ***** *****  0.00 ***** **
948820 ***** 201503090400 230   9 ***  66 BKN * * * 31.2 03 ** ** ** ** ** ** ** 2   77   55 ****** ***** ****** *** *** ***** ***** ***** ***** **
948820 ***** 201503092200 ***   0 *** *** *** * * * 31.2 02 ** ** ** ** ** ** ** 1   50   50 ****** ***** ****** *** *** ***** *****  0.00 ***** **
948820 ***** 201503100400 180   2 *** *** *** * * * 31.2 02 ** ** ** ** ** ** ** 0   79   42 ****** ***** ****** *** *** *****  0.00 ***** ***** **
948820 ***** 201503102200 050   2 *** *** *** * * * 31.2 02 ** ** ** ** ** ** ** 0   55   50 ****** ***** ****** *** *** ***** *****  0.00 ***** **
948820 ***** 201503110400 180   9 *** *** SCT * * * 31.2 02 ** ** ** ** ** ** ** 0   83   49 ****** ***** ****** *** *** *****  0.00 ***** ***** **
948820 ***** 201503112200 360   0 *** 722 CLR * * * 31.2 02 ** ** ** ** ** ** ** 0   49   47 ****** ***** ****** *** *** ***** ***** ***** ***** **
948820 ***** 201503120400 270   9 *** *** SCT * * * 31.2 02 ** ** ** ** ** ** ** 0   70   46 ****** ***** ****** *** *** ***** ***** ***** ***** **
948820 ***** 201503122200 360   0 *** 722 CLR * * * 31.2 02 ** ** ** ** ** ** ** 0   51   40 ****** ***** ****** *** *** ***** ***** ***** ***** **
948820 ***** 201503130400 180   4 *** 722 CLR * * * 31.2 02 ** ** ** ** ** ** ** 0   75   44 ****** ***** ****** *** *** ***** ***** ***** ***** **
948820 ***** 201503132200 360   0 *** 722 CLR * * * 31.2 02 ** ** ** ** ** ** ** 0   49   48 ****** ***** ****** *** *** ***** ***** ***** ***** **
948820 ***** 201503140400 270  12 *** *** SCT * * * 31.2 02 ** ** ** ** ** ** ** 0   80   42 ****** ***** ****** *** *** ***** ***** ***** ***** **
948820 ***** 201503142200 090   8 *** 722 CLR * * * 31.2 02 ** ** ** ** ** ** ** 0   54   40 ****** ***** ****** *** *** ***** ***** ***** ***** **
948820 ***** 201503150400 180   9 *** 722 CLR * * * 31.2 02 ** ** ** ** ** ** ** 0   74   42 ****** ***** ****** *** *** ***** ***** ***** ***** **
948820 ***** 201503152200 360   0 *** *** SCT * * * 31.2 02 ** ** ** ** ** ** ** 0   47   45 ****** ***** ****** *** *** ***** ***** ***** ***** **
948820 ***** 201503160400 310   4 *** *** OVC * * * 31.2 02 ** ** ** ** ** ** ** 1   74   48 ****** ***** ****** *** *** ***** ***** ***** ***** **
948820 ***** 201503162200 050   9 *** *** OVC * * * 25.0 02 ** ** ** ** ** ** ** 6   63   49 ****** ***** ****** *** *** ***** ***** ***** ***** **
948820 ***** 201503170400 130   4 *** *** OVC * * * 25.0 02 ** ** ** ** ** ** ** 2   70   49 ****** ***** ****** *** *** ***** ***** ***** ***** **
948820 ***** 201503172200 360   9 ***  33 BKN * * * 31.2 02 ** ** ** ** ** ** ** 6   66   57 ****** ***** ****** *** *** ***** ***** ***** ***** **
948820 ***** 201503180400 310  15 ***  49 BKN * * * 31.2 02 ** ** ** ** ** ** ** 2   77   56 ****** ***** ****** *** *** ***** ***** ***** ***** **
948820 ***** 201503182200 360   0 *** *** SCT * * * 31.2 02 ** ** ** ** ** ** ** 1   62   56 ****** ***** ****** *** *** ***** ***** ***** ***** **
948820 ***** 201503190400 310  15 *** *** BKN * * * 31.2 03 ** ** ** ** ** ** ** 1   84   55 ****** ***** ****** *** *** ***** ***** ***** ***** **
948820 ***** 201503192200 160   2 *** *** SCT * * * 31.2 02 ** ** ** ** ** ** ** 9   56   48 ****** ***** ****** *** *** ***** *****  0.31 ***** **
948820 ***** 201503200400 270  19 *** *** SCT * * * 31.2 03 ** ** ** ** ** ** ** 0   69   43 ****** ***** ****** *** *** ***** ***** ***** ***** **
948820 ***** 201503202200 360   0 *** 722 CLR * * * 31.2 02 ** ** ** ** ** ** ** 0   43   42 ****** ***** ****** *** *** ***** ***** ***** ***** **
948820 ***** 201503210400 130   2 *** 722 CLR * * * 31.2 02 ** ** ** ** ** ** ** 0   74   48 ****** ***** ****** *** *** ***** ***** ***** ***** **
948820 ***** 201503212200 050   9 *** 722 CLR * * * 31.2 02 ** ** ** ** ** ** ** 0   53   49 ****** ***** ****** *** *** ***** ***** ***** ***** **
948820 ***** 201503220400 270   9 *** *** SCT * * * 31.2 02 ** ** ** ** ** ** ** 0   80   49 ****** ***** ****** *** *** ***** ***** ***** ***** **
948820 ***** 201503222200 360   9 *** *** OVC * * * 25.0 03 ** ** ** ** ** ** ** 1   73   58 ****** ***** ****** *** *** ***** ***** ***** ***** **
948820 ***** 201503230400 360   0 *** *** OVC * * * 12.5 61 ** ** ** ** ** ** ** 2   68   62 ****** ***** ****** *** *** ***** ***** ***** ***** **
948820 ***** 201503232200 230   2 ***  49 BKN * * * 25.0 03 ** ** ** ** ** ** ** 2   55   47 ****** ***** ****** *** *** ***** *****  0.04 ***** **
948820 ***** 201503240400 130   3 ***  66 BKN * * * 31.2 02 ** ** ** ** ** ** ** 2   61   40 ****** ***** ****** *** *** ***** ***** ***** ***** **
948820 ***** 201503242200 360   0 *** *** SCT * * * 31.2 02 ** ** ** ** ** ** ** 0   44   43 ****** ***** ****** *** *** ***** ***** ***** ***** **
948820 ***** 201503250400 050   7 ***  66 BKN * * * 31.2 03 ** ** ** ** ** ** ** 2   69   47 ****** ***** ****** *** *** ***** ***** ***** ***** **
948820 ***** 201503252200 270   6 *** *** SCT * * * 31.2 01 ** ** ** ** ** ** ** 0   50   43 ****** ***** ****** *** *** ***** ***** ***** ***** **
948820 ***** 201503260400 360   8 ***  49 BKN * * * 31.2 03 ** ** ** ** ** ** ** 2   59   35 ****** ***** ****** *** *** ***** ***** ***** ***** **
948820 ***** 201503262200 360   0 ***  33 OVC * * *  0.6 61 ** ** ** ** ** ** ** 6   51   48 ****** ***** ****** *** *** ***** *****  0.16 ***** **
948820 ***** 201503270400 310  13 ***  49 BKN * * * 12.5 01 ** ** ** ** ** ** ** 2   59   47 ****** ***** ****** *** *** ***** ***** ***** ***** **
948820 ***** 201503272200 360   0 *** *** SCT * * * 31.2 02 ** ** ** ** ** ** ** 0   47   46 ****** ***** ****** *** *** ***** ***** ***** ***** **
948820 ***** 201503280400 130   7 *** *** SCT * * * 31.2 03 ** ** ** ** ** ** ** 0   67   47 ****** ***** ****** *** *** ***** ***** ***** ***** **
948820 ***** 201503282200 050   2 ***   7 OVC * * *  6.2 02 ** ** ** ** ** ** ** 2   50   49 ****** ***** ****** *** *** ***** ***** ***** ***** **
948820 ***** 201503290400 160   2 *** *** SCT * * * 31.2 02 ** ** ** ** ** ** ** 0   72   49 ****** ***** ****** *** *** ***** ***** ***** ***** **
948820 ***** 201503292200 360   0 *** 722 CLR * * * 31.2 02 ** ** ** ** ** ** ** 0   46   45 ****** ***** ****** *** *** ***** ***** ***** ***** **
948820 ***** 201503300400 180   4 *** *** SCT * * * 31.2 02 ** ** ** ** ** ** ** 0   77   50 ****** ***** ****** *** *** ***** ***** ***** ***** **
948820 ***** 201503302200 360   0 *** 722 CLR * * * 31.2 02 ** ** ** ** ** ** ** 0   49   49 ****** ***** ****** *** *** ***** ***** ***** ***** **
948820 ***** 201503310400 050   8 *** 722 CLR * * * 31.2 02 ** ** ** ** ** ** ** 0   81   51 ****** ***** ****** *** *** ***** ***** ***** ***** **
948820 ***** 201503312200 050   2 *** *** SCT * * * 31.2 02 ** ** ** ** ** ** ** 0   59   52 ****** ***** ****** *** *** ***** ***** ***** ***** **
948820 ***** 201504010400 020   4 *** *** BKN * * * 31.2 02 ** ** ** ** ** ** ** 1   79   55 ****** ***** ****** *** *** ***** ***** ***** ***** **
948820 ***** 201504012200 270   8 *** *** SCT * * * 31.2 01 ** ** ** ** ** ** ** 1   56   47 ****** ***** ****** *** *** ***** ***** ***** ***** **
948820 ***** 201504020400 180   4 *** *** SCT * * * 31.2 02 ** ** ** ** ** ** ** 0   65   38 ****** ***** ****** *** *** ***** ***** ***** ***** **
948820 ***** 201504022200 360   0 *** 722 CLR * * * 31.2 02 ** ** ** ** ** ** ** 0   38   37 ****** ***** ****** *** *** ***** ***** ***** ***** **
948820 ***** 201504030400 180   2 *** 722 CLR * * * 31.2 02 ** ** ** ** ** ** ** 0   73   40 ****** ***** ****** *** *** ***** ***** ***** ***** **
948820 ***** 201504032200 360   0 *** *** SCT * * * 31.2 02 ** ** ** ** ** ** ** 1   45   42 ****** ***** ****** *** *** ***** ***** ***** ***** **
948820 ***** 201504040400 360   9 *** *** BKN * * * 31.2 02 ** ** ** ** ** ** ** 1   73   54 ****** ***** ****** *** *** ***** ***** ***** ***** **
948820 ***** 201504042300 360   0 ***  49 BKN * * * 31.2 02 ** ** ** ** ** ** ** 2   59   54 ****** ***** ****** *** *** ***** ***** ***** ***** **
948820 ***** 201504050500 310   8 *** *** BKN * * * 31.2 02 ** ** ** ** ** ** ** 2   70   46 ****** ***** ****** *** *** ***** ***** ***** ***** **
948820 ***** 201504052300 360   0 *** *** SCT * * * 31.2 02 ** ** ** ** ** ** ** 1   53   46 ****** ***** ****** *** *** ***** ***** ***** ***** **
948820 ***** 201504060500 180   2 *** *** SCT * * * 31.2 02 ** ** ** ** ** ** ** 0   65   43 ****** ***** ****** *** *** ***** ***** ***** ***** **
948820 ***** 201504062300 360   0 *** *** OVC * * *  6.2 61 ** ** ** ** ** ** ** 6   48   48 ****** ***** ****** *** *** ***** *****  0.11 ***** **
948820 ***** 201504070500 360   0 *** *** OVC * * * 18.8 02 ** ** ** ** ** ** ** 6   54   52 ****** ***** ****** *** *** ***** ***** ***** ***** **
948820 ***** 201504072300 360   0 ***  33 BKN * * * 25.0 02 ** ** ** ** ** ** ** 2   53   48 ****** ***** ****** *** *** ***** *****  0.12 ***** **
948820 ***** 201504080500 110  15 *** *** SCT * * * 31.2 01 ** ** ** ** ** ** ** 1   66   48 ****** ***** ****** *** *** ***** ***** ***** ***** **
948820 ***** 201504082300 160   2 *** *** SCT * * * 31.2 02 ** ** ** ** ** ** ** 0   51   46 ****** ***** ****** *** *** ***** ***** ***** ***** **
948820 ***** 201504090500 200   9 *** 722 CLR * * * 31.2 02 ** ** ** ** ** ** ** 0   70   43 ****** ***** ****** *** *** ***** ***** ***** ***** **
948820 ***** 201504092300 360   0 *** 722 CLR * * * 31.2 02 ** ** ** ** ** ** ** 0   47   42 ****** ***** ****** *** *** ***** ***** ***** ***** **
948820 ***** 201504100500 230   4 *** 722 CLR * * * 31.2 02 ** ** ** ** ** ** ** 0   70   45 ****** ***** ****** *** *** ***** ***** ***** ***** **
948820 ***** 201504102300 360   0 *** *** BKN * * *  9.4 01 ** ** ** ** ** ** ** 1   45   45 ****** ***** ****** *** *** ***** ***** ***** ***** **
948820 ***** 201504110500 230   2 *** *** SCT * * * 31.2 02 ** ** ** ** ** ** ** 1   70   49 ****** ***** ****** *** *** ***** ***** ***** ***** **
948820 ***** 201504112300 230   2 *** *** SCT * * * 31.2 02 ** ** ** ** ** ** ** 0   55   51 ****** ***** ****** *** *** ***** ***** ***** ***** **
948820 ***** 201504120500 230  10 *** *** SCT * * * 31.2 02 ** ** ** ** ** ** ** 0   72   48 ****** ***** ****** *** *** ***** ***** ***** ***** **
948820 ***** 201504122300 360   0 *** *** *** * * *  0.1 45 ** ** ** ** ** ** ** 4   42   41 ****** ***** ****** *** *** ***** ***** ***** ***** **
948820 ***** 201504130500 180   2 *** 722 CLR * * * 31.2 02 ** ** ** ** ** ** ** 4   74   44 ****** ***** ****** *** *** ***** ***** ***** ***** **
948820 ***** 201504142300 050   2 *** *** BKN * * *  6.2 01 ** ** ** ** ** ** ** 9   59   57 ****** ***** ****** *** *** ***** *****  0.35 ***** **
948820 ***** 201504150500 360   0 *** *** SCT * * * 31.2 01 ** ** ** ** ** ** ** 0   76   61 ****** ***** ****** *** *** *****  0.02 ***** ***** **
948820 ***** 201504152300 360   0 *** *** BKN * * * 31.2 01 ** ** ** ** ** ** ** 1   54   54 ****** ***** ****** *** *** ***** *****  0.02 ***** **
948820 ***** 201504160500 230   2 *** *** BKN * * * 31.2 03 ** ** ** ** ** ** ** 2   71   53 ****** ***** ****** *** *** ***** ***** ***** ***** **
948820 ***** 201504162300 360   0 *** *** OVC * * * 31.2 02 ** ** ** ** ** ** ** 2   50   49 ****** ***** ****** *** *** ***** ***** ***** ***** **
948820 ***** 201504170500 360   2 ***  49 OVC * * * 31.2 02 ** ** ** ** ** ** ** 2   64   52 ****** ***** ****** *** *** ***** ***** ***** ***** **
948820 ***** 201504172300 360   0 ***   3 OVC * * *  0.6 61 ** ** ** ** ** ** ** 6   60   59 ****** ***** ****** *** *** ***** *****  0.94 ***** **
948820 ***** 201504180500 360  23 ***  49 BKN * * * 25.0 01 ** ** ** ** ** ** ** 2   66   55 ****** ***** ****** *** *** *****  0.01 ***** ***** **
948820 ***** 201504182300 230   2 ***  49 BKN * * * 31.2 03 ** ** ** ** ** ** ** 6   50   44 ****** ***** ****** *** *** ***** *****  0.02 ***** **
948820 ***** 201504190500 230   5 *** *** SCT * * * 31.2 03 ** ** ** ** ** ** ** 6   56   39 ****** ***** ****** *** *** *****  0.02 ***** ***** **
948820 ***** 201504192300 050  14 *** 722 CLR * * * 31.2 01 ** ** ** ** ** ** ** 2   50   38 ****** ***** ****** *** *** ***** *****  0.02 ***** **
948820 ***** 201504200500 130  11 *** *** SCT * * * 31.2 02 ** ** ** ** ** ** ** 0   60   38 ****** ***** ****** *** *** ***** ***** ***** ***** **
948820 ***** 201504202300 230   5 *** *** SCT * * * 31.2 02 ** ** ** ** ** ** ** 0   46   39 ****** ***** ****** *** *** ***** ***** ***** ***** **
948820 ***** 201504210500 090  10 *** 722 CLR * * * 31.2 02 ** ** ** ** ** ** ** 0   66   40 ****** ***** ****** *** *** ***** ***** ***** ***** **
948820 ***** 201504212300 360   0 *** *** SCT * * * 31.2 02 ** ** ** ** ** ** ** 0   47   44 ****** ***** ****** *** *** ***** ***** ***** ***** **
948820 ***** 201504220500 130   5 ***  49 BKN * * * 31.2 02 ** ** ** ** ** ** ** 1   67   54 ****** ***** ****** *** *** ***** ***** ***** ***** **
948820 ***** 201504222300 360   0 *** *** SCT * * * 31.2 02 ** ** ** ** ** ** ** 1   53   50 ****** ***** ****** *** *** ***** ***** ***** ***** **
948820 ***** 201504230500 180   2 *** *** SCT * * * 31.2 02 ** ** ** ** ** ** ** 0   75   57 ****** ***** ****** *** *** ***** ***** ***** ***** **
948820 ***** 201504232300 360   0 *** *** OVC * * * 12.5 02 ** ** ** ** ** ** ** 6   58   58 ****** ***** ****** *** *** ***** *****  0.08 ***** **
948820 ***** 201504240500 360   0 ***  33 BKN * * * 31.2 02 ** ** ** ** ** ** ** 2   66   54 ****** ***** ****** *** *** ***** ***** ***** ***** **
948820 ***** 201504242300 360   0 *** *** OVC * * *  3.1 62 ** ** ** ** ** ** ** 6   52   51 ****** ***** ****** *** *** ***** *****  0.31 ***** **
948820 ***** 201504250500 360   0 *** *** BKN * * * 12.5 02 ** ** ** ** ** ** ** 6   61   52 ****** ***** ****** *** *** *****  0.02 ***** ***** **
948820 ***** 201504252300 360   0 ***  33 BKN * * * 18.8 02 ** ** ** ** ** ** ** 6   53   46 ****** ***** ****** *** *** ***** *****  0.03 ***** **
948820 ***** 201504260500 270   5 ***  33 BKN * * * 31.2 02 ** ** ** ** ** ** ** 1   59   46 ****** ***** ****** *** *** ***** ***** ***** ***** **
948820 ***** 201504262300 360   0 ***  33 BKN * * * 18.8 02 ** ** ** ** ** ** ** 6   51   49 ****** ***** ****** *** *** ***** *****  0.02 ***** **
948820 ***** 201504270500 230   9 ***  33 BKN * * * 25.0 02 ** ** ** ** ** ** ** 1   56   46 ****** ***** ****** *** *** ***** ***** ***** ***** **
948820 ***** 201504272300 360   0 ***  33 BKN * * * 25.0 02 ** ** ** ** ** ** ** 2   45   44 ****** ***** ****** *** *** ***** ***** ***** ***** **
948820 ***** 201504280500 180   2 *** *** SCT * * * 31.2 02 ** ** ** ** ** ** ** 1   62   46 ****** ***** ****** *** *** ***** ***** ***** ***** **
948820 ***** 201504282300 360   0 *** *** SCT * * * 12.5 41 ** ** ** ** ** ** ** 4   40   40 ****** ***** ****** *** *** ***** ***** ***** ***** **
948820 ***** 201504290500 180   2 *** *** SCT * * * 31.2 02 ** ** ** ** ** ** ** 0   64   41 ****** ***** ****** *** *** ***** ***** ***** ***** **
948820 ***** 201504292300 360   0 *** *** SCT * * * 25.0 02 ** ** ** ** ** ** ** 4   43   43 ****** ***** ****** *** *** ***** ***** ***** ***** **
948820 ***** 201504300500 230   2 *** *** SCT * * * 31.2 02 ** ** ** ** ** ** ** 0   68   50 ****** ***** ****** *** *** ***** ***** ***** ***** **
948820 ***** 201504302300 340   2 *** *** SCT * * * 31.2 02 ** ** ** ** ** ** ** 0   46   45 ****** ***** ****** *** *** ***** ***** ***** ***** **
948820 ***** 201505010500 360   0 *** *** SCT * * * 31.2 02 ** ** ** ** ** ** ** 0   71   51 ****** ***** ****** *** *** ***** ***** ***** ***** **
948820 ***** 201505020500 360   0 ***  33 BKN * * * 31.2 03 ** ** ** ** ** ** ** 2   68   56 ****** ***** ****** *** *** ***** ***** ***** ***** **
948820 ***** 201505022300 360   0 *** *** *** * * *  0.2 45 ** ** ** ** ** ** ** 4   50   50 ****** ***** ****** *** *** ***** ***** ***** ***** **
948820 ***** 201505030500 180   2 *** 722 CLR * * * 31.2 02 ** ** ** ** ** ** ** 4   69   49 ****** ***** ****** *** *** ***** ***** ***** ***** **
948820 ***** 201505032300 360   0 *** *** *** * * *  0.3 45 ** ** ** ** ** ** ** 4   48   47 ****** ***** ****** *** *** ***** ***** ***** ***** **
948820 ***** 201505040500 270   2 *** *** SCT * * * 31.2 02 ** ** ** ** ** ** ** 4   70   46 ****** ***** ****** *** *** ***** ***** ***** ***** **
948820 ***** 201505042300 360   0 ***  49 OVC * * *  0.6 60 ** ** ** ** ** ** ** 6   57   50 ****** ***** ****** *** *** ***** *****  0.02 ***** **
948820 ***** 201505050500 270   9 ***  49 OVC * * *  6.2 60 ** ** ** ** ** ** ** 2   53   46 ****** ***** ****** *** *** *****  0.16 ***** ***** **
948820 ***** 201505052300 360   5 *** *** SCT * * * 25.0 01 ** ** ** ** ** ** ** 0   49   42 ****** ***** ****** *** *** ***** *****  0.28 ***** **
948820 ***** 201505060500 360   0 ***  49 OVC * * * 25.0 03 ** ** ** ** ** ** ** 2   55   46 ****** ***** ****** *** *** ***** ***** ***** ***** **
948820 ***** 201505062300 310   5 ***  20 OVC * * * 18.8 03 ** ** ** ** ** ** ** 6   49   41 ****** ***** ****** *** *** ***** *****  0.16 ***** **
948820 ***** 201505070500 270   9 ***  33 BKN * * * 25.0 03 ** ** ** ** ** ** ** 2   56   44 ****** ***** ****** *** *** *****  0.01 ***** ***** **
948820 ***** 201505072300 360   0 ***   3 OVC * * *  0.6 51 ** ** ** ** ** ** ** 6   48   47 ****** ***** ****** *** *** ***** *****  0.08 ***** **
948820 ***** 201505080500 360   0 ***  33 OVC * * * 12.5 02 ** ** ** ** ** ** ** 5   53   46 ****** ***** ****** *** *** *****  0.02 ***** ***** **
948820 ***** 201505082300 250  10 ***  20 OVC * * * 18.8 02 ** ** ** ** ** ** ** 6   53   45 ****** ***** ****** *** *** ***** *****  0.04 ***** **
948820 ***** 201505090500 360   0 ***  33 OVC * * * 18.8 02 ** ** ** ** ** ** ** 6   57   50 ****** ***** ****** *** *** *****  0.01 ***** ***** **
948820 ***** 201505092300 360  21 ***  10 OVC * * *  0.6 61 ** ** ** ** ** ** ** 6   52   49 ****** ***** ****** *** *** ***** *****  0.31 ***** **
948820 ***** 201505100500 270  16 ***  33 BKN * * *  6.2 02 ** ** ** ** ** ** ** 6   57   47 ****** ***** ****** *** *** *****  0.20 ***** ***** **
948820 ***** 201505102300 230  25 *** *** SCT * * * 25.0 02 ** ** ** ** ** ** ** 5   54   48 ****** ***** ****** *** *** ***** *****  0.55 ***** **
948820 ***** 201505110500 180  21 ***  33 BKN * * * 25.0 01 ** ** ** ** ** ** ** 5   57   48 ****** ***** ****** *** *** *****  0.01 ***** ***** **
948820 ***** 201505112300 310   9 ***  20 BKN * * * 12.5 01 ** ** ** ** ** ** ** 5   55   49 ****** ***** ****** *** *** ***** *****  0.03 ***** **
948820 ***** 201505120500 270  14 ***  49 BKN * * * 25.0 02 ** ** ** ** ** ** ** 2   56   44 ****** ***** ****** *** *** ***** ***** ***** ***** **
948820 ***** 201505122300 360   0 ***   3 OVC * * *  1.2 50 ** ** ** ** ** ** ** 6   40   39 ****** ***** ****** *** *** ***** *****  0.12 ***** **
948820 ***** 201505130500 230   5 *** *** SCT * * * 18.8 02 ** ** ** ** ** ** ** 5   49   40 ****** ***** ****** *** *** *****  0.02 ***** ***** **
948820 ***** 201505132300 310   2 ***  10 OVC * * *  6.2 53 ** ** ** ** ** ** ** 6   47   46 ****** ***** ****** *** *** ***** *****  0.12 ***** **
948820 ***** 201505140500 230  11 ***  20 BKN * * * 18.8 01 ** ** ** ** ** ** ** 1   56   49 ****** ***** ****** *** *** ***** ***** ***** ***** **
948820 ***** 201505142300 360   0 ***   0 BKN * * *  0.3 42 ** ** ** ** ** ** ** 4   44   43 ****** ***** ****** *** *** ***** ***** ***** ***** **
948820 ***** 201505150500 270   2 *** *** SCT * * * 31.2 02 ** ** ** ** ** ** ** 1   63   50 ****** ***** ****** *** *** ***** ***** ***** ***** **
948820 ***** 201505152300 360   0 ***   0 BKN * * *  0.1 42 ** ** ** ** ** ** ** 4   38   38 ****** ***** ****** *** *** ***** ***** ***** ***** **
948820 ***** 201505160500 360   0 *** *** SCT * * * 31.2 02 ** ** ** ** ** ** ** 1   63   50 ****** ***** ****** *** *** ***** ***** ***** ***** **
948820 ***** 201505162300 360   0 ***   3 BKN * * *  0.6 42 ** ** ** ** ** ** ** 4   45   44 ****** ***** ****** *** *** ***** ***** ***** ***** **
948820 ***** 201505170500 360   0 *** 722 CLR * * * 31.2 02 ** ** ** ** ** ** ** 1   64   48 ****** ***** ****** *** *** ***** ***** ***** ***** **
948820 ***** 201505172300 360   0 ***   3 BKN * * *  0.6 42 ** ** ** ** ** ** ** 4   43   42 ****** ***** ****** *** *** ***** ***** ***** ***** **
948820 ***** 201505180500 360   0 *** 722 CLR * * * 31.2 02 ** ** ** ** ** ** ** 1   63   51 ****** ***** ****** *** *** ***** ***** ***** ***** **
948820 ***** 201505182300 020  10 *** *** BKN * * * 25.0 02 ** ** ** ** ** ** ** 1   56   49 ****** ***** ****** *** *** ***** *****  0.01 ***** **
948820 ***** 201505190500 360   0 ***  20 OVC * * * 18.8 02 ** ** ** ** ** ** ** 6   57   56 ****** ***** ****** *** *** *****  0.08 ***** ***** **
948820 ***** 201505192300 360   0 ***  10 BKN * * * 12.5 02 ** ** ** ** ** ** ** 6   55   54 ****** ***** ****** *** *** ***** *****  0.24 ***** **
948820 ***** 201505200500 360  10 ***  33 BKN * * * 25.0 01 ** ** ** ** ** ** ** 2   60   49 ****** ***** ****** *** *** *****  0.01 ***** ***** **
948820 ***** 201505202300 360   0 *** *** BKN * * * 18.8 02 ** ** ** ** ** ** ** 6   47   46 ****** ***** ****** *** *** ***** *****  0.12 ***** **
948820 ***** 201505210500 360   0 *** *** OVC * * * 25.0 02 ** ** ** ** ** ** ** 2   57   48 ****** ***** ****** *** *** ***** ***** ***** ***** **
948820 ***** 201505212300 090   9 *** 722 CLR * * * 31.2 02 ** ** ** ** ** ** ** 1   50   43 ****** ***** ****** *** *** ***** ***** ***** ***** **
948820 ***** 201505220500 360   0 *** 722 CLR * * * 31.2 02 ** ** ** ** ** ** ** 0   59   44 ****** ***** ****** *** *** ***** ***** ***** ***** **
948820 ***** 201505222300 360   0 *** *** *** * * *  0.6 43 ** ** ** ** ** ** ** 4   35   34 ****** ***** ****** *** *** ***** ***** ***** ***** **
948820 ***** 201505230500 360   0 *** 722 CLR * * * 31.2 02 ** ** ** ** ** ** ** 0   58   44 ****** ***** ****** *** *** ***** ***** ***** ***** **
948820 ***** 201505232300 360   0 ***   0 OVC * * *  0.3 42 ** ** ** ** ** ** ** 4   33   32 ****** ***** ****** *** *** ***** ***** ***** ***** **
948820 ***** 201505240500 360   0 *** *** BKN * * * 31.2 02 ** ** ** ** ** ** ** 1   55   43 ****** ***** ****** *** *** ***** ***** ***** ***** **
948820 ***** 201505242300 070   2 *** *** BKN * * * 25.0 03 ** ** ** ** ** ** ** 2   42   40 ****** ***** ****** *** *** ***** *****  0.02 ***** **
948820 ***** 201505250500 360   0 *** *** BKN * * * 31.2 01 ** ** ** ** ** ** ** 2   55   42 ****** ***** ****** *** *** ***** ***** ***** ***** **
948820 ***** 201505252300 360   0 ***   0 OVC * * *  0.1 44 ** ** ** ** ** ** ** 4   34   33 ****** ***** ****** *** *** ***** *****  0.01 ***** **
948820 ***** 201505260500 360   0 *** *** OVC * * * 18.8 03 ** ** ** ** ** ** ** 2   55   45 ****** ***** ****** *** *** ***** ***** ***** ***** **
948820 ***** 201505262300 360   0 ***  33 OVC * * * 18.8 03 ** ** ** ** ** ** ** 2   50   46 ****** ***** ****** *** *** ***** ***** ***** ***** **
948820 ***** 201505270500 360   0 *** *** BKN * * * 18.8 02 ** ** ** ** ** ** ** 2   60   50 ****** ***** ****** *** *** ***** ***** ***** ***** **
948820 ***** 201505272300 360   0 *** *** SCT * * * 31.2 01 ** ** ** ** ** ** ** 8   49   49 ****** ***** ****** *** *** ***** *****  0.04 ***** **
948820 ***** 201505280500 360   0 ***  20 OVC * * * 18.8 03 ** ** ** ** ** ** ** 8   59   56 ****** ***** ****** *** *** *****  0.08 ***** ***** **
948820 ***** 201505282300 360   0 *** *** SCT * * * 31.2 01 ** ** ** ** ** ** ** 8   44   42 ****** ***** ****** *** *** ***** *****  0.12 ***** **
948820 ***** 201505290500 360   0 ***  49 BKN * * * 18.8 03 ** ** ** ** ** ** ** 1   54   46 ****** ***** ****** *** *** ***** ***** ***** ***** **
948820 ***** 201505292300 360   0 ***  20 OVC * * * 18.8 03 ** ** ** ** ** ** ** 2   49   47 ****** ***** ****** *** *** ***** ***** ***** ***** **
948820 ***** 201505300500 310   9 ***  33 BKN * * * 18.8 03 ** ** ** ** ** ** ** 2   56   43 ****** ***** ****** *** *** ***** ***** ***** ***** **
948820 ***** 201505302300 270   7 ***  10 OVC * * *  3.8 50 ** ** ** ** ** ** ** 5   50   48 ****** ***** ****** *** *** ***** *****  0.02 ***** **
948820 ***** 201505310500 310   9 ***  10 OVC * * *  6.2 02 ** ** ** ** ** ** ** 8   53   50 ****** ***** ****** *** *** *****  0.04 ***** ***** **
948820 ***** 201505312300 360   0 ***   7 BKN * * *  6.2 50 ** ** ** ** ** ** ** 6   39   38 ****** ***** ****** *** *** ***** *****  0.39 ***** **
948820 ***** 201506010500 180  18 ***  33 BKN * * *  6.2 01 ** ** ** ** ** ** ** 5   49   38 ****** ***** ****** *** *** *****  0.01 ***** ***** **
948820 ***** 201506012300 360   0 ***   3 BKN * * * 12.5 02 ** ** ** ** ** ** ** 1   39   38 ****** ***** ****** *** *** ***** *****  0.01 ***** **
948820 ***** 201506020500 090   5 ***  33 BKN * * * 18.8 02 ** ** ** ** ** ** ** 2   51   40 ****** ***** ****** *** *** ***** ***** ***** ***** **
948820 ***** 201506022300 360   0 *** *** *** * * *  0.6 43 ** ** ** ** ** ** ** 4   32   32 ****** ***** ****** *** *** ***** ***** ***** ***** **
948820 ***** 201506030500 360   0 *** *** SCT * * * 31.2 02 ** ** ** ** ** ** ** 1   48   42 ****** ***** ****** *** *** ***** ***** ***** ***** **
948820 ***** 201506032300 360   0 ***  20 OVC * * * 12.5 02 ** ** ** ** ** ** ** 1   41   40 ****** ***** ****** *** *** ***** ***** ***** ***** **
948820 ***** 201506040500 050   2 ***  20 OVC * * * 18.8 02 ** ** ** ** ** ** ** 2   47   37 ****** ***** ****** *** *** ***** ***** ***** ***** **
948820 ***** 201506042300 360   0 *** 722 CLR * * * 31.2 02 ** ** ** ** ** ** ** 6   40   39 ****** ***** ****** *** *** ***** *****  0.16 ***** **
948820 ***** 201506050500 270   5 *** *** SCT * * * 31.2 02 ** ** ** ** ** ** ** 0   52   44 ****** ***** ****** *** *** ***** ***** ***** ***** **
948820 ***** 201506052300 090   2 ***  20 BKN * * * 18.8 02 ** ** ** ** ** ** ** 1   43   41 ****** ***** ****** *** *** ***** ***** ***** ***** **
948820 ***** 201506060500 360   0 ***  20 OVC * * * 12.5 02 ** ** ** ** ** ** ** 2   52   51 ****** ***** ****** *** *** ***** ***** ***** ***** **
948820 ***** 201506062300 360   0 ***   3 OVC * * * 12.5 02 ** ** ** ** ** ** ** 2   49   47 ****** ***** ****** *** *** ***** ***** ***** ***** **
948820 ***** 201506070500 360   5 ***  20 OVC * * * 12.5 02 ** ** ** ** ** ** ** 2   52   45 ****** ***** ****** *** *** ***** ***** ***** ***** **
948820 ***** 201506072300 360   0 *** *** BKN * * * 31.2 02 ** ** ** ** ** ** ** 2   47   46 ****** ***** ****** *** *** ***** ***** ***** ***** **
948820 ***** 201506080500 360   0 ***  20 OVC * * * 31.2 02 ** ** ** ** ** ** ** 2   57   48 ****** ***** ****** *** *** ***** ***** ***** ***** **
948820 ***** 201506082300 360   0 *** *** BKN * * * 18.8 01 ** ** ** ** ** ** ** 6   48   46 ****** ***** ****** *** *** ***** *****  0.08 ***** **
948820 ***** 201506090500 230   6 ***  33 BKN * * * 31.2 02 ** ** ** ** ** ** ** 2   54   40 ****** ***** ****** *** *** ***** ***** ***** ***** **
948820 ***** 201506092300 360   0 *** 722 CLR * * *  0.1 44 ** ** ** ** ** ** ** 6   39   38 ****** ***** ****** *** *** ***** *****  0.03 ***** **
948820 ***** 201506100500 090  10 *** *** SCT * * * 31.2 02 ** ** ** ** ** ** ** 0   55   40 ****** ***** ****** *** *** ***** ***** ***** ***** **
948820 ***** 201506102300 360   0 *** *** *** * * *  0.1 45 ** ** ** ** ** ** ** 4   33   33 ****** ***** ****** *** *** ***** *****  0.01 ***** **
948820 ***** 201506110500 360   0 *** 722 CLR * * * 31.2 02 ** ** ** ** ** ** ** 4   57   43 ****** ***** ****** *** *** ***** ***** ***** ***** **
948820 ***** 201506112300 360   0 ***   3 OVC * * *  9.4 02 ** ** ** ** ** ** ** 1   39   39 ****** ***** ****** *** *** ***** *****  0.01 ***** **
948820 ***** 201506120500 360   0 *** *** SCT * * * 31.2 02 ** ** ** ** ** ** ** 1   53   44 ****** ***** ****** *** *** ***** ***** ***** ***** **
948820 ***** 201506122300 360   0 ***   3 OVC * * *  9.4 02 ** ** ** ** ** ** ** 1   40   39 ****** ***** ****** *** *** ***** *****  0.01 ***** **
948820 ***** 201506130500 360   0 *** *** SCT * * * 31.2 02 ** ** ** ** ** ** ** 1   52   46 ****** ***** ****** *** *** ***** ***** ***** ***** **
948820 ***** 201506132300 360   0 ***   3 BKN * * * 12.5 02 ** ** ** ** ** ** ** 1   42   41 ****** ***** ****** *** *** ***** *****  0.01 ***** **
948820 ***** 201506140500 360   0 *** *** BKN * * * 31.2 03 ** ** ** ** ** ** ** 1   56   49 ****** ***** ****** *** *** ***** ***** ***** ***** **
948820 ***** 201506142300 050   3 *** *** BKN * * * 31.2 02 ** ** ** ** ** ** ** 2   45   42 ****** ***** ****** *** *** ***** ***** ***** ***** **
948820 ***** 201506150500 360   0 *** *** OVC * * * 25.0 02 ** ** ** ** ** ** ** 2   56   50 ****** ***** ****** *** *** ***** ***** ***** ***** **
948820 ***** 201506152300 360   0 ***  33 OVC * * * 18.8 02 ** ** ** ** ** ** ** 6   52   51 ****** ***** ****** *** *** ***** *****  0.16 ***** **
948820 ***** 201506160500 360   0 ***  10 OVC * * *  6.2 61 ** ** ** ** ** ** ** 6   57   55 ****** ***** ****** *** *** *****  0.03 ***** ***** **
948820 ***** 201506162300 360   0 ***   0 OVC * * *  0.6 42 ** ** ** ** ** ** ** 5   50   50 ****** ***** ****** *** *** ***** *****  0.08 ***** **
948820 ***** 201506170500 090   2 *** *** BKN * * * 25.0 01 ** ** ** ** ** ** ** 2   57   49 ****** ***** ****** *** *** ***** ***** ***** ***** **
948820 ***** 201506172300 360   0 *** *** OVC * * * 18.8 03 ** ** ** ** ** ** ** 2   50   46 ****** ***** ****** *** *** ***** ***** ***** ***** **
948820 ***** 201506182300 ***   0 *** *** SCT * * *  0.6 42 ** ** ** ** ** ** ** 4   35   34 ****** ***** ****** *** *** ***** *****  0.00 ***** **
948820 ***** 201506190500 130   9 *** *** SCT * * * 31.2 03 ** ** ** ** ** ** ** 0   52   33 ****** ***** ****** *** *** *****  0.00 ***** ***** **
948820 ***** 201506192300 ***   0 *** *** SCT * * *  0.6 42 ** ** ** ** ** ** ** 4   33   31 ****** ***** ****** *** *** ***** *****  0.00 ***** **
948820 ***** 201506202300 360   0 ***   0 BKN * * *  0.1 42 ** ** ** ** ** ** ** 4   30   29 ****** ***** ****** *** *** ***** ***** ***** ***** **
948820 ***** 201506210500 230   2 *** *** SCT * * * 31.2 02 ** ** ** ** ** ** ** 0   49   40 ****** ***** ****** *** *** *****  0.00 ***** ***** **
948820 ***** 201506212300 ***   0 *** *** SCT * * * 25.0 01 ** ** ** ** ** ** ** 4   38   37 ****** ***** ****** *** *** ***** *****  0.01 ***** **
948820 ***** 201506220500 360   7 *** *** BKN * * * 25.0 03 ** ** ** ** ** ** ** 1   50   43 ****** ***** ****** *** *** *****  0.00 ***** ***** **
948820 ***** 201506222300 ***   0 *** *** BKN * * * 31.2 02 ** ** ** ** ** ** ** 2   48   43 ****** ***** ****** *** *** ***** *****  0.00 ***** **
948820 ***** 201506230500 360   5 *** *** SCT * * * 31.2 02 ** ** ** ** ** ** ** 1   61   44 ****** ***** ****** *** *** *****  0.00 ***** ***** **
948820 ***** 201506232300 360   0 ***  20 OVC * * * 18.8 02 ** ** ** ** ** ** ** 1   54   53 ****** ***** ****** *** *** ***** ***** ***** ***** **
948820 ***** 201506240500 ***   0 *** *** BKN * * * 25.0 02 ** ** ** ** ** ** ** 2   57   52 ****** ***** ****** *** *** *****  0.00 ***** ***** **
948820 ***** 201506242300 ***   0 *** *** BKN * * *  0.1 46 ** ** ** ** ** ** ** 1   37   37 ****** ***** ****** *** *** ***** *****  0.00 ***** **
948820 ***** 201506250500 230   5 *** *** SCT * * * 31.2 02 ** ** ** ** ** ** ** 1   55   41 ****** ***** ****** *** *** ***** ***** ***** ***** **
948820 ***** 201506252300 360   0 *** *** *** * * *  0.1 47 ** ** ** ** ** ** ** 1   41   40 ****** ***** ****** *** *** ***** ***** ***** ***** **
948820 ***** 201506260500 230   2 *** *** SCT * * * 31.2 02 ** ** ** ** ** ** ** 0   58   44 ****** ***** ****** *** *** ***** ***** ***** ***** **
948820 ***** 201506262300 360   0 ***  20 OVC * * * 25.0 02 ** ** ** ** ** ** ** 1   46   43 ****** ***** ****** *** *** ***** ***** ***** ***** **
948820 ***** 201506270500 ***   0 *** *** OVC * * * 25.0 02 ** ** ** ** ** ** ** 2   51   42 ****** ***** ****** *** *** *****  0.00 ***** ***** **
948820 ***** 201506272300 360   0 *** *** SCT * * * 31.2 02 ** ** ** ** ** ** ** 1   45   42 ****** ***** ****** *** *** ***** ***** ***** ***** **
948820 ***** 201506280500 230   5 *** *** SCT * * * 31.2 02 ** ** ** ** ** ** ** 1   55   44 ****** ***** ****** *** *** *****  0.00 ***** ***** **
948820 ***** 201506282300 ***   0 ***   1 OBS * * *  0.1 47 ** ** ** ** ** ** ** 1   38   37 ****** ***** ****** *** *** ***** *****  0.00 ***** **
948820 ***** 201506290500 200   2 *** *** *** * * * 31.2 02 ** ** ** ** ** ** ** 4   51   43 ****** ***** ****** *** *** *****  0.00 ***** ***** **
948820 ***** 201506292300 ***   0 ***   2 OBS * * *  0.1 45 ** ** ** ** ** ** ** 4   39   38 ****** ***** ****** *** *** ***** *****  0.00 ***** **
948820 ***** 201506300500 230   2 *** *** BKN * * * 12.5 02 ** ** ** ** ** ** ** 2   44   41 ****** ***** ****** *** *** *****  0.00 ***** ***** **
948820 ***** 201506302300 360   0 ***   2 OVC * * *  6.2 02 ** ** ** ** ** ** ** 2   42   42 ****** ***** ****** *** *** ***** ***** ***** ***** **
948820 ***** 201507012300 230   6 *** *** SCT * * * 18.8 03 ** ** ** ** ** ** ** 6   45   43 ****** ***** ****** *** *** ***** *****  0.10 ***** **
948820 ***** 201507022300 360   0 *** *** *** * * *  0.2 45 ** ** ** ** ** ** ** 4   37   36 ****** ***** ****** *** *** ***** *****  0.12 ***** **
948820 ***** 201507032300 ***   0 *** *** OVC * * * 18.8 02 ** ** ** ** ** ** ** 2   41   39 ****** ***** ****** *** *** ***** *****  0.00 ***** **
948820 ***** 201507042300 ***   0 *** *** OVC * * * 18.8 02 ** ** ** ** ** ** ** 5   43   42 ****** ***** ****** *** *** ***** *****  0.02 ***** **
948820 ***** 201507052300 ***   0 *** *** OVC * * * 18.8 02 ** ** ** ** ** ** ** 2   43   42 ****** ***** ****** *** *** ***** *****  0.00 ***** **
948820 ***** 201507072300 360   0 *** *** SCT * * * 31.2 02 ** ** ** ** ** ** ** 0   38   36 ****** ***** ****** *** *** ***** ***** ***** ***** **
948820 ***** 201507082300 360   0 ***  33 OVC * * * 31.2 03 ** ** ** ** ** ** ** 2   42   39 ****** ***** ****** *** *** ***** ***** ***** ***** **
948820 ***** 201507092300 360   0 *** *** SCT * * * 25.0 01 ** ** ** ** ** ** ** 6   44   43 ****** ***** ****** *** *** ***** *****  0.20 ***** **
948820 ***** 201507102300 360  17 ***  20 OVC * * *  0.5 80 ** ** ** ** ** ** ** 6   52   44 ****** ***** ****** *** *** ***** *****  0.24 ***** **
948820 ***** 201507112300 360   0 *** *** *** * * *  0.5 45 ** ** ** ** ** ** ** 9   37   37 ****** ***** ****** *** *** ***** *****  0.20 ***** **
948820 ***** 201507122300 270  17 ***  33 BKN * * * 18.8 03 ** ** ** ** ** ** ** 6   49   42 ****** ***** ****** *** *** ***** *****  0.08 ***** **
948820 ***** 201507142300 360   0 ***  20 BKN * * * 18.8 01 ** ** ** ** ** ** ** 6   40   38 ****** ***** ****** *** *** ***** *****  0.35 ***** **
948820 ***** 201507152300 180   2 *** *** SCT * * * 31.2 02 ** ** ** ** ** ** ** 1   37   37 ****** ***** ****** *** *** ***** ***** ***** ***** **
948820 ***** 201507162300 360   0 ***  20 BKN * * * 25.0 02 ** ** ** ** ** ** ** 1   37   35 ****** ***** ****** *** *** ***** ***** ***** ***** **
948820 ***** 201507172300 360   0 *** 722 CLR * * * 31.2 02 ** ** ** ** ** ** ** 1   33   31 ****** ***** ****** *** *** ***** ***** ***** ***** **
948820 ***** 201507182300 090   2 *** *** *** * * *  0.1 43 ** ** ** ** ** ** ** 4   34   34 ****** ***** ****** *** *** ***** ***** ***** ***** **
948820 ***** 201507192300 090   2 *** *** *** * * *  0.3 43 ** ** ** ** ** ** ** 4   35   34 ****** ***** ****** *** *** ***** ***** ***** ***** **
948820 ***** 201507202300 230   2 ***  33 BKN * * * 25.0 03 ** ** ** ** ** ** ** 1   46   41 ****** ***** ****** *** *** ***** ***** ***** ***** **
948820 ***** 201507212300 020   8 ***  20 OVC * * *  6.2 03 ** ** ** ** ** ** ** 6   52   46 ****** ***** ****** *** *** ***** *****  0.28 ***** **
948820 ***** 201507222300 360   0 *** *** SCT * * *  0.6 42 ** ** ** ** ** ** ** 6   46   45 ****** ***** ****** *** *** ***** *****  0.24 ***** **
948820 ***** 201507232300 230   6 ***  20 OVC * * *  6.2 60 ** ** ** ** ** ** ** 2   48   45 ****** ***** ****** *** *** ***** *****  0.08 ***** **
948820 ***** 201507242300 310   8 ***  20 BKN * * * 18.8 01 ** ** ** ** ** ** ** 6   46   41 ****** ***** ****** *** *** ***** *****  0.35 ***** **
948820 ***** 201507252300 250  17 *** *** SCT * * * 25.0 01 ** ** ** ** ** ** ** 6   47   35 ****** ***** ****** *** *** ***** *****  0.08 ***** **
948820 ***** 201507262300 360   0 *** *** OVC * * *  3.1 50 ** ** ** ** ** ** ** 6   41   39 ****** ***** ****** *** *** ***** *****  0.04 ***** **
948820 ***** 201507272300 360   0 ***  10 OVC * * *  6.2 51 ** ** ** ** ** ** ** 6   45   44 ****** ***** ****** *** *** ***** *****  0.31 ***** **
948820 ***** 201507282300 360   0 *** *** BKN * * * 31.2 01 ** ** ** ** ** ** ** 2   44   41 ****** ***** ****** *** *** ***** ***** ***** ***** **
948820 ***** 201507302300 360   0 *** *** *** * * *  0.6 43 ** ** ** ** ** ** ** 6   41   39 ****** ***** ****** *** *** ***** *****  0.12 ***** **
948820 ***** 201507312300 360   0 ***  20 OVC * * *  0.5 60 ** ** ** ** ** ** ** 6   48   47 ****** ***** ****** *** *** ***** *****  0.20 ***** **
948820 ***** 201508012300 230   2 ***  10 OVC * * *  0.6 50 ** ** ** ** ** ** ** 6   43   42 ****** ***** ****** *** *** ***** *****  0.39 ***** **
948820 ***** 201508022300 230  14 ***  20 OVC * * *  6.2 03 ** ** ** ** ** ** ** 6   45   41 ****** ***** ****** *** *** ***** *****  0.24 ***** **
948820 ***** 201508032300 360   0 ***  33 OVC * * * 25.0 02 ** ** ** ** ** ** ** 6   38   37 ****** ***** ****** *** *** ***** *****  0.04 ***** **
948820 ***** 201508042300 230   9 ***  20 OVC * * * 12.5 02 ** ** ** ** ** ** ** 6   46   41 ****** ***** ****** *** *** ***** *****  0.12 ***** **
948820 ***** 201508052300 360   0 ***  10 OVC * * *  6.2 02 ** ** ** ** ** ** ** 6   44   43 ****** ***** ****** *** *** ***** *****  0.16 ***** **
948820 ***** 201508062300 360   0 ***  10 OVC * * *  3.1 60 ** ** ** ** ** ** ** 6   46   45 ****** ***** ****** *** *** ***** *****  0.08 ***** **
948820 ***** 201508072300 360   0 ***  10 BKN * * * 18.8 02 ** ** ** ** ** ** ** 2   42   41 ****** ***** ****** *** *** ***** ***** ***** ***** **
948820 ***** 201508082300 360   0 ***  10 BKN * * * 31.2 02 ** ** ** ** ** ** ** 2   40   39 ****** ***** ****** *** *** ***** ***** ***** ***** **
948820 ***** 201508092300 050  11 *** *** OVC * * * 18.8 02 ** ** ** ** ** ** ** 2   49   38 ****** ***** ****** *** *** ***** ***** ***** ***** **
948820 ***** 201508102300 310   8 ***  20 BKN * * * 12.5 02 ** ** ** ** ** ** ** 6   46   42 ****** ***** ****** *** *** ***** *****  0.16 ***** **
948820 ***** 201508112300 340   3 ***  20 OVC * * * 12.5 02 ** ** ** ** ** ** ** 6   46   43 ****** ***** ****** *** *** ***** *****  0.04 ***** **
948820 ***** 201508122300 360   0 ***   2 OVC * * *  0.6 20 ** ** ** ** ** ** ** 8   45   44 ****** ***** ****** *** *** ***** *****  0.39 ***** **
948820 ***** 201508132300 360   0 ***  33 BKN * * * 25.0 02 ** ** ** ** ** ** ** 5   47   44 ****** ***** ****** *** *** ***** *****  0.04 ***** **
948820 ***** 201508142300 360   0 ***  33 BKN * * * 25.0 02 ** ** ** ** ** ** ** 2   47   46 ****** ***** ****** *** *** ***** ***** ***** ***** **
948820 ***** 201508152300 050   2 ***  10 OVC * * *  6.2 03 ** ** ** ** ** ** ** 2   42   41 ****** ***** ****** *** *** ***** ***** ***** ***** **
948820 ***** 201508162300 230  11 *** *** SCT * * * 31.2 01 ** ** ** ** ** ** ** 6   49   41 ****** ***** ****** *** *** ***** *****  0.03 ***** **
948820 ***** 201508192300 050   2 *** *** SCT * * * 31.2 02 ** ** ** ** ** ** ** 2   43   40 ****** ***** ****** *** *** ***** ***** ***** ***** **
948820 ***** 201508202300 050   5 *** *** OVC * * * 18.8 02 ** ** ** ** ** ** ** 1   51   41 ****** ***** ****** *** *** ***** ***** ***** ***** **
948820 ***** 201508212300 360   0 *** *** BKN * * * 31.2 01 ** ** ** ** ** ** ** 1   49   47 ****** ***** ****** *** *** ***** ***** ***** ***** **
948820 ***** 201508222300 360   2 *** *** SCT * * * 31.2 02 ** ** ** ** ** ** ** 0   47   45 ****** ***** ****** *** *** ***** ***** ***** ***** **
948820 ***** 201508232300 360   0 *** *** SCT * * * 31.2 02 ** ** ** ** ** ** ** 0   45   44 ****** ***** ****** *** *** ***** ***** ***** ***** **
948820 ***** 201508242300 090  14 *** *** BKN * * * 31.2 02 ** ** ** ** ** ** ** 1   53   40 ****** ***** ****** *** *** ***** ***** ***** ***** **
948820 ***** 201508252300 050   2 *** *** BKN * * * 31.2 02 ** ** ** ** ** ** ** 6   51   38 ****** ***** ****** *** *** ***** *****  0.03 ***** **
948820 ***** 201508262300 360   0 *** *** OVC * * *  6.2 60 ** ** ** ** ** ** ** 6   49   48 ****** ***** ****** *** *** ***** *****  0.47 ***** **
948820 ***** 201508272300 360   0 *** *** SCT * * * 31.2 01 ** ** ** ** ** ** ** 6   45   44 ****** ***** ****** *** *** ***** *****  0.16 ***** **
948820 ***** 201508282300 360   0 *** *** SCT * * * 31.2 02 ** ** ** ** ** ** ** 0   38   37 ****** ***** ****** *** *** ***** ***** ***** ***** **
948820 ***** 201508292300 360   0 *** *** SCT * * * 31.2 02 ** ** ** ** ** ** ** 1   46   43 ****** ***** ****** *** *** ***** ***** ***** ***** **
948820 ***** 201508302300 360   0 *** 722 CLR * * * 31.2 02 ** ** ** ** ** ** ** 0   41   39 ****** ***** ****** *** *** ***** ***** ***** ***** **
948820 ***** 201508312300 230   3 *** *** *** * * *  0.6 43 ** ** ** ** ** ** ** 1   39   38 ****** ***** ****** *** *** ***** ***** ***** ***** **
948820 ***** 201509012300 090   2 *** *** BKN * * * 31.2 02 ** ** ** ** ** ** ** 1   43   39 ****** ***** ****** *** *** ***** ***** ***** ***** **
948820 ***** 201509022300 230   3 *** *** SCT * * * 31.2 01 ** ** ** ** ** ** ** 6   49   49 ****** ***** ****** *** *** ***** *****  0.16 ***** **
948820 ***** 201509032300 130   2 *** 722 CLR * * * 31.2 02 ** ** ** ** ** ** ** 1   42   38 ****** ***** ****** *** *** ***** ***** ***** ***** **
948820 ***** 201509042300 360   0 *** 722 CLR * * * 31.2 02 ** ** ** ** ** ** ** 0   39   39 ****** ***** ****** *** *** ***** ***** ***** ***** **
948820 ***** 201509052300 050   5 *** *** OVC * * * 25.0 03 ** ** ** ** ** ** ** 0   46   42 ****** ***** ****** *** *** ***** ***** ***** ***** **
948820 ***** 201509062300 360  13 *** *** BKN * * * 12.5 01 ** ** ** ** ** ** ** 6   48   42 ****** ***** ****** *** *** ***** *****  0.35 ***** **
948820 ***** 201509092300 360   0 *** *** SCT * * * 31.2 01 ** ** ** ** ** ** ** 0   52   44 ****** ***** ****** *** *** ***** ***** ***** ***** **
948820 ***** 201509102300 050   7 *** *** SCT * * * 31.2 02 ** ** ** ** ** ** ** 0   46   42 ****** ***** ****** *** *** ***** ***** ***** ***** **
948820 ***** 201509112300 050   2 *** *** BKN * * * 31.2 02 ** ** ** ** ** ** ** 1   52   51 ****** ***** ****** *** *** ***** ***** ***** ***** **
948820 ***** 201509152300 050   5 *** *** SCT * * * 31.2 02 ** ** ** ** ** ** ** 1   46   43 ****** ***** ****** *** *** ***** ***** ***** ***** **
948820 ***** 201509162300 360   0 *** *** SCT * * * 31.2 02 ** ** ** ** ** ** ** 0   48   44 ****** ***** ****** *** *** ***** ***** ***** ***** **
948820 ***** 201509172300 180   2 *** *** SCT * * * 31.2 02 ** ** ** ** ** ** ** 0   53   44 ****** ***** ****** *** *** ***** ***** ***** ***** **
948820 ***** 201509182300 360   0 *** *** SCT * * * 31.2 02 ** ** ** ** ** ** ** 0   47   45 ****** ***** ****** *** *** ***** ***** ***** ***** **
948820 ***** 201509192300 360   0 *** *** SCT * * * 31.2 02 ** ** ** ** ** ** ** 1   54   48 ****** ***** ****** *** *** ***** ***** ***** ***** **
