  USAF  WBAN YR--MODAHRMN DIR SPD GUS CLG SKC L M H  VSB MW MW MW MW AW AW AW AW W TEMP DEWP    SLP   ALT    STP MAX MIN PCP01 PCP06 PCP24 PCPXX SD
949610 ***** 201501010400 250  23 *** *** BKN * * * 21.9 02 ** ** ** ** ** ** ** 2   66   42 ****** ***** ****** *** *** *****  0.00 ***** ***** **
949610 ***** 201501012200 130   3 *** *** SCT * * * 21.9 02 ** ** ** ** ** ** ** 0   57   49 ****** ***** ****** *** *** ***** *****  0.02 ***** **
949610 ***** 201501020400 070  20 *** *** BKN * * * 15.6 03 ** ** ** ** ** ** ** 1   73   58 ****** ***** ****** *** *** *****  0.00 ***** ***** **
949610 ***** 201501022200 ***   0 *** *** BKN * * * 18.8 02 ** ** ** ** ** ** ** 2   69   58 ****** ***** ****** *** *** ***** *****  0.00 ***** **
949610 ***** 201501030400 050  10 *** *** BKN * * * 18.8 02 ** ** ** ** ** ** ** 2   79   63 ****** ***** ****** *** *** *****  0.00 ***** ***** **
949610 ***** 201501032200 250  18 *** *** BKN * * * 15.6 15 ** ** ** ** ** ** ** 2   58   50 ****** ***** ****** *** *** ***** *****  0.24 ***** **
949610 ***** 201501040400 230  23 *** *** SCT * * * 18.8 02 ** ** ** ** ** ** ** 1   70   45 ****** ***** ****** *** *** *****  0.00 ***** ***** **
949610 ***** 201501042200 340   5 *** *** BKN * * * 18.8 02 ** ** ** ** ** ** ** 2   56   50 ****** ***** ****** *** *** ***** *****  0.00 ***** **
949610 ***** 201501050400 110  11 *** *** SCT * * * 21.9 02 ** ** ** ** ** ** ** 1   69   50 ****** ***** ****** *** *** *****  0.00 ***** ***** **
949610 ***** 201501052200 270   2 *** *** BKN * * * 21.9 03 ** ** ** ** ** ** ** 2   58   53 ****** ***** ****** *** *** ***** *****  0.00 ***** **
949610 ***** 201501060400 090  14 *** *** SCT * * * 25.0 02 ** ** ** ** ** ** ** 1   72   54 ****** ***** ****** *** *** *****  0.00 ***** ***** **
949610 ***** 201501062200 090   3 *** *** SCT * * * 21.9 01 ** ** ** ** ** ** ** 1   62   57 ****** ***** ****** *** *** ***** *****  0.00 ***** **
949610 ***** 201501070400 070  19 *** *** SCT * * * 21.9 03 ** ** ** ** ** ** ** 1   77   63 ****** ***** ****** *** *** ***** ***** ***** ***** **
949610 ***** 201501072200 250   5 *** *** OVC * * *  2.5 95 ** ** ** ** ** ** ** 9   64   62 ****** ***** ****** *** *** ***** *****  0.04 ***** **
949610 ***** 201501080400 ***   0 *** *** OVC * * *  6.2 61 ** ** ** ** ** ** ** 6   68   67 ****** ***** ****** *** *** *****  0.16 ***** ***** **
949610 ***** 201501082200 270   3 *** *** SCT * * * 21.9 02 ** ** ** ** ** ** ** 0   55   45 ****** ***** ****** *** *** ***** *****  0.23 ***** **
949610 ***** 201501090400 180  13 *** *** BKN * * * 15.6 15 ** ** ** ** ** ** ** 2   59   51 ****** ***** ****** *** *** *****  0.00 ***** ***** **
949610 ***** 201501092200 270   3 *** *** OVC * * * 12.5 15 ** ** ** ** ** ** ** 2   53   52 ****** ***** ****** *** *** ***** *****  0.08 ***** **
949610 ***** 201501100400 130   7 *** *** BKN * * * 15.6 15 ** ** ** ** ** ** ** 2   60   51 ****** ***** ****** *** *** *****  0.01 ***** ***** **
949610 ***** 201501102200 090   2 *** *** SCT * * * 25.0 02 ** ** ** ** ** ** ** 0   54   48 ****** ***** ****** *** *** ***** *****  0.01 ***** **
949610 ***** 201501112200 ***   0 *** *** OVC * * * 18.8 02 ** ** ** ** ** ** ** 2   58   56 ****** ***** ****** *** *** ***** *****  0.00 ***** **
949610 ***** 201501122200 090   6 *** *** OVC * * * 15.6 02 ** ** ** ** ** ** ** 1   62   57 ****** ***** ****** *** *** ***** *****  0.00 ***** **
949610 ***** 201501132200 090  13 *** *** OVC * * *  1.2 61 ** ** ** ** ** ** ** 6   64   64 ****** ***** ****** *** *** ***** *****  2.67 ***** **
949610 ***** 201501142200 270   5 *** *** BKN * * * 15.6 15 ** ** ** ** ** ** ** 2   57   54 ****** ***** ****** *** *** ***** *****  1.91 ***** **
949610 ***** 201501152200 310   6 *** *** BKN * * * 15.6 15 ** ** ** ** ** ** ** 2   55   49 ****** ***** ****** *** *** ***** *****  0.00 ***** **
949610 ***** 201501162200 250  23 *** *** BKN * * *  1.2 80 ** ** ** ** ** ** ** 8   50   47 ****** ***** ****** *** *** ***** *****  0.69 ***** **
949610 ***** 201501172200 250  17 *** *** BKN * * * 18.8 25 ** ** ** ** ** ** ** 8   51   40 ****** ***** ****** *** *** ***** *****  0.45 ***** **
949610 ***** 201501182200 270  11 *** *** BKN * * * 18.8 03 ** ** ** ** ** ** ** 2   53   40 ****** ***** ****** *** *** ***** *****  0.05 ***** **
949610 ***** 201501192200 090   8 *** *** BKN * * * 21.9 02 ** ** ** ** ** ** ** 2   56   48 ****** ***** ****** *** *** ***** *****  0.00 ***** **
949610 ***** 201501202200 340   3 *** *** BKN * * * 21.9 01 ** ** ** ** ** ** ** 6   62   62 ****** ***** ****** *** *** ***** *****  0.05 ***** **
949610 ***** 201501222200 ***   0 *** *** BKN * * * 18.8 15 ** ** ** ** ** ** ** 1   63   63 ****** ***** ****** *** *** ***** ***** *****  0.12 **
949610 ***** 201501232200 ***   0 *** *** BKN * * * 18.8 03 ** ** ** ** ** ** ** 1   58   53 ****** ***** ****** *** *** ***** *****  0.02 ***** **
949610 ***** 201501242200 270  15 *** *** OVC * * *  6.2 60 ** ** ** ** ** ** ** 5   55   49 ****** ***** ****** *** *** ***** *****  0.00T***** **
949610 ***** 201501252200 250  18 *** *** BKN * * * 15.6 25 ** ** ** ** ** ** ** 2   54   44 ****** ***** ****** *** *** ***** *****  0.11 ***** **
949610 ***** 201501262200 270   3 *** *** BKN * * * 18.8 15 ** ** ** ** ** ** ** 2   53   47 ****** ***** ****** *** *** ***** *****  0.00T***** **
949610 ***** 201501272200 230   5 *** *** OVC * * * 15.6 15 ** ** ** ** ** ** ** 5   54   48 ****** ***** ****** *** *** ***** *****  0.03 ***** **
949610 ***** 201501282200 110  10 *** *** OVC * * * 12.5 25 ** ** ** ** ** ** ** 8   55   49 ****** ***** ****** *** *** ***** *****  0.03 ***** **
949610 ***** 201501292200 130  11 *** *** OVC * * * 12.5 20 ** ** ** ** ** ** ** 5   55   54 ****** ***** ****** *** *** ***** *****  0.10 ***** **
949610 ***** 201501302200 180   9 *** *** OVC * * *  0.6 61 ** ** ** ** ** ** ** 6   55   55 ****** ***** ****** *** *** ***** *****  0.46 ***** **
949610 ***** 201501312200 180   5 *** *** OVC * * *  9.4 20 ** ** ** ** ** ** ** 5   52   51 ****** ***** ****** *** *** ***** *****  0.28 ***** **
949610 ***** 201502012200 230  16 *** *** SCT * * * 21.9 03 ** ** ** ** ** ** ** 0   55   45 ****** ***** ****** *** *** ***** *****  0.02 ***** **
949610 ***** 201502022200 270   6 *** *** BKN * * * 18.8 03 ** ** ** ** ** ** ** 2   60   50 ****** ***** ****** *** *** ***** *****  0.00 ***** **
949610 ***** 201502032200 200  11 *** *** BKN * * * 15.6 15 ** ** ** ** ** ** ** 0   52   46 ****** ***** ****** *** *** ***** *****  0.06 ***** **
949610 ***** 201502042200 270   7 *** *** SCT * * * 21.9 02 ** ** ** ** ** ** ** 0   55   44 ****** ***** ****** *** *** ***** *****  0.00 ***** **
949610 ***** 201502052200 090   5 *** *** SCT * * * 18.8 01 ** ** ** ** ** ** ** 0   55   54 ****** ***** ****** *** *** ***** *****  0.00 ***** **
949610 ***** 201502062200 ***   0 *** *** SCT * * * 21.9 02 ** ** ** ** ** ** ** 0   61   59 ****** ***** ****** *** *** ***** *****  0.00 ***** **
949610 ***** 201502072200 270   8 *** *** BKN * * * 18.8 15 ** ** ** ** ** ** ** 2   61   54 ****** ***** ****** *** *** ***** *****  0.00 ***** **
949610 ***** 201502082200 270   3 *** *** BKN * * * 21.9 03 ** ** ** ** ** ** ** 2   54   47 ****** ***** ****** *** *** ***** *****  0.00 ***** **
949610 ***** 201502092200 ***   0 *** *** *** * * * 25.0 02 ** ** ** ** ** ** ** 0   53   51 ****** ***** ****** *** *** ***** *****  0.00 ***** **
949610 ***** 201502102200 ***   0 *** *** SCT * * * 21.9 02 ** ** ** ** ** ** ** 1   59   56 ****** ***** ****** *** *** ***** *****  0.00 ***** **
949610 ***** 201502112200 270   7 *** *** SCT * * * 21.9 02 ** ** ** ** ** ** ** 0   53   45 ****** ***** ****** *** *** ***** *****  0.00 ***** **
949610 ***** 201502122200 070   7 *** *** SCT * * * 21.9 02 ** ** ** ** ** ** ** 0   54   50 ****** ***** ****** *** *** ***** *****  0.00 ***** **
949610 ***** 201502142200 050  11 *** *** SCT * * * 15.6 03 ** ** ** ** ** ** ** 0   67   63 ****** ***** ****** *** *** ***** *****  0.07 ***** **
949610 ***** 201502152200 ***   0 *** *** BKN * * * 18.8 03 ** ** ** ** ** ** ** 2   65   62 ****** ***** ****** *** *** ***** *****  0.00 ***** **
949610 ***** 201502162200 ***   0 *** *** BKN * * * 18.8 03 ** ** ** ** ** ** ** 1   55   53 ****** ***** ****** *** *** ***** *****  0.00 ***** **
949610 ***** 201502172200 ***   0 *** *** BKN * * * 18.8 02 ** ** ** ** ** ** ** 2   59   52 ****** ***** ****** *** *** ***** *****  0.02 ***** **
949610 ***** 201502182200 050   5 *** *** BKN * * * 18.8 02 ** ** ** ** ** ** ** 2   60   56 ****** ***** ****** *** *** ***** *****  0.00 ***** **
949610 ***** 201502192200 270   6 *** *** BKN * * * 18.8 02 ** ** ** ** ** ** ** 2   63   61 ****** ***** ****** *** *** ***** *****  0.00 ***** **
949610 ***** 201502202200 090   2 *** *** SCT * * * 21.9 02 ** ** ** ** ** ** ** 0   62   57 ****** ***** ****** *** *** ***** *****  0.00 ***** **
949610 ***** 201502212200 110   5 *** *** BKN * * * 18.8 03 ** ** ** ** ** ** ** 2   77   59 ****** ***** ****** *** *** ***** *****  0.00 ***** **
949610 ***** 201502222200 050   9 *** *** BKN * * * 15.6 15 ** ** ** ** ** ** ** 2   69   64 ****** ***** ****** *** *** ***** *****  0.01 ***** **
949610 ***** 201502232200 250   6 *** *** BKN * * * 15.6 02 ** ** ** ** ** ** ** 2   53   47 ****** ***** ****** *** *** ***** *****  0.13 ***** **
949610 ***** 201502242200 ***   0 *** *** SCT * * * 21.9 02 ** ** ** ** ** ** ** 0   50   48 ****** ***** ****** *** *** ***** *****  0.00 ***** **
949610 ***** 201502252200 090   2 *** *** BKN * * * 15.6 21 ** ** ** ** ** ** ** 2   60   55 ****** ***** ****** *** *** ***** *****  0.00T***** **
949610 ***** 201502262200 270   2 *** *** OVC * * * 15.6 02 ** ** ** ** ** ** ** 2   53   49 ****** ***** ****** *** *** ***** *****  0.01 ***** **
949610 ***** 201502272200 050   3 *** *** BKN * * * 18.8 03 ** ** ** ** ** ** ** 2   57   49 ****** ***** ****** *** *** ***** *****  0.00 ***** **
949610 ***** 201502282200 250  11 *** *** BKN * * * 15.6 15 ** ** ** ** ** ** ** 2   56   50 ****** ***** ****** *** *** ***** *****  0.12 ***** **
949610 ***** 201503012200 270   5 *** *** SCT * * * 21.9 02 ** ** ** ** ** ** ** 0   44   42 ****** ***** ****** *** *** ***** *****  0.00 ***** **
949610 ***** 201503022200 270   9 *** *** BKN * * * 18.8 15 ** ** ** ** ** ** ** 8   56   46 ****** ***** ****** *** *** ***** *****  0.02 ***** **
949610 ***** 201503032200 290  23 *** *** BKN * * * 15.6 03 ** ** ** ** ** ** ** 1   61   49 ****** ***** ****** *** *** ***** *****  0.00 ***** **
949610 ***** 201503042200 250  20 *** *** BKN * * * 15.6 25 ** ** ** ** ** ** ** 8   44   43 ****** ***** ****** *** *** ***** *****  0.38 ***** **
949610 ***** 201503052200 250  21 *** *** BKN * * * 12.5 25 ** ** ** ** ** ** ** 8   49   46 ****** ***** ****** *** *** ***** *****  0.20 ***** **
949610 ***** 201503062200 270   2 *** *** BKN * * * 18.8 03 ** ** ** ** ** ** ** 2   52   49 ****** ***** ****** *** *** ***** *****  0.04 ***** **
949610 ***** 201503072200 090   2 *** *** BKN * * * 18.8 02 ** ** ** ** ** ** ** 2   54   51 ****** ***** ****** *** *** ***** *****  0.00 ***** **
949610 ***** 201503082200 200   3 *** *** SCT * * * 21.9 02 ** ** ** ** ** ** ** 1   54   52 ****** ***** ****** *** *** ***** *****  0.00 ***** **
949610 ***** 201503092200 090   2 *** *** SCT * * * 21.9 02 ** ** ** ** ** ** ** 0   50   48 ****** ***** ****** *** *** ***** *****  0.00 ***** **
949610 ***** 201503102200 ***   0 *** *** BKN * * * 18.8 03 ** ** ** ** ** ** ** 2   51   49 ****** ***** ****** *** *** ***** *****  0.00 ***** **
949610 ***** 201503112200 270  13 ***  20 BKN * * *  3.1 80 ** ** ** ** ** ** ** 8   50   48 ****** ***** ****** *** *** ***** *****  0.04 ***** **
949610 ***** 201503122200 360   0 ***  20 BKN * * * 15.6 03 ** ** ** ** ** ** ** 2   47   44 ****** ***** ****** *** *** ***** *****  0.04 ***** **
949610 ***** 201503132200 310  16 *** *** OVC * * * 15.6 03 ** ** ** ** ** ** ** 2   55   46 ****** ***** ****** *** *** ***** ***** ***** ***** **
949610 ***** 201503142200 250   7 *** *** BKN * * * 18.8 15 ** ** ** ** ** ** ** 8   46   44 ****** ***** ****** *** *** ***** *****  0.13 ***** **
949610 ***** 201503152200 270   4 ***  20 BKN * * * 18.8 02 ** ** ** ** ** ** ** 2   44   42 ****** ***** ****** *** *** ***** ***** ***** ***** **
949610 ***** 201503162200 360   0 *** *** BKN * * * 18.8 02 ** ** ** ** ** ** ** 2   48   47 ****** ***** ****** *** *** ***** ***** ***** ***** **
949610 ***** 201503172200 360   0 ***   3 OVC * * *  5.0 60 ** ** ** ** ** ** ** 6   57   57 ****** ***** ****** *** *** ***** *****  0.15 ***** **
949610 ***** 201503182200 070   7 *** *** BKN * * * 15.6 15 ** ** ** ** ** ** ** 6   57   53 ****** ***** ****** *** *** ***** ***** ***** ***** **
949610 ***** 201503192200 270  11 ***  20 BKN * * *  6.2 80 ** ** ** ** ** ** ** 8   51   47 ****** ***** ****** *** *** ***** ***** ***** ***** **
949610 ***** 201503202200 270   2 *** *** BKN * * * 18.8 02 ** ** ** ** ** ** ** 2   48   45 ****** ***** ****** *** *** ***** *****  0.04 ***** **
949610 ***** 201503212200 360   0 *** *** SCT * * * 21.9 02 ** ** ** ** ** ** ** 0   44   43 ****** ***** ****** *** *** ***** ***** ***** ***** **
949610 ***** 201503222200 360   0 *** *** OVC * * *  3.1 61 ** ** ** ** ** ** ** 6   53   53 ****** ***** ****** *** *** ***** *****  0.04 ***** **
949610 ***** 201503232200 360   0 *** *** SCT * * * 21.9 02 ** ** ** ** ** ** ** 0   40   40 ****** ***** ****** *** *** ***** *****  0.17 ***** **
949610 ***** 201503242200 090   4 ***  20 BKN * * * 21.9 02 ** ** ** ** ** ** ** 2   51   47 ****** ***** ****** *** *** ***** ***** ***** ***** **
949610 ***** 201503252200 310   4 ***  10 OVC * * *  2.5 61 ** ** ** ** ** ** ** 6   46   46 ****** ***** ****** *** *** ***** *****  0.06 ***** **
949610 ***** 201503262200 230  16 ***   3 OVC * * *  1.9 61 ** ** ** ** ** ** ** 6   53   53 ****** ***** ****** *** *** ***** *****  0.84 ***** **
949610 ***** 201503272200 360   0 *** *** SCT * * * 18.8 02 ** ** ** ** ** ** ** 0   46   46 ****** ***** ****** *** *** ***** *****  0.55 ***** **
949610 ***** 201503282200 090   2 ***  20 BKN * * * 21.9 15 ** ** ** ** ** ** ** 2   55   53 ****** ***** ****** *** *** ***** ***** ***** ***** **
949610 ***** 201503292200 310  17 *** *** BKN * * * 18.8 03 ** ** ** ** ** ** ** 2   57   50 ****** ***** ****** *** *** ***** *****  0.07 ***** **
949610 ***** 201503302200 090   4 *** *** SCT * * * 25.0 02 ** ** ** ** ** ** ** 0   52   48 ****** ***** ****** *** *** ***** ***** ***** ***** **
949610 ***** 201503312200 310   2 *** *** BKN * * * 21.9 02 ** ** ** ** ** ** ** 2   49 **** ****** ***** ****** *** *** ***** ***** ***** ***** **
949610 ***** 201504012200 200  13 ***  10 BKN * * *  2.5 60 ** ** ** ** ** ** ** 6   47   46 ****** ***** ****** *** *** ***** *****  0.47 ***** **
949610 ***** 201504022200 360   0 ***  10 BKN * * * 12.5 15 ** ** ** ** ** ** ** 2   46   46 ****** ***** ****** *** *** ***** *****  0.08 ***** **
949610 ***** 201504032200 270   7 ***  20 BKN * * * 18.8 02 ** ** ** ** ** ** ** 2   46   44 ****** ***** ****** *** *** ***** ***** ***** ***** **
949610 ***** 201504042300 290   2 *** *** SCT * * * 21.9 02 ** ** ** ** ** ** ** 1   51   51 ****** ***** ****** *** *** ***** ***** ***** ***** **
949610 ***** 201504052200 250   6 ***  20 BKN * * * 18.8 15 ** ** ** ** ** ** ** 1   47   46 ****** ***** ****** *** *** ***** ***** ***** ***** **
949610 ***** 201504062300 250   4 ***  20 BKN * * * 18.8 02 ** ** ** ** ** ** ** 2   50   47 ****** ***** ****** *** *** ***** *****  0.15 ***** **
949610 ***** 201504072300 230   4 ***  10 BKN * * * 15.6 15 ** ** ** ** ** ** ** 2   48 **** ****** ***** ****** *** *** ***** *****  0.04 ***** **
949610 ***** 201504082300 310   2 ***  20 BKN * * * 18.8 02 ** ** ** ** ** ** ** 2   48   46 ****** ***** ****** *** *** ***** ***** ***** ***** **
949610 ***** 201504092300 360   0 ***   3 BKN * * * 21.9 02 ** ** ** ** ** ** ** 2   44   44 ****** ***** ****** *** *** ***** ***** ***** ***** **
949610 ***** 201504102300 130   2 ***   3 BKN * * * 18.8 02 ** ** ** ** ** ** ** 2   44   44 ****** ***** ****** *** *** ***** ***** ***** ***** **
949610 ***** 201504112300 200  11 ***  20 BKN * * * 15.6 15 ** ** ** ** ** ** ** 2   49   42 ****** ***** ****** *** *** ***** *****  0.04 ***** **
949610 ***** 201504122300 230   2 ***  20 BKN * * * 18.8 02 ** ** ** ** ** ** ** 2   47   44 ****** ***** ****** *** *** ***** ***** ***** ***** **
949610 ***** 201504132300 310   5 *** *** SCT * * * 18.8 02 ** ** ** ** ** ** ** 0   42   42 ****** ***** ****** *** *** ***** ***** ***** ***** **
949610 ***** 201504142300 110   5 ***  20 BKN * * *  6.2 60 ** ** ** ** ** ** ** 2   51   50 ****** ***** ****** *** *** ***** *****  0.01 ***** **
949610 ***** 201504152300 250  14 ***  20 BKN * * * 18.8 15 ** ** ** ** ** ** ** 6   53   45 ****** ***** ****** *** *** ***** *****  0.08 ***** **
949610 ***** 201504162300 310   7 *** *** BKN * * * 18.8 02 ** ** ** ** ** ** ** 2   56   47 ****** ***** ****** *** *** ***** *****  0.02 ***** **
949610 ***** 201504172300 310   5 *** *** BKN * * * 21.9 02 ** ** ** ** ** ** ** 2   58   46 ****** ***** ****** *** *** ***** ***** ***** ***** **
949610 ***** 201504182300 230   3 ***  20 BKN * * * 15.6 25 ** ** ** ** ** ** ** 8   43   41 ****** ***** ****** *** *** ***** *****  0.28 ***** **
949610 ***** 201504192300 360   0 *** *** SCT * * * 21.9 02 ** ** ** ** ** ** ** 0   40   40 ****** ***** ****** *** *** ***** ***** ***** ***** **
949610 ***** 201504202300 110   3 ***  10 BKN * * * 15.6 02 ** ** ** ** ** ** ** 2   53   51 ****** ***** ****** *** *** ***** ***** ***** ***** **
949610 ***** 201504212300 360   0 ***   3 BKN * * * 12.5 40 ** ** ** ** ** ** ** 2   51   51 ****** ***** ****** *** *** ***** ***** ***** ***** **
949610 ***** 201504222300 360   0 ***   2 BKN * * *  9.4 40 ** ** ** ** ** ** ** 5   54   54 ****** ***** ****** *** *** ***** *****  0.01 ***** **
949610 ***** 201504232300 360   0 ***   3 OVC * * * 12.5 15 ** ** ** ** ** ** ** 6   50   50 ****** ***** ****** *** *** ***** *****  0.02 ***** **
949610 ***** 201504242300 230  13 ***  10 BKN * * * 15.6 15 ** ** ** ** ** ** ** 6   49   47 ****** ***** ****** *** *** ***** *****  0.04 ***** **
949610 ***** 201504252300 250   3 ***  20 BKN * * * 18.8 02 ** ** ** ** ** ** ** 2   47   44 ****** ***** ****** *** *** ***** ***** ***** ***** **
949610 ***** 201504262300 230   5 ***  10 BKN * * * 18.8 15 ** ** ** ** ** ** ** 2   48   47 ****** ***** ****** *** *** ***** *****  0.03 ***** **
949610 ***** 201504272300 360   0 ***  20 BKN * * * 18.8 02 ** ** ** ** ** ** ** 2   51   47 ****** ***** ****** *** *** ***** ***** ***** ***** **
949610 ***** 201504282300 360   0 ***   2 BKN * * * 21.9 02 ** ** ** ** ** ** ** 2   49   49 ****** ***** ****** *** *** ***** ***** ***** ***** **
949610 ***** 201504292300 270   7 *** *** SCT * * * 21.9 02 ** ** ** ** ** ** ** 0   42   42 ****** ***** ****** *** *** ***** ***** ***** ***** **
949610 ***** 201504302300 310   6 *** *** SCT * * * 15.6 40 ** ** ** ** ** ** ** 0   44   44 ****** ***** ****** *** *** ***** ***** ***** ***** **
949610 ***** 201505012300 360   0 *** *** OVC * * * 18.8 02 ** ** ** ** ** ** ** 2   50   49 ****** ***** ****** *** *** ***** ***** ***** ***** **
949610 ***** 201505022300 360   0 ***  20 BKN * * * 18.8 15 ** ** ** ** ** ** ** 2   55   51 ****** ***** ****** *** *** ***** *****  0.31 ***** **
949610 ***** 201505032300 310   8 *** *** BKN * * * 18.8 15 ** ** ** ** ** ** ** 2   47   47 ****** ***** ****** *** *** ***** ***** ***** ***** **
949610 ***** 201505042300 290   9 *** *** OVC * * *  3.1 61 ** ** ** ** ** ** ** 6   57   54 ****** ***** ****** *** *** ***** *****  0.04 ***** **
949610 ***** 201505052300 270  16 ***  10 BKN * * *  2.5 80 ** ** ** ** ** ** ** 8   49   43 ****** ***** ****** *** *** ***** *****  0.28 ***** **
949610 ***** 201505062300 250  15 ***  10 OVC * * *  3.1 25 ** ** ** ** ** ** ** 8   41   39 ****** ***** ****** *** *** ***** *****  0.63 ***** **
949610 ***** 201505072300 020  16 ***  20 BKN * * * 15.6 15 ** ** ** ** ** ** ** 8   55   48 ****** ***** ****** *** *** ***** *****  0.28 ***** **
949610 ***** 201505082300 180   6 ***  20 BKN * * *  3.1 50 ** ** ** ** ** ** ** 5   50   46 ****** ***** ****** *** *** ***** *****  0.08 ***** **
949610 ***** 201505092300 270  19 *** *** SCT * * * 15.6 25 ** ** ** ** ** ** ** 8   50   43 ****** ***** ****** *** *** ***** *****  0.20 ***** **
949610 ***** 201505102300 290   5 ***   3 BKN * * *  9.4 25 ** ** ** ** ** ** ** 8   42   42 ****** ***** ****** *** *** ***** *****  0.51 ***** **
949610 ***** 201505112300 270  16 ***  10 BKN * * *  1.9 80 ** ** ** ** ** ** ** 9   47   46 ****** ***** ****** *** *** ***** *****  0.35 ***** **
949610 ***** 201505122300 230  14 ***  10 OVC * * *  2.5 80 ** ** ** ** ** ** ** 8   40   38 ****** ***** ****** *** *** ***** *****  0.55 ***** **
949610 ***** 201505132300 200  17 ***  20 BKN * * * 15.6 25 ** ** ** ** ** ** ** 8   52   48 ****** ***** ****** *** *** ***** *****  0.24 ***** **
949610 ***** 201505142300 250   3 ***  20 BKN * * * 18.8 02 ** ** ** ** ** ** ** 2   49   46 ****** ***** ****** *** *** ***** ***** ***** ***** **
949610 ***** 201505152300 360   0 *** *** SCT * * * 18.8 02 ** ** ** ** ** ** ** 0   42   42 ****** ***** ****** *** *** ***** ***** ***** ***** **
949610 ***** 201505162300 310  17 *** *** BKN * * * 18.8 03 ** ** ** ** ** ** ** 1   47   42 ****** ***** ****** *** *** ***** ***** ***** ***** **
949610 ***** 201505172300 360   0 *** *** BKN * * * 21.9 03 ** ** ** ** ** ** ** 1   44   43 ****** ***** ****** *** *** ***** ***** ***** ***** **
949610 ***** 201505182300 360   2 *** *** OVC * * * 18.8 15 ** ** ** ** ** ** ** 2   48   46 ****** ***** ****** *** *** ***** ***** ***** ***** **
949610 ***** 201505192300 270   6 ***   2 BKN * * * 15.6 15 ** ** ** ** ** ** ** 2   46   46 ****** ***** ****** *** *** ***** *****  0.04 ***** **
949610 ***** 201505202300 250   8 ***   3 OVC * * * 12.5 16 ** ** ** ** ** ** ** 5   46   45 ****** ***** ****** *** *** ***** *****  0.02 ***** **
949610 ***** 201505212300 230   2 *** *** SCT * * * 18.8 02 ** ** ** ** ** ** ** 0   46   41 ****** ***** ****** *** *** ***** ***** ***** ***** **
949610 ***** 201505222300 250   7 ***  20 BKN * * * 18.8 15 ** ** ** ** ** ** ** 1   48   44 ****** ***** ****** *** *** ***** ***** ***** ***** **
949610 ***** 201505232300 270   2 *** *** SCT * * * 18.8 02 ** ** ** ** ** ** ** 1   37   37 ****** ***** ****** *** *** ***** ***** ***** ***** **
949610 ***** 201505242300 270   5 ***  20 BKN * * * 15.6 02 ** ** ** ** ** ** ** 2   44   43 ****** ***** ****** *** *** ***** ***** ***** ***** **
949610 ***** 201505252300 360   0 ***   0 BKN * * * 18.8 40 ** ** ** ** ** ** ** 2   44   44 ****** ***** ****** *** *** ***** *****  0.08 ***** **
949610 ***** 201505262300 270   8 *** *** BKN * * * 15.6 03 ** ** ** ** ** ** ** 2   41   41 ****** ***** ****** *** *** ***** ***** ***** ***** **
949610 ***** 201505272300 310   6 ***  20 BKN * * * 15.6 15 ** ** ** ** ** ** ** 2   54   43 ****** ***** ****** *** *** ***** *****  0.02 ***** **
949610 ***** 201505282300 250   6 ***  20 BKN * * * 15.6 25 ** ** ** ** ** ** ** 8   41   40 ****** ***** ****** *** *** ***** *****  0.31 ***** **
949610 ***** 201505292300 340   9 ***  20 BKN * * * 18.8 25 ** ** ** ** ** ** ** 8   54   45 ****** ***** ****** *** *** ***** *****  0.02 ***** **
949610 ***** 201505302300 230  18 ***  20 BKN * * * 12.5 25 ** ** ** ** ** ** ** 8   44   41 ****** ***** ****** *** *** ***** *****  0.20 ***** **
949610 ***** 201505312300 180  14 ***  10 BKN * * *  1.2 80 ** ** ** ** ** ** ** 8   38   37 ****** ***** ****** *** *** ***** *****  0.47 ***** **
949610 ***** 201506012300 270   5 *** *** BKN * * * 18.8 15 ** ** ** ** ** ** ** 2   41   41 ****** ***** ****** *** *** ***** *****  0.16 ***** **
949610 ***** 201506022300 270   6 *** *** BKN * * * 18.8 02 ** ** ** ** ** ** ** 2   38   38 ****** ***** ****** *** *** ***** *****  0.01 ***** **
949610 ***** 201506032300 310   6 *** *** SCT * * * 18.8 02 ** ** ** ** ** ** ** 1   35   35 ****** ***** ****** *** *** ***** ***** ***** ***** **
949610 ***** 201506042300 290   8 *** *** SCT * * * 21.9 40 ** ** ** ** ** ** ** 1   35   34 ****** ***** ****** *** *** ***** *****  0.01 ***** **
949610 ***** 201506052300 250   8 *** *** OVC * * *  6.2 60 ** ** ** ** ** ** ** 6   52   48 ****** ***** ****** *** *** ***** *****  0.04 ***** **
949610 ***** 201506062300 340   6 ***  20 BKN * * * 18.8 15 ** ** ** ** ** ** ** 2   59   49 ****** ***** ****** *** *** ***** *****  0.08 ***** **
949610 ***** 201506072300 020   5 ***  20 OVC * * *  6.2 60 ** ** ** ** ** ** ** 6   49   47 ****** ***** ****** *** *** ***** *****  0.55 ***** **
949610 ***** 201506082300 250  26 ***  20 BKN * * *  6.2 80 ** ** ** ** ** ** ** 8   43   38 ****** ***** ****** *** *** ***** *****  0.67 ***** **
949610 ***** 201506092300 270  15 ***  20 BKN * * * 15.6 15 ** ** ** ** ** ** ** 2   44   39 ****** ***** ****** *** *** ***** *****  0.28 ***** **
949610 ***** 201506102300 310   6 *** *** BKN * * * 21.9 03 ** ** ** ** ** ** ** 1   47   43 ****** ***** ****** *** *** ***** ***** ***** ***** **
949610 ***** 201506112300 290   5 ***  20 BKN * * * 18.8 02 ** ** ** ** ** ** ** 2   46   44 ****** ***** ****** *** *** ***** ***** ***** ***** **
949610 ***** 201506122300 310   2 *** *** SCT * * * 21.9 02 ** ** ** ** ** ** ** 0   37   37 ****** ***** ****** *** *** ***** ***** ***** ***** **
949610 ***** 201506132300 360   0 ***  33 OVC * * * 15.6 03 ** ** ** ** ** ** ** 2   43   43 ****** ***** ****** *** *** ***** ***** ***** ***** **
949610 ***** 201506142300 360   0 *** *** BKN * * * 18.8 03 ** ** ** ** ** ** ** 1   41   41 ****** ***** ****** *** *** ***** ***** ***** ***** **
949610 ***** 201506152300 310   3 *** *** BKN * * * 18.8 02 ** ** ** ** ** ** ** 2   44   44 ****** ***** ****** *** *** ***** ***** ***** ***** **
949610 ***** 201506162300 270   9 ***  10 OVC * * *  1.9 60 ** ** ** ** ** ** ** 6   48   48 ****** ***** ****** *** *** ***** *****  0.35 ***** **
949610 ***** 201506172300 270   5 ***  10 BKN * * * 15.6 25 ** ** ** ** ** ** ** 2   39   39 ****** ***** ****** *** *** ***** *****  0.35 ***** **
949610 ***** 201506182300 290   3 *** *** BKN * * * 18.8 02 ** ** ** ** ** ** ** 2   36   36 ****** ***** ****** *** *** ***** *****  0.04 ***** **
949610 ***** 201506192300 290   3 ***   0 BKN * * * 15.6 02 ** ** ** ** ** ** ** 2   35   35 ****** ***** ****** *** *** ***** *****  0.20 ***** **
949610 ***** 201506202300 360   0 *** *** SCT * * * 21.9 02 ** ** ** ** ** ** ** 0   35   35 ****** ***** ****** *** *** ***** ***** ***** ***** **
949610 ***** 201506212300 270   2 *** *** BKN * * * 18.8 40 ** ** ** ** ** ** ** 2   32   32 ****** ***** ****** *** *** ***** *****  0.01 ***** **
949610 ***** 201506222300 360   0 *** *** OVC * * * 18.8 15 ** ** ** ** ** ** ** 5   46   45 ****** ***** ****** *** *** ***** *****  0.02 ***** **
949610 ***** 201506232300 360   0 *** *** BKN * * * 15.6 03 ** ** ** ** ** ** ** 2   40   40 ****** ***** ****** *** *** ***** ***** ***** ***** **
949610 ***** 201506242300 340   2 ***  10 BKN * * * 18.8 02 ** ** ** ** ** ** ** 2   44   42 ****** ***** ****** *** *** ***** *****  0.04 ***** **
949610 ***** 201506252300 290   2 ***   3 BKN * * * 18.8 15 ** ** ** ** ** ** ** 2   49   49 ****** ***** ****** *** *** ***** *****  0.08 ***** **
949610 ***** 201506262300 310  15 ***  33 BKN * * * 21.9 02 ** ** ** ** ** ** ** 1   51   39 ****** ***** ****** *** *** ***** *****  0.04 ***** **
949610 ***** 201506272300 290   3 ***  20 BKN * * * 18.8 15 ** ** ** ** ** ** ** 2   49   41 ****** ***** ****** *** *** ***** *****  0.01 ***** **
949610 ***** 201506282300 340   2 *** *** BKN * * * 21.9 02 ** ** ** ** ** ** ** 2   52   43 ****** ***** ****** *** *** ***** ***** ***** ***** **
949610 ***** 201506292300 360   2 *** *** SCT * * * 21.9 15 ** ** ** ** ** ** ** 1   44   43 ****** ***** ****** *** *** ***** ***** ***** ***** **
949610 ***** 201506302300 360   0 *** *** BKN * * * 21.9 15 ** ** ** ** ** ** ** 1   49   43 ****** ***** ****** *** *** ***** ***** ***** ***** **
949610 ***** 201507012300 230   8 ***  20 BKN * * * 12.5 25 ** ** ** ** ** ** ** 8   39   39 ****** ***** ****** *** *** ***** *****  0.28 ***** **
949610 ***** 201507022300 310  16 *** *** SCT * * * 21.9 02 ** ** ** ** ** ** ** 1   45   38 ****** ***** ****** *** *** ***** *****  0.08 ***** **
949610 ***** 201507032300 310   9 *** *** BKN * * * 18.8 15 ** ** ** ** ** ** ** 5   51   44 ****** ***** ****** *** *** ***** *****  0.02 ***** **
949610 ***** 201507042300 360   0 *** *** BKN * * * 15.6 02 ** ** ** ** ** ** ** 2   38   38 ****** ***** ****** *** *** ***** *****  0.01 ***** **
949610 ***** 201507052300 270   6 ***  10 BKN * * * 15.6 15 ** ** ** ** ** ** ** 8   38   38 ****** ***** ****** *** *** ***** *****  0.03 ***** **
949610 ***** 201507062300 310   6 ***   2 BKN * * *  6.2 80 ** ** ** ** ** ** ** 8   39   39 ****** ***** ****** *** *** ***** *****  0.12 ***** **
949610 ***** 201507072300 270   2 *** *** SCT * * * 21.9 40 ** ** ** ** ** ** ** 0   30   29 ****** ***** ****** *** *** ***** *****  0.02 ***** **
949610 ***** 201507082300 290   5 *** *** SCT * * * 21.9 03 ** ** ** ** ** ** ** 1   34   34 ****** ***** ****** *** *** ***** ***** ***** ***** **
949610 ***** 201507092300 360   0 *** *** BKN * * * 21.9 02 ** ** ** ** ** ** ** 1   43   39 ****** ***** ****** *** *** ***** *****  0.02 ***** **
949610 ***** 201507102300 310   3 *** *** BKN * * * 21.9 02 ** ** ** ** ** ** ** 2   39   39 ****** ***** ****** *** *** ***** ***** ***** ***** **
949610 ***** 201507112300 270   3 ***   0 BKN * * * 15.6 15 ** ** ** ** ** ** ** 2   39   39 ****** ***** ****** *** *** ***** ***** ***** ***** **
949610 ***** 201507122300 230   8 ***   3 BKN * * * 15.6 20 ** ** ** ** ** ** ** 5   48   46 ****** ***** ****** *** *** ***** *****  0.02 ***** **
949610 ***** 201507132300 250   8 ***   3 BKN * * * 12.5 25 ** ** ** ** ** ** ** 8   39   38 ****** ***** ****** *** *** ***** *****  0.31 ***** **
949610 ***** 201507142300 230   9 ***   3 BKN * * * 12.5 25 ** ** ** ** ** ** ** 8   40   40 ****** ***** ****** *** *** ***** *****  0.12 ***** **
949610 ***** 201507152300 360   0 *** *** SCT * * * 21.9 40 ** ** ** ** ** ** ** 0   33   33 ****** ***** ****** *** *** ***** *****  0.01 ***** **
949610 ***** 201507162300 230  16 ***   3 OVC * * *  1.9 80 ** ** ** ** ** ** ** 8   41   40 ****** ***** ****** *** *** ***** *****  0.12 ***** **
949610 ***** 201507172300 200   3 ***   3 BKN * * *  7.5 80 ** ** ** ** ** ** ** 8   39   38 ****** ***** ****** *** *** ***** *****  0.12 ***** **
949610 ***** 201507182300 360   0 *** *** BKN * * * 21.9 02 ** ** ** ** ** ** ** 2   36   35 ****** ***** ****** *** *** ***** *****  0.01 ***** **
949610 ***** 201507192300 360   0 *** *** SCT * * * 21.9 02 ** ** ** ** ** ** ** 0   43   43 ****** ***** ****** *** *** ***** ***** ***** ***** **
949610 ***** 201507202300 310   2 *** *** SCT * * * 21.9 02 ** ** ** ** ** ** ** 0   32   31 ****** ***** ****** *** *** ***** ***** ***** ***** **
949610 ***** 201507212300 310  10 *** *** SCT * * * 21.9 15 ** ** ** ** ** ** ** 2   55   42 ****** ***** ****** *** *** ***** *****  0.02 ***** **
949610 ***** 201507222300 290   2 *** *** SCT * * * 21.9 02 ** ** ** ** ** ** ** 0   48   44 ****** ***** ****** *** *** ***** *****  0.08 ***** **
949610 ***** 201507232300 360   0 *** *** SCT * * * 21.9 02 ** ** ** ** ** ** ** 0   36   36 ****** ***** ****** *** *** ***** ***** ***** ***** **
949610 ***** 201507242300 270   2 *** *** SCT * * * 21.9 03 ** ** ** ** ** ** ** 1   39   38 ****** ***** ****** *** *** ***** ***** ***** ***** **
949610 ***** 201507252300 290  23 ***  20 BKN * * *  3.1 80 ** ** ** ** ** ** ** 8   45   37 ****** ***** ****** *** *** ***** *****  0.12 ***** **
949610 ***** 201507262300 360   0 ***  10 BKN * * *  9.4 25 ** ** ** ** ** ** ** 8   42   41 ****** ***** ****** *** *** ***** *****  0.55 ***** **
949610 ***** 201507282300 360   0 *** *** SCT * * * 21.9 02 ** ** ** ** ** ** ** 1   43   43 ****** ***** ****** *** *** ***** ***** ***** ***** **
949610 ***** 201507292300 310  10 *** *** OVC * * * 18.8 15 ** ** ** ** ** ** ** 2   50   40 ****** ***** ****** *** *** ***** ***** ***** ***** **
949610 ***** 201507302300 250   8 ***  20 BKN * * * 18.8 25 ** ** ** ** ** ** ** 8   41   37 ****** ***** ****** *** *** ***** *****  0.12 ***** **
949610 ***** 201507312300 250   9 *** *** SCT * * * 21.9 25 ** ** ** ** ** ** ** 8   39   38 ****** ***** ****** *** *** ***** *****  0.24 ***** **
949610 ***** 201508012300 290  18 *** *** SCT * * * 21.9 17 ** ** ** ** ** ** ** 9   48   39 ****** ***** ****** *** *** ***** *****  0.03 ***** **
949610 ***** 201508022300 250  11 ***  10 BKN * * * 12.5 26 ** ** ** ** ** ** ** 7   36   35 ****** ***** ****** *** *** ***** *****  0.75 ***** **
949610 ***** 201508032300 270  15 *** *** BKN * * * 18.8 15 ** ** ** ** ** ** ** 2   43   37 ****** ***** ****** *** *** ***** *****  0.31 ***** **
949610 ***** 201508042300 230  18 ***  10 BKN * * *  1.2 80 ** ** ** ** ** ** ** 8   37   37 ****** ***** ****** *** *** ***** *****  0.71 ***** **
949610 ***** 201508052300 360   0 *** *** SCT * * * 21.9 02 ** ** ** ** ** ** ** 0   39   37 ****** ***** ****** *** *** ***** *****  0.20 ***** **
949610 ***** 201508062300 360   0 *** *** SCT * * * 21.9 15 ** ** ** ** ** ** ** *   39   38 ****** ***** ****** *** *** ***** ***** ***** ***** **
949610 ***** 201508072300 270   6 *** *** SCT * * * 21.9 02 ** ** ** ** ** ** ** 0   34   34 ****** ***** ****** *** *** ***** ***** ***** ***** **
949610 ***** 201508082300 290   6 *** *** BKN * * * 18.8 02 ** ** ** ** ** ** ** 2   35   34 ****** ***** ****** *** *** ***** *****  0.01 ***** **
949610 ***** 201508092300 360   0 ***  20 BKN * * * 18.8 02 ** ** ** ** ** ** ** 2   41   41 ****** ***** ****** *** *** ***** ***** ***** ***** **
949610 ***** 201508102300 290  11 ***  20 OVC * * * 12.5 16 ** ** ** ** ** ** ** 6   46   42 ****** ***** ****** *** *** ***** *****  0.04 ***** **
949610 ***** 201508122300 360   0 ***   3 BKN * * * 15.6 15 ** ** ** ** ** ** ** 8   42   41 ****** ***** ****** *** *** ***** *****  0.08 ***** **
949610 ***** 201508132300 270   6 ***  20 BKN * * * 18.8 02 ** ** ** ** ** ** ** 2   46   43 ****** ***** ****** *** *** ***** ***** ***** ***** **
949610 ***** 201508142300 360   0 *** *** SCT * * * 21.9 02 ** ** ** ** ** ** ** 0   37   37 ****** ***** ****** *** *** ***** *****  0.12 ***** **
949610 ***** 201508152300 050   7 ***   3 OVC * * * 12.5 21 ** ** ** ** ** ** ** 6   49   46 ****** ***** ****** *** *** ***** *****  0.08 ***** **
949610 ***** 201508162300 250  17 ***  20 BKN * * *  5.0 80 ** ** ** ** ** ** ** 8   39   37 ****** ***** ****** *** *** ***** *****  0.35 ***** **
949610 ***** 201508172300 230   6 ***  10 BKN * * * 15.6 15 ** ** ** ** ** ** ** 8   39   39 ****** ***** ****** *** *** ***** *****  0.43 ***** **
949610 ***** 201508182300 360   0 *** *** SCT * * * 21.9 02 ** ** ** ** ** ** ** 0   41   41 ****** ***** ****** *** *** ***** ***** ***** ***** **
949610 ***** 201508192300 340   2 *** *** SCT * * * 25.0 02 ** ** ** ** ** ** ** 0   39   38 ****** ***** ****** *** *** ***** ***** ***** ***** **
949610 ***** 201508202300 310   3 *** *** OVC * * * 12.5 15 ** ** ** ** ** ** ** 6   50   44 ****** ***** ****** *** *** ***** *****  0.01 ***** **
949610 ***** 201508212300 270   6 ***  20 BKN * * * 15.6 25 ** ** ** ** ** ** ** 8   54   44 ****** ***** ****** *** *** ***** *****  0.01 ***** **
949610 ***** 201508222300 270   6 ***   0 BKN * * * 15.6 15 ** ** ** ** ** ** ** 8   44   43 ****** ***** ****** *** *** ***** *****  0.20 ***** **
949610 ***** 201508232300 270   2 *** *** SCT * * * 21.9 02 ** ** ** ** ** ** ** 0   36   35 ****** ***** ****** *** *** ***** ***** ***** ***** **
949610 ***** 201508242300 360   0 *** *** SCT * * * 21.9 02 ** ** ** ** ** ** ** 0   39   37 ****** ***** ****** *** *** ***** ***** ***** ***** **
949610 ***** 201508252300 360   0 *** *** SCT * * * 25.0 02 ** ** ** ** ** ** ** 0   39   39 ****** ***** ****** *** *** ***** *****  0.01 ***** **
949610 ***** 201508262300 270   6 *** *** BKN * * * 18.8 03 ** ** ** ** ** ** ** 1   40   40 ****** ***** ****** *** *** ***** ***** ***** ***** **
949610 ***** 201508272300 130  16 ***  10 BKN * * *  0.6 88 ** ** ** ** ** ** ** 8   41   39 ****** ***** ****** *** *** ***** *****  0.31 ***** **
949610 ***** 201508282300 180  19 ***   3 OVC * * *  1.9 21 ** ** ** ** ** ** ** 6   46   45 ****** ***** ****** *** *** ***** *****  1.46 ***** **
949610 ***** 201508292300 200  15 ***   3 BKN * * *  1.9 50 ** ** ** ** ** ** ** 5   43   43 ****** ***** ****** *** *** ***** *****  0.20 ***** **
949610 ***** 201508302300 090   5 ***   2 BKN * * *  2.5 50 ** ** ** ** ** ** ** 5   45   45 ****** ***** ****** *** *** ***** *****  0.20 ***** **
949610 ***** 201508312300 230   2 ***  20 BKN * * * 21.9 02 ** ** ** ** ** ** ** 2   44   43 ****** ***** ****** *** *** ***** *****  0.04 ***** **
949610 ***** 201509012300 360   0 *** *** SCT * * * 25.0 02 ** ** ** ** ** ** ** 0   41   41 ****** ***** ****** *** *** ***** ***** ***** ***** **
949610 ***** 201509022300 290  15 ***  10 BKN * * * 18.8 15 ** ** ** ** ** ** ** 8   46   43 ****** ***** ****** *** *** ***** *****  0.16 ***** **
949610 ***** 201509032300 290  18 *** *** BKN * * * 18.8 15 ** ** ** ** ** ** ** 2   51   38 ****** ***** ****** *** *** ***** *****  0.02 ***** **
949610 ***** 201509042300 230   2 ***   3 BKN * * * 12.5 15 ** ** ** ** ** ** ** 5   45   44 ****** ***** ****** *** *** ***** *****  0.04 ***** **
949610 ***** 201509052300 050   2 *** *** BKN * * * 21.9 02 ** ** ** ** ** ** ** 2   43   40 ****** ***** ****** *** *** ***** *****  0.02 ***** **
949610 ***** 201509062300 230   2 *** *** OVC * * *  6.2 60 ** ** ** ** ** ** ** 6   47   46 ****** ***** ****** *** *** ***** *****  0.02 ***** **
949610 ***** 201509072300 180  17 ***  10 BKN * * *  2.5 80 ** ** ** ** ** ** ** 8   51   50 ****** ***** ****** *** *** ***** *****  0.12 ***** **
949610 ***** 201509082300 250  17 ***  20 BKN * * * 18.8 02 ** ** ** ** ** ** ** 2   52   41 ****** ***** ****** *** *** ***** *****  0.01 ***** **
949610 ***** 201509092300 290  16 ***  20 BKN * * * 18.8 02 ** ** ** ** ** ** ** 2   56   47 ****** ***** ****** *** *** ***** ***** ***** ***** **
949610 ***** 201509102300 360   0 *** *** BKN * * * 21.9 02 ** ** ** ** ** ** ** 2   52   44 ****** ***** ****** *** *** ***** ***** ***** ***** **
949610 ***** 201509112300 360   0 ***   2 BKN * * * 21.9 15 ** ** ** ** ** ** ** 8   56   55 ****** ***** ****** *** *** ***** *****  0.08 ***** **
949610 ***** 201509122300 360   0 *** *** BKN * * * 21.9 01 ** ** ** ** ** ** ** 2   52   49 ****** ***** ****** *** *** ***** ***** ***** ***** **
949610 ***** 201509132300 360   0 *** *** OVC * * * 21.9 15 ** ** ** ** ** ** ** 2   59   52 ****** ***** ****** *** *** ***** ***** ***** ***** **
949610 ***** 201509142300 290  15 *** *** BKN * * * 21.9 02 ** ** ** ** ** ** ** 2   57   53 ****** ***** ****** *** *** ***** ***** ***** ***** **
949610 ***** 201509152300 270   6 *** *** SCT * * * 21.9 02 ** ** ** ** ** ** ** 1   46   38 ****** ***** ****** *** *** ***** *****  0.03 ***** **
949610 ***** 201509172300 130   2 *** *** SCT * * * 21.9 02 ** ** ** ** ** ** ** 1   48   46 ****** ***** ****** *** *** ***** *****  0.02 ***** **
949610 ***** 201509182300 360   0 *** 722 CLR * * * 25.0 02 ** ** ** ** ** ** ** 0   48   46 ****** ***** ****** *** *** ***** ***** ***** ***** **
949610 ***** 201509192300 360   0 *** *** BKN * * * 21.9 03 ** ** ** ** ** ** ** 1   49   45 ****** ***** ****** *** *** ***** ***** ***** ***** **
