  USAF  WBAN YR--MODAHRMN DIR SPD GUS CLG SKC L M H  VSB MW MW MW MW AW AW AW AW W TEMP DEWP    SLP   ALT    STP MAX MIN PCP01 PCP06 PCP24 PCPXX SD
957070 ***** 201501010400 230   3 *** *** SCT * * * 15.6 02 ** ** ** ** ** ** ** 0   95   38 ****** ***** ****** *** *** *****  0.00 ***** ***** **
957070 ***** 201501012200 110   6 *** *** SCT * * * 12.5 02 ** ** ** ** ** ** ** 0   83   57 ****** ***** ****** *** *** ***** *****  0.00 ***** **
957070 ***** 201501020400 130   6 *** *** SCT * * * 15.6 03 ** ** ** ** ** ** ** 0   98   53 ****** ***** ****** *** *** *****  0.00 ***** ***** **
957070 ***** 201501022200 360  17 *** *** *** * * * 12.5 02 ** ** ** ** ** ** ** 0   82   57 ****** ***** ****** *** *** ***** *****  0.00 ***** **
957070 ***** 201501030400 050  17 *** *** SCT * * * 15.6 03 ** ** ** ** ** ** ** 0   95   42 ****** ***** ****** *** *** ***** ***** ***** ***** **
957070 ***** 201501032200 360  17 *** *** SCT * * * 12.5 03 ** ** ** ** ** ** ** 0   86   61 ****** ***** ****** *** *** ***** *****  0.00 ***** **
957070 ***** 201501040400 360   6 *** *** OVC * * *  0.3 96 ** ** ** ** ** ** ** 9   75   74 ****** ***** ****** *** *** *****  0.67 ***** ***** **
957070 ***** 201501042200 ***   0 *** *** SCT * * * 12.5 02 ** ** ** ** ** ** ** 9   75   70 ****** ***** ****** *** *** ***** *****  0.67 ***** **
957070 ***** 201501050400 070  11 *** *** SCT * * * 15.6 03 ** ** ** ** ** ** ** 1   86   63 ****** ***** ****** *** *** *****  0.00 ***** ***** **
957070 ***** 201501052200 050  11 *** *** SCT * * *  0.3 04 ** ** ** ** ** ** ** 9   78   63 ****** ***** ****** *** *** ***** ***** *****  0.00 **
957070 ***** 201501060400 090   3 *** *** SCT * * *  9.4 02 ** ** ** ** ** ** ** 0   92   55 ****** ***** ****** *** *** *****  0.00 ***** ***** **
957070 ***** 201501062200 020   8 *** *** SCT * * *  9.4 02 ** ** ** ** ** ** ** 0   82   64 ****** ***** ****** *** *** ***** *****  0.00 ***** **
957070 ***** 201501070400 090   6 *** *** SCT * * * 15.6 03 ** ** ** ** ** ** ** 0   97   54 ****** ***** ****** *** *** *****  0.00 ***** ***** **
957070 ***** 201501072200 360  11 *** *** SCT * * *  6.2 05 ** ** ** ** ** ** ** 1   86   57 ****** ***** ****** *** *** ***** *****  0.00 ***** **
957070 ***** 201501080400 180   6 *** *** BKN * * *  6.2 50 ** ** ** ** ** ** ** 2   89   56 ****** ***** ****** *** *** *****  0.00T***** ***** **
957070 ***** 201501082200 340   8 *** *** SCT * * * 12.5 02 ** ** ** ** ** ** ** 5   85   59 ****** ***** ****** *** *** ***** *****  0.01 ***** **
957070 ***** 201501090400 270   8 *** *** BKN * * * 12.5 15 ** ** ** ** ** ** ** 2   94   51 ****** ***** ****** *** *** *****  0.00 ***** ***** **
957070 ***** 201501092200 250   2 *** *** OVC * * *  3.1 51 ** ** ** ** ** ** ** 5   73   68 ****** ***** ****** *** *** ***** *****  0.02 ***** **
957070 ***** 201501100400 230   6 *** *** OVC * * *  3.1 50 ** ** ** ** ** ** ** 5   79   67 ****** ***** ****** *** *** *****  0.02 ***** ***** **
957070 ***** 201501102200 020   6 *** *** OVC * * *  1.9 60 ** ** ** ** ** ** ** 6   70   70 ****** ***** ****** *** *** ***** *****  0.49 ***** **
957070 ***** 201501110400 050   6 ***  33 OVC * * *  6.2 02 ** ** ** ** ** ** ** 2   74   72 ****** ***** ****** *** *** ***** ***** ***** ***** **
957070 ***** 201501112200 070  11 *** *** BKN * * *  3.1 50 ** ** ** ** ** ** ** 5   69   66 ****** ***** ****** *** *** ***** ***** *****  0.24 **
957070 ***** 201501120400 050  17 *** *** BKN * * * 12.5 02 ** ** ** ** ** ** ** 5   80   66 ****** ***** ****** *** *** *****  0.00T***** ***** **
957070 ***** 201501122200 050  17 *** *** BKN * * *  9.4 03 ** ** ** ** ** ** ** 2   73   62 ****** ***** ****** *** *** ***** *****  0.00T***** **
957070 ***** 201501130400 090   6 *** *** OVC * * *  0.1 61 ** ** ** ** ** ** ** 6   78   70 ****** ***** ****** *** *** *****  0.02 ***** ***** **
957070 ***** 201501132200 270   8 *** *** OVC * * *  9.4 02 ** ** ** ** ** ** ** 6   67   63 ****** ***** ****** *** *** ***** *****  0.51 ***** **
957070 ***** 201501140400 270  11 *** *** OVC * * * 15.6 03 ** ** ** ** ** ** ** 2   74   64 ****** ***** ****** *** *** *****  0.00 ***** ***** **
957070 ***** 201501142200 250   8 *** *** SCT * * *  9.4 02 ** ** ** ** ** ** ** 1   66   56 ****** ***** ****** *** *** ***** *****  0.00 ***** **
957070 ***** 201501150400 250  11 *** *** SCT * * * 12.5 02 ** ** ** ** ** ** ** 0   78   54 ****** ***** ****** *** *** *****  0.00 ***** ***** **
957070 ***** 201501152200 290   3 *** *** SCT * * * 12.5 02 ** ** ** ** ** ** ** 0   69   54 ****** ***** ****** *** *** ***** *****  0.00 ***** **
957070 ***** 201501160400 270  17 *** *** *** * * * 15.6 02 ** ** ** ** ** ** ** 0   83   44 ****** ***** ****** *** *** *****  0.00 ***** ***** **
957070 ***** 201501162200 230  11 *** *** *** * * * 12.5 02 ** ** ** ** ** ** ** 0   71   53 ****** ***** ****** *** *** ***** *****  0.00 ***** **
957070 ***** 201501170400 250  14 *** *** *** * * * 15.6 02 ** ** ** ** ** ** ** 0   84   47 ****** ***** ****** *** *** *****  0.00 ***** ***** **
957070 ***** 201501172200 230   3 *** *** SCT * * * 12.5 02 ** ** ** ** ** ** ** 0   72   52 ****** ***** ****** *** *** ***** *****  0.00 ***** **
957070 ***** 201501180400 230  11 *** *** SCT * * * 15.6 02 ** ** ** ** ** ** ** 0   88   29 ****** ***** ****** *** *** *****  0.00 ***** ***** **
957070 ***** 201501182200 160   3 *** *** SCT * * *  9.4 02 ** ** ** ** ** ** ** 0   66   52 ****** ***** ****** *** *** ***** *****  0.00 ***** **
957070 ***** 201501190400 160   3 *** *** SCT * * * 12.5 03 ** ** ** ** ** ** ** 0   85   39 ****** ***** ****** *** *** *****  0.00 ***** ***** **
957070 ***** 201501192200 050  17 *** *** SCT * * * 12.5 02 ** ** ** ** ** ** ** 0   74   57 ****** ***** ****** *** *** ***** *****  0.00 ***** **
957070 ***** 201501200400 050   6 *** *** BKN * * * 15.6 03 ** ** ** ** ** ** ** 1   90   53 ****** ***** ****** *** *** ***** ***** ***** ***** **
957070 ***** 201501202200 050  14 *** *** OVC * * *  1.9 61 ** ** ** ** ** ** ** 9   68   66 ****** ***** ****** *** *** ***** *****  0.17 ***** **
957070 ***** 201501210400 050  14 *** *** SCT * * * 12.5 02 ** ** ** ** ** ** ** 6   87   62 ****** ***** ****** *** *** *****  0.02 ***** ***** **
957070 ***** 201501212200 360   6 *** *** SCT * * *  9.4 02 ** ** ** ** ** ** ** 0   78   63 ****** ***** ****** *** *** ***** *****  0.02 ***** **
957070 ***** 201501220400 090   3 *** *** SCT * * * 12.5 03 ** ** ** ** ** ** ** 0   91   61 ****** ***** ****** *** *** *****  0.00 ***** ***** **
957070 ***** 201501222200 050   6 *** *** SCT * * * 12.5 02 ** ** ** ** ** ** ** 0   83   64 ****** ***** ****** *** *** ***** *****  0.00 ***** **
957070 ***** 201501230400 110   6 *** *** SCT * * * 12.5 03 ** ** ** ** ** ** ** 0   97   56 ****** ***** ****** *** *** *****  0.00 ***** ***** **
957070 ***** 201501232200 310  11 ***  20 BKN * * * 12.5 02 ** ** ** ** ** ** ** 2   90   65 ****** ***** ****** *** *** ***** ***** ***** ***** **
957070 ***** 201501240400 250   5 *** *** SCT * * * 12.5 02 ** ** ** ** ** ** ** 2   93   58 ****** ***** ****** *** *** ***** ***** ***** ***** **
957070 ***** 201501242200 180  11 *** *** SCT * * * 15.6 02 ** ** ** ** ** ** ** 0   73   48 ****** ***** ****** *** *** ***** ***** ***** ***** **
957070 ***** 201501250400 200  11 *** *** SCT * * * 15.6 02 ** ** ** ** ** ** ** 0   86   49 ****** ***** ****** *** *** *****  0.00 ***** ***** **
957070 ***** 201501252200 180   8 *** *** SCT * * * 15.6 02 ** ** ** ** ** ** ** 0   66   43 ****** ***** ****** *** *** ***** ***** ***** ***** **
957070 ***** 201501260400 200   6 *** *** SCT * * * 15.6 02 ** ** ** ** ** ** ** 0   82   34 ****** ***** ****** *** *** *****  0.00 ***** ***** **
957070 ***** 201501262200 160   8 *** *** SCT * * *  9.4 02 ** ** ** ** ** ** ** 0   69   54 ****** ***** ****** *** *** ***** *****  0.00 ***** **
957070 ***** 201501270400 230   8 *** *** SCT * * * 15.6 03 ** ** ** ** ** ** ** 0   86   38 ****** ***** ****** *** *** *****  0.00 ***** ***** **
957070 ***** 201501272200 110  14 *** *** SCT * * * 12.5 02 ** ** ** ** ** ** ** 0   72   56 ****** ***** ****** *** *** ***** *****  0.00 ***** **
957070 ***** 201501280400 130  14 *** *** SCT * * * 12.5 03 ** ** ** ** ** ** ** 1   85   54 ****** ***** ****** *** *** *****  0.00 ***** ***** **
957070 ***** 201501282200 090  11 *** *** SCT * * * 12.5 02 ** ** ** ** ** ** ** 0   69   50 ****** ***** ****** *** *** ***** *****  0.00 ***** **
957070 ***** 201501290400 230   3 *** *** SCT * * * 12.5 02 ** ** ** ** ** ** ** 0   79   46 ****** ***** ****** *** *** *****  0.00 ***** ***** **
957070 ***** 201501292200 130   8 *** *** *** * * * 12.5 02 ** ** ** ** ** ** ** 0   65   44 ****** ***** ****** *** *** ***** *****  0.00 ***** **
957070 ***** 201501300400 180  11 *** *** SCT * * * 12.5 02 ** ** ** ** ** ** ** 0   79   32 ****** ***** ****** *** *** *****  0.00 ***** ***** **
957070 ***** 201501302200 180   9 *** *** *** * * * 12.5 02 ** ** ** ** ** ** ** *   65   43 ****** ***** ****** *** *** ***** *****  0.00 ***** **
957070 ***** 201501310400 250  11 *** *** SCT * * * 12.5 02 ** ** ** ** ** ** ** 0   84   40 ****** ***** ****** *** *** *****  0.00 ***** ***** **
957070 ***** 201501312200 180   8 *** *** SCT * * * 12.5 02 ** ** ** ** ** ** ** 0   69   49 ****** ***** ****** *** *** ***** ***** *****  0.00 **
957070 ***** 201502010400 230  11 *** *** SCT * * * 15.6 03 ** ** ** ** ** ** ** 0   85   42 ****** ***** ****** *** *** *****  0.00 ***** ***** **
957070 ***** 201502012200 110   6 *** 722 CLR * * * 12.5 02 ** ** ** ** ** ** ** 0   71   55 ****** ***** ****** *** *** ***** ***** ***** ***** **
957070 ***** 201502020400 140   6 *** *** SCT * * * 15.6 03 ** ** ** ** ** ** ** 0   86   47 ****** ***** ****** *** *** ***** ***** ***** ***** **
957070 ***** 201502022200 090   8 *** *** *** * * * 12.5 02 ** ** ** ** ** ** ** 0   71   51 ****** ***** ****** *** *** ***** *****  0.00 ***** **
957070 ***** 201502030400 140   8 *** *** SCT * * * 12.5 02 ** ** ** ** ** ** ** 0   86   44 ****** ***** ****** *** *** ***** ***** ***** ***** **
957070 ***** 201502032200 130   6 *** *** SCT * * *  9.4 02 ** ** ** ** ** ** ** 0   72   45 ****** ***** ****** *** *** ***** ***** *****  0.00 **
957070 ***** 201502040400 230  11 *** *** SCT * * * 12.5 02 ** ** ** ** ** ** ** 0   88   42 ****** ***** ****** *** *** *****  0.00 ***** ***** **
957070 ***** 201502042200 050  17 *** *** SCT * * *  3.1 05 ** ** ** ** ** ** ** 0   74   58 ****** ***** ****** *** *** ***** *****  0.00 ***** **
957070 ***** 201502050400 090   8 *** *** SCT * * * 12.5 03 ** ** ** ** ** ** ** 0   88   50 ****** ***** ****** *** *** *****  0.00 ***** ***** **
957070 ***** 201502052200 050  17 *** *** *** * * *  4.4 05 ** ** ** ** ** ** ** 0   74   54 ****** ***** ****** *** *** ***** *****  0.00 ***** **
957070 ***** 201502060400 090  11 *** *** SCT * * * 15.6 03 ** ** ** ** ** ** ** 0   91   49 ****** ***** ****** *** *** *****  0.00 ***** ***** **
957070 ***** 201502062200 020  11 *** *** SCT * * * 12.5 02 ** ** ** ** ** ** ** 1   74   54 ****** ***** ****** *** *** ***** *****  0.00 ***** **
957070 ***** 201502070400 050   6 *** *** SCT * * * 15.6 02 ** ** ** ** ** ** ** 0   93   43 ****** ***** ****** *** *** ***** *****  0.00 ***** **
957070 ***** 201502072200 310   2 *** *** *** * * *  9.4 02 ** ** ** ** ** ** ** 0   85   48 ****** ***** ****** *** *** ***** ***** *****  0.00 **
957070 ***** 201502080400 310   6 *** *** SCT * * * 15.6 03 ** ** ** ** ** ** ** 0  100   46 ****** ***** ****** *** *** *****  0.00 ***** ***** **
957070 ***** 201502082200 160   6 *** *** SCT * * *  4.4 05 ** ** ** ** ** ** ** 0   76   54 ****** ***** ****** *** *** ***** *****  0.00 ***** **
957070 ***** 201502090400 270   3 *** *** SCT * * * 12.5 02 ** ** ** ** ** ** ** 0   99   45 ****** ***** ****** *** *** *****  0.00 ***** ***** **
957070 ***** 201502092200 050  14 *** *** *** * * *  4.4 05 ** ** ** ** ** ** ** 0   80   62 ****** ***** ****** *** *** ***** *****  0.00 ***** **
957070 ***** 201502100400 020   8 *** *** SCT * * * 12.5 03 ** ** ** ** ** ** ** 0   96   54 ****** ***** ****** *** *** *****  0.00 ***** ***** **
957070 ***** 201502102200 050   6 *** *** BKN * * *  9.4 03 ** ** ** ** ** ** ** 2   81   60 ****** ***** ****** *** *** ***** *****  0.00 ***** **
957070 ***** 201502110400 050  11 *** *** BKN * * * 12.5 03 ** ** ** ** ** ** ** 1   97   54 ****** ***** ****** *** *** *****  0.00 ***** ***** **
957070 ***** 201502112200 090   3 *** *** BKN * * *  9.4 02 ** ** ** ** ** ** ** 9   72   65 ****** ***** ****** *** *** ***** *****  0.76 ***** **
957070 ***** 201502120400 160   3 *** *** BKN * * * 12.5 02 ** ** ** ** ** ** ** 2   88   59 ****** ***** ****** *** *** *****  0.00 ***** ***** **
957070 ***** 201502122200 090  14 *** *** SCT * * *  4.4 05 ** ** ** ** ** ** ** 1   76   60 ****** ***** ****** *** *** ***** *****  0.00 ***** **
957070 ***** 201502130400 050  14 *** *** SCT * * * 12.5 03 ** ** ** ** ** ** ** 1   92   57 ****** ***** ****** *** *** *****  0.00 ***** ***** **
957070 ***** 201502132200 020  14 *** *** BKN * * *  6.2 03 ** ** ** ** ** ** ** 2   74   61 ****** ***** ****** *** *** ***** *****  0.00 ***** **
957070 ***** 201502140400 050  11 *** *** SCT * * * 12.5 02 ** ** ** ** ** ** ** 0   90   59 ****** ***** ****** *** *** *****  0.00 ***** ***** **
957070 ***** 201502142200 ***   0 *** *** *** * * * 12.5 02 ** ** ** ** ** ** ** 9   73   66 ****** ***** ****** *** *** ***** *****  0.48 ***** **
957070 ***** 201502150400 200   6 *** *** SCT * * * 15.6 03 ** ** ** ** ** ** ** 0   92   58 ****** ***** ****** *** *** ***** *****  0.00 ***** **
957070 ***** 201502152200 050   3 *** *** BKN * * *  9.4 03 ** ** ** ** ** ** ** 2   77   61 ****** ***** ****** *** *** ***** ***** *****  0.00 **
957070 ***** 201502160400 180   3 *** *** SCT * * * 12.5 02 ** ** ** ** ** ** ** 1   94   52 ****** ***** ****** *** *** ***** ***** ***** ***** **
957070 ***** 201502162200 ***   0 *** *** SCT * * * 12.5 02 ** ** ** ** ** ** ** 1   82   59 ****** ***** ****** *** *** ***** *****  0.00 ***** **
957070 ***** 201502170400 250  14 *** *** BKN * * * 12.5 03 ** ** ** ** ** ** ** 1   91   51 ****** ***** ****** *** *** *****  0.00 ***** ***** **
957070 ***** 201502172200 130   3 *** *** SCT * * *  9.4 02 ** ** ** ** ** ** ** 6   74   65 ****** ***** ****** *** *** ***** *****  0.13 ***** **
957070 ***** 201502180400 130   6 *** *** BKN * * * 12.5 03 ** ** ** ** ** ** ** 2   90   55 ****** ***** ****** *** *** *****  0.00 ***** ***** **
957070 ***** 201502182200 050  11 *** *** SCT * * *  9.4 02 ** ** ** ** ** ** ** 1   79   61 ****** ***** ****** *** *** ***** *****  0.00 ***** **
957070 ***** 201502190400 050  14 *** *** BKN * * * 12.5 03 ** ** ** ** ** ** ** 1   93   55 ****** ***** ****** *** *** *****  0.00 ***** ***** **
957070 ***** 201502192200 070   8 *** *** BKN * * *  9.4 03 ** ** ** ** ** ** ** 8   77   64 ****** ***** ****** *** *** ***** *****  0.17 ***** **
957070 ***** 201502200400 070   6 *** *** BKN * * * 15.6 03 ** ** ** ** ** ** ** 2   88   63 ****** ***** ****** *** *** *****  0.00 ***** ***** **
957070 ***** 201502202200 090   5 *** *** BKN * * *  9.4 02 ** ** ** ** ** ** ** 0   77   64 ****** ***** ****** *** *** ***** *****  0.00 ***** **
957070 ***** 201502210400 050   5 *** *** BKN * * * 12.5 02 ** ** ** ** ** ** ** 2   91   58 ****** ***** ****** *** *** *****  0.00 ***** ***** **
957070 ***** 201502212200 050   5 *** *** SCT * * * 15.6 02 ** ** ** ** ** ** ** 0   79   61 ****** ***** ****** *** *** ***** *****  0.00 ***** **
957070 ***** 201502220400 050   7 *** *** SCT * * * 15.6 02 ** ** ** ** ** ** ** 0   75   70 ****** ***** ****** *** *** *****  0.00 ***** ***** **
957070 ***** 201502222200 050  14 *** *** SCT * * *  9.4 02 ** ** ** ** ** ** ** 0   79   63 ****** ***** ****** *** *** ***** *****  0.00 ***** **
957070 ***** 201502230400 090   6 *** *** SCT * * * 12.5 03 ** ** ** ** ** ** ** 0   97   59 ****** ***** ****** *** *** *****  0.00 ***** ***** **
957070 ***** 201502232200 ***   0 *** *** SCT * * * 12.5 02 ** ** ** ** ** ** ** 6   77   62 ****** ***** ****** *** *** ***** *****  0.02 ***** **
957070 ***** 201502240400 230   6 *** *** SCT * * * 15.6 03 ** ** ** ** ** ** ** 0   93   59 ****** ***** ****** *** *** *****  0.00 ***** ***** **
957070 ***** 201502242200 050  14 *** *** SCT * * *  9.4 02 ** ** ** ** ** ** ** 0   77   61 ****** ***** ****** *** *** ***** *****  0.00 ***** **
957070 ***** 201502250400 ***   0 *** *** SCT * * * 12.5 03 ** ** ** ** ** ** ** 0   89   62 ****** ***** ****** *** *** *****  0.00 ***** ***** **
957070 ***** 201502252200 360   2 *** *** BKN * * *  9.4 03 ** ** ** ** ** ** ** 1   69   49 ****** ***** ****** *** *** ***** *****  0.00 ***** **
957070 ***** 201502260400 180  11 *** *** SCT * * * 15.6 02 ** ** ** ** ** ** ** 0   88   40 ****** ***** ****** *** *** *****  0.00 ***** ***** **
957070 ***** 201502262200 ***   0 *** *** *** * * *  6.2 05 ** ** ** ** ** ** ** 0   74   55 ****** ***** ****** *** *** ***** *****  0.00 ***** **
957070 ***** 201502270400 200  11 *** *** SCT * * * 12.5 03 ** ** ** ** ** ** ** 0   92   47 ****** ***** ****** *** *** *****  0.00 ***** ***** **
957070 ***** 201502272200 020   8 *** *** SCT * * *  9.4 03 ** ** ** ** ** ** ** 0   79   52 ****** ***** ****** *** *** ***** *****  0.00 ***** **
957070 ***** 201502280400 310   8 *** *** BKN * * * 18.1 03 ** ** ** ** ** ** ** 1   98   42 ****** ***** ****** *** *** *****  0.00 ***** ***** **
957070 ***** 201502282200 200   8 *** *** SCT * * *  9.4 02 ** ** ** ** ** ** ** 0   83   62 ****** ***** ****** *** *** ***** *****  0.00 ***** **
957070 ***** 201503010400 230  14 *** *** SCT * * * 12.5 03 ** ** ** ** ** ** ** 0   94   51 ****** ***** ****** *** *** *****  0.00 ***** ***** **
957070 ***** 201503012200 090  14 *** *** *** * * * 12.5 02 ** ** ** ** ** ** ** 0   73   55 ****** ***** ****** *** *** ***** *****  0.00 ***** **
957070 ***** 201503020400 130   8 *** *** SCT * * * 12.5 03 ** ** ** ** ** ** ** 0   89   51 ****** ***** ****** *** *** *****  0.00 ***** ***** **
957070 ***** 201503022200 020   6 *** *** SCT * * *  9.4 02 ** ** ** ** ** ** ** 0   74   58 ****** ***** ****** *** *** ***** *****  0.00 ***** **
957070 ***** 201503030400 230  11 *** *** SCT * * * 12.5 02 ** ** ** ** ** ** ** 0   93   47 ****** ***** ****** *** *** *****  0.00 ***** ***** **
957070 ***** 201503032200 180   2 *** *** SCT * * *  9.4 02 ** ** ** ** ** ** ** 0   75   43 ****** ***** ****** *** *** ***** *****  0.00 ***** **
957070 ***** 201503040400 230   6 *** *** SCT * * * 12.5 02 ** ** ** ** ** ** ** 0   91   31 ****** ***** ****** *** *** *****  0.00 ***** ***** **
957070 ***** 201503042200 230  14 *** *** SCT * * *  9.4 03 ** ** ** ** ** ** ** 0   65   50 ****** ***** ****** *** *** ***** *****  0.00 ***** **
957070 ***** 201503050400 200  14 *** *** SCT * * *  6.2 05 ** ** ** ** ** ** ** 0   74   22 ****** ***** ****** *** *** *****  0.00 ***** ***** **
957070 ***** 201503052200 230  17 *** *** SCT * * *  6.2 05 ** ** ** ** ** ** ** 0   60   35 ****** ***** ****** *** *** ***** *****  0.00 ***** **
957070 ***** 201503060400 250  14 *** *** SCT * * *  9.4 02 ** ** ** ** ** ** ** 0   77   36 ****** ***** ****** *** *** *****  0.00 ***** ***** **
957070 ***** 201503062200 200   2 *** *** SCT * * *  9.4 02 ** ** ** ** ** ** ** 0   67   52 ****** ***** ****** *** *** ***** *****  0.00 ***** **
957070 ***** 201503070400 200   8 *** *** SCT * * * 15.6 03 ** ** ** ** ** ** ** 0   81   51 ****** ***** ****** *** *** *****  0.00 ***** ***** **
957070 ***** 201503072200 180   2 *** *** SCT * * *  9.4 02 ** ** ** ** ** ** ** 0   68   51 ****** ***** ****** *** *** ***** *****  0.00 ***** **
957070 ***** 201503080400 ***   0 *** *** *** * * * 15.6 02 ** ** ** ** ** ** ** 0   89   50 ****** ***** ****** *** *** *****  0.00 ***** ***** **
957070 ***** 201503082200 130   2 *** *** *** * * *  9.4 02 ** ** ** ** ** ** ** 0   71   56 ****** ***** ****** *** *** ***** *****  0.00 ***** **
957070 ***** 201503090400 230   3 *** *** SCT * * * 12.5 03 ** ** ** ** ** ** ** 0   89   68 ****** ***** ****** *** *** *****  0.00 ***** ***** **
957070 ***** 201503092200 180   3 *** *** SCT * * *  6.2 05 ** ** ** ** ** ** ** 0   71   59 ****** ***** ****** *** *** ***** *****  0.00 ***** **
957070 ***** 201503100400 180   3 *** *** SCT * * * 12.5 02 ** ** ** ** ** ** ** 0   90   46 ****** ***** ****** *** *** *****  0.00 ***** ***** **
957070 ***** 201503110400 320  17 *** *** SCT * * * 12.5 03 ** ** ** ** ** ** ** *   92   48 ****** ***** ****** *** *** *****  0.00 ***** ***** **
957070 ***** 201503112200 180   2 *** *** SCT * * *  6.2 05 ** ** ** ** ** ** ** 0   68   43 ****** ***** ****** *** *** ***** ***** ***** ***** **
957070 ***** 201503120400 230  16 *** *** SCT * * * 12.5 02 ** ** ** ** ** ** ** 0   88   33 ****** ***** ****** *** *** ***** ***** ***** ***** **
957070 ***** 201503122200 180   7 *** 722 CLR * * *  6.2 05 ** ** ** ** ** ** ** 0   58   43 ****** ***** ****** *** *** ***** ***** ***** ***** **
957070 ***** 201503130400 270   2 *** *** SCT * * * 12.5 02 ** ** ** ** ** ** ** 0   81   37 ****** ***** ****** *** *** ***** ***** ***** ***** **
957070 ***** 201503132200 360   7 *** 722 CLR * * *  9.4 02 ** ** ** ** ** ** ** 0   67   53 ****** ***** ****** *** *** ***** ***** ***** ***** **
957070 ***** 201503140400 230   2 *** *** SCT * * * 12.5 03 ** ** ** ** ** ** ** 0   86   48 ****** ***** ****** *** *** ***** ***** ***** ***** **
957070 ***** 201503142200 200   7 *** *** SCT * * *  9.4 02 ** ** ** ** ** ** ** 0   71   36 ****** ***** ****** *** *** ***** ***** ***** ***** **
957070 ***** 201503150400 200   8 *** *** SCT * * * 12.5 02 ** ** ** ** ** ** ** 0   87   37 ****** ***** ****** *** *** ***** ***** ***** ***** **
957070 ***** 201503152200 090   7 *** *** SCT * * *  9.4 03 ** ** ** ** ** ** ** 0   67   46 ****** ***** ****** *** *** ***** ***** ***** ***** **
957070 ***** 201503160400 020  10 *** *** SCT * * * 12.5 02 ** ** ** ** ** ** ** 0   85   45 ****** ***** ****** *** *** ***** ***** ***** ***** **
957070 ***** 201503162200 050  11 *** *** OVC * * *  6.2 50 ** ** ** ** ** ** ** 5   71   45 ****** ***** ****** *** *** ***** ***** ***** ***** **
957070 ***** 201503170400 360  16 *** *** BKN * * * 12.5 02 ** ** ** ** ** ** ** 5   87   43 ****** ***** ****** *** *** ***** ***** ***** ***** **
957070 ***** 201503172200 200   2 *** *** SCT * * *  6.2 05 ** ** ** ** ** ** ** 1   75   55 ****** ***** ****** *** *** ***** ***** ***** ***** **
957070 ***** 201503180400 250   8 *** *** SCT * * * 12.5 02 ** ** ** ** ** ** ** 0   85   51 ****** ***** ****** *** *** ***** ***** ***** ***** **
957070 ***** 201503182200 360   2 *** 722 CLR * * *  9.4 02 ** ** ** ** ** ** ** 0   71   53 ****** ***** ****** *** *** ***** ***** ***** ***** **
957070 ***** 201503190400 340   1 *** 722 CLR * * * 12.5 02 ** ** ** ** ** ** ** 0   93   49 ****** ***** ****** *** *** ***** ***** ***** ***** **
957070 ***** 201503192200 200  16 *** *** SCT * * *  3.1 07 ** ** ** ** ** ** ** 0   71   54 ****** ***** ****** *** *** ***** ***** ***** ***** **
957070 ***** 201503200400 230  17 *** 722 CLR * * *  3.1 07 ** ** ** ** ** ** ** 0   78   35 ****** ***** ****** *** *** ***** ***** ***** ***** **
957070 ***** 201503202200 130   7 *** *** SCT * * *  4.4 07 ** ** ** ** ** ** ** 0   62   49 ****** ***** ****** *** *** ***** ***** ***** ***** **
957070 ***** 201503210400 090  11 *** *** SCT * * * 12.5 02 ** ** ** ** ** ** ** 0   84   50 ****** ***** ****** *** *** ***** ***** ***** ***** **
957070 ***** 201503212200 130   7 *** *** SCT * * *  9.4 03 ** ** ** ** ** ** ** 0   64   49 ****** ***** ****** *** *** ***** ***** ***** ***** **
957070 ***** 201503220400 050   8 *** *** SCT * * * 15.6 03 ** ** ** ** ** ** ** 0   89   55 ****** ***** ****** *** *** ***** ***** ***** ***** **
957070 ***** 201503222200 360  11 *** *** SCT * * *  9.4 03 ** ** ** ** ** ** ** 0   76   58 ****** ***** ****** *** *** ***** ***** ***** ***** **
957070 ***** 201503230400 020  10 *** *** BKN * * * 12.5 03 ** ** ** ** ** ** ** 1   91   56 ****** ***** ****** *** *** ***** ***** ***** ***** **
957070 ***** 201503232200 200   4 *** *** BKN * * *  9.4 03 ** ** ** ** ** ** ** 5   63   53 ****** ***** ****** *** *** ***** ***** ***** ***** **
957070 ***** 201503240400 270  10 *** *** BKN * * * 12.5 02 ** ** ** ** ** ** ** 2   67   46 ****** ***** ****** *** *** ***** ***** ***** ***** **
957070 ***** 201503242200 360   0 *** *** SCT * * * 12.5 02 ** ** ** ** ** ** ** 1   53   42 ****** ***** ****** *** *** ***** ***** ***** ***** **
957070 ***** 201503250400 340   6 *** *** SCT * * * 15.6 02 ** ** ** ** ** ** ** 0   69   44 ****** ***** ****** *** *** ***** ***** ***** ***** **
957070 ***** 201503252200 230  16 *** *** SCT * * *  4.4 07 ** ** ** ** ** ** ** 0   57   41 ****** ***** ****** *** *** ***** ***** ***** ***** **
957070 ***** 201503260400 270  17 *** *** SCT * * * 12.5 02 ** ** ** ** ** ** ** 0   68   29 ****** ***** ****** *** *** ***** ***** ***** ***** **
957070 ***** 201503262200 230   7 *** 722 CLR * * *  6.2 07 ** ** ** ** ** ** ** 0   54   40 ****** ***** ****** *** *** ***** ***** ***** ***** **
957070 ***** 201503270400 230  10 *** 722 CLR * * * 12.5 02 ** ** ** ** ** ** ** 0   69   44 ****** ***** ****** *** *** ***** ***** ***** ***** **
957070 ***** 201503272200 180   4 *** *** SCT * * *  9.4 02 ** ** ** ** ** ** ** 0   55   38 ****** ***** ****** *** *** ***** ***** ***** ***** **
957070 ***** 201503280400 180   3 *** *** SCT * * * 12.5 03 ** ** ** ** ** ** ** 0   72   42 ****** ***** ****** *** *** ***** ***** ***** ***** **
957070 ***** 201503282200 140   2 *** *** BKN * * *  9.4 03 ** ** ** ** ** ** ** 2   63   40 ****** ***** ****** *** *** ***** ***** ***** ***** **
957070 ***** 201503292200 180   4 *** *** BKN * * *  9.4 03 ** ** ** ** ** ** ** 2   66   41 ****** ***** ****** *** *** ***** ***** ***** ***** **
957070 ***** 201503300400 180   2 *** *** SCT * * * 15.6 02 ** ** ** ** ** ** ** 1   79   40 ****** ***** ****** *** *** ***** ***** ***** ***** **
957070 ***** 201503302200 130   2 *** *** SCT * * *  9.4 02 ** ** ** ** ** ** ** 0   62   44 ****** ***** ****** *** *** ***** ***** ***** ***** **
957070 ***** 201503310400 130   7 *** *** SCT * * * 12.5 03 ** ** ** ** ** ** ** 0   83   49 ****** ***** ****** *** *** ***** ***** ***** ***** **
957070 ***** 201503312200 020  11 *** *** SCT * * *  9.4 02 ** ** ** ** ** ** ** 0   69   56 ****** ***** ****** *** *** ***** ***** ***** ***** **
957070 ***** 201504010400 020   7 *** *** BKN * * * 12.5 03 ** ** ** ** ** ** ** 1   87   50 ****** ***** ****** *** *** ***** ***** ***** ***** **
957070 ***** 201504012200 360   2 *** *** BKN * * * 12.5 03 ** ** ** ** ** ** ** 2   70   51 ****** ***** ****** *** *** ***** ***** ***** ***** **
957070 ***** 201504020400 270   4 *** *** OVC * * * 15.6 03 ** ** ** ** ** ** ** 2   72   59 ****** ***** ****** *** *** ***** ***** ***** ***** **
957070 ***** 201504022200 180   8 ***  33 OVC * * * 12.5 03 ** ** ** ** ** ** ** 2   60   33 ****** ***** ****** *** *** ***** ***** ***** ***** **
957070 ***** 201504030400 130   2 ***  33 BKN * * * 12.5 02 ** ** ** ** ** ** ** 0   75   44 ****** ***** ****** *** *** ***** ***** ***** ***** **
957070 ***** 201504032200 230   4 ***  33 BKN * * * 12.5 02 ** ** ** ** ** ** ** 2   69   59 ****** ***** ****** *** *** ***** ***** ***** ***** **
957070 ***** 201504040400 180   7 ***  33 BKN * * * 12.5 02 ** ** ** ** ** ** ** 2   72   61 ****** ***** ****** *** *** ***** ***** ***** ***** **
957070 ***** 201504042300 050   1 ***  33 BKN * * * 15.6 02 ** ** ** ** ** ** ** 2   67   58 ****** ***** ****** *** *** ***** *****  0.01 ***** **
957070 ***** 201504050500 230   2 ***  33 BKN * * * 15.6 02 ** ** ** ** ** ** ** 2   78   52 ****** ***** ****** *** *** ***** ***** ***** ***** **
957070 ***** 201504052300 230   3 ***  33 BKN * * * 12.5 02 ** ** ** ** ** ** ** 2   62   59 ****** ***** ****** *** *** ***** *****  0.04 ***** **
957070 ***** 201504060500 230   7 ***  33 BKN * * * 12.5 02 ** ** ** ** ** ** ** 6   75   53 ****** ***** ****** *** *** ***** ***** ***** ***** **
957070 ***** 201504062200 230   6 ***  20 OVC * * *  1.9 61 ** ** ** ** ** ** ** 5   50   49 ****** ***** ****** *** *** ***** ***** ***** ***** **
957070 ***** 201504070500 290  12 ***  20 OVC * * *  1.9 61 ** ** ** ** ** ** ** 6   51   49 ****** ***** ****** *** *** ***** ***** ***** ***** **
957070 ***** 201504072300 270  10 *** *** SCT * * *  9.4 02 ** ** ** ** ** ** ** 6   53   44 ****** ***** ****** *** *** ***** *****  0.43 ***** **
957070 ***** 201504080500 250  10 *** *** BKN * * * 15.6 03 ** ** ** ** ** ** ** 1   65   46 ****** ***** ****** *** *** ***** ***** ***** ***** **
957070 ***** 201504082300 310   2 *** 722 CLR * * *  6.2 02 ** ** ** ** ** ** ** 1   58   50 ****** ***** ****** *** *** ***** ***** ***** ***** **
957070 ***** 201504090500 230  11 *** *** SCT * * * 15.6 02 ** ** ** ** ** ** ** 0   69   44 ****** ***** ****** *** *** ***** ***** ***** ***** **
957070 ***** 201504092300 050   6 *** *** SCT * * * 12.5 02 ** ** ** ** ** ** ** 0   59   48 ****** ***** ****** *** *** ***** ***** ***** ***** **
957070 ***** 201504100500 200   3 *** *** SCT * * * 15.6 02 ** ** ** ** ** ** ** 0   73   45 ****** ***** ****** *** *** ***** ***** ***** ***** **
957070 ***** 201504102300 130   3 *** *** SCT * * * 12.5 02 ** ** ** ** ** ** ** 0   61   53 ****** ***** ****** *** *** ***** ***** ***** ***** **
957070 ***** 201504110500 200   2 *** *** SCT * * * 15.6 02 ** ** ** ** ** ** ** 0   74   45 ****** ***** ****** *** *** ***** ***** ***** ***** **
957070 ***** 201504112300 360   0 *** *** BKN * * *  9.4 02 ** ** ** ** ** ** ** 1   64   53 ****** ***** ****** *** *** ***** ***** ***** ***** **
957070 ***** 201504120500 360   0 *** *** BKN * * * 12.5 02 ** ** ** ** ** ** ** 2   75   46 ****** ***** ****** *** *** ***** ***** ***** ***** **
957070 ***** 201504122300 050   7 *** *** SCT * * *  9.4 02 ** ** ** ** ** ** ** 1   65   51 ****** ***** ****** *** *** ***** ***** ***** ***** **
957070 ***** 201504130500 110   3 *** *** SCT * * * 12.5 02 ** ** ** ** ** ** ** 0   78   46 ****** ***** ****** *** *** ***** ***** ***** ***** **
957070 ***** 201504132300 050   8 *** *** BKN * * *  6.2 02 ** ** ** ** ** ** ** 1   67   51 ****** ***** ****** *** *** ***** ***** ***** ***** **
957070 ***** 201504140500 090   8 *** *** BKN * * * 12.5 02 ** ** ** ** ** ** ** 2   82   45 ****** ***** ****** *** *** ***** ***** ***** ***** **
957070 ***** 201504142300 050   6 *** *** BKN * * * 12.5 02 ** ** ** ** ** ** ** 2   72   54 ****** ***** ****** *** *** ***** ***** ***** ***** **
957070 ***** 201504150500 320  14 *** *** BKN * * * 12.5 03 ** ** ** ** ** ** ** 1   86   45 ****** ***** ****** *** *** ***** ***** ***** ***** **
957070 ***** 201504152300 230   2 *** *** SCT * * *  9.4 02 ** ** ** ** ** ** ** 1   72   52 ****** ***** ****** *** *** ***** ***** ***** ***** **
957070 ***** 201504160500 130   2 *** *** BKN * * * 12.5 02 ** ** ** ** ** ** ** 1   83   56 ****** ***** ****** *** *** ***** ***** ***** ***** **
957070 ***** 201504162300 050   2 ***  33 OVC * * *  1.9 51 ** ** ** ** ** ** ** 6   63   62 ****** ***** ****** *** *** ***** *****  0.39 ***** **
957070 ***** 201504170500 070  14 ***  33 BKN * * * 12.5 02 ** ** ** ** ** ** ** 6   73   60 ****** ***** ****** *** *** *****  0.08 ***** ***** **
957070 ***** 201504172300 270   2 ***  33 OVC * * *  9.4 03 ** ** ** ** ** ** ** 2   72   52 ****** ***** ****** *** *** ***** *****  0.08 ***** **
957070 ***** 201504180500 320   8 ***  49 OVC * * *  1.2 65 ** ** ** ** ** ** ** 6   63   63 ****** ***** ****** *** *** *****  0.39 ***** ***** **
957070 ***** 201504182300 230  11 ***  33 BKN * * *  9.4 02 ** ** ** ** ** ** ** 6   55   44 ****** ***** ****** *** *** ***** ***** *****  0.35 **
957070 ***** 201504190500 230  14 *** *** SCT * * *  9.4 02 ** ** ** ** ** ** ** 1   66   45 ****** ***** ****** *** *** ***** ***** ***** ***** **
957070 ***** 201504192300 200  11 ***  49 BKN * * *  6.2 02 ** ** ** ** ** ** ** 5   48   41 ****** ***** ****** *** *** ***** *****  0.02 ***** **
957070 ***** 201504200500 180   2 ***  33 BKN * * *  1.9 51 ** ** ** ** ** ** ** 6   52   47 ****** ***** ****** *** *** *****  0.08 ***** ***** **
957070 ***** 201504202300 160  14 *** *** SCT * * *  6.2 02 ** ** ** ** ** ** ** 5   52   41 ****** ***** ****** *** *** ***** *****  0.08 ***** **
957070 ***** 201504210500 130  11 *** *** BKN * * *  9.4 03 ** ** ** ** ** ** ** 1   63   44 ****** ***** ****** *** *** ***** ***** ***** ***** **
957070 ***** 201504220500 230  11 *** *** SCT * * * 12.5 02 ** ** ** ** ** ** ** 0   71   43 ****** ***** ****** *** *** ***** ***** ***** ***** **
957070 ***** 201504222300 360   1 *** *** SCT * * * 12.5 02 ** ** ** ** ** ** ** 0   63   53 ****** ***** ****** *** *** ***** ***** ***** ***** **
957070 ***** 201504230500 270   1 *** *** SCT * * * 15.6 02 ** ** ** ** ** ** ** 0   73   51 ****** ***** ****** *** *** ***** ***** ***** ***** **
957070 ***** 201504232300 310   2 *** *** BKN * * *  9.4 02 ** ** ** ** ** ** ** 1   59   55 ****** ***** ****** *** *** ***** ***** ***** ***** **
957070 ***** 201504240500 310   8 *** *** SCT * * * 12.5 02 ** ** ** ** ** ** ** 1   72   50 ****** ***** ****** *** *** ***** ***** ***** ***** **
957070 ***** 201504242300 270   2 *** *** BKN * * *  9.4 03 ** ** ** ** ** ** ** 1   59   55 ****** ***** ****** *** *** ***** ***** ***** ***** **
957070 ***** 201504250500 230  14 ***  33 BKN * * * 12.5 03 ** ** ** ** ** ** ** 2   65   44 ****** ***** ****** *** *** ***** ***** ***** ***** **
957070 ***** 201504252300 200  17 ***  33 OVC * * *  6.2 03 ** ** ** ** ** ** ** 5   52   48 ****** ***** ****** *** *** ***** *****  0.03 ***** **
957070 ***** 201504260500 200  17 *** *** SCT * * * 12.5 02 ** ** ** ** ** ** ** 2   62   45 ****** ***** ****** *** *** ***** ***** ***** ***** **
957070 ***** 201504262300 200  14 *** 722 CLR * * *  9.4 02 ** ** ** ** ** ** ** 1   52   42 ****** ***** ****** *** *** ***** ***** ***** ***** **
957070 ***** 201504270500 230  14 *** *** SCT * * * 15.6 02 ** ** ** ** ** ** ** 0   63   41 ****** ***** ****** *** *** ***** ***** ***** ***** **
957070 ***** 201504272300 180   3 *** *** SCT * * * 12.5 02 ** ** ** ** ** ** ** 0   55   46 ****** ***** ****** *** *** ***** ***** ***** ***** **
957070 ***** 201504280500 230   2 *** *** SCT * * * 15.6 02 ** ** ** ** ** ** ** 0   64   40 ****** ***** ****** *** *** ***** ***** ***** ***** **
957070 ***** 201504282300 130   6 *** *** SCT * * *  9.4 02 ** ** ** ** ** ** ** 0   54   46 ****** ***** ****** *** *** ***** ***** ***** ***** **
957070 ***** 201504290500 090  11 *** *** SCT * * * 12.5 02 ** ** ** ** ** ** ** 0   71   47 ****** ***** ****** *** *** ***** ***** ***** ***** **
957070 ***** 201504292300 090  14 *** *** SCT * * * 12.5 02 ** ** ** ** ** ** ** 0   61   54 ****** ***** ****** *** *** ***** ***** ***** ***** **
957070 ***** 201504300500 070   8 *** *** BKN * * * 15.6 02 ** ** ** ** ** ** ** 1   70   50 ****** ***** ****** *** *** ***** ***** ***** ***** **
957070 ***** 201504302300 090  14 *** *** SCT * * * 12.5 02 ** ** ** ** ** ** ** 0   62   52 ****** ***** ****** *** *** ***** ***** ***** ***** **
957070 ***** 201505010500 070   8 *** *** SCT * * * 15.6 02 ** ** ** ** ** ** ** 0   73   54 ****** ***** ****** *** *** ***** ***** ***** ***** **
957070 ***** 201505012300 180   6 *** *** BKN * * * 12.5 02 ** ** ** ** ** ** ** 1   61   53 ****** ***** ****** *** *** ***** ***** ***** ***** **
957070 ***** 201505020500 110   8 *** *** BKN * * * 15.6 02 ** ** ** ** ** ** ** 2   74   53 ****** ***** ****** *** *** ***** ***** ***** ***** **
957070 ***** 201505022300 230   2 *** *** SCT * * * 12.5 02 ** ** ** ** ** ** ** 0   62   53 ****** ***** ****** *** *** ***** ***** ***** ***** **
957070 ***** 201505030500 230  11 *** 722 CLR * * * 15.6 02 ** ** ** ** ** ** ** 0   76   51 ****** ***** ****** *** *** ***** ***** ***** ***** **
957070 ***** 201505032300 360   0 *** 722 CLR * * * 12.5 02 ** ** ** ** ** ** ** 0   57   49 ****** ***** ****** *** *** ***** ***** ***** ***** **
957070 ***** 201505040500 360   0 *** *** SCT * * * 15.6 02 ** ** ** ** ** ** ** 0   75   48 ****** ***** ****** *** *** ***** ***** ***** ***** **
957070 ***** 201505042300 340  14 *** *** SCT * * * 12.5 02 ** ** ** ** ** ** ** 0   68   51 ****** ***** ****** *** *** ***** ***** ***** ***** **
957070 ***** 201505050500 270  19 *** *** SCT * * *  6.2 05 ** ** ** ** ** ** ** 0   74   50 ****** ***** ****** *** *** ***** ***** ***** ***** **
957070 ***** 201505052300 270   2 *** 722 CLR * * *  1.9 05 ** ** ** ** ** ** ** 0   53   43 ****** ***** ****** *** *** ***** ***** ***** ***** **
957070 ***** 201505060500 230  14 *** *** SCT * * * 12.5 02 ** ** ** ** ** ** ** 0   63   36 ****** ***** ****** *** *** ***** ***** ***** ***** **
957070 ***** 201505062300 230   3 *** *** SCT * * *  1.9 05 ** ** ** ** ** ** ** 0   54   46 ****** ***** ****** *** *** ***** ***** ***** ***** **
957070 ***** 201505070500 230  17 *** *** BKN * * * 12.5 03 ** ** ** ** ** ** ** 1   60   37 ****** ***** ****** *** *** ***** ***** ***** ***** **
957070 ***** 201505072300 200   2 *** 722 CLR * * *  9.4 02 ** ** ** ** ** ** ** 1   52   43 ****** ***** ****** *** *** ***** ***** ***** ***** **
957070 ***** 201505080500 230   3 *** *** SCT * * * 12.5 02 ** ** ** ** ** ** ** 0   62   39 ****** ***** ****** *** *** ***** ***** ***** ***** **
957070 ***** 201505082300 360   0 *** *** BKN * * * 12.5 03 ** ** ** ** ** ** ** *   57   40 ****** ***** ****** *** *** ***** ***** ***** ***** **
957070 ***** 201505090500 230  11 *** *** BKN * * * 15.6 02 ** ** ** ** ** ** ** *   65   36 ****** ***** ****** *** *** ***** ***** ***** ***** **
957070 ***** 201505092300 310  11 *** *** SCT * * * 12.5 02 ** ** ** ** ** ** ** 2   55   40 ****** ***** ****** *** *** ***** ***** ***** ***** **
957070 ***** 201505100500 250  17 *** *** OVC * * * 15.6 03 ** ** ** ** ** ** ** *   66   35 ****** ***** ****** *** *** ***** ***** ***** ***** **
957070 ***** 201505102300 270  17 *** *** OVC * * *  9.4 03 ** ** ** ** ** ** ** 2   54   49 ****** ***** ****** *** *** ***** ***** ***** ***** **
957070 ***** 201505110500 270  17 *** *** BKN * * *  9.4 02 ** ** ** ** ** ** ** 2   64   49 ****** ***** ****** *** *** ***** ***** ***** ***** **
957070 ***** 201505112300 250   8 *** *** BKN * * *  9.4 02 ** ** ** ** ** ** ** 2   58   51 ****** ***** ****** *** *** ***** ***** ***** ***** **
957070 ***** 201505120500 270  17 *** *** BKN * * * 12.5 02 ** ** ** ** ** ** ** 2   63   43 ****** ***** ****** *** *** ***** ***** ***** ***** **
957070 ***** 201505122300 230  14 *** *** SCT * * *  6.2 02 ** ** ** ** ** ** ** 1   46   36 ****** ***** ****** *** *** ***** ***** ***** ***** **
957070 ***** 201505140500 230  17 *** *** SCT * * * 18.8 02 ** ** ** ** ** ** ** 0   61   37 ****** ***** ****** *** *** ***** ***** ***** ***** **
957070 ***** 201505142300 130   6 *** *** *** * * *  0.3 47 ** ** ** ** ** ** ** 4   47   46 ****** ***** ****** *** *** ***** ***** ***** ***** **
957070 ***** 201505150500 090   2 *** 722 CLR * * * 15.6 02 ** ** ** ** ** ** ** 0   65   44 ****** ***** ****** *** *** ***** ***** ***** ***** **
957070 ***** 201505152300 130   2 *** 722 CLR * * *  9.4 02 ** ** ** ** ** ** ** 0   52   42 ****** ***** ****** *** *** ***** ***** ***** ***** **
957070 ***** 201505160500 360   0 *** *** SCT * * * 15.6 02 ** ** ** ** ** ** ** 0   70   43 ****** ***** ****** *** *** ***** ***** ***** ***** **
957070 ***** 201505162300 360   0 *** *** SCT * * *  9.4 02 ** ** ** ** ** ** ** 0   52   43 ****** ***** ****** *** *** ***** ***** ***** ***** **
957070 ***** 201505170500 180   2 *** *** SCT * * * 15.6 02 ** ** ** ** ** ** ** 0   69   47 ****** ***** ****** *** *** ***** ***** ***** ***** **
957070 ***** 201505172300 130   3 *** *** SCT * * *  9.4 02 ** ** ** ** ** ** ** 0   52   43 ****** ***** ****** *** *** ***** ***** ***** ***** **
957070 ***** 201505180500 050   2 *** *** SCT * * * 15.6 02 ** ** ** ** ** ** ** 0   73   49 ****** ***** ****** *** *** ***** ***** ***** ***** **
957070 ***** 201505182300 020  17 *** *** BKN * * *  9.4 03 ** ** ** ** ** ** ** 1   64   55 ****** ***** ****** *** *** ***** ***** ***** ***** **
957070 ***** 201505190500 050  14 *** *** BKN * * *  9.4 03 ** ** ** ** ** ** ** 6   67   61 ****** ***** ****** *** *** *****  0.12 ***** ***** **
957070 ***** 201505192300 310   3 *** *** SCT * * *  6.2 40 ** ** ** ** ** ** ** 9   58   57 ****** ***** ****** *** *** ***** *****  0.55 ***** **
957070 ***** 201505200500 270   8 *** *** BKN * * *  9.4 03 ** ** ** ** ** ** ** 1   65   54 ****** ***** ****** *** *** ***** ***** ***** ***** **
957070 ***** 201505202300 230  11 *** *** BKN * * *  6.2 40 ** ** ** ** ** ** ** 2   51   49 ****** ***** ****** *** *** ***** ***** ***** ***** **
957070 ***** 201505210500 230  14 *** *** BKN * * * 12.5 02 ** ** ** ** ** ** ** 2   59   47 ****** ***** ****** *** *** ***** ***** ***** ***** **
957070 ***** 201505212300 230   8 *** *** SCT * * *  6.2 40 ** ** ** ** ** ** ** 6   50   48 ****** ***** ****** *** *** ***** *****  0.04 ***** **
957070 ***** 201505220500 180   6 *** *** SCT * * * 12.5 02 ** ** ** ** ** ** ** 0   64   47 ****** ***** ****** *** *** ***** ***** ***** ***** **
957070 ***** 201505222300 *** *** *** 722 CLR * * * 12.5 02 ** ** ** ** ** ** ** 0   49   47 ****** ***** ****** *** *** ***** ***** ***** ***** **
957070 ***** 201505230500 090   2 *** *** SCT * * * 12.5 02 ** ** ** ** ** ** ** 0   62   44 ****** ***** ****** *** *** ***** ***** ***** ***** **
957070 ***** 201505232300 360   0 *** *** SCT * * *  9.4 02 ** ** ** ** ** ** ** 0   47   46 ****** ***** ****** *** *** ***** ***** ***** ***** **
957070 ***** 201505240500 130   6 *** *** BKN * * * 12.5 03 ** ** ** ** ** ** ** 1   66   56 ****** ***** ****** *** *** ***** ***** ***** ***** **
957070 ***** 201505242300 090   3 *** *** BKN * * *  9.4 02 ** ** ** ** ** ** ** 2   48   47 ****** ***** ****** *** *** ***** ***** ***** ***** **
957070 ***** 201505250500 360   0 *** *** BKN * * * 12.5 02 ** ** ** ** ** ** ** 2   64   47 ****** ***** ****** *** *** ***** ***** ***** ***** **
957070 ***** 201505252300 160   2 *** *** BKN * * *  6.2 02 ** ** ** ** ** ** ** 2   48   45 ****** ***** ****** *** *** ***** ***** ***** ***** **
957070 ***** 201505260500 110   2 *** *** BKN * * * 12.5 02 ** ** ** ** ** ** ** 2   62   50 ****** ***** ****** *** *** ***** ***** ***** ***** **
957070 ***** 201505262300 270   2 *** *** BKN * * *  3.1 50 ** ** ** ** ** ** ** 5   55   53 ****** ***** ****** *** *** ***** *****  0.02 ***** **
957070 ***** 201505270500 020   6 *** *** BKN * * *  9.4 02 ** ** ** ** ** ** ** 5   61   54 ****** ***** ****** *** *** *****  0.02 ***** ***** **
957070 ***** 201505280500 360   8 *** *** BKN * * *  9.4 03 ** ** ** ** ** ** ** 2   66   55 ****** ***** ****** *** *** ***** ***** ***** ***** **
957070 ***** 201505282300 180   2 ***  49 BKN * * *  6.2 11 ** ** ** ** ** ** ** 5   59   57 ****** ***** ****** *** *** ***** *****  0.20 ***** **
957070 ***** 201505290500 250   2 *** *** BKN * * * 12.5 02 ** ** ** ** ** ** ** 2   64   50 ****** ***** ****** *** *** ***** ***** ***** ***** **
957070 ***** 201505292300 140   2 *** *** OVC * * *  6.2 50 ** ** ** ** ** ** ** 5   51   49 ****** ***** ****** *** *** ***** ***** *****  0.01 **
957070 ***** 201505300500 140   2 *** *** OVC * * *  9.4 03 ** ** ** ** ** ** ** 5   56   43 ****** ***** ****** *** *** ***** ***** ***** ***** **
957070 ***** 201505302300 230   2 *** *** BKN * * *  6.2 02 ** ** ** ** ** ** ** 2   52   51 ****** ***** ****** *** *** ***** ***** ***** ***** **
957070 ***** 201505310500 230  11 *** *** BKN * * * 12.5 02 ** ** ** ** ** ** ** 2   61   44 ****** ***** ****** *** *** ***** ***** ***** ***** **
957070 ***** 201505312300 230  17 *** *** SCT * * *  6.2 02 ** ** ** ** ** ** ** 1   45   37 ****** ***** ****** *** *** ***** ***** ***** ***** **
957070 ***** 201506010500 230  17 *** *** SCT * * * 12.5 02 ** ** ** ** ** ** ** 0   54   29 ****** ***** ****** *** *** ***** ***** ***** ***** **
957070 ***** 201506012300 180   2 *** *** SCT * * *  6.2 02 ** ** ** ** ** ** ** 0   42   37 ****** ***** ****** *** *** ***** ***** ***** ***** **
957070 ***** 201506020500 160   2 *** *** BKN * * * 12.5 02 ** ** ** ** ** ** ** 1   52   37 ****** ***** ****** *** *** ***** ***** ***** ***** **
957070 ***** 201506022300 360   0 *** *** SCT * * *  1.2 11 ** ** ** ** ** ** ** 2   38   38 ****** ***** ****** *** *** ***** ***** ***** ***** **
957070 ***** 201506030500 200   2 *** *** BKN * * * 12.5 02 ** ** ** ** ** ** ** 2   52   37 ****** ***** ****** *** *** ***** ***** ***** ***** **
957070 ***** 201506032300 360   2 *** *** SCT * * *  1.9 41 ** ** ** ** ** ** ** 2   38   36 ****** ***** ****** *** *** ***** ***** ***** ***** **
957070 ***** 201506040500 360   2 *** *** SCT * * * 12.5 02 ** ** ** ** ** ** ** 1   57   36 ****** ***** ****** *** *** ***** ***** ***** ***** **
957070 ***** 201506042300 180   3 ***  33 OVC * * *  1.2 50 ** ** ** ** ** ** ** 5   48   46 ****** ***** ****** *** *** ***** *****  0.04 ***** **
957070 ***** 201506050500 230   3 ***  33 OVC * * *  9.4 02 ** ** ** ** ** ** ** 5   54   45 ****** ***** ****** *** *** ***** ***** ***** ***** **
957070 ***** 201506052300 230   3 *** *** SCT * * *  9.4 11 ** ** ** ** ** ** ** 0   43   41 ****** ***** ****** *** *** ***** ***** ***** ***** **
957070 ***** 201506060500 230   2 *** *** SCT * * * 12.5 02 ** ** ** ** ** ** ** 0   59   43 ****** ***** ****** *** *** ***** ***** ***** ***** **
957070 ***** 201506062300 360   0 *** *** SCT * * *  9.4 02 ** ** ** ** ** ** ** 0   42   41 ****** ***** ****** *** *** ***** ***** ***** ***** **
957070 ***** 201506070500 320  11 *** *** SCT * * * 12.5 02 ** ** ** ** ** ** ** 0   66   43 ****** ***** ****** *** *** ***** ***** ***** ***** **
957070 ***** 201506072300 040   2 *** *** SCT * * *  9.4 02 ** ** ** ** ** ** ** *   56   42 ****** ***** ****** *** *** ***** ***** ***** ***** **
957070 ***** 201506080500 360  11 *** *** SCT * * * 12.5 02 ** ** ** ** ** ** ** *   70   45 ****** ***** ****** *** *** ***** ***** ***** ***** **
957070 ***** 201506082300 360   0 *** *** SCT * * *  6.2 02 ** ** ** ** ** ** ** 0   50   42 ****** ***** ****** *** *** ***** ***** ***** ***** **
957070 ***** 201506090500 250   8 *** *** BKN * * * 12.5 03 ** ** ** ** ** ** ** 1   62   46 ****** ***** ****** *** *** ***** ***** ***** ***** **
957070 ***** 201506092300 230   2 *** 722 CLR * * *  6.2 02 ** ** ** ** ** ** ** 1   41   37 ****** ***** ****** *** *** ***** ***** ***** ***** **
957070 ***** 201506100500 180   6 *** *** SCT * * * 12.5 02 ** ** ** ** ** ** ** 0   58   39 ****** ***** ****** *** *** ***** ***** ***** ***** **
957070 ***** 201506102300 180   6 *** 722 CLR * * *  6.2 02 ** ** ** ** ** ** ** 0   48   43 ****** ***** ****** *** *** ***** ***** ***** ***** **
957070 ***** 201506110500 090   8 *** *** SCT * * * 12.5 02 ** ** ** ** ** ** ** 0   65   46 ****** ***** ****** *** *** ***** ***** ***** ***** **
957070 ***** 201506112300 180  15 *** *** SCT * * *  3.1 40 ** ** ** ** ** ** ** 1   47   44 ****** ***** ****** *** *** ***** ***** ***** ***** **
957070 ***** 201506120500 090   6 *** *** BKN * * * 12.5 02 ** ** ** ** ** ** ** 2   63   45 ****** ***** ****** *** *** ***** ***** ***** ***** **
957070 ***** 201506122300 360   0 *** *** BKN * * *  6.2 02 ** ** ** ** ** ** ** 2   47   44 ****** ***** ****** *** *** ***** ***** ***** ***** **
957070 ***** 201506130500 360   0 *** *** BKN * * * 12.5 02 ** ** ** ** ** ** ** *   64   49 ****** ***** ****** *** *** ***** ***** ***** ***** **
957070 ***** 201506132300 360   0 *** *** SCT * * *  6.2 02 ** ** ** ** ** ** ** 2   49   46 ****** ***** ****** *** *** ***** ***** ***** ***** **
957070 ***** 201506140500 050   6 *** *** BKN * * * 12.5 03 ** ** ** ** ** ** ** 2   66   45 ****** ***** ****** *** *** ***** ***** ***** ***** **
957070 ***** 201506142300 110  11 *** *** BKN * * *  9.4 03 ** ** ** ** ** ** ** 2   54   46 ****** ***** ****** *** *** ***** ***** ***** ***** **
957070 ***** 201506150500 090   3 ***  33 OVC * * *  1.2 63 ** ** ** ** ** ** ** 5   55   54 ****** ***** ****** *** *** *****  0.24 ***** ***** **
957070 ***** 201506152300 360   0 ***  33 BKN * * *  1.2 53 ** ** ** ** ** ** ** 6   57   57 ****** ***** ****** *** *** ***** *****  0.91 ***** **
957070 ***** 201506160500 090   2 ***  33 OVC * * *  0.9 55 ** ** ** ** ** ** ** 6   60   59 ****** ***** ****** *** *** *****  0.24 ***** ***** **
957070 ***** 201506162300 230   6 ***  33 BKN * * *  6.2 02 ** ** ** ** ** ** ** 6   56   53 ****** ***** ****** *** *** ***** *****  0.75 ***** **
957070 ***** 201506170500 230   8 ***  33 BKN * * *  9.4 02 ** ** ** ** ** ** ** 2   56   51 ****** ***** ****** *** *** ***** ***** ***** ***** **
957070 ***** 201506172300 360   2 ***  33 BKN * * *  4.4 40 ** ** ** ** ** ** ** 2   50   49 ****** ***** ****** *** *** ***** *****  0.02 ***** **
957070 ***** 201506180500 270   3 ***  33 BKN * * *  9.4 02 ** ** ** ** ** ** ** 5   58   48 ****** ***** ****** *** *** ***** ***** ***** ***** **
957070 ***** 201506182300 230   3 ***  33 BKN * * *  6.2 03 ** ** ** ** ** ** ** 2   51   49 ****** ***** ****** *** *** ***** *****  0.02 ***** **
957070 ***** 201506190500 180   3 ***  33 BKN * * *  9.4 02 ** ** ** ** ** ** ** 5   57   46 ****** ***** ****** *** *** ***** ***** ***** ***** **
957070 ***** 201506192300 320   3 *** 722 CLR * * *  3.1 40 ** ** ** ** ** ** ** 8   46   44 ****** ***** ****** *** *** ***** ***** ***** ***** **
957070 ***** 201506200500 140   6 *** *** SCT * * * 12.5 02 ** ** ** ** ** ** ** 0   55   42 ****** ***** ****** *** *** ***** ***** ***** ***** **
957070 ***** 201506202300 360   0 *** 722 CLR * * * 15.6 02 ** ** ** ** ** ** ** 0   39   38 ****** ***** ****** *** *** ***** ***** ***** ***** **
957070 ***** 201506212300 130   2 *** *** SCT * * *  4.4 40 ** ** ** ** ** ** ** 0   44   41 ****** ***** ****** *** *** ***** ***** ***** ***** **
957070 ***** 201506220500 360   3 *** *** SCT * * * 12.5 03 ** ** ** ** ** ** ** 1   61   42 ****** ***** ****** *** *** ***** ***** ***** ***** **
957070 ***** 201506222300 020   8 *** *** SCT * * *  9.4 02 ** ** ** ** ** ** ** 0   51   45 ****** ***** ****** *** *** ***** ***** ***** ***** **
957070 ***** 201506230500 050   8 *** *** BKN * * * 12.5 03 ** ** ** ** ** ** ** 1   64   51 ****** ***** ****** *** *** ***** ***** ***** ***** **
957070 ***** 201506232300 360   0 ***  33 BKN * * *  3.1 61 ** ** ** ** ** ** ** 5   53   52 ****** ***** ****** *** *** ***** *****  0.12 ***** **
957070 ***** 201506240500 360   0 ***  33 BKN * * *  1.9 60 ** ** ** ** ** ** ** 5   57   55 ****** ***** ****** *** *** *****  0.03 ***** ***** **
957070 ***** 201506242300 250   8 *** *** BKN * * *  3.1 40 ** ** ** ** ** ** ** 5   51   49 ****** ***** ****** *** *** ***** *****  0.04 ***** **
957070 ***** 201506250500 230  14 *** *** SCT * * *  9.4 02 ** ** ** ** ** ** ** 1   55   45 ****** ***** ****** *** *** ***** ***** ***** ***** **
957070 ***** 201506252300 360   0 *** *** *** * * *  0.0 45 ** ** ** ** ** ** ** 4   41   41 ****** ***** ****** *** *** ***** *****  0.01 ***** **
957070 ***** 201506260500 270   2 *** 722 CLR * * *  9.4 02 ** ** ** ** ** ** ** 0   57   45 ****** ***** ****** *** *** ***** ***** ***** ***** **
957070 ***** 201506262300 360   0 *** *** *** * * *  0.1 45 ** ** ** ** ** ** ** *   41   40 ****** ***** ****** *** *** ***** *****  0.01 ***** **
957070 ***** 201506270500 230   3 *** *** SCT * * *  9.4 03 ** ** ** ** ** ** ** 4   58   45 ****** ***** ****** *** *** ***** ***** ***** ***** **
957070 ***** 201506272300 360   0 *** 722 CLR * * *  0.6 40 ** ** ** ** ** ** ** 0   42   40 ****** ***** ****** *** *** ***** ***** ***** ***** **
957070 ***** 201506280500 130   3 *** *** SCT * * *  9.4 02 ** ** ** ** ** ** ** 0   52   42 ****** ***** ****** *** *** ***** ***** ***** ***** **
957070 ***** 201506282300 360   0 *** *** *** * * *  0.0 45 ** ** ** ** ** ** ** 4   35   33 ****** ***** ****** *** *** ***** *****  0.01 ***** **
957070 ***** 201506290500 310   2 *** *** SCT * * *  9.4 02 ** ** ** ** ** ** ** 4   53   40 ****** ***** ****** *** *** ***** ***** ***** ***** **
957070 ***** 201506292300 360   0 ***  33 BKN * * *  0.6 41 ** ** ** ** ** ** ** 5   44   42 ****** ***** ****** *** *** ***** *****  0.02 ***** **
957070 ***** 201506300500 200   3 ***  33 BKN * * *  1.9 50 ** ** ** ** ** ** ** 5   51   43 ****** ***** ****** *** *** ***** ***** ***** ***** **
957070 ***** 201506302300 360   0 *** *** *** * * *  0.0 47 ** ** ** ** ** ** ** 5   33   33 ****** ***** ****** *** *** ***** *****  0.03 ***** **
957070 ***** 201507010500 270   3 *** *** BKN * * *  9.4 03 ** ** ** ** ** ** ** 4   53   39 ****** ***** ****** *** *** ***** ***** ***** ***** **
957070 ***** 201507012300 310   2 *** *** SCT * * *  1.9 40 ** ** ** ** ** ** ** 0   42   39 ****** ***** ****** *** *** ***** ***** ***** ***** **
957070 ***** 201507020500 270   3 *** *** SCT * * *  9.4 03 ** ** ** ** ** ** ** 0   54   45 ****** ***** ****** *** *** ***** ***** ***** ***** **
957070 ***** 201507022300 180   3 *** 722 CLR * * *  3.1 40 ** ** ** ** ** ** ** 0   39   35 ****** ***** ****** *** *** ***** ***** ***** ***** **
957070 ***** 201507030500 340   3 *** *** SCT * * * 12.5 02 ** ** ** ** ** ** ** 0   53   35 ****** ***** ****** *** *** ***** ***** ***** ***** **
957070 ***** 201507032300 160   3 *** *** BKN * * *  3.1 40 ** ** ** ** ** ** ** 1   39   37 ****** ***** ****** *** *** ***** ***** ***** ***** **
957070 ***** 201507040500 090   3 *** *** SCT * * *  9.4 02 ** ** ** ** ** ** ** 1   51   36 ****** ***** ****** *** *** ***** ***** ***** ***** **
957070 ***** 201507042300 360   0 *** *** SCT * * *  3.1 40 ** ** ** ** ** ** ** 0   34   33 ****** ***** ****** *** *** ***** ***** ***** ***** **
957070 ***** 201507050500 360   2 *** *** SCT * * * 12.5 02 ** ** ** ** ** ** ** 0   53   40 ****** ***** ****** *** *** ***** ***** ***** ***** **
957070 ***** 201507052300 360   2 *** *** BKN * * *  3.1 40 ** ** ** ** ** ** ** 2   39   38 ****** ***** ****** *** *** ***** ***** ***** ***** **
957070 ***** 201507060500 230   6 *** *** SCT * * * 12.5 02 ** ** ** ** ** ** ** 0   58   41 ****** ***** ****** *** *** ***** ***** ***** ***** **
957070 ***** 201507062300 310   2 *** *** BKN * * *  6.2 03 ** ** ** ** ** ** ** 1   45   42 ****** ***** ****** *** *** ***** ***** ***** ***** **
957070 ***** 201507070500 180   6 *** *** SCT * * * 12.5 02 ** ** ** ** ** ** ** 1   59   43 ****** ***** ****** *** *** ***** ***** ***** ***** **
957070 ***** 201507072300 230   2 *** 722 CLR * * *  6.2 02 ** ** ** ** ** ** ** 0   41   39 ****** ***** ****** *** *** ***** ***** ***** ***** **
957070 ***** 201507080500 050   6 *** *** SCT * * * 12.5 02 ** ** ** ** ** ** ** 0   60   42 ****** ***** ****** *** *** ***** ***** ***** ***** **
957070 ***** 201507082300 130   2 *** *** SCT * * *  9.4 02 ** ** ** ** ** ** ** 0   44   41 ****** ***** ****** *** *** ***** ***** ***** ***** **
957070 ***** 201507090500 050  11 *** *** SCT * * * 12.5 02 ** ** ** ** ** ** ** 0   62   46 ****** ***** ****** *** *** ***** ***** ***** ***** **
957070 ***** 201507092300 050   6 ***  33 BKN * * *  9.4 16 ** ** ** ** ** ** ** 6   52   51 ****** ***** ****** *** *** ***** *****  0.55 ***** **
957070 ***** 201507100500 130   3 *** *** SCT * * * 12.5 02 ** ** ** ** ** ** ** 1   60   51 ****** ***** ****** *** *** ***** ***** ***** ***** **
957070 ***** 201507102300 020   6 *** *** BKN * * *  9.4 03 ** ** ** ** ** ** ** 0   51   49 ****** ***** ****** *** *** ***** ***** ***** ***** **
957070 ***** 201507110500 360  11 ***  33 BKN * * *  9.4 15 ** ** ** ** ** ** ** 8   54   52 ****** ***** ****** *** *** *****  0.04 ***** ***** **
957070 ***** 201507112300 310  17 ***  33 OVC * * *  3.1 50 ** ** ** ** ** ** ** 5   45   43 ****** ***** ****** *** *** ***** ***** *****  0.12 **
957070 ***** 201507120500 230  19 *** *** OVC * * *  1.9 52 ** ** ** ** ** ** ** 6   45   44 ****** ***** ****** *** *** *****  0.08 ***** ***** **
957070 ***** 201507122300 270  23 ***  33 OVC * * *  3.1 50 ** ** ** ** ** ** ** 5   46   44 ****** ***** ****** *** *** ***** *****  0.24 ***** **
957070 ***** 201507130500 270  17 ***  33 BKN * * *  9.4 02 ** ** ** ** ** ** ** 5   51   41 ****** ***** ****** *** *** ***** ***** ***** ***** **
957070 ***** 201507132300 270   6 ***  33 BKN * * *  9.4 02 ** ** ** ** ** ** ** 5   46   37 ****** ***** ****** *** *** ***** *****  0.04 ***** **
957070 ***** 201507140500 290   3 ***  33 BKN * * *  9.4 02 ** ** ** ** ** ** ** 2   48   37 ****** ***** ****** *** *** ***** ***** ***** ***** **
957070 ***** 201507142300 310   3 ***  33 OVC * * *  1.9 63 ** ** ** ** ** ** ** 6   45   44 ****** ***** ****** *** *** ***** *****  0.20 ***** **
957070 ***** 201507150500 180   6 ***  33 OVC * * *  1.9 51 ** ** ** ** ** ** ** 6   46   40 ****** ***** ****** *** *** *****  0.12 ***** ***** **
957070 ***** 201507152300 250   2 ***  20 OVC * * *  6.2 03 ** ** ** ** ** ** ** 5   41   39 ****** ***** ****** *** *** ***** *****  0.20 ***** **
957070 ***** 201507160500 360   0 ***  20 OVC * * *  1.9 51 ** ** ** ** ** ** ** 5   43   41 ****** ***** ****** *** *** *****  0.08 ***** ***** **
957070 ***** 201507162300 230  11 ***  33 BKN * * *  6.2 02 ** ** ** ** ** ** ** 5   42   38 ****** ***** ****** *** *** ***** *****  0.20 ***** **
957070 ***** 201507170500 230  14 ***  33 BKN * * *  9.4 02 ** ** ** ** ** ** ** 2   51   42 ****** ***** ****** *** *** ***** ***** ***** ***** **
957070 ***** 201507172300 360   2 *** *** SCT * * *  6.2 02 ** ** ** ** ** ** ** 1   42   39 ****** ***** ****** *** *** ***** *****  0.01 ***** **
957070 ***** 201507180500 180   2 *** *** SCT * * * 12.5 02 ** ** ** ** ** ** ** 0   52   37 ****** ***** ****** *** *** ***** ***** ***** ***** **
957070 ***** 201507182300 160   2 *** 722 CLR * * *  3.1 41 ** ** ** ** ** ** ** 0   38   38 ****** ***** ****** *** *** ***** ***** ***** ***** **
957070 ***** 201507190500 160   6 *** *** SCT * * * 12.5 02 ** ** ** ** ** ** ** 0   55   42 ****** ***** ****** *** *** ***** ***** ***** ***** **
957070 ***** 201507192300 160   3 *** 722 CLR * * *  6.2 02 ** ** ** ** ** ** ** 0   42   40 ****** ***** ****** *** *** ***** ***** ***** ***** **
957070 ***** 201507200500 160   3 *** *** SCT * * * 12.5 02 ** ** ** ** ** ** ** 0   55   41 ****** ***** ****** *** *** ***** ***** ***** ***** **
957070 ***** 201507202300 050   2 *** *** SCT * * *  4.4 40 ** ** ** ** ** ** ** 0   48   46 ****** ***** ****** *** *** ***** ***** ***** ***** **
957070 ***** 201507210500 050  14 *** *** BKN * * * 12.5 03 ** ** ** ** ** ** ** 1   62   48 ****** ***** ****** *** *** ***** ***** ***** ***** **
957070 ***** 201507212300 250   3 *** *** BKN * * *  9.4 03 ** ** ** ** ** ** ** 2   54   48 ****** ***** ****** *** *** ***** ***** ***** ***** **
957070 ***** 201507220500 020   6 ***  33 OVC * * *  1.9 51 ** ** ** ** ** ** ** 6   53   52 ****** ***** ****** *** *** *****  0.43 ***** ***** **
957070 ***** 201507222300 070   2 *** *** *** * * *  0.3 47 ** ** ** ** ** ** ** 4   46   46 ****** ***** ****** *** *** ***** *****  0.47 ***** **
957070 ***** 201507230500 050   3 *** *** SCT * * * 12.5 02 ** ** ** ** ** ** ** 4   57   50 ****** ***** ****** *** *** ***** ***** ***** ***** **
957070 ***** 201507232300 360   2 *** *** BKN * * *  6.2 02 ** ** ** ** ** ** ** 6   51   50 ****** ***** ****** *** *** ***** *****  0.04 ***** **
957070 ***** 201507240500 310   2 *** *** BKN * * *  6.2 02 ** ** ** ** ** ** ** 6   57   53 ****** ***** ****** *** *** *****  0.20 ***** ***** **
957070 ***** 201507242300 360   0 *** *** SCT * * *  4.4 40 ** ** ** ** ** ** ** 0   42   41 ****** ***** ****** *** *** ***** *****  0.20 ***** **
957070 ***** 201507250500 290  11 *** *** SCT * * *  9.4 03 ** ** ** ** ** ** ** 0   60   46 ****** ***** ****** *** *** ***** ***** ***** ***** **
957070 ***** 201507252300 320  11 *** *** BKN * * *  9.4 03 ** ** ** ** ** ** ** *   52   42 ****** ***** ****** *** *** ***** ***** ***** ***** **
957070 ***** 201507260500 250  14 *** *** OVC * * * 12.5 03 ** ** ** ** ** ** ** 2   52   42 ****** ***** ****** *** *** ***** ***** ***** ***** **
957070 ***** 201507262300 360   0 *** 722 CLR * * *  2.5 41 ** ** ** ** ** ** ** 0   41   39 ****** ***** ****** *** *** ***** ***** ***** ***** **
957070 ***** 201507270500 270   8 *** *** SCT * * *  9.4 02 ** ** ** ** ** ** ** 0   51   33 ****** ***** ****** *** *** ***** ***** ***** ***** **
957070 ***** 201507272300 180   2 *** 722 CLR * * *  6.2 02 ** ** ** ** ** ** ** 0   46   42 ****** ***** ****** *** *** ***** ***** ***** ***** **
957070 ***** 201507280500 230   6 *** *** SCT * * *  9.4 03 ** ** ** ** ** ** ** 0   56   39 ****** ***** ****** *** *** ***** ***** ***** ***** **
957070 ***** 201507282300 180   2 *** *** SCT * * *  2.5 40 ** ** ** ** ** ** ** 0   42   41 ****** ***** ****** *** *** ***** ***** ***** ***** **
957070 ***** 201507290500 050   6 *** *** BKN * * *  9.4 03 ** ** ** ** ** ** ** 1   57   41 ****** ***** ****** *** *** ***** ***** ***** ***** **
957070 ***** 201507292300 020   2 *** *** SCT * * *  4.4 40 ** ** ** ** ** ** ** 0   45   41 ****** ***** ****** *** *** ***** ***** ***** ***** **
957070 ***** 201507300500 340   2 *** *** BKN * * *  9.4 03 ** ** ** ** ** ** ** 1   59   39 ****** ***** ****** *** *** ***** ***** ***** ***** **
957070 ***** 201507302300 310   2 *** 722 CLR * * *  9.4 02 ** ** ** ** ** ** ** 0   47   40 ****** ***** ****** *** *** ***** ***** ***** ***** **
957070 ***** 201507310500 310   2 *** *** SCT * * * 12.5 02 ** ** ** ** ** ** ** 0   62   45 ****** ***** ****** *** *** ***** ***** ***** ***** **
957070 ***** 201507312300 310   2 *** *** BKN * * * 12.5 03 ** ** ** ** ** ** ** 5   55   45 ****** ***** ****** *** *** ***** ***** ***** ***** **
957070 ***** 201508012300 340   2 *** *** SCT * * *  9.4 02 ** ** ** ** ** ** ** 5   51   50 ****** ***** ****** *** *** ***** ***** ***** ***** **
957070 ***** 201508022300 310   6 *** *** BKN * * *  9.4 03 ** ** ** ** ** ** ** 2   47   43 ****** ***** ****** *** *** ***** ***** ***** ***** **
957070 ***** 201508032300 180   6 *** *** BKN * * *  6.2 02 ** ** ** ** ** ** ** 2   45   36 ****** ***** ****** *** *** ***** ***** ***** ***** **
957070 ***** 201508042300 230   6 *** *** BKN * * *  6.2 02 ** ** ** ** ** ** ** 5   43   38 ****** ***** ****** *** *** ***** *****  0.01 ***** **
957070 ***** 201508052300 230   3 *** 722 CLR * * *  6.2 02 ** ** ** ** ** ** ** 0   44   40 ****** ***** ****** *** *** ***** *****  0.12 ***** **
957070 ***** 201508062300 360   2 *** *** SCT * * *  6.2 03 ** ** ** ** ** ** ** 0   46   44 ****** ***** ****** *** *** ***** ***** ***** ***** **
957070 ***** 201508072300 270   6 *** *** BKN * * *  6.2 03 ** ** ** ** ** ** ** 2   50   48 ****** ***** ****** *** *** ***** ***** ***** ***** **
957070 ***** 201508082300 360   0 *** *** OVC * * *  6.2 03 ** ** ** ** ** ** ** 2   41   39 ****** ***** ****** *** *** ***** ***** ***** ***** **
957070 ***** 201508092300 360   3 *** *** SCT * * *  6.2 02 ** ** ** ** ** ** ** 0   47   40 ****** ***** ****** *** *** ***** ***** ***** ***** **
957070 ***** 201508102300 360   2 *** *** BKN * * *  6.2 03 ** ** ** ** ** ** ** 1   46   44 ****** ***** ****** *** *** ***** ***** ***** ***** **
957070 ***** 201508112300 290  14 *** *** BKN * * *  6.2 03 ** ** ** ** ** ** ** 5   47   46 ****** ***** ****** *** *** ***** *****  0.02 ***** **
957070 ***** 201508122300 290   3 *** *** SCT * * *  6.2 02 ** ** ** ** ** ** ** 5   45   44 ****** ***** ****** *** *** ***** *****  0.12 ***** **
957070 ***** 201508132300 270   2 *** *** BKN * * *  6.2 03 ** ** ** ** ** ** ** *   52   50 ****** ***** ****** *** *** ***** ***** ***** ***** **
957070 ***** 201508142300 360   0 *** *** BKN * * *  6.2 03 ** ** ** ** ** ** ** *   53   47 ****** ***** ****** *** *** ***** ***** ***** ***** **
957070 ***** 201508152300 360   0 *** *** SCT * * *  9.4 02 ** ** ** ** ** ** ** 0   41   40 ****** ***** ****** *** *** ***** ***** ***** ***** **
957070 ***** 201508162300 290   6 *** *** SCT * * *  9.4 02 ** ** ** ** ** ** ** 1   48   47 ****** ***** ****** *** *** ***** ***** ***** ***** **
957070 ***** 201508172300 110   3 *** *** SCT * * *  6.2 03 ** ** ** ** ** ** ** 1   48   47 ****** ***** ****** *** *** ***** *****  0.01 ***** **
957070 ***** 201508182300 360   0 *** *** SCT * * *  4.4 40 ** ** ** ** ** ** ** 0   44   42 ****** ***** ****** *** *** ***** ***** ***** ***** **
957070 ***** 201508192300 090   2 *** *** SCT * * *  6.2 02 ** ** ** ** ** ** ** 0   48   47 ****** ***** ****** *** *** ***** ***** ***** ***** **
957070 ***** 201508202300 050  11 *** *** SCT * * *  6.2 03 ** ** ** ** ** ** ** 0   53   42 ****** ***** ****** *** *** ***** ***** ***** ***** **
957070 ***** 201508212300 360  17 *** *** SCT * * *  9.4 02 ** ** ** ** ** ** ** 1   57   42 ****** ***** ****** *** *** ***** ***** ***** ***** **
957070 ***** 201508222300 320   6 *** *** BKN * * *  9.4 03 ** ** ** ** ** ** ** 5   60   56 ****** ***** ****** *** *** ***** *****  0.20 ***** **
957070 ***** 201508232300 070  17 ***  33 OVC * * *  2.5 50 ** ** ** ** ** ** ** 9   58   57 ****** ***** ****** *** *** ***** ***** *****  0.24 **
957070 ***** 201508242300 180   8 ***  20 OVC * * *  1.2 51 ** ** ** ** ** ** ** 5   50   48 ****** ***** ****** *** *** ***** *****  0.35 ***** **
957070 ***** 201508252300 180   6 *** *** BKN * * *  6.2 02 ** ** ** ** ** ** ** 2   52   46 ****** ***** ****** *** *** ***** *****  0.02 ***** **
957070 ***** 201508262300 360   0 ***  20 BKN * * *  6.2 02 ** ** ** ** ** ** ** 5   52   51 ****** ***** ****** *** *** ***** *****  0.02 ***** **
957070 ***** 201508272300 200   3 *** *** SCT * * *  6.2 02 ** ** ** ** ** ** ** 1   50   45 ****** ***** ****** *** *** ***** *****  0.12 ***** **
957070 ***** 201508282300 230   8 *** 722 CLR * * *  9.4 02 ** ** ** ** ** ** ** 0   50   43 ****** ***** ****** *** *** ***** ***** ***** ***** **
957070 ***** 201508292300 230   6 *** *** SCT * * *  9.4 02 ** ** ** ** ** ** ** 0   46   42 ****** ***** ****** *** *** ***** ***** ***** ***** **
957070 ***** 201508302300 230   3 *** *** SCT * * *  6.2 02 ** ** ** ** ** ** ** 0   50   44 ****** ***** ****** *** *** ***** ***** ***** ***** **
957070 ***** 201508312300 340   2 *** 722 CLR * * *  9.4 02 ** ** ** ** ** ** ** 0   49   43 ****** ***** ****** *** *** ***** ***** ***** ***** **
957070 ***** 201509012300 050  14 *** *** SCT * * *  6.2 03 ** ** ** ** ** ** ** 0   55   49 ****** ***** ****** *** *** ***** ***** ***** ***** **
957070 ***** 201509022300 310   6 *** *** BKN * * *  6.2 02 ** ** ** ** ** ** ** 5   52   50 ****** ***** ****** *** *** ***** *****  0.47 ***** **
957070 ***** 201509032300 230   2 *** *** SCT * * *  6.2 02 ** ** ** ** ** ** ** 0   49   45 ****** ***** ****** *** *** ***** *****  0.02 ***** **
957070 ***** 201509042300 320   2 *** *** SCT * * *  6.2 02 ** ** ** ** ** ** ** 0   50   46 ****** ***** ****** *** *** ***** ***** ***** ***** **
957070 ***** 201509052300 140   2 *** *** BKN * * *  6.2 02 ** ** ** ** ** ** ** 1   47   45 ****** ***** ****** *** *** ***** ***** ***** ***** **
957070 ***** 201509062300 230   8 *** *** BKN * * *  6.2 02 ** ** ** ** ** ** ** 2   52   50 ****** ***** ****** *** *** ***** ***** ***** ***** **
957070 ***** 201509072300 270   3 *** *** SCT * * *  6.2 02 ** ** ** ** ** ** ** 0   50   44 ****** ***** ****** *** *** ***** ***** ***** ***** **
957070 ***** 201509082300 230   2 *** 722 CLR * * *  9.4 02 ** ** ** ** ** ** ** 0   49   43 ****** ***** ****** *** *** ***** ***** ***** ***** **
957070 ***** 201509092300 200   2 *** 722 CLR * * *  6.2 02 ** ** ** ** ** ** ** 0   51   48 ****** ***** ****** *** *** ***** ***** ***** ***** **
957070 ***** 201509102300 090   2 *** 722 CLR * * *  6.2 02 ** ** ** ** ** ** ** 0   53   49 ****** ***** ****** *** *** ***** *****  0.01 ***** **
957070 ***** 201509112300 130   2 *** *** SCT * * *  6.2 02 ** ** ** ** ** ** ** 0   56   53 ****** ***** ****** *** *** ***** ***** ***** ***** **
957070 ***** 201509132300 050   3 *** *** SCT * * *  9.4 02 ** ** ** ** ** ** ** 0   65   64 ****** ***** ****** *** *** ***** ***** ***** ***** **
957070 ***** 201509142300 250   6 *** *** SCT * * *  6.2 02 ** ** ** ** ** ** ** 0   59   52 ****** ***** ****** *** *** ***** ***** ***** ***** **
957070 ***** 201509152300 360   0 *** 722 CLR * * *  6.2 02 ** ** ** ** ** ** ** 0   58   46 ****** ***** ****** *** *** ***** ***** ***** ***** **
957070 ***** 201509162300 180   6 *** *** SCT * * *  9.4 02 ** ** ** ** ** ** ** 0   57   44 ****** ***** ****** *** *** ***** ***** ***** ***** **
957070 ***** 201509172300 180   2 *** 722 CLR * * *  9.4 02 ** ** ** ** ** ** ** 0   51   42 ****** ***** ****** *** *** ***** ***** ***** ***** **
957070 ***** 201509182300 090   6 *** *** BKN * * *  6.2 02 ** ** ** ** ** ** ** 1   56   46 ****** ***** ****** *** *** ***** ***** ***** ***** **
